"water.alpha","Points:0","Points:1","Points:2"
0.23629,3.81,3.81,0.381
0.204,11.43,3.81,0.381
0.19154,19.05,3.81,0.381
0.18771,26.67,3.81,0.381
0.18146,34.29,3.81,0.381
0.17729,41.91,3.81,0.381
0.1752,49.53,3.81,0.381
0.17262,57.15,3.81,0.381
0.17295,64.77,3.81,0.381
0.068779,72.39,3.81,0.381
1e-12,80.01,3.81,0.381
1e-12,87.63,3.81,0.381
1e-12,95.25,3.81,0.381
1e-12,102.87,3.81,0.381
1e-12,110.49,3.81,0.381
1e-12,118.11,3.81,0.381
1e-12,125.73,3.81,0.381
1e-12,133.35,3.81,0.381
1e-12,140.97,3.81,0.381
1e-12,148.59,3.81,0.381
1e-12,156.21,3.81,0.381
1e-12,163.83,3.81,0.381
1e-12,171.45,3.81,0.381
1e-12,179.07,3.81,0.381
1e-12,186.69,3.81,0.381
1e-12,194.31,3.81,0.381
1e-12,201.93,3.81,0.381
1e-12,209.55,3.81,0.381
1e-12,217.17,3.81,0.381
1e-12,224.79,3.81,0.381
1e-12,232.41,3.81,0.381
1e-12,240.03,3.81,0.381
1e-12,247.65,3.81,0.381
1e-12,255.27,3.81,0.381
1e-12,262.89,3.81,0.381
1e-12,270.51,3.81,0.381
1e-12,278.13,3.81,0.381
1e-12,285.75,3.81,0.381
1e-12,293.37,3.81,0.381
1e-12,300.99,3.81,0.381
1e-12,308.61,3.81,0.381
1e-12,316.23,3.81,0.381
1e-12,323.85,3.81,0.381
1e-12,331.47,3.81,0.381
1e-12,339.09,3.81,0.381
1e-12,346.71,3.81,0.381
1e-12,354.33,3.81,0.381
1e-12,361.95,3.81,0.381
1e-12,369.57,3.81,0.381
1e-12,377.19,3.81,0.381
1e-12,384.81,3.81,0.381
1e-12,392.43,3.81,0.381
1e-12,400.05,3.81,0.381
1e-12,407.67,3.81,0.381
1e-12,415.29,3.81,0.381
1e-12,422.91,3.81,0.381
1e-12,430.53,3.81,0.381
1e-12,438.15,3.81,0.381
1e-12,445.77,3.81,0.381
1e-12,453.39,3.81,0.381
1e-12,461.01,3.81,0.381
1e-12,468.63,3.81,0.381
1e-12,476.25,3.81,0.381
1e-12,483.87,3.81,0.381
1e-12,491.49,3.81,0.381
1e-12,499.11,3.81,0.381
1e-12,506.73,3.81,0.381
1e-12,514.35,3.81,0.381
1e-12,521.97,3.81,0.381
1e-12,529.59,3.81,0.381
1e-12,537.21,3.81,0.381
1e-12,544.83,3.81,0.381
1e-12,552.45,3.81,0.381
1e-12,560.07,3.81,0.381
1e-12,567.69,3.81,0.381
1e-12,575.31,3.81,0.381
1e-12,582.93,3.81,0.381
1e-12,590.55,3.81,0.381
1e-12,598.17,3.81,0.381
1e-12,605.79,3.81,0.381
1e-12,613.41,3.81,0.381
1e-12,621.03,3.81,0.381
1e-12,628.65,3.81,0.381
1e-12,636.27,3.81,0.381
1e-12,643.89,3.81,0.381
1e-12,651.51,3.81,0.381
1e-12,659.13,3.81,0.381
1e-12,666.75,3.81,0.381
1e-12,674.37,3.81,0.381
1e-12,681.99,3.81,0.381
1e-12,689.61,3.81,0.381
1e-12,697.23,3.81,0.381
1e-12,704.85,3.81,0.381
1e-12,712.47,3.81,0.381
1e-12,720.09,3.81,0.381
1e-12,727.71,3.81,0.381
1e-12,735.33,3.81,0.381
1e-12,742.95,3.81,0.381
1e-12,750.57,3.81,0.381
1e-12,758.19,3.81,0.381
0.25204,3.81,3.81,1.143
0,11.43,3.81,1.143
0.11403,19.05,3.81,1.143
0.17697,26.67,3.81,1.143
0,34.29,3.81,1.143
0.16128,41.91,3.81,1.143
0.16751,49.53,3.81,1.143
0.16705,57.15,3.81,1.143
0.17228,64.77,3.81,1.143
0.18455,72.39,3.81,1.143
0.18199,80.01,3.81,1.143
0.021656,87.63,3.81,1.143
1e-12,95.25,3.81,1.143
1e-12,102.87,3.81,1.143
1e-12,110.49,3.81,1.143
1e-12,118.11,3.81,1.143
1e-12,125.73,3.81,1.143
1e-12,133.35,3.81,1.143
1e-12,140.97,3.81,1.143
1e-12,148.59,3.81,1.143
1e-12,156.21,3.81,1.143
1e-12,163.83,3.81,1.143
1e-12,171.45,3.81,1.143
1e-12,179.07,3.81,1.143
1e-12,186.69,3.81,1.143
1e-12,194.31,3.81,1.143
1e-12,201.93,3.81,1.143
1e-12,209.55,3.81,1.143
1e-12,217.17,3.81,1.143
1e-12,224.79,3.81,1.143
1e-12,232.41,3.81,1.143
1e-12,240.03,3.81,1.143
1e-12,247.65,3.81,1.143
1e-12,255.27,3.81,1.143
1e-12,262.89,3.81,1.143
1e-12,270.51,3.81,1.143
1e-12,278.13,3.81,1.143
1e-12,285.75,3.81,1.143
1e-12,293.37,3.81,1.143
1e-12,300.99,3.81,1.143
1e-12,308.61,3.81,1.143
1e-12,316.23,3.81,1.143
1e-12,323.85,3.81,1.143
1e-12,331.47,3.81,1.143
1e-12,339.09,3.81,1.143
1e-12,346.71,3.81,1.143
1e-12,354.33,3.81,1.143
1e-12,361.95,3.81,1.143
1e-12,369.57,3.81,1.143
1e-12,377.19,3.81,1.143
1e-12,384.81,3.81,1.143
1e-12,392.43,3.81,1.143
1e-12,400.05,3.81,1.143
1e-12,407.67,3.81,1.143
1e-12,415.29,3.81,1.143
1e-12,422.91,3.81,1.143
1e-12,430.53,3.81,1.143
1e-12,438.15,3.81,1.143
1e-12,445.77,3.81,1.143
1e-12,453.39,3.81,1.143
1e-12,461.01,3.81,1.143
1e-12,468.63,3.81,1.143
1e-12,476.25,3.81,1.143
1e-12,483.87,3.81,1.143
1e-12,491.49,3.81,1.143
1e-12,499.11,3.81,1.143
1e-12,506.73,3.81,1.143
1e-12,514.35,3.81,1.143
1e-12,521.97,3.81,1.143
1e-12,529.59,3.81,1.143
1e-12,537.21,3.81,1.143
1e-12,544.83,3.81,1.143
1e-12,552.45,3.81,1.143
1e-12,560.07,3.81,1.143
1e-12,567.69,3.81,1.143
1e-12,575.31,3.81,1.143
1e-12,582.93,3.81,1.143
1e-12,590.55,3.81,1.143
1e-12,598.17,3.81,1.143
1e-12,605.79,3.81,1.143
1e-12,613.41,3.81,1.143
1e-12,621.03,3.81,1.143
1e-12,628.65,3.81,1.143
1e-12,636.27,3.81,1.143
1e-12,643.89,3.81,1.143
1e-12,651.51,3.81,1.143
1e-12,659.13,3.81,1.143
1e-12,666.75,3.81,1.143
1e-12,674.37,3.81,1.143
1e-12,681.99,3.81,1.143
1e-12,689.61,3.81,1.143
1e-12,697.23,3.81,1.143
1e-12,704.85,3.81,1.143
1e-12,712.47,3.81,1.143
1e-12,720.09,3.81,1.143
1e-12,727.71,3.81,1.143
1e-12,735.33,3.81,1.143
1e-12,742.95,3.81,1.143
1e-12,750.57,3.81,1.143
1e-12,758.19,3.81,1.143
0.26254,3.81,3.81,1.905
0.21516,11.43,3.81,1.905
0.16909,19.05,3.81,1.905
0.17628,26.67,3.81,1.905
0.1116,34.29,3.81,1.905
0.15934,41.91,3.81,1.905
0.1654,49.53,3.81,1.905
0.1663,57.15,3.81,1.905
0.17106,64.77,3.81,1.905
0.16002,72.39,3.81,1.905
0.15559,80.01,3.81,1.905
0.064137,87.63,3.81,1.905
1e-12,95.25,3.81,1.905
1e-12,102.87,3.81,1.905
1e-12,110.49,3.81,1.905
1e-12,118.11,3.81,1.905
1e-12,125.73,3.81,1.905
1e-12,133.35,3.81,1.905
1e-12,140.97,3.81,1.905
1e-12,148.59,3.81,1.905
1e-12,156.21,3.81,1.905
1e-12,163.83,3.81,1.905
1e-12,171.45,3.81,1.905
1e-12,179.07,3.81,1.905
1e-12,186.69,3.81,1.905
1e-12,194.31,3.81,1.905
1e-12,201.93,3.81,1.905
1e-12,209.55,3.81,1.905
1e-12,217.17,3.81,1.905
1e-12,224.79,3.81,1.905
1e-12,232.41,3.81,1.905
1e-12,240.03,3.81,1.905
1e-12,247.65,3.81,1.905
1e-12,255.27,3.81,1.905
1e-12,262.89,3.81,1.905
1e-12,270.51,3.81,1.905
1e-12,278.13,3.81,1.905
1e-12,285.75,3.81,1.905
1e-12,293.37,3.81,1.905
1e-12,300.99,3.81,1.905
1e-12,308.61,3.81,1.905
1e-12,316.23,3.81,1.905
1e-12,323.85,3.81,1.905
1e-12,331.47,3.81,1.905
1e-12,339.09,3.81,1.905
1e-12,346.71,3.81,1.905
1e-12,354.33,3.81,1.905
1e-12,361.95,3.81,1.905
1e-12,369.57,3.81,1.905
1e-12,377.19,3.81,1.905
1e-12,384.81,3.81,1.905
1e-12,392.43,3.81,1.905
1e-12,400.05,3.81,1.905
1e-12,407.67,3.81,1.905
1e-12,415.29,3.81,1.905
1e-12,422.91,3.81,1.905
1e-12,430.53,3.81,1.905
1e-12,438.15,3.81,1.905
1e-12,445.77,3.81,1.905
1e-12,453.39,3.81,1.905
1e-12,461.01,3.81,1.905
1e-12,468.63,3.81,1.905
1e-12,476.25,3.81,1.905
1e-12,483.87,3.81,1.905
1e-12,491.49,3.81,1.905
1e-12,499.11,3.81,1.905
1e-12,506.73,3.81,1.905
1e-12,514.35,3.81,1.905
1e-12,521.97,3.81,1.905
1e-12,529.59,3.81,1.905
1e-12,537.21,3.81,1.905
1e-12,544.83,3.81,1.905
1e-12,552.45,3.81,1.905
1e-12,560.07,3.81,1.905
1e-12,567.69,3.81,1.905
1e-12,575.31,3.81,1.905
1e-12,582.93,3.81,1.905
1e-12,590.55,3.81,1.905
1e-12,598.17,3.81,1.905
1e-12,605.79,3.81,1.905
1e-12,613.41,3.81,1.905
1e-12,621.03,3.81,1.905
1e-12,628.65,3.81,1.905
1e-12,636.27,3.81,1.905
1e-12,643.89,3.81,1.905
1e-12,651.51,3.81,1.905
1e-12,659.13,3.81,1.905
1e-12,666.75,3.81,1.905
1e-12,674.37,3.81,1.905
1e-12,681.99,3.81,1.905
1e-12,689.61,3.81,1.905
1e-12,697.23,3.81,1.905
1e-12,704.85,3.81,1.905
1e-12,712.47,3.81,1.905
1e-12,720.09,3.81,1.905
1e-12,727.71,3.81,1.905
1e-12,735.33,3.81,1.905
1e-12,742.95,3.81,1.905
1e-12,750.57,3.81,1.905
1e-12,758.19,3.81,1.905
0.2558,3.81,3.81,2.667
0.21523,11.43,3.81,2.667
0.17107,19.05,3.81,2.667
0.17647,26.67,3.81,2.667
0.019555,34.29,3.81,2.667
0.044394,41.91,3.81,2.667
0.16443,49.53,3.81,2.667
0.16644,57.15,3.81,2.667
0.17102,64.77,3.81,2.667
0.023051,72.39,3.81,2.667
0,80.01,3.81,2.667
1e-12,87.63,3.81,2.667
1e-12,95.25,3.81,2.667
1e-12,102.87,3.81,2.667
1e-12,110.49,3.81,2.667
1e-12,118.11,3.81,2.667
1e-12,125.73,3.81,2.667
1e-12,133.35,3.81,2.667
1e-12,140.97,3.81,2.667
1e-12,148.59,3.81,2.667
1e-12,156.21,3.81,2.667
1e-12,163.83,3.81,2.667
1e-12,171.45,3.81,2.667
1e-12,179.07,3.81,2.667
1e-12,186.69,3.81,2.667
1e-12,194.31,3.81,2.667
1e-12,201.93,3.81,2.667
1e-12,209.55,3.81,2.667
1e-12,217.17,3.81,2.667
1e-12,224.79,3.81,2.667
1e-12,232.41,3.81,2.667
1e-12,240.03,3.81,2.667
1e-12,247.65,3.81,2.667
1e-12,255.27,3.81,2.667
1e-12,262.89,3.81,2.667
1e-12,270.51,3.81,2.667
1e-12,278.13,3.81,2.667
1e-12,285.75,3.81,2.667
1e-12,293.37,3.81,2.667
1e-12,300.99,3.81,2.667
1e-12,308.61,3.81,2.667
1e-12,316.23,3.81,2.667
1e-12,323.85,3.81,2.667
1e-12,331.47,3.81,2.667
1e-12,339.09,3.81,2.667
1e-12,346.71,3.81,2.667
1e-12,354.33,3.81,2.667
1e-12,361.95,3.81,2.667
1e-12,369.57,3.81,2.667
1e-12,377.19,3.81,2.667
1e-12,384.81,3.81,2.667
1e-12,392.43,3.81,2.667
1e-12,400.05,3.81,2.667
1e-12,407.67,3.81,2.667
1e-12,415.29,3.81,2.667
1e-12,422.91,3.81,2.667
1e-12,430.53,3.81,2.667
1e-12,438.15,3.81,2.667
1e-12,445.77,3.81,2.667
1e-12,453.39,3.81,2.667
1e-12,461.01,3.81,2.667
1e-12,468.63,3.81,2.667
1e-12,476.25,3.81,2.667
1e-12,483.87,3.81,2.667
1e-12,491.49,3.81,2.667
1e-12,499.11,3.81,2.667
1e-12,506.73,3.81,2.667
1e-12,514.35,3.81,2.667
1e-12,521.97,3.81,2.667
1e-12,529.59,3.81,2.667
1e-12,537.21,3.81,2.667
1e-12,544.83,3.81,2.667
1e-12,552.45,3.81,2.667
1e-12,560.07,3.81,2.667
1e-12,567.69,3.81,2.667
1e-12,575.31,3.81,2.667
1e-12,582.93,3.81,2.667
1e-12,590.55,3.81,2.667
1e-12,598.17,3.81,2.667
1e-12,605.79,3.81,2.667
1e-12,613.41,3.81,2.667
1e-12,621.03,3.81,2.667
1e-12,628.65,3.81,2.667
1e-12,636.27,3.81,2.667
1e-12,643.89,3.81,2.667
1e-12,651.51,3.81,2.667
1e-12,659.13,3.81,2.667
1e-12,666.75,3.81,2.667
1e-12,674.37,3.81,2.667
1e-12,681.99,3.81,2.667
1e-12,689.61,3.81,2.667
1e-12,697.23,3.81,2.667
1e-12,704.85,3.81,2.667
1e-12,712.47,3.81,2.667
1e-12,720.09,3.81,2.667
1e-12,727.71,3.81,2.667
1e-12,735.33,3.81,2.667
1e-12,742.95,3.81,2.667
1e-12,750.57,3.81,2.667
1e-12,758.19,3.81,2.667
0.26503,3.81,3.81,3.429
0.21932,11.43,3.81,3.429
0.1821,19.05,3.81,3.429
0.17855,26.67,3.81,3.429
0.12758,34.29,3.81,3.429
2.4188e-05,41.91,3.81,3.429
0.061557,49.53,3.81,3.429
0.16287,57.15,3.81,3.429
0.16937,64.77,3.81,3.429
0.19194,72.39,3.81,3.429
0.016516,80.01,3.81,3.429
1e-12,87.63,3.81,3.429
1e-12,95.25,3.81,3.429
1e-12,102.87,3.81,3.429
1e-12,110.49,3.81,3.429
1e-12,118.11,3.81,3.429
1e-12,125.73,3.81,3.429
1e-12,133.35,3.81,3.429
1e-12,140.97,3.81,3.429
1e-12,148.59,3.81,3.429
1e-12,156.21,3.81,3.429
1e-12,163.83,3.81,3.429
1e-12,171.45,3.81,3.429
1e-12,179.07,3.81,3.429
1e-12,186.69,3.81,3.429
1e-12,194.31,3.81,3.429
1e-12,201.93,3.81,3.429
1e-12,209.55,3.81,3.429
1e-12,217.17,3.81,3.429
1e-12,224.79,3.81,3.429
1e-12,232.41,3.81,3.429
1e-12,240.03,3.81,3.429
1e-12,247.65,3.81,3.429
1e-12,255.27,3.81,3.429
1e-12,262.89,3.81,3.429
1e-12,270.51,3.81,3.429
1e-12,278.13,3.81,3.429
1e-12,285.75,3.81,3.429
1e-12,293.37,3.81,3.429
1e-12,300.99,3.81,3.429
1e-12,308.61,3.81,3.429
1e-12,316.23,3.81,3.429
1e-12,323.85,3.81,3.429
1e-12,331.47,3.81,3.429
1e-12,339.09,3.81,3.429
1e-12,346.71,3.81,3.429
1e-12,354.33,3.81,3.429
1e-12,361.95,3.81,3.429
1e-12,369.57,3.81,3.429
1e-12,377.19,3.81,3.429
1e-12,384.81,3.81,3.429
1e-12,392.43,3.81,3.429
1e-12,400.05,3.81,3.429
1e-12,407.67,3.81,3.429
1e-12,415.29,3.81,3.429
1e-12,422.91,3.81,3.429
1e-12,430.53,3.81,3.429
1e-12,438.15,3.81,3.429
1e-12,445.77,3.81,3.429
1e-12,453.39,3.81,3.429
1e-12,461.01,3.81,3.429
1e-12,468.63,3.81,3.429
1e-12,476.25,3.81,3.429
1e-12,483.87,3.81,3.429
1e-12,491.49,3.81,3.429
1e-12,499.11,3.81,3.429
1e-12,506.73,3.81,3.429
1e-12,514.35,3.81,3.429
1e-12,521.97,3.81,3.429
1e-12,529.59,3.81,3.429
1e-12,537.21,3.81,3.429
1e-12,544.83,3.81,3.429
1e-12,552.45,3.81,3.429
1e-12,560.07,3.81,3.429
1e-12,567.69,3.81,3.429
1e-12,575.31,3.81,3.429
1e-12,582.93,3.81,3.429
1e-12,590.55,3.81,3.429
1e-12,598.17,3.81,3.429
1e-12,605.79,3.81,3.429
1e-12,613.41,3.81,3.429
1e-12,621.03,3.81,3.429
1e-12,628.65,3.81,3.429
1e-12,636.27,3.81,3.429
1e-12,643.89,3.81,3.429
1e-12,651.51,3.81,3.429
1e-12,659.13,3.81,3.429
1e-12,666.75,3.81,3.429
1e-12,674.37,3.81,3.429
1e-12,681.99,3.81,3.429
1e-12,689.61,3.81,3.429
1e-12,697.23,3.81,3.429
1e-12,704.85,3.81,3.429
1e-12,712.47,3.81,3.429
1e-12,720.09,3.81,3.429
1e-12,727.71,3.81,3.429
1e-12,735.33,3.81,3.429
1e-12,742.95,3.81,3.429
1e-12,750.57,3.81,3.429
1e-12,758.19,3.81,3.429
0.26954,3.81,3.81,4.191
0.22435,11.43,3.81,4.191
0.18984,19.05,3.81,4.191
0.17967,26.67,3.81,4.191
0.15419,34.29,3.81,4.191
0.0013096,41.91,3.81,4.191
1e-12,49.53,3.81,4.191
0.088469,57.15,3.81,4.191
0.16505,64.77,3.81,4.191
0.040475,72.39,3.81,4.191
1e-12,80.01,3.81,4.191
1e-12,87.63,3.81,4.191
1e-12,95.25,3.81,4.191
1e-12,102.87,3.81,4.191
1e-12,110.49,3.81,4.191
1e-12,118.11,3.81,4.191
1e-12,125.73,3.81,4.191
1e-12,133.35,3.81,4.191
1e-12,140.97,3.81,4.191
1e-12,148.59,3.81,4.191
1e-12,156.21,3.81,4.191
1e-12,163.83,3.81,4.191
1e-12,171.45,3.81,4.191
1e-12,179.07,3.81,4.191
1e-12,186.69,3.81,4.191
1e-12,194.31,3.81,4.191
1e-12,201.93,3.81,4.191
1e-12,209.55,3.81,4.191
1e-12,217.17,3.81,4.191
1e-12,224.79,3.81,4.191
1e-12,232.41,3.81,4.191
1e-12,240.03,3.81,4.191
1e-12,247.65,3.81,4.191
1e-12,255.27,3.81,4.191
1e-12,262.89,3.81,4.191
1e-12,270.51,3.81,4.191
1e-12,278.13,3.81,4.191
1e-12,285.75,3.81,4.191
1e-12,293.37,3.81,4.191
1e-12,300.99,3.81,4.191
1e-12,308.61,3.81,4.191
1e-12,316.23,3.81,4.191
1e-12,323.85,3.81,4.191
1e-12,331.47,3.81,4.191
1e-12,339.09,3.81,4.191
1e-12,346.71,3.81,4.191
1e-12,354.33,3.81,4.191
1e-12,361.95,3.81,4.191
1e-12,369.57,3.81,4.191
1e-12,377.19,3.81,4.191
1e-12,384.81,3.81,4.191
1e-12,392.43,3.81,4.191
1e-12,400.05,3.81,4.191
1e-12,407.67,3.81,4.191
1e-12,415.29,3.81,4.191
1e-12,422.91,3.81,4.191
1e-12,430.53,3.81,4.191
1e-12,438.15,3.81,4.191
1e-12,445.77,3.81,4.191
1e-12,453.39,3.81,4.191
1e-12,461.01,3.81,4.191
1e-12,468.63,3.81,4.191
1e-12,476.25,3.81,4.191
1e-12,483.87,3.81,4.191
1e-12,491.49,3.81,4.191
1e-12,499.11,3.81,4.191
1e-12,506.73,3.81,4.191
1e-12,514.35,3.81,4.191
1e-12,521.97,3.81,4.191
1e-12,529.59,3.81,4.191
1e-12,537.21,3.81,4.191
1e-12,544.83,3.81,4.191
1e-12,552.45,3.81,4.191
1e-12,560.07,3.81,4.191
1e-12,567.69,3.81,4.191
1e-12,575.31,3.81,4.191
1e-12,582.93,3.81,4.191
1e-12,590.55,3.81,4.191
1e-12,598.17,3.81,4.191
1e-12,605.79,3.81,4.191
1e-12,613.41,3.81,4.191
1e-12,621.03,3.81,4.191
1e-12,628.65,3.81,4.191
1e-12,636.27,3.81,4.191
1e-12,643.89,3.81,4.191
1e-12,651.51,3.81,4.191
1e-12,659.13,3.81,4.191
1e-12,666.75,3.81,4.191
1e-12,674.37,3.81,4.191
1e-12,681.99,3.81,4.191
1e-12,689.61,3.81,4.191
1e-12,697.23,3.81,4.191
1e-12,704.85,3.81,4.191
1e-12,712.47,3.81,4.191
1e-12,720.09,3.81,4.191
1e-12,727.71,3.81,4.191
1e-12,735.33,3.81,4.191
1e-12,742.95,3.81,4.191
1e-12,750.57,3.81,4.191
1e-12,758.19,3.81,4.191
0.29601,3.81,3.81,4.953
0.26771,11.43,3.81,4.953
0.23577,19.05,3.81,4.953
0.19582,26.67,3.81,4.953
0.00462,34.29,3.81,4.953
1e-12,41.91,3.81,4.953
1e-12,49.53,3.81,4.953
1e-12,57.15,3.81,4.953
0.15864,64.77,3.81,4.953
2.0826e-05,72.39,3.81,4.953
1e-12,80.01,3.81,4.953
1e-12,87.63,3.81,4.953
1e-12,95.25,3.81,4.953
1e-12,102.87,3.81,4.953
1e-12,110.49,3.81,4.953
1e-12,118.11,3.81,4.953
1e-12,125.73,3.81,4.953
1e-12,133.35,3.81,4.953
1e-12,140.97,3.81,4.953
1e-12,148.59,3.81,4.953
1e-12,156.21,3.81,4.953
1e-12,163.83,3.81,4.953
1e-12,171.45,3.81,4.953
1e-12,179.07,3.81,4.953
1e-12,186.69,3.81,4.953
1e-12,194.31,3.81,4.953
1e-12,201.93,3.81,4.953
1e-12,209.55,3.81,4.953
1e-12,217.17,3.81,4.953
1e-12,224.79,3.81,4.953
1e-12,232.41,3.81,4.953
1e-12,240.03,3.81,4.953
1e-12,247.65,3.81,4.953
1e-12,255.27,3.81,4.953
1e-12,262.89,3.81,4.953
1e-12,270.51,3.81,4.953
1e-12,278.13,3.81,4.953
1e-12,285.75,3.81,4.953
1e-12,293.37,3.81,4.953
1e-12,300.99,3.81,4.953
1e-12,308.61,3.81,4.953
1e-12,316.23,3.81,4.953
1e-12,323.85,3.81,4.953
1e-12,331.47,3.81,4.953
1e-12,339.09,3.81,4.953
1e-12,346.71,3.81,4.953
1e-12,354.33,3.81,4.953
1e-12,361.95,3.81,4.953
1e-12,369.57,3.81,4.953
1e-12,377.19,3.81,4.953
1e-12,384.81,3.81,4.953
1e-12,392.43,3.81,4.953
1e-12,400.05,3.81,4.953
1e-12,407.67,3.81,4.953
1e-12,415.29,3.81,4.953
1e-12,422.91,3.81,4.953
1e-12,430.53,3.81,4.953
1e-12,438.15,3.81,4.953
1e-12,445.77,3.81,4.953
1e-12,453.39,3.81,4.953
1e-12,461.01,3.81,4.953
1e-12,468.63,3.81,4.953
1e-12,476.25,3.81,4.953
1e-12,483.87,3.81,4.953
1e-12,491.49,3.81,4.953
1e-12,499.11,3.81,4.953
1e-12,506.73,3.81,4.953
1e-12,514.35,3.81,4.953
1e-12,521.97,3.81,4.953
1e-12,529.59,3.81,4.953
1e-12,537.21,3.81,4.953
1e-12,544.83,3.81,4.953
1e-12,552.45,3.81,4.953
1e-12,560.07,3.81,4.953
1e-12,567.69,3.81,4.953
1e-12,575.31,3.81,4.953
1e-12,582.93,3.81,4.953
1e-12,590.55,3.81,4.953
1e-12,598.17,3.81,4.953
1e-12,605.79,3.81,4.953
1e-12,613.41,3.81,4.953
1e-12,621.03,3.81,4.953
1e-12,628.65,3.81,4.953
1e-12,636.27,3.81,4.953
1e-12,643.89,3.81,4.953
1e-12,651.51,3.81,4.953
1e-12,659.13,3.81,4.953
1e-12,666.75,3.81,4.953
1e-12,674.37,3.81,4.953
1e-12,681.99,3.81,4.953
1e-12,689.61,3.81,4.953
1e-12,697.23,3.81,4.953
1e-12,704.85,3.81,4.953
1e-12,712.47,3.81,4.953
1e-12,720.09,3.81,4.953
1e-12,727.71,3.81,4.953
1e-12,735.33,3.81,4.953
1e-12,742.95,3.81,4.953
1e-12,750.57,3.81,4.953
1e-12,758.19,3.81,4.953
0.28913,3.81,3.81,5.715
0.27452,11.43,3.81,5.715
0.26655,19.05,3.81,5.715
0.2548,26.67,3.81,5.715
0.2487,34.29,3.81,5.715
0.24668,41.91,3.81,5.715
0.23867,49.53,3.81,5.715
0.22755,57.15,3.81,5.715
0.21804,64.77,3.81,5.715
0.22482,72.39,3.81,5.715
0.23477,80.01,3.81,5.715
0.24723,87.63,3.81,5.715
0.25264,95.25,3.81,5.715
0.24311,102.87,3.81,5.715
0.23782,110.49,3.81,5.715
0.24342,118.11,3.81,5.715
0.24881,125.73,3.81,5.715
0.24271,133.35,3.81,5.715
0.24076,140.97,3.81,5.715
0.23224,148.59,3.81,5.715
0.21757,156.21,3.81,5.715
0.18821,163.83,3.81,5.715
0.16688,171.45,3.81,5.715
0.1436,179.07,3.81,5.715
0.0090808,186.69,3.81,5.715
1e-12,194.31,3.81,5.715
1e-12,201.93,3.81,5.715
1e-12,209.55,3.81,5.715
1e-12,217.17,3.81,5.715
1e-12,224.79,3.81,5.715
1e-12,232.41,3.81,5.715
1e-12,240.03,3.81,5.715
1e-12,247.65,3.81,5.715
1e-12,255.27,3.81,5.715
1e-12,262.89,3.81,5.715
1e-12,270.51,3.81,5.715
1e-12,278.13,3.81,5.715
1e-12,285.75,3.81,5.715
1e-12,293.37,3.81,5.715
1e-12,300.99,3.81,5.715
1e-12,308.61,3.81,5.715
1e-12,316.23,3.81,5.715
1e-12,323.85,3.81,5.715
1e-12,331.47,3.81,5.715
1e-12,339.09,3.81,5.715
1e-12,346.71,3.81,5.715
1e-12,354.33,3.81,5.715
1e-12,361.95,3.81,5.715
1e-12,369.57,3.81,5.715
1e-12,377.19,3.81,5.715
1e-12,384.81,3.81,5.715
1e-12,392.43,3.81,5.715
1e-12,400.05,3.81,5.715
1e-12,407.67,3.81,5.715
1e-12,415.29,3.81,5.715
1e-12,422.91,3.81,5.715
1e-12,430.53,3.81,5.715
1e-12,438.15,3.81,5.715
1e-12,445.77,3.81,5.715
1e-12,453.39,3.81,5.715
1e-12,461.01,3.81,5.715
1e-12,468.63,3.81,5.715
1e-12,476.25,3.81,5.715
1e-12,483.87,3.81,5.715
1e-12,491.49,3.81,5.715
1e-12,499.11,3.81,5.715
1e-12,506.73,3.81,5.715
1e-12,514.35,3.81,5.715
1e-12,521.97,3.81,5.715
1e-12,529.59,3.81,5.715
1e-12,537.21,3.81,5.715
1e-12,544.83,3.81,5.715
1e-12,552.45,3.81,5.715
1e-12,560.07,3.81,5.715
1e-12,567.69,3.81,5.715
1e-12,575.31,3.81,5.715
1e-12,582.93,3.81,5.715
1e-12,590.55,3.81,5.715
1e-12,598.17,3.81,5.715
1e-12,605.79,3.81,5.715
1e-12,613.41,3.81,5.715
1e-12,621.03,3.81,5.715
1e-12,628.65,3.81,5.715
1e-12,636.27,3.81,5.715
1e-12,643.89,3.81,5.715
1e-12,651.51,3.81,5.715
1e-12,659.13,3.81,5.715
1e-12,666.75,3.81,5.715
1e-12,674.37,3.81,5.715
1e-12,681.99,3.81,5.715
1e-12,689.61,3.81,5.715
1e-12,697.23,3.81,5.715
1e-12,704.85,3.81,5.715
1e-12,712.47,3.81,5.715
1e-12,720.09,3.81,5.715
1e-12,727.71,3.81,5.715
1e-12,735.33,3.81,5.715
1e-12,742.95,3.81,5.715
1e-12,750.57,3.81,5.715
1e-12,758.19,3.81,5.715
0.23438,3.81,3.81,6.477
0.16036,11.43,3.81,6.477
0.15159,19.05,3.81,6.477
0.20292,26.67,3.81,6.477
0.15244,34.29,3.81,6.477
0.20424,41.91,3.81,6.477
0.19485,49.53,3.81,6.477
0.18181,57.15,3.81,6.477
0.17157,64.77,3.81,6.477
0,72.39,3.81,6.477
0.18854,80.01,3.81,6.477
0,87.63,3.81,6.477
0.13539,95.25,3.81,6.477
0.16504,102.87,3.81,6.477
0.14371,110.49,3.81,6.477
0.13697,118.11,3.81,6.477
0.14299,125.73,3.81,6.477
0.14641,133.35,3.81,6.477
0.21127,140.97,3.81,6.477
0.22792,148.59,3.81,6.477
0.21855,156.21,3.81,6.477
0.19583,163.83,3.81,6.477
0.17369,171.45,3.81,6.477
0.15208,179.07,3.81,6.477
0.055917,186.69,3.81,6.477
1e-12,194.31,3.81,6.477
1e-12,201.93,3.81,6.477
1e-12,209.55,3.81,6.477
1e-12,217.17,3.81,6.477
1e-12,224.79,3.81,6.477
1e-12,232.41,3.81,6.477
1e-12,240.03,3.81,6.477
1e-12,247.65,3.81,6.477
1e-12,255.27,3.81,6.477
1e-12,262.89,3.81,6.477
1e-12,270.51,3.81,6.477
1e-12,278.13,3.81,6.477
1e-12,285.75,3.81,6.477
1e-12,293.37,3.81,6.477
1e-12,300.99,3.81,6.477
1e-12,308.61,3.81,6.477
1e-12,316.23,3.81,6.477
1e-12,323.85,3.81,6.477
1e-12,331.47,3.81,6.477
1e-12,339.09,3.81,6.477
1e-12,346.71,3.81,6.477
1e-12,354.33,3.81,6.477
1e-12,361.95,3.81,6.477
1e-12,369.57,3.81,6.477
1e-12,377.19,3.81,6.477
1e-12,384.81,3.81,6.477
1e-12,392.43,3.81,6.477
1e-12,400.05,3.81,6.477
1e-12,407.67,3.81,6.477
1e-12,415.29,3.81,6.477
1e-12,422.91,3.81,6.477
1e-12,430.53,3.81,6.477
1e-12,438.15,3.81,6.477
1e-12,445.77,3.81,6.477
1e-12,453.39,3.81,6.477
1e-12,461.01,3.81,6.477
1e-12,468.63,3.81,6.477
1e-12,476.25,3.81,6.477
1e-12,483.87,3.81,6.477
1e-12,491.49,3.81,6.477
1e-12,499.11,3.81,6.477
1e-12,506.73,3.81,6.477
1e-12,514.35,3.81,6.477
1e-12,521.97,3.81,6.477
1e-12,529.59,3.81,6.477
1e-12,537.21,3.81,6.477
1e-12,544.83,3.81,6.477
1e-12,552.45,3.81,6.477
1e-12,560.07,3.81,6.477
1e-12,567.69,3.81,6.477
1e-12,575.31,3.81,6.477
1e-12,582.93,3.81,6.477
1e-12,590.55,3.81,6.477
1e-12,598.17,3.81,6.477
1e-12,605.79,3.81,6.477
1e-12,613.41,3.81,6.477
1e-12,621.03,3.81,6.477
1e-12,628.65,3.81,6.477
1e-12,636.27,3.81,6.477
1e-12,643.89,3.81,6.477
1e-12,651.51,3.81,6.477
1e-12,659.13,3.81,6.477
1e-12,666.75,3.81,6.477
1e-12,674.37,3.81,6.477
1e-12,681.99,3.81,6.477
1e-12,689.61,3.81,6.477
1e-12,697.23,3.81,6.477
1e-12,704.85,3.81,6.477
1e-12,712.47,3.81,6.477
1e-12,720.09,3.81,6.477
1e-12,727.71,3.81,6.477
1e-12,735.33,3.81,6.477
1e-12,742.95,3.81,6.477
1e-12,750.57,3.81,6.477
1e-12,758.19,3.81,6.477
0.26751,3.81,3.81,7.239
0.17086,11.43,3.81,7.239
0.15099,19.05,3.81,7.239
0.20533,26.67,3.81,7.239
0.16273,34.29,3.81,7.239
0.20477,41.91,3.81,7.239
0.19693,49.53,3.81,7.239
0.18649,57.15,3.81,7.239
0.18953,64.77,3.81,7.239
0.10087,72.39,3.81,7.239
0.18701,80.01,3.81,7.239
0.0072186,87.63,3.81,7.239
0.02886,95.25,3.81,7.239
0.16477,102.87,3.81,7.239
0.05964,110.49,3.81,7.239
0.14394,118.11,3.81,7.239
0.147,125.73,3.81,7.239
0.14883,133.35,3.81,7.239
0.21654,140.97,3.81,7.239
0.22859,148.59,3.81,7.239
0.22008,156.21,3.81,7.239
0.19631,163.83,3.81,7.239
0.17559,171.45,3.81,7.239
0.15624,179.07,3.81,7.239
0.067498,186.69,3.81,7.239
1e-12,194.31,3.81,7.239
1e-12,201.93,3.81,7.239
1e-12,209.55,3.81,7.239
1e-12,217.17,3.81,7.239
1e-12,224.79,3.81,7.239
1e-12,232.41,3.81,7.239
1e-12,240.03,3.81,7.239
1e-12,247.65,3.81,7.239
1e-12,255.27,3.81,7.239
1e-12,262.89,3.81,7.239
1e-12,270.51,3.81,7.239
1e-12,278.13,3.81,7.239
1e-12,285.75,3.81,7.239
1e-12,293.37,3.81,7.239
1e-12,300.99,3.81,7.239
1e-12,308.61,3.81,7.239
1e-12,316.23,3.81,7.239
1e-12,323.85,3.81,7.239
1e-12,331.47,3.81,7.239
1e-12,339.09,3.81,7.239
1e-12,346.71,3.81,7.239
1e-12,354.33,3.81,7.239
1e-12,361.95,3.81,7.239
1e-12,369.57,3.81,7.239
1e-12,377.19,3.81,7.239
1e-12,384.81,3.81,7.239
1e-12,392.43,3.81,7.239
1e-12,400.05,3.81,7.239
1e-12,407.67,3.81,7.239
1e-12,415.29,3.81,7.239
1e-12,422.91,3.81,7.239
1e-12,430.53,3.81,7.239
1e-12,438.15,3.81,7.239
1e-12,445.77,3.81,7.239
1e-12,453.39,3.81,7.239
1e-12,461.01,3.81,7.239
1e-12,468.63,3.81,7.239
1e-12,476.25,3.81,7.239
1e-12,483.87,3.81,7.239
1e-12,491.49,3.81,7.239
1e-12,499.11,3.81,7.239
1e-12,506.73,3.81,7.239
1e-12,514.35,3.81,7.239
1e-12,521.97,3.81,7.239
1e-12,529.59,3.81,7.239
1e-12,537.21,3.81,7.239
1e-12,544.83,3.81,7.239
1e-12,552.45,3.81,7.239
1e-12,560.07,3.81,7.239
1e-12,567.69,3.81,7.239
1e-12,575.31,3.81,7.239
1e-12,582.93,3.81,7.239
1e-12,590.55,3.81,7.239
1e-12,598.17,3.81,7.239
1e-12,605.79,3.81,7.239
1e-12,613.41,3.81,7.239
1e-12,621.03,3.81,7.239
1e-12,628.65,3.81,7.239
1e-12,636.27,3.81,7.239
1e-12,643.89,3.81,7.239
1e-12,651.51,3.81,7.239
1e-12,659.13,3.81,7.239
1e-12,666.75,3.81,7.239
1e-12,674.37,3.81,7.239
1e-12,681.99,3.81,7.239
1e-12,689.61,3.81,7.239
1e-12,697.23,3.81,7.239
1e-12,704.85,3.81,7.239
1e-12,712.47,3.81,7.239
1e-12,720.09,3.81,7.239
1e-12,727.71,3.81,7.239
1e-12,735.33,3.81,7.239
1e-12,742.95,3.81,7.239
1e-12,750.57,3.81,7.239
1e-12,758.19,3.81,7.239
0.28117,3.81,3.81,8.001
0.22195,11.43,3.81,8.001
0.18928,19.05,3.81,8.001
0.19985,26.67,3.81,8.001
0.18424,34.29,3.81,8.001
0.20141,41.91,3.81,8.001
0.19805,49.53,3.81,8.001
0.19308,57.15,3.81,8.001
0.18748,64.77,3.81,8.001
0.1909,72.39,3.81,8.001
0.18875,80.01,3.81,8.001
0.19605,87.63,3.81,8.001
0.00457,95.25,3.81,8.001
0.16804,102.87,3.81,8.001
0.0020329,110.49,3.81,8.001
0.047789,118.11,3.81,8.001
0.13481,125.73,3.81,8.001
0.14754,133.35,3.81,8.001
0.20152,140.97,3.81,8.001
0.22475,148.59,3.81,8.001
0.22203,156.21,3.81,8.001
0.20958,163.83,3.81,8.001
0.19844,171.45,3.81,8.001
0.18059,179.07,3.81,8.001
0.17391,186.69,3.81,8.001
0.17032,194.31,3.81,8.001
0.16961,201.93,3.81,8.001
0.1739,209.55,3.81,8.001
0.061098,217.17,3.81,8.001
1e-12,224.79,3.81,8.001
1e-12,232.41,3.81,8.001
1e-12,240.03,3.81,8.001
1e-12,247.65,3.81,8.001
1e-12,255.27,3.81,8.001
1e-12,262.89,3.81,8.001
1e-12,270.51,3.81,8.001
1e-12,278.13,3.81,8.001
1e-12,285.75,3.81,8.001
1e-12,293.37,3.81,8.001
1e-12,300.99,3.81,8.001
1e-12,308.61,3.81,8.001
1e-12,316.23,3.81,8.001
1e-12,323.85,3.81,8.001
1e-12,331.47,3.81,8.001
1e-12,339.09,3.81,8.001
1e-12,346.71,3.81,8.001
1e-12,354.33,3.81,8.001
1e-12,361.95,3.81,8.001
1e-12,369.57,3.81,8.001
1e-12,377.19,3.81,8.001
1e-12,384.81,3.81,8.001
1e-12,392.43,3.81,8.001
1e-12,400.05,3.81,8.001
1e-12,407.67,3.81,8.001
1e-12,415.29,3.81,8.001
1e-12,422.91,3.81,8.001
1e-12,430.53,3.81,8.001
1e-12,438.15,3.81,8.001
1e-12,445.77,3.81,8.001
1e-12,453.39,3.81,8.001
1e-12,461.01,3.81,8.001
1e-12,468.63,3.81,8.001
1e-12,476.25,3.81,8.001
1e-12,483.87,3.81,8.001
1e-12,491.49,3.81,8.001
1e-12,499.11,3.81,8.001
1e-12,506.73,3.81,8.001
1e-12,514.35,3.81,8.001
1e-12,521.97,3.81,8.001
1e-12,529.59,3.81,8.001
1e-12,537.21,3.81,8.001
1e-12,544.83,3.81,8.001
1e-12,552.45,3.81,8.001
1e-12,560.07,3.81,8.001
1e-12,567.69,3.81,8.001
1e-12,575.31,3.81,8.001
1e-12,582.93,3.81,8.001
1e-12,590.55,3.81,8.001
1e-12,598.17,3.81,8.001
1e-12,605.79,3.81,8.001
1e-12,613.41,3.81,8.001
1e-12,621.03,3.81,8.001
1e-12,628.65,3.81,8.001
1e-12,636.27,3.81,8.001
1e-12,643.89,3.81,8.001
1e-12,651.51,3.81,8.001
1e-12,659.13,3.81,8.001
1e-12,666.75,3.81,8.001
1e-12,674.37,3.81,8.001
1e-12,681.99,3.81,8.001
1e-12,689.61,3.81,8.001
1e-12,697.23,3.81,8.001
1e-12,704.85,3.81,8.001
1e-12,712.47,3.81,8.001
1e-12,720.09,3.81,8.001
1e-12,727.71,3.81,8.001
1e-12,735.33,3.81,8.001
1e-12,742.95,3.81,8.001
1e-12,750.57,3.81,8.001
1e-12,758.19,3.81,8.001
0.28848,3.81,3.81,8.763
0.21852,11.43,3.81,8.763
0.18493,19.05,3.81,8.763
0.19665,26.67,3.81,8.763
0.18323,34.29,3.81,8.763
0.20044,41.91,3.81,8.763
0.19458,49.53,3.81,8.763
0.18693,57.15,3.81,8.763
2.3986e-08,64.77,3.81,8.763
0,72.39,3.81,8.763
0.18788,80.01,3.81,8.763
0.26532,87.63,3.81,8.763
0.23454,95.25,3.81,8.763
0.21161,102.87,3.81,8.763
0.19241,110.49,3.81,8.763
0.063086,118.11,3.81,8.763
0.00075485,125.73,3.81,8.763
0,133.35,3.81,8.763
0.18484,140.97,3.81,8.763
0.2223,148.59,3.81,8.763
0.22257,156.21,3.81,8.763
0.21395,163.83,3.81,8.763
0.20292,171.45,3.81,8.763
0.18586,179.07,3.81,8.763
0.17243,186.69,3.81,8.763
0.17006,194.31,3.81,8.763
0.16775,201.93,3.81,8.763
0.17293,209.55,3.81,8.763
0.072603,217.17,3.81,8.763
1e-12,224.79,3.81,8.763
1e-12,232.41,3.81,8.763
1e-12,240.03,3.81,8.763
1e-12,247.65,3.81,8.763
1e-12,255.27,3.81,8.763
1e-12,262.89,3.81,8.763
1e-12,270.51,3.81,8.763
1e-12,278.13,3.81,8.763
1e-12,285.75,3.81,8.763
1e-12,293.37,3.81,8.763
1e-12,300.99,3.81,8.763
1e-12,308.61,3.81,8.763
1e-12,316.23,3.81,8.763
1e-12,323.85,3.81,8.763
1e-12,331.47,3.81,8.763
1e-12,339.09,3.81,8.763
1e-12,346.71,3.81,8.763
1e-12,354.33,3.81,8.763
1e-12,361.95,3.81,8.763
1e-12,369.57,3.81,8.763
1e-12,377.19,3.81,8.763
1e-12,384.81,3.81,8.763
1e-12,392.43,3.81,8.763
1e-12,400.05,3.81,8.763
1e-12,407.67,3.81,8.763
1e-12,415.29,3.81,8.763
1e-12,422.91,3.81,8.763
1e-12,430.53,3.81,8.763
1e-12,438.15,3.81,8.763
1e-12,445.77,3.81,8.763
1e-12,453.39,3.81,8.763
1e-12,461.01,3.81,8.763
1e-12,468.63,3.81,8.763
1e-12,476.25,3.81,8.763
1e-12,483.87,3.81,8.763
1e-12,491.49,3.81,8.763
1e-12,499.11,3.81,8.763
1e-12,506.73,3.81,8.763
1e-12,514.35,3.81,8.763
1e-12,521.97,3.81,8.763
1e-12,529.59,3.81,8.763
1e-12,537.21,3.81,8.763
1e-12,544.83,3.81,8.763
1e-12,552.45,3.81,8.763
1e-12,560.07,3.81,8.763
1e-12,567.69,3.81,8.763
1e-12,575.31,3.81,8.763
1e-12,582.93,3.81,8.763
1e-12,590.55,3.81,8.763
1e-12,598.17,3.81,8.763
1e-12,605.79,3.81,8.763
1e-12,613.41,3.81,8.763
1e-12,621.03,3.81,8.763
1e-12,628.65,3.81,8.763
1e-12,636.27,3.81,8.763
1e-12,643.89,3.81,8.763
1e-12,651.51,3.81,8.763
1e-12,659.13,3.81,8.763
1e-12,666.75,3.81,8.763
1e-12,674.37,3.81,8.763
1e-12,681.99,3.81,8.763
1e-12,689.61,3.81,8.763
1e-12,697.23,3.81,8.763
1e-12,704.85,3.81,8.763
1e-12,712.47,3.81,8.763
1e-12,720.09,3.81,8.763
1e-12,727.71,3.81,8.763
1e-12,735.33,3.81,8.763
1e-12,742.95,3.81,8.763
1e-12,750.57,3.81,8.763
1e-12,758.19,3.81,8.763
0.29918,3.81,3.81,9.525
0.23829,11.43,3.81,9.525
0.19725,19.05,3.81,9.525
0.1993,26.67,3.81,9.525
0.1896,34.29,3.81,9.525
0.20285,41.91,3.81,9.525
0.20307,49.53,3.81,9.525
0.19305,57.15,3.81,9.525
0.31605,64.77,3.81,9.525
0.32848,72.39,3.81,9.525
0.23903,80.01,3.81,9.525
0.30181,87.63,3.81,9.525
0.31734,95.25,3.81,9.525
0.25802,102.87,3.81,9.525
0.26054,110.49,3.81,9.525
0.0548,118.11,3.81,9.525
1e-12,125.73,3.81,9.525
1e-12,133.35,3.81,9.525
0.22856,140.97,3.81,9.525
0.22979,148.59,3.81,9.525
0.22871,156.21,3.81,9.525
0.22551,163.83,3.81,9.525
0.21729,171.45,3.81,9.525
0.20677,179.07,3.81,9.525
0.20177,186.69,3.81,9.525
0.19222,194.31,3.81,9.525
0.18902,201.93,3.81,9.525
0.18316,209.55,3.81,9.525
0.004792,217.17,3.81,9.525
1e-12,224.79,3.81,9.525
1e-12,232.41,3.81,9.525
1e-12,240.03,3.81,9.525
1e-12,247.65,3.81,9.525
1e-12,255.27,3.81,9.525
1e-12,262.89,3.81,9.525
1e-12,270.51,3.81,9.525
1e-12,278.13,3.81,9.525
1e-12,285.75,3.81,9.525
1e-12,293.37,3.81,9.525
1e-12,300.99,3.81,9.525
1e-12,308.61,3.81,9.525
1e-12,316.23,3.81,9.525
1e-12,323.85,3.81,9.525
1e-12,331.47,3.81,9.525
1e-12,339.09,3.81,9.525
1e-12,346.71,3.81,9.525
1e-12,354.33,3.81,9.525
1e-12,361.95,3.81,9.525
1e-12,369.57,3.81,9.525
1e-12,377.19,3.81,9.525
1e-12,384.81,3.81,9.525
1e-12,392.43,3.81,9.525
1e-12,400.05,3.81,9.525
1e-12,407.67,3.81,9.525
1e-12,415.29,3.81,9.525
1e-12,422.91,3.81,9.525
1e-12,430.53,3.81,9.525
1e-12,438.15,3.81,9.525
1e-12,445.77,3.81,9.525
1e-12,453.39,3.81,9.525
1e-12,461.01,3.81,9.525
1e-12,468.63,3.81,9.525
1e-12,476.25,3.81,9.525
1e-12,483.87,3.81,9.525
1e-12,491.49,3.81,9.525
1e-12,499.11,3.81,9.525
1e-12,506.73,3.81,9.525
1e-12,514.35,3.81,9.525
1e-12,521.97,3.81,9.525
1e-12,529.59,3.81,9.525
1e-12,537.21,3.81,9.525
1e-12,544.83,3.81,9.525
1e-12,552.45,3.81,9.525
1e-12,560.07,3.81,9.525
1e-12,567.69,3.81,9.525
1e-12,575.31,3.81,9.525
1e-12,582.93,3.81,9.525
1e-12,590.55,3.81,9.525
1e-12,598.17,3.81,9.525
1e-12,605.79,3.81,9.525
1e-12,613.41,3.81,9.525
1e-12,621.03,3.81,9.525
1e-12,628.65,3.81,9.525
1e-12,636.27,3.81,9.525
1e-12,643.89,3.81,9.525
1e-12,651.51,3.81,9.525
1e-12,659.13,3.81,9.525
1e-12,666.75,3.81,9.525
1e-12,674.37,3.81,9.525
1e-12,681.99,3.81,9.525
1e-12,689.61,3.81,9.525
1e-12,697.23,3.81,9.525
1e-12,704.85,3.81,9.525
1e-12,712.47,3.81,9.525
1e-12,720.09,3.81,9.525
1e-12,727.71,3.81,9.525
1e-12,735.33,3.81,9.525
1e-12,742.95,3.81,9.525
1e-12,750.57,3.81,9.525
1e-12,758.19,3.81,9.525
0.34532,3.81,3.81,10.287
0.34591,11.43,3.81,10.287
0.27855,19.05,3.81,10.287
0.25027,26.67,3.81,10.287
0.24476,34.29,3.81,10.287
0.23637,41.91,3.81,10.287
0.24169,49.53,3.81,10.287
0.24038,57.15,3.81,10.287
0.25736,64.77,3.81,10.287
0.25282,72.39,3.81,10.287
0.24291,80.01,3.81,10.287
0.23924,87.63,3.81,10.287
0.23986,95.25,3.81,10.287
0.24104,102.87,3.81,10.287
0.24067,110.49,3.81,10.287
0.24266,118.11,3.81,10.287
0.24492,125.73,3.81,10.287
0.24701,133.35,3.81,10.287
0.24624,140.97,3.81,10.287
0.24312,148.59,3.81,10.287
0.23853,156.21,3.81,10.287
0.2343,163.83,3.81,10.287
0.23011,171.45,3.81,10.287
0.22443,179.07,3.81,10.287
0.22175,186.69,3.81,10.287
0.21525,194.31,3.81,10.287
0.21143,201.93,3.81,10.287
0.20971,209.55,3.81,10.287
0.20939,217.17,3.81,10.287
0.21149,224.79,3.81,10.287
0.21204,232.41,3.81,10.287
0.21243,240.03,3.81,10.287
0.21397,247.65,3.81,10.287
0.21536,255.27,3.81,10.287
0.21579,262.89,3.81,10.287
0.21775,270.51,3.81,10.287
0.21944,278.13,3.81,10.287
0.22138,285.75,3.81,10.287
0.23731,293.37,3.81,10.287
0.29738,300.99,3.81,10.287
0.30016,308.61,3.81,10.287
0.29188,316.23,3.81,10.287
0.29546,323.85,3.81,10.287
0.30176,331.47,3.81,10.287
0.3105,339.09,3.81,10.287
0.33111,346.71,3.81,10.287
0.34272,354.33,3.81,10.287
0.37775,361.95,3.81,10.287
0.37902,369.57,3.81,10.287
0.35258,377.19,3.81,10.287
0.32383,384.81,3.81,10.287
0.34221,392.43,3.81,10.287
0.3816,400.05,3.81,10.287
0.39537,407.67,3.81,10.287
0.32416,415.29,3.81,10.287
0.34429,422.91,3.81,10.287
0.29972,430.53,3.81,10.287
0.34304,438.15,3.81,10.287
0.39921,445.77,3.81,10.287
0.26202,453.39,3.81,10.287
0.17916,461.01,3.81,10.287
0.17049,468.63,3.81,10.287
0.10372,476.25,3.81,10.287
2.8524e-10,483.87,3.81,10.287
1e-12,491.49,3.81,10.287
1e-12,499.11,3.81,10.287
1e-12,506.73,3.81,10.287
1e-12,514.35,3.81,10.287
1e-12,521.97,3.81,10.287
1e-12,529.59,3.81,10.287
1e-12,537.21,3.81,10.287
1e-12,544.83,3.81,10.287
1e-12,552.45,3.81,10.287
1e-12,560.07,3.81,10.287
1e-12,567.69,3.81,10.287
1e-12,575.31,3.81,10.287
1e-12,582.93,3.81,10.287
1e-12,590.55,3.81,10.287
1e-12,598.17,3.81,10.287
1e-12,605.79,3.81,10.287
1e-12,613.41,3.81,10.287
1e-12,621.03,3.81,10.287
1e-12,628.65,3.81,10.287
1e-12,636.27,3.81,10.287
1e-12,643.89,3.81,10.287
1e-12,651.51,3.81,10.287
1e-12,659.13,3.81,10.287
1e-12,666.75,3.81,10.287
1e-12,674.37,3.81,10.287
1e-12,681.99,3.81,10.287
1e-12,689.61,3.81,10.287
1e-12,697.23,3.81,10.287
1e-12,704.85,3.81,10.287
1e-12,712.47,3.81,10.287
1e-12,720.09,3.81,10.287
1e-12,727.71,3.81,10.287
1e-12,735.33,3.81,10.287
1e-12,742.95,3.81,10.287
1e-12,750.57,3.81,10.287
1e-12,758.19,3.81,10.287
0.34824,3.81,3.81,11.049
0.31334,11.43,3.81,11.049
0.29739,19.05,3.81,11.049
0.27558,26.67,3.81,11.049
0.26798,34.29,3.81,11.049
0.26235,41.91,3.81,11.049
0.25962,49.53,3.81,11.049
0.25632,57.15,3.81,11.049
0.25181,64.77,3.81,11.049
0.2514,72.39,3.81,11.049
0.24617,80.01,3.81,11.049
0.19946,87.63,3.81,11.049
0.15938,95.25,3.81,11.049
0.11991,102.87,3.81,11.049
0,110.49,3.81,11.049
0,118.11,3.81,11.049
0,125.73,3.81,11.049
0,133.35,3.81,11.049
0.17721,140.97,3.81,11.049
0.18027,148.59,3.81,11.049
0.22891,156.21,3.81,11.049
0.22896,163.83,3.81,11.049
0.22353,171.45,3.81,11.049
0.20703,179.07,3.81,11.049
0.21297,186.69,3.81,11.049
0.20744,194.31,3.81,11.049
0.16966,201.93,3.81,11.049
0.20523,209.55,3.81,11.049
0.1796,217.17,3.81,11.049
0.19754,224.79,3.81,11.049
0.17783,232.41,3.81,11.049
0.15253,240.03,3.81,11.049
0.21475,247.65,3.81,11.049
0.18532,255.27,3.81,11.049
0.16573,262.89,3.81,11.049
0.16938,270.51,3.81,11.049
0.17859,278.13,3.81,11.049
0,285.75,3.81,11.049
0,293.37,3.81,11.049
0.16356,300.99,3.81,11.049
0.2303,308.61,3.81,11.049
0.23253,316.23,3.81,11.049
0.23155,323.85,3.81,11.049
0.24235,331.47,3.81,11.049
0.22372,339.09,3.81,11.049
0.21152,346.71,3.81,11.049
0.26101,354.33,3.81,11.049
0.26232,361.95,3.81,11.049
0.2661,369.57,3.81,11.049
0.27275,377.19,3.81,11.049
0.29206,384.81,3.81,11.049
0.29888,392.43,3.81,11.049
0.30124,400.05,3.81,11.049
0.27025,407.67,3.81,11.049
0.28001,415.29,3.81,11.049
0.2807,422.91,3.81,11.049
0.29163,430.53,3.81,11.049
0.28125,438.15,3.81,11.049
0.28386,445.77,3.81,11.049
0.27052,453.39,3.81,11.049
0.2305,461.01,3.81,11.049
0.26228,468.63,3.81,11.049
0.27313,476.25,3.81,11.049
0.29489,483.87,3.81,11.049
0.30914,491.49,3.81,11.049
0.25395,499.11,3.81,11.049
0.24888,506.73,3.81,11.049
0.25037,514.35,3.81,11.049
0.24111,521.97,3.81,11.049
0.24073,529.59,3.81,11.049
0.23625,537.21,3.81,11.049
0.2295,544.83,3.81,11.049
0.23321,552.45,3.81,11.049
0.23561,560.07,3.81,11.049
0.23891,567.69,3.81,11.049
0.2426,575.31,3.81,11.049
0.23758,582.93,3.81,11.049
0.25687,590.55,3.81,11.049
0.26758,598.17,3.81,11.049
0.25864,605.79,3.81,11.049
0.25375,613.41,3.81,11.049
0.25297,621.03,3.81,11.049
0.25878,628.65,3.81,11.049
0.27064,636.27,3.81,11.049
0.27487,643.89,3.81,11.049
0.2735,651.51,3.81,11.049
0.28868,659.13,3.81,11.049
0.34078,666.75,3.81,11.049
0.56536,674.37,3.81,11.049
0.5644,681.99,3.81,11.049
0.47965,689.61,3.81,11.049
0.32082,697.23,3.81,11.049
0.27159,704.85,3.81,11.049
0.23032,712.47,3.81,11.049
0.19455,720.09,3.81,11.049
0.10283,727.71,3.81,11.049
1.6591e-11,735.33,3.81,11.049
1e-12,742.95,3.81,11.049
1e-12,750.57,3.81,11.049
1e-12,758.19,3.81,11.049
0.39155,3.81,3.81,11.811
0.2554,11.43,3.81,11.811
0.27705,19.05,3.81,11.811
0.25613,26.67,3.81,11.811
0.22694,34.29,3.81,11.811
0.2406,41.91,3.81,11.811
0.23891,49.53,3.81,11.811
0.23433,57.15,3.81,11.811
0.22945,64.77,3.81,11.811
0.24754,72.39,3.81,11.811
0.24548,80.01,3.81,11.811
0.23241,87.63,3.81,11.811
0.18825,95.25,3.81,11.811
0.061789,102.87,3.81,11.811
1e-12,110.49,3.81,11.811
1e-12,118.11,3.81,11.811
1e-12,125.73,3.81,11.811
1e-12,133.35,3.81,11.811
0.17483,140.97,3.81,11.811
0.17979,148.59,3.81,11.811
0.22837,156.21,3.81,11.811
0.2289,163.83,3.81,11.811
0.22364,171.45,3.81,11.811
0.20759,179.07,3.81,11.811
0.21275,186.69,3.81,11.811
0.20752,194.31,3.81,11.811
0.17809,201.93,3.81,11.811
0.20437,209.55,3.81,11.811
0.18734,217.17,3.81,11.811
0.19637,224.79,3.81,11.811
0.18502,232.41,3.81,11.811
0.16851,240.03,3.81,11.811
0.24055,247.65,3.81,11.811
0.19103,255.27,3.81,11.811
0.17138,262.89,3.81,11.811
0.12845,270.51,3.81,11.811
0.14151,278.13,3.81,11.811
0.0017959,285.75,3.81,11.811
1e-12,293.37,3.81,11.811
0.13304,300.99,3.81,11.811
0.11879,308.61,3.81,11.811
0.10643,316.23,3.81,11.811
0.11506,323.85,3.81,11.811
0,331.47,3.81,11.811
0,339.09,3.81,11.811
0,346.71,3.81,11.811
0.11871,354.33,3.81,11.811
0.14752,361.95,3.81,11.811
0.15937,369.57,3.81,11.811
0.15733,377.19,3.81,11.811
0.15562,384.81,3.81,11.811
0.16079,392.43,3.81,11.811
6.903e-07,400.05,3.81,11.811
0,407.67,3.81,11.811
0.13584,415.29,3.81,11.811
0.21093,422.91,3.81,11.811
0.21759,430.53,3.81,11.811
0.2145,438.15,3.81,11.811
0.22217,445.77,3.81,11.811
0.27455,453.39,3.81,11.811
0.26158,461.01,3.81,11.811
0.25956,468.63,3.81,11.811
0.25808,476.25,3.81,11.811
0.25695,483.87,3.81,11.811
0.2565,491.49,3.81,11.811
0.25439,499.11,3.81,11.811
0.24964,506.73,3.81,11.811
0.24379,514.35,3.81,11.811
0.2412,521.97,3.81,11.811
0.23917,529.59,3.81,11.811
0.23471,537.21,3.81,11.811
0.23011,544.83,3.81,11.811
0.22794,552.45,3.81,11.811
0.22553,560.07,3.81,11.811
0.22323,567.69,3.81,11.811
0.21955,575.31,3.81,11.811
0.21451,582.93,3.81,11.811
0.22665,590.55,3.81,11.811
0.25492,598.17,3.81,11.811
0.24106,605.79,3.81,11.811
0.17352,613.41,3.81,11.811
0.24145,621.03,3.81,11.811
0.238,628.65,3.81,11.811
0.23483,636.27,3.81,11.811
0.26103,643.89,3.81,11.811
0.2546,651.51,3.81,11.811
0.24143,659.13,3.81,11.811
0.23737,666.75,3.81,11.811
0.3648,674.37,3.81,11.811
3.5543e-05,681.99,3.81,11.811
0.36201,689.61,3.81,11.811
0.33314,697.23,3.81,11.811
0.29684,704.85,3.81,11.811
0.24066,712.47,3.81,11.811
0.21299,720.09,3.81,11.811
0.014575,727.71,3.81,11.811
1e-12,735.33,3.81,11.811
1e-12,742.95,3.81,11.811
1e-12,750.57,3.81,11.811
1e-12,758.19,3.81,11.811
0.27811,3.81,3.81,12.573
0.26829,11.43,3.81,12.573
0.21564,19.05,3.81,12.573
0.22852,26.67,3.81,12.573
0.22746,34.29,3.81,12.573
0.24399,41.91,3.81,12.573
0.25355,49.53,3.81,12.573
0.25789,57.15,3.81,12.573
0.26667,64.77,3.81,12.573
0.24733,72.39,3.81,12.573
0.24448,80.01,3.81,12.573
0.24038,87.63,3.81,12.573
0.2413,95.25,3.81,12.573
0.2151,102.87,3.81,12.573
0.072245,110.49,3.81,12.573
1e-12,118.11,3.81,12.573
1e-12,125.73,3.81,12.573
1e-12,133.35,3.81,12.573
0.17787,140.97,3.81,12.573
0.18533,148.59,3.81,12.573
0.23333,156.21,3.81,12.573
0.23136,163.83,3.81,12.573
0.22467,171.45,3.81,12.573
0.208,179.07,3.81,12.573
0.21348,186.69,3.81,12.573
0.20775,194.31,3.81,12.573
0.17987,201.93,3.81,12.573
0.20482,209.55,3.81,12.573
0.18822,217.17,3.81,12.573
0.19763,224.79,3.81,12.573
0.18796,232.41,3.81,12.573
0.17176,240.03,3.81,12.573
0.24872,247.65,3.81,12.573
0,255.27,3.81,12.573
0,262.89,3.81,12.573
0,270.51,3.81,12.573
0,278.13,3.81,12.573
1e-12,285.75,3.81,12.573
1e-12,293.37,3.81,12.573
0,300.99,3.81,12.573
0,308.61,3.81,12.573
0,316.23,3.81,12.573
0,323.85,3.81,12.573
1e-12,331.47,3.81,12.573
1e-12,339.09,3.81,12.573
1e-12,346.71,3.81,12.573
0,354.33,3.81,12.573
0,361.95,3.81,12.573
0,369.57,3.81,12.573
0,377.19,3.81,12.573
0,384.81,3.81,12.573
0,392.43,3.81,12.573
1e-12,400.05,3.81,12.573
1e-12,407.67,3.81,12.573
0,415.29,3.81,12.573
0,422.91,3.81,12.573
0,430.53,3.81,12.573
0,438.15,3.81,12.573
0,445.77,3.81,12.573
0.35524,453.39,3.81,12.573
0.26179,461.01,3.81,12.573
0,468.63,3.81,12.573
0,476.25,3.81,12.573
0,483.87,3.81,12.573
0,491.49,3.81,12.573
0,499.11,3.81,12.573
0,506.73,3.81,12.573
0.13364,514.35,3.81,12.573
0.23111,521.97,3.81,12.573
0.23489,529.59,3.81,12.573
0.22293,537.21,3.81,12.573
0.21375,544.83,3.81,12.573
0.21517,552.45,3.81,12.573
0.21651,560.07,3.81,12.573
0.2112,567.69,3.81,12.573
0.17581,575.31,3.81,12.573
0,582.93,3.81,12.573
0.26869,590.55,3.81,12.573
0.26559,598.17,3.81,12.573
0.26139,605.79,3.81,12.573
0.25763,613.41,3.81,12.573
0.25066,621.03,3.81,12.573
0.24828,628.65,3.81,12.573
0.24619,636.27,3.81,12.573
0.25084,643.89,3.81,12.573
0.24547,651.51,3.81,12.573
0.24311,659.13,3.81,12.573
0.24008,666.75,3.81,12.573
0.23627,674.37,3.81,12.573
0.27079,681.99,3.81,12.573
0.3316,689.61,3.81,12.573
0.32839,697.23,3.81,12.573
0.32508,704.85,3.81,12.573
0.31113,712.47,3.81,12.573
0.29961,720.09,3.81,12.573
0.29072,727.71,3.81,12.573
0.26308,735.33,3.81,12.573
0.26453,742.95,3.81,12.573
0.26799,750.57,3.81,12.573
0.23017,758.19,3.81,12.573
0.22241,3.81,3.81,13.335
0.26917,11.43,3.81,13.335
0.2326,19.05,3.81,13.335
0.23158,26.67,3.81,13.335
0.22681,34.29,3.81,13.335
0.23776,41.91,3.81,13.335
0.23946,49.53,3.81,13.335
0.23947,57.15,3.81,13.335
0.23553,64.77,3.81,13.335
0.23524,72.39,3.81,13.335
0.2342,80.01,3.81,13.335
0.23318,87.63,3.81,13.335
0.22991,95.25,3.81,13.335
0.22691,102.87,3.81,13.335
0.22745,110.49,3.81,13.335
0.22843,118.11,3.81,13.335
0.2361,125.73,3.81,13.335
0.24487,133.35,3.81,13.335
0.22725,140.97,3.81,13.335
0.22046,148.59,3.81,13.335
0.2268,156.21,3.81,13.335
0.2292,163.83,3.81,13.335
0.2268,171.45,3.81,13.335
0.21639,179.07,3.81,13.335
0.21417,186.69,3.81,13.335
0.20889,194.31,3.81,13.335
0.19871,201.93,3.81,13.335
0.20366,209.55,3.81,13.335
0.19774,217.17,3.81,13.335
0.19767,224.79,3.81,13.335
0.19561,232.41,3.81,13.335
0.19915,240.03,3.81,13.335
0.24485,247.65,3.81,13.335
0.38658,255.27,3.81,13.335
0.47117,262.89,3.81,13.335
0.68923,270.51,3.81,13.335
0.71336,278.13,3.81,13.335
0.71853,285.75,3.81,13.335
0.66227,293.37,3.81,13.335
0.6791,300.99,3.81,13.335
0.6819,308.61,3.81,13.335
0.68388,316.23,3.81,13.335
0.67773,323.85,3.81,13.335
0.67989,331.47,3.81,13.335
0.68209,339.09,3.81,13.335
0.67797,346.71,3.81,13.335
0.59303,354.33,3.81,13.335
0.65655,361.95,3.81,13.335
0.62857,369.57,3.81,13.335
0.66088,377.19,3.81,13.335
0.65864,384.81,3.81,13.335
0.58818,392.43,3.81,13.335
0.58321,400.05,3.81,13.335
0.63741,407.67,3.81,13.335
0.57756,415.29,3.81,13.335
0.53616,422.91,3.81,13.335
0.61002,430.53,3.81,13.335
0.62235,438.15,3.81,13.335
0.61159,445.77,3.81,13.335
0.51699,453.39,3.81,13.335
0.39519,461.01,3.81,13.335
0.40217,468.63,3.81,13.335
0.40016,476.25,3.81,13.335
0.51765,483.87,3.81,13.335
0.54294,491.49,3.81,13.335
0.5026,499.11,3.81,13.335
0.51007,506.73,3.81,13.335
0.27621,514.35,3.81,13.335
0.23696,521.97,3.81,13.335
0.23592,529.59,3.81,13.335
0.22884,537.21,3.81,13.335
0.22009,544.83,3.81,13.335
0.21681,552.45,3.81,13.335
0.21694,560.07,3.81,13.335
0.21388,567.69,3.81,13.335
0.21086,575.31,3.81,13.335
0.2894,582.93,3.81,13.335
0.2804,590.55,3.81,13.335
0.26439,598.17,3.81,13.335
0.24639,605.79,3.81,13.335
0.25249,613.41,3.81,13.335
0.24068,621.03,3.81,13.335
0.22739,628.65,3.81,13.335
0.21693,636.27,3.81,13.335
0.058964,643.89,3.81,13.335
0,651.51,3.81,13.335
0,659.13,3.81,13.335
0,666.75,3.81,13.335
0,674.37,3.81,13.335
0.264,681.99,3.81,13.335
0.30956,689.61,3.81,13.335
0.2519,697.23,3.81,13.335
0.29108,704.85,3.81,13.335
0.29345,712.47,3.81,13.335
0.25956,720.09,3.81,13.335
0.28715,727.71,3.81,13.335
0.2751,735.33,3.81,13.335
0.27187,742.95,3.81,13.335
0.26766,750.57,3.81,13.335
0.21831,758.19,3.81,13.335
0.32958,3.81,3.81,14.097
0.3065,11.43,3.81,14.097
0.28416,19.05,3.81,14.097
0.26399,26.67,3.81,14.097
0.26494,34.29,3.81,14.097
0,41.91,3.81,14.097
0.15398,49.53,3.81,14.097
0.2116,57.15,3.81,14.097
0.18416,64.77,3.81,14.097
0.23652,72.39,3.81,14.097
0.18579,80.01,3.81,14.097
0,87.63,3.81,14.097
0,95.25,3.81,14.097
0,102.87,3.81,14.097
0,110.49,3.81,14.097
0,118.11,3.81,14.097
0,125.73,3.81,14.097
0.24614,133.35,3.81,14.097
0.21575,140.97,3.81,14.097
0,148.59,3.81,14.097
0.22147,156.21,3.81,14.097
0.23168,163.83,3.81,14.097
0.2308,171.45,3.81,14.097
0.22518,179.07,3.81,14.097
0.23103,186.69,3.81,14.097
0.21407,194.31,3.81,14.097
0.24146,201.93,3.81,14.097
0.20919,209.55,3.81,14.097
0.22379,217.17,3.81,14.097
0.22307,224.79,3.81,14.097
0.23717,232.41,3.81,14.097
0.23768,240.03,3.81,14.097
0.24036,247.65,3.81,14.097
0.24387,255.27,3.81,14.097
0.25019,262.89,3.81,14.097
0.28486,270.51,3.81,14.097
0.23466,278.13,3.81,14.097
0.29587,285.75,3.81,14.097
0.36253,293.37,3.81,14.097
0.36249,300.99,3.81,14.097
0.36421,308.61,3.81,14.097
0.36654,316.23,3.81,14.097
0.36673,323.85,3.81,14.097
0.36772,331.47,3.81,14.097
0.36935,339.09,3.81,14.097
0.36798,346.71,3.81,14.097
0.36802,354.33,3.81,14.097
0.36698,361.95,3.81,14.097
0.36689,369.57,3.81,14.097
0.37447,377.19,3.81,14.097
0.38098,384.81,3.81,14.097
0.38136,392.43,3.81,14.097
0.38197,400.05,3.81,14.097
0.41288,407.67,3.81,14.097
0.54089,415.29,3.81,14.097
0.6285,422.91,3.81,14.097
0.66198,430.53,3.81,14.097
0.64864,438.15,3.81,14.097
0.64204,445.77,3.81,14.097
0.60759,453.39,3.81,14.097
0.57844,461.01,3.81,14.097
0.58063,468.63,3.81,14.097
0.59139,476.25,3.81,14.097
0.61212,483.87,3.81,14.097
0.56769,491.49,3.81,14.097
0.53087,499.11,3.81,14.097
0.48121,506.73,3.81,14.097
0.30595,514.35,3.81,14.097
0.24782,521.97,3.81,14.097
0.24224,529.59,3.81,14.097
0.24621,537.21,3.81,14.097
0.2341,544.83,3.81,14.097
0.22738,552.45,3.81,14.097
0.22932,560.07,3.81,14.097
0.23349,567.69,3.81,14.097
0.26971,575.31,3.81,14.097
0.27772,582.93,3.81,14.097
0.27678,590.55,3.81,14.097
0.26091,598.17,3.81,14.097
0.25648,605.79,3.81,14.097
0.2489,613.41,3.81,14.097
0.22908,621.03,3.81,14.097
0.21229,628.65,3.81,14.097
0.20342,636.27,3.81,14.097
0.22649,643.89,3.81,14.097
0.26963,651.51,3.81,14.097
0.27357,659.13,3.81,14.097
0.25113,666.75,3.81,14.097
0.23519,674.37,3.81,14.097
0.26152,681.99,3.81,14.097
0.2964,689.61,3.81,14.097
0.30368,697.23,3.81,14.097
0.29799,704.85,3.81,14.097
0.29763,712.47,3.81,14.097
0.29214,720.09,3.81,14.097
0.30139,727.71,3.81,14.097
0.2221,735.33,3.81,14.097
0,742.95,3.81,14.097
0,750.57,3.81,14.097
0.13544,758.19,3.81,14.097
0.36658,3.81,3.81,14.859
0.34886,11.43,3.81,14.859
0.34123,19.05,3.81,14.859
0.31328,26.67,3.81,14.859
0.308,34.29,3.81,14.859
0.30092,41.91,3.81,14.859
0.28907,49.53,3.81,14.859
0.28966,57.15,3.81,14.859
0.28724,64.77,3.81,14.859
0.27111,72.39,3.81,14.859
0.26925,80.01,3.81,14.859
0.29015,87.63,3.81,14.859
0.30746,95.25,3.81,14.859
0.29012,102.87,3.81,14.859
0.28119,110.49,3.81,14.859
0.28495,118.11,3.81,14.859
0.27472,125.73,3.81,14.859
0.26958,133.35,3.81,14.859
0.26133,140.97,3.81,14.859
0.26786,148.59,3.81,14.859
0.23906,156.21,3.81,14.859
0.23781,163.83,3.81,14.859
0.23741,171.45,3.81,14.859
0.23745,179.07,3.81,14.859
0.23954,186.69,3.81,14.859
0.23683,194.31,3.81,14.859
0.23903,201.93,3.81,14.859
0.23552,209.55,3.81,14.859
0.23659,217.17,3.81,14.859
0.23785,224.79,3.81,14.859
0.23938,232.41,3.81,14.859
0.23944,240.03,3.81,14.859
0.23833,247.65,3.81,14.859
0.23897,255.27,3.81,14.859
0.24128,262.89,3.81,14.859
0.24857,270.51,3.81,14.859
0.18445,278.13,3.81,14.859
0.13257,285.75,3.81,14.859
0.13231,293.37,3.81,14.859
0.13606,300.99,3.81,14.859
0.13662,308.61,3.81,14.859
0.13548,316.23,3.81,14.859
0.1343,323.85,3.81,14.859
0.1322,331.47,3.81,14.859
0.13397,339.09,3.81,14.859
0.1329,346.71,3.81,14.859
0.35614,354.33,3.81,14.859
0.32676,361.95,3.81,14.859
0.321,369.57,3.81,14.859
0.29918,377.19,3.81,14.859
0.27161,384.81,3.81,14.859
0.26501,392.43,3.81,14.859
0.33414,400.05,3.81,14.859
0.35531,407.67,3.81,14.859
0.41285,415.29,3.81,14.859
0.53436,422.91,3.81,14.859
0.5303,430.53,3.81,14.859
0.51195,438.15,3.81,14.859
0.48839,445.77,3.81,14.859
0.45728,453.39,3.81,14.859
0.4294,461.01,3.81,14.859
0.39581,468.63,3.81,14.859
0.37992,476.25,3.81,14.859
0.36033,483.87,3.81,14.859
0.33043,491.49,3.81,14.859
0.33346,499.11,3.81,14.859
0.30587,506.73,3.81,14.859
0.20264,514.35,3.81,14.859
0.24693,521.97,3.81,14.859
0.24671,529.59,3.81,14.859
0.2501,537.21,3.81,14.859
0.24959,544.83,3.81,14.859
0.24775,552.45,3.81,14.859
0.24808,560.07,3.81,14.859
0.2496,567.69,3.81,14.859
0.25373,575.31,3.81,14.859
0.25597,582.93,3.81,14.859
0.25979,590.55,3.81,14.859
0.2594,598.17,3.81,14.859
0.2252,605.79,3.81,14.859
0.20718,613.41,3.81,14.859
0.21279,621.03,3.81,14.859
0.20548,628.65,3.81,14.859
0.19848,636.27,3.81,14.859
0.015312,643.89,3.81,14.859
0,651.51,3.81,14.859
0.015856,659.13,3.81,14.859
0.059758,666.75,3.81,14.859
0.12439,674.37,3.81,14.859
0.26037,681.99,3.81,14.859
0.27555,689.61,3.81,14.859
0.27847,697.23,3.81,14.859
0.28761,704.85,3.81,14.859
0.29323,712.47,3.81,14.859
0.29568,720.09,3.81,14.859
0.29761,727.71,3.81,14.859
0.29147,735.33,3.81,14.859
0.30528,742.95,3.81,14.859
0.31641,750.57,3.81,14.859
0.23954,758.19,3.81,14.859
