Time, WBHP (MPA), WGOR, WOPR (M3/DAY), WGPR (M3/DAY),CumQo, WGPT (M3)
    0.000 ,     0.1013 ,  0.00000E+00 ,  0.00000E+00 ,  0.00000E+00 ,  0.00000E+00 ,  0.00000E+00 
   10.000 ,     0.6608 ,  0.00000E+00 ,  6.96933E+00 ,  0.00000E+00 ,  6.95471E+01 ,  0.00000E+00 
   20.000 ,     0.6608 ,  0.00000E+00 ,  6.96930E+00 ,  0.00000E+00 ,  1.39240E+02 ,  0.00000E+00 
   30.000 ,     0.6608 ,  0.00000E+00 ,  6.96930E+00 ,  0.00000E+00 ,  2.08933E+02 ,  0.00000E+00 
   40.000 ,     0.6608 ,  0.00000E+00 ,  6.96935E+00 ,  0.00000E+00 ,  2.78627E+02 ,  0.00000E+00 
   50.000 ,     0.6608 ,  0.00000E+00 ,  6.96946E+00 ,  0.00000E+00 ,  3.48321E+02 ,  0.00000E+00 
   60.000 ,     0.6608 ,  0.00000E+00 ,  6.96953E+00 ,  0.00000E+00 ,  4.18016E+02 ,  0.00000E+00 
   70.000 ,     0.6608 ,  0.00000E+00 ,  6.96955E+00 ,  0.00000E+00 ,  4.87712E+02 ,  0.00000E+00 
   80.000 ,     0.6608 ,  0.00000E+00 ,  6.96957E+00 ,  0.00000E+00 ,  5.57408E+02 ,  0.00000E+00 
   90.000 ,     0.6608 ,  0.00000E+00 ,  6.96961E+00 ,  0.00000E+00 ,  6.27104E+02 ,  0.00000E+00 
  100.000 ,     0.6608 ,  0.00000E+00 ,  6.96970E+00 ,  0.00000E+00 ,  6.96801E+02 ,  0.00000E+00 
  110.000 ,     0.6608 ,  0.00000E+00 ,  6.96971E+00 ,  0.00000E+00 ,  7.66498E+02 ,  0.00000E+00 
  120.000 ,     0.6608 ,  0.00000E+00 ,  6.96974E+00 ,  0.00000E+00 ,  8.36195E+02 ,  0.00000E+00 
  130.000 ,     0.6608 ,  0.00000E+00 ,  6.96970E+00 ,  0.00000E+00 ,  9.05892E+02 ,  0.00000E+00 
  140.000 ,     0.6608 ,  0.00000E+00 ,  6.96966E+00 ,  0.00000E+00 ,  9.75589E+02 ,  0.00000E+00 
  150.000 ,     0.6608 ,  0.00000E+00 ,  6.96967E+00 ,  0.00000E+00 ,  1.04529E+03 ,  0.00000E+00 
  160.000 ,     0.6608 ,  0.00000E+00 ,  6.96985E+00 ,  0.00000E+00 ,  1.11498E+03 ,  0.00000E+00 
  170.000 ,     0.6608 ,  0.00000E+00 ,  6.96987E+00 ,  0.00000E+00 ,  1.18468E+03 ,  0.00000E+00 
  180.000 ,     0.6608 ,  0.00000E+00 ,  6.96987E+00 ,  0.00000E+00 ,  1.25438E+03 ,  0.00000E+00 
  190.000 ,     0.6608 ,  0.00000E+00 ,  6.96989E+00 ,  0.00000E+00 ,  1.32408E+03 ,  0.00000E+00 
  200.000 ,     0.6608 ,  0.00000E+00 ,  6.96987E+00 ,  0.00000E+00 ,  1.39378E+03 ,  0.00000E+00 
  210.000 ,     0.6608 ,  0.00000E+00 ,  6.96987E+00 ,  0.00000E+00 ,  1.46348E+03 ,  0.00000E+00 
  220.000 ,     0.6608 ,  0.00000E+00 ,  6.96997E+00 ,  0.00000E+00 ,  1.53318E+03 ,  0.00000E+00 
  230.000 ,     0.6608 ,  0.00000E+00 ,  6.97002E+00 ,  0.00000E+00 ,  1.60288E+03 ,  0.00000E+00 
  240.000 ,     0.6608 ,  0.00000E+00 ,  6.97013E+00 ,  0.00000E+00 ,  1.67258E+03 ,  0.00000E+00 
  250.000 ,     0.6608 ,  0.00000E+00 ,  6.97005E+00 ,  0.00000E+00 ,  1.74228E+03 ,  0.00000E+00 
  260.000 ,     0.6608 ,  0.00000E+00 ,  6.96992E+00 ,  0.00000E+00 ,  1.81198E+03 ,  0.00000E+00 
  270.000 ,     0.6608 ,  0.00000E+00 ,  6.96997E+00 ,  0.00000E+00 ,  1.88168E+03 ,  0.00000E+00 
  280.000 ,     0.6608 ,  0.00000E+00 ,  6.96973E+00 ,  0.00000E+00 ,  1.95138E+03 ,  0.00000E+00 
  290.000 ,     0.6608 ,  0.00000E+00 ,  6.96995E+00 ,  0.00000E+00 ,  2.02108E+03 ,  0.00000E+00 
  300.000 ,     0.6608 ,  0.00000E+00 ,  6.97012E+00 ,  0.00000E+00 ,  2.09078E+03 ,  0.00000E+00 
  310.000 ,     0.6608 ,  0.00000E+00 ,  6.97029E+00 ,  0.00000E+00 ,  2.16048E+03 ,  0.00000E+00 
  320.000 ,     0.6608 ,  0.00000E+00 ,  6.97088E+00 ,  0.00000E+00 ,  2.23019E+03 ,  0.00000E+00 
  330.000 ,     0.6608 ,  0.00000E+00 ,  6.97114E+00 ,  0.00000E+00 ,  2.29990E+03 ,  0.00000E+00 
  340.000 ,     0.6608 ,  0.00000E+00 ,  6.97061E+00 ,  0.00000E+00 ,  2.36961E+03 ,  0.00000E+00 
  350.000 ,     0.6608 ,  0.00000E+00 ,  6.97073E+00 ,  0.00000E+00 ,  2.43931E+03 ,  0.00000E+00 
  360.000 ,     0.6608 ,  0.00000E+00 ,  6.97084E+00 ,  0.00000E+00 ,  2.50902E+03 ,  0.00000E+00 
  370.000 ,     0.6608 ,  0.00000E+00 ,  6.97094E+00 ,  0.00000E+00 ,  2.57873E+03 ,  0.00000E+00 
  380.000 ,     0.6608 ,  0.00000E+00 ,  6.97109E+00 ,  0.00000E+00 ,  2.64844E+03 ,  0.00000E+00 
  390.000 ,     0.6608 ,  0.00000E+00 ,  6.97088E+00 ,  0.00000E+00 ,  2.71815E+03 ,  0.00000E+00 
  400.000 ,     0.6608 ,  0.00000E+00 ,  6.97085E+00 ,  0.00000E+00 ,  2.78786E+03 ,  0.00000E+00 
  410.000 ,     0.6608 ,  0.00000E+00 ,  6.97106E+00 ,  0.00000E+00 ,  2.85757E+03 ,  0.00000E+00 
  420.000 ,     0.6608 ,  0.00000E+00 ,  6.97112E+00 ,  0.00000E+00 ,  2.92728E+03 ,  0.00000E+00 
  430.000 ,     0.6608 ,  0.00000E+00 ,  6.97126E+00 ,  0.00000E+00 ,  2.99699E+03 ,  0.00000E+00 
  440.000 ,     0.6608 ,  0.00000E+00 ,  6.97132E+00 ,  0.00000E+00 ,  3.06671E+03 ,  0.00000E+00 
  450.000 ,     0.6608 ,  0.00000E+00 ,  6.97003E+00 ,  0.00000E+00 ,  3.13641E+03 ,  0.00000E+00 
  460.000 ,     0.6608 ,  0.00000E+00 ,  6.97132E+00 ,  0.00000E+00 ,  3.20612E+03 ,  0.00000E+00 
  470.000 ,     0.6608 ,  0.00000E+00 ,  6.97123E+00 ,  0.00000E+00 ,  3.27584E+03 ,  0.00000E+00 
  480.000 ,     0.6608 ,  0.00000E+00 ,  6.97195E+00 ,  0.00000E+00 ,  3.34556E+03 ,  0.00000E+00 
  490.000 ,     0.6608 ,  0.00000E+00 ,  6.97180E+00 ,  0.00000E+00 ,  3.41527E+03 ,  0.00000E+00 
  500.000 ,     0.6608 ,  0.00000E+00 ,  6.97220E+00 ,  0.00000E+00 ,  3.48500E+03 ,  0.00000E+00 
  510.000 ,     0.6608 ,  0.00000E+00 ,  6.97211E+00 ,  0.00000E+00 ,  3.55472E+03 ,  0.00000E+00 
  520.000 ,     0.6608 ,  0.00000E+00 ,  6.97149E+00 ,  0.00000E+00 ,  3.62443E+03 ,  0.00000E+00 
  530.000 ,     0.6608 ,  0.00000E+00 ,  6.97086E+00 ,  0.00000E+00 ,  3.69414E+03 ,  0.00000E+00 
  540.000 ,     0.6608 ,  0.00000E+00 ,  6.97090E+00 ,  0.00000E+00 ,  3.76385E+03 ,  0.00000E+00 
  550.000 ,     0.6607 ,  1.85809E-02 ,  6.84425E+00 ,  1.27173E-01 ,  3.83229E+03 ,  1.27173E+00 
  560.000 ,     0.6602 ,  1.21430E-01 ,  6.21675E+00 ,  7.54900E-01 ,  3.89446E+03 ,  8.82073E+00 
  570.000 ,     0.6594 ,  3.23768E-01 ,  5.26659E+00 ,  1.70515E+00 ,  3.94713E+03 ,  2.58723E+01 
  580.000 ,     0.6586 ,  6.09092E-01 ,  4.33260E+00 ,  2.63895E+00 ,  3.99045E+03 ,  5.22618E+01 
  590.000 ,     0.6581 ,  8.49631E-01 ,  3.76898E+00 ,  3.20224E+00 ,  4.02814E+03 ,  8.42842E+01 
  600.000 ,     0.6578 ,  1.04514E+00 ,  3.40857E+00 ,  3.56245E+00 ,  4.06223E+03 ,  1.19909E+02 
  610.000 ,     0.6576 ,  1.20573E+00 ,  3.16035E+00 ,  3.81053E+00 ,  4.09383E+03 ,  1.58014E+02 
  620.000 ,     0.6575 ,  1.35559E+00 ,  2.95925E+00 ,  4.01152E+00 ,  4.12342E+03 ,  1.98129E+02 
  630.000 ,     0.6573 ,  1.54480E+00 ,  2.73919E+00 ,  4.23150E+00 ,  4.15082E+03 ,  2.40444E+02 
  640.000 ,     0.6571 ,  1.75357E+00 ,  2.53149E+00 ,  4.43914E+00 ,  4.17613E+03 ,  2.84835E+02 
  650.000 ,     0.6570 ,  1.94754E+00 ,  2.36488E+00 ,  4.60569E+00 ,  4.19978E+03 ,  3.30892E+02 
  660.000 ,     0.6569 ,  2.12080E+00 ,  2.23357E+00 ,  4.73695E+00 ,  4.22211E+03 ,  3.78262E+02 
  670.000 ,     0.6568 ,  2.27641E+00 ,  2.12747E+00 ,  4.84301E+00 ,  4.24339E+03 ,  4.26692E+02 
  680.000 ,     0.6567 ,  2.41831E+00 ,  2.03915E+00 ,  4.93130E+00 ,  4.26378E+03 ,  4.76005E+02 
  690.000 ,     0.6566 ,  2.55034E+00 ,  1.96332E+00 ,  5.00712E+00 ,  4.28341E+03 ,  5.26076E+02 
  700.000 ,     0.6566 ,  2.67576E+00 ,  1.89632E+00 ,  5.07410E+00 ,  4.30238E+03 ,  5.76817E+02 
  710.000 ,     0.6565 ,  2.79640E+00 ,  1.83605E+00 ,  5.13435E+00 ,  4.32074E+03 ,  6.28161E+02 
  720.000 ,     0.6565 ,  2.91332E+00 ,  1.78120E+00 ,  5.18919E+00 ,  4.33855E+03 ,  6.80053E+02 
  730.000 ,     0.6564 ,  3.02734E+00 ,  1.73076E+00 ,  5.23961E+00 ,  4.35586E+03 ,  7.32449E+02 
  740.000 ,     0.6564 ,  3.13900E+00 ,  1.68407E+00 ,  5.28629E+00 ,  4.37270E+03 ,  7.85312E+02 
  750.000 ,     0.6564 ,  3.24881E+00 ,  1.64054E+00 ,  5.32981E+00 ,  4.38910E+03 ,  8.38610E+02 
  760.000 ,     0.6563 ,  3.35718E+00 ,  1.59974E+00 ,  5.37060E+00 ,  4.40510E+03 ,  8.92316E+02 
  770.000 ,     0.6563 ,  3.46431E+00 ,  1.56134E+00 ,  5.40898E+00 ,  4.42071E+03 ,  9.46406E+02 
  780.000 ,     0.6563 ,  3.57055E+00 ,  1.52505E+00 ,  5.44527E+00 ,  4.43596E+03 ,  1.00086E+03 
  790.000 ,     0.6562 ,  3.67601E+00 ,  1.49065E+00 ,  5.47965E+00 ,  4.45087E+03 ,  1.05565E+03 
  800.000 ,     0.6562 ,  3.78077E+00 ,  1.45799E+00 ,  5.51231E+00 ,  4.46545E+03 ,  1.11078E+03 
  810.000 ,     0.6562 ,  3.88488E+00 ,  1.42691E+00 ,  5.54338E+00 ,  4.47972E+03 ,  1.16621E+03 
  820.000 ,     0.6562 ,  3.98833E+00 ,  1.39732E+00 ,  5.57296E+00 ,  4.49369E+03 ,  1.22194E+03 
  830.000 ,     0.6561 ,  4.09100E+00 ,  1.36914E+00 ,  5.60113E+00 ,  4.50738E+03 ,  1.27795E+03 
  840.000 ,     0.6561 ,  4.19286E+00 ,  1.34228E+00 ,  5.62799E+00 ,  4.52081E+03 ,  1.33423E+03 
  850.000 ,     0.6561 ,  4.29013E+00 ,  1.31759E+00 ,  5.65265E+00 ,  4.53398E+03 ,  1.39076E+03 
  860.000 ,     0.6561 ,  4.38064E+00 ,  1.29543E+00 ,  5.67481E+00 ,  4.54694E+03 ,  1.44751E+03 
  870.000 ,     0.6561 ,  4.46383E+00 ,  1.27570E+00 ,  5.69453E+00 ,  4.55969E+03 ,  1.50445E+03 
  880.000 ,     0.6560 ,  4.54064E+00 ,  1.25802E+00 ,  5.71221E+00 ,  4.57228E+03 ,  1.56157E+03 
  890.000 ,     0.6560 ,  4.61267E+00 ,  1.24187E+00 ,  5.72835E+00 ,  4.58469E+03 ,  1.61886E+03 
  900.000 ,     0.6560 ,  4.68202E+00 ,  1.22671E+00 ,  5.74350E+00 ,  4.59696E+03 ,  1.67629E+03 
  910.000 ,     0.6560 ,  4.75037E+00 ,  1.21213E+00 ,  5.75808E+00 ,  4.60908E+03 ,  1.73387E+03 
  920.000 ,     0.6560 ,  4.81908E+00 ,  1.19782E+00 ,  5.77239E+00 ,  4.62106E+03 ,  1.79160E+03 
  930.000 ,     0.6560 ,  4.88923E+00 ,  1.18355E+00 ,  5.78665E+00 ,  4.63290E+03 ,  1.84946E+03 
  940.000 ,     0.6560 ,  4.96177E+00 ,  1.16915E+00 ,  5.80105E+00 ,  4.64459E+03 ,  1.90747E+03 
  950.000 ,     0.6560 ,  5.03756E+00 ,  1.15447E+00 ,  5.81573E+00 ,  4.65613E+03 ,  1.96563E+03 
  960.000 ,     0.6559 ,  5.11727E+00 ,  1.13943E+00 ,  5.83077E+00 ,  4.66753E+03 ,  2.02394E+03 
  970.000 ,     0.6559 ,  5.20138E+00 ,  1.12397E+00 ,  5.84622E+00 ,  4.67877E+03 ,  2.08240E+03 
  980.000 ,     0.6559 ,  5.29022E+00 ,  1.10810E+00 ,  5.86210E+00 ,  4.68985E+03 ,  2.14102E+03 
  990.000 ,     0.6559 ,  5.38392E+00 ,  1.09184E+00 ,  5.87836E+00 ,  4.70077E+03 ,  2.19981E+03 
 1000.000 ,     0.6559 ,  5.48242E+00 ,  1.07524E+00 ,  5.89495E+00 ,  4.71152E+03 ,  2.25876E+03 
 1010.000 ,     0.6559 ,  5.58565E+00 ,  1.05839E+00 ,  5.91180E+00 ,  4.72210E+03 ,  2.31787E+03 
 1020.000 ,     0.6559 ,  5.69363E+00 ,  1.04132E+00 ,  5.92887E+00 ,  4.73252E+03 ,  2.37716E+03 
 1030.000 ,     0.6559 ,  5.80123E+00 ,  1.02484E+00 ,  5.94534E+00 ,  4.74276E+03 ,  2.43662E+03 
 1040.000 ,     0.6558 ,  5.90108E+00 ,  1.01001E+00 ,  5.96016E+00 ,  4.75286E+03 ,  2.49622E+03 
 1050.000 ,     0.6558 ,  5.96721E+00 ,  1.00042E+00 ,  5.96974E+00 ,  4.76287E+03 ,  2.55592E+03 
 1060.000 ,     0.6558 ,  6.03202E+00 ,  9.91204E-01 ,  5.97896E+00 ,  4.77278E+03 ,  2.61570E+03 
 1070.000 ,     0.6558 ,  6.09559E+00 ,  9.82322E-01 ,  5.98784E+00 ,  4.78260E+03 ,  2.67558E+03 
 1080.000 ,     0.6558 ,  6.15860E+00 ,  9.73676E-01 ,  5.99648E+00 ,  4.79234E+03 ,  2.73555E+03 
 1090.000 ,     0.6558 ,  6.22229E+00 ,  9.65088E-01 ,  6.00506E+00 ,  4.80199E+03 ,  2.79560E+03 
 1100.000 ,     0.6558 ,  6.28846E+00 ,  9.56328E-01 ,  6.01382E+00 ,  4.81155E+03 ,  2.85574E+03 
 1110.000 ,     0.6558 ,  6.35832E+00 ,  9.47247E-01 ,  6.02290E+00 ,  4.82103E+03 ,  2.91597E+03 
 1120.000 ,     0.6558 ,  6.43270E+00 ,  9.37768E-01 ,  6.03238E+00 ,  4.83040E+03 ,  2.97629E+03 
 1130.000 ,     0.6558 ,  6.51221E+00 ,  9.27842E-01 ,  6.04231E+00 ,  4.83968E+03 ,  3.03671E+03 
 1140.000 ,     0.6558 ,  6.59487E+00 ,  9.17744E-01 ,  6.05240E+00 ,  4.84886E+03 ,  3.09724E+03 
 1150.000 ,     0.6558 ,  6.67966E+00 ,  9.07611E-01 ,  6.06253E+00 ,  4.85794E+03 ,  3.15786E+03 
 1160.000 ,     0.6557 ,  6.76520E+00 ,  8.97612E-01 ,  6.07253E+00 ,  4.86691E+03 ,  3.21859E+03 
 1170.000 ,     0.6557 ,  6.85063E+00 ,  8.87844E-01 ,  6.08229E+00 ,  4.87579E+03 ,  3.27941E+03 
 1180.000 ,     0.6557 ,  6.93571E+00 ,  8.78324E-01 ,  6.09181E+00 ,  4.88457E+03 ,  3.34033E+03 
 1190.000 ,     0.6557 ,  7.02064E+00 ,  8.69024E-01 ,  6.10110E+00 ,  4.89326E+03 ,  3.40134E+03 
 1200.000 ,     0.6557 ,  7.10597E+00 ,  8.59875E-01 ,  6.11025E+00 ,  4.90186E+03 ,  3.46244E+03 
 1210.000 ,     0.6557 ,  7.19225E+00 ,  8.50818E-01 ,  6.11930E+00 ,  4.91037E+03 ,  3.52363E+03 
 1220.000 ,     0.6557 ,  7.27990E+00 ,  8.41812E-01 ,  6.12831E+00 ,  4.91879E+03 ,  3.58492E+03 
 1230.000 ,     0.6557 ,  7.36924E+00 ,  8.32825E-01 ,  6.13729E+00 ,  4.92712E+03 ,  3.64629E+03 
 1240.000 ,     0.6557 ,  7.46072E+00 ,  8.23820E-01 ,  6.14630E+00 ,  4.93536E+03 ,  3.70775E+03 
 1250.000 ,     0.6557 ,  7.55480E+00 ,  8.14761E-01 ,  6.15536E+00 ,  4.94350E+03 ,  3.76931E+03 
 1260.000 ,     0.6557 ,  7.64906E+00 ,  8.05881E-01 ,  6.16424E+00 ,  4.95156E+03 ,  3.83095E+03 
 1270.000 ,     0.6557 ,  7.74290E+00 ,  7.97231E-01 ,  6.17288E+00 ,  4.95953E+03 ,  3.89268E+03 
 1280.000 ,     0.6557 ,  7.83533E+00 ,  7.88891E-01 ,  6.18122E+00 ,  4.96742E+03 ,  3.95449E+03 
 1290.000 ,     0.6557 ,  7.92589E+00 ,  7.80887E-01 ,  6.18922E+00 ,  4.97523E+03 ,  4.01638E+03 
 1300.000 ,     0.6556 ,  8.01468E+00 ,  7.73195E-01 ,  6.19691E+00 ,  4.98296E+03 ,  4.07835E+03 
 1310.000 ,     0.6556 ,  8.10227E+00 ,  7.65754E-01 ,  6.20435E+00 ,  4.99062E+03 ,  4.14040E+03 
 1320.000 ,     0.6556 ,  8.18929E+00 ,  7.58503E-01 ,  6.21160E+00 ,  4.99821E+03 ,  4.20251E+03 
 1330.000 ,     0.6556 ,  8.27640E+00 ,  7.51380E-01 ,  6.21872E+00 ,  5.00572E+03 ,  4.26470E+03 
 1340.000 ,     0.6556 ,  8.36370E+00 ,  7.44374E-01 ,  6.22573E+00 ,  5.01316E+03 ,  4.32696E+03 
 1350.000 ,     0.6556 ,  8.43765E+00 ,  7.38542E-01 ,  6.23156E+00 ,  5.02055E+03 ,  4.38927E+03 
 1360.000 ,     0.6556 ,  8.50888E+00 ,  7.33009E-01 ,  6.23709E+00 ,  5.02788E+03 ,  4.45164E+03 
 1370.000 ,     0.6556 ,  8.57972E+00 ,  7.27589E-01 ,  6.24251E+00 ,  5.03516E+03 ,  4.51407E+03 
 1380.000 ,     0.6556 ,  8.65139E+00 ,  7.22186E-01 ,  6.24791E+00 ,  5.04238E+03 ,  4.57655E+03 
 1390.000 ,     0.6556 ,  8.72446E+00 ,  7.16759E-01 ,  6.25334E+00 ,  5.04955E+03 ,  4.63908E+03 
 1400.000 ,     0.6556 ,  8.79903E+00 ,  7.11305E-01 ,  6.25879E+00 ,  5.05666E+03 ,  4.70167E+03 
 1410.000 ,     0.6556 ,  8.87490E+00 ,  7.05840E-01 ,  6.26425E+00 ,  5.06372E+03 ,  4.76431E+03 
 1420.000 ,     0.6556 ,  8.95175E+00 ,  7.00389E-01 ,  6.26970E+00 ,  5.07072E+03 ,  4.82701E+03 
 1430.000 ,     0.6556 ,  9.02782E+00 ,  6.95075E-01 ,  6.27502E+00 ,  5.07767E+03 ,  4.88976E+03 
 1440.000 ,     0.6556 ,  9.10238E+00 ,  6.89946E-01 ,  6.28014E+00 ,  5.08457E+03 ,  4.95256E+03 
 1450.000 ,     0.6556 ,  9.17471E+00 ,  6.85040E-01 ,  6.28505E+00 ,  5.09142E+03 ,  5.01541E+03 
 1460.000 ,     0.6556 ,  9.24430E+00 ,  6.80387E-01 ,  6.28970E+00 ,  5.09822E+03 ,  5.07831E+03 
 1470.000 ,     0.6556 ,  9.31105E+00 ,  6.75982E-01 ,  6.29410E+00 ,  5.10498E+03 ,  5.14125E+03 
 1480.000 ,     0.6556 ,  9.37504E+00 ,  6.71813E-01 ,  6.29827E+00 ,  5.11170E+03 ,  5.20423E+03 
 1490.000 ,     0.6556 ,  9.43659E+00 ,  6.67851E-01 ,  6.30223E+00 ,  5.11838E+03 ,  5.26725E+03 
 1500.000 ,     0.6556 ,  9.49617E+00 ,  6.64059E-01 ,  6.30602E+00 ,  5.12502E+03 ,  5.33031E+03 
 1510.000 ,     0.6556 ,  9.55429E+00 ,  6.60403E-01 ,  6.30968E+00 ,  5.13163E+03 ,  5.39341E+03 
 1520.000 ,     0.6555 ,  9.61142E+00 ,  6.56847E-01 ,  6.31323E+00 ,  5.13819E+03 ,  5.45654E+03 
 1530.000 ,     0.6555 ,  9.66819E+00 ,  6.53351E-01 ,  6.31673E+00 ,  5.14473E+03 ,  5.51971E+03 
 1540.000 ,     0.6555 ,  9.72496E+00 ,  6.49893E-01 ,  6.32018E+00 ,  5.15123E+03 ,  5.58291E+03 
 1550.000 ,     0.6555 ,  9.78235E+00 ,  6.46434E-01 ,  6.32364E+00 ,  5.15769E+03 ,  5.64615E+03 
 1560.000 ,     0.6555 ,  9.81915E+00 ,  6.44235E-01 ,  6.32584E+00 ,  5.16413E+03 ,  5.70941E+03 
 1570.000 ,     0.6555 ,  9.85553E+00 ,  6.42076E-01 ,  6.32800E+00 ,  5.17055E+03 ,  5.77269E+03 
 1580.000 ,     0.6555 ,  9.89149E+00 ,  6.39956E-01 ,  6.33012E+00 ,  5.17695E+03 ,  5.83599E+03 
 1590.000 ,     0.6555 ,  9.92504E+00 ,  6.37991E-01 ,  6.33208E+00 ,  5.18333E+03 ,  5.89931E+03 
 1600.000 ,     0.6555 ,  9.95935E+00 ,  6.35993E-01 ,  6.33408E+00 ,  5.18969E+03 ,  5.96265E+03 
 1610.000 ,     0.6555 ,  9.99444E+00 ,  6.33964E-01 ,  6.33611E+00 ,  5.19603E+03 ,  6.02601E+03 
 1620.000 ,     0.6555 ,  1.00308E+01 ,  6.31873E-01 ,  6.33820E+00 ,  5.20235E+03 ,  6.08939E+03 
 1630.000 ,     0.6555 ,  1.00687E+01 ,  6.29708E-01 ,  6.34037E+00 ,  5.20865E+03 ,  6.15280E+03 
 1640.000 ,     0.6555 ,  1.01084E+01 ,  6.27462E-01 ,  6.34261E+00 ,  5.21492E+03 ,  6.21622E+03 
 1650.000 ,     0.6555 ,  1.01499E+01 ,  6.25124E-01 ,  6.34495E+00 ,  5.22118E+03 ,  6.27967E+03 
 1660.000 ,     0.6555 ,  1.01935E+01 ,  6.22690E-01 ,  6.34738E+00 ,  5.22740E+03 ,  6.34314E+03 
 1670.000 ,     0.6555 ,  1.02391E+01 ,  6.20161E-01 ,  6.34991E+00 ,  5.23360E+03 ,  6.40664E+03 
 1680.000 ,     0.6555 ,  1.02868E+01 ,  6.17544E-01 ,  6.35253E+00 ,  5.23978E+03 ,  6.47017E+03 
 1690.000 ,     0.6555 ,  1.03362E+01 ,  6.14848E-01 ,  6.35523E+00 ,  5.24593E+03 ,  6.53372E+03 
 1700.000 ,     0.6555 ,  1.03875E+01 ,  6.12082E-01 ,  6.35799E+00 ,  5.25205E+03 ,  6.59730E+03 
 1710.000 ,     0.6555 ,  1.04404E+01 ,  6.09251E-01 ,  6.36082E+00 ,  5.25814E+03 ,  6.66091E+03 
 1720.000 ,     0.6555 ,  1.04940E+01 ,  6.06408E-01 ,  6.36366E+00 ,  5.26420E+03 ,  6.72455E+03 
 1730.000 ,     0.6555 ,  1.05484E+01 ,  6.03553E-01 ,  6.36652E+00 ,  5.27024E+03 ,  6.78821E+03 
 1740.000 ,     0.6555 ,  1.06034E+01 ,  6.00691E-01 ,  6.36938E+00 ,  5.27625E+03 ,  6.85191E+03 
 1750.000 ,     0.6555 ,  1.06591E+01 ,  5.97821E-01 ,  6.37225E+00 ,  5.28223E+03 ,  6.91563E+03 
 1760.000 ,     0.6555 ,  1.07157E+01 ,  5.94935E-01 ,  6.37513E+00 ,  5.28817E+03 ,  6.97938E+03 
 1770.000 ,     0.6555 ,  1.07732E+01 ,  5.92027E-01 ,  6.37804E+00 ,  5.29410E+03 ,  7.04316E+03 
 1780.000 ,     0.6555 ,  1.08319E+01 ,  5.89091E-01 ,  6.38098E+00 ,  5.29999E+03 ,  7.10697E+03 
 1790.000 ,     0.6555 ,  1.08919E+01 ,  5.86121E-01 ,  6.38395E+00 ,  5.30585E+03 ,  7.17081E+03 
 1800.000 ,     0.6555 ,  1.09530E+01 ,  5.83121E-01 ,  6.38694E+00 ,  5.31168E+03 ,  7.23468E+03 
 1810.000 ,     0.6555 ,  1.10053E+01 ,  5.80584E-01 ,  6.38948E+00 ,  5.31748E+03 ,  7.29857E+03 
 1820.000 ,     0.6555 ,  1.10557E+01 ,  5.78157E-01 ,  6.39191E+00 ,  5.32327E+03 ,  7.36249E+03 
 1830.000 ,     0.6555 ,  1.11046E+01 ,  5.75820E-01 ,  6.39424E+00 ,  5.32902E+03 ,  7.42643E+03 
 1840.000 ,     0.6555 ,  1.11519E+01 ,  5.73580E-01 ,  6.39648E+00 ,  5.33476E+03 ,  7.49040E+03 
 1850.000 ,     0.6555 ,  1.11976E+01 ,  5.71429E-01 ,  6.39863E+00 ,  5.34047E+03 ,  7.55439E+03 
 1860.000 ,     0.6555 ,  1.12418E+01 ,  5.69365E-01 ,  6.40070E+00 ,  5.34617E+03 ,  7.61839E+03 
 1870.000 ,     0.6555 ,  1.12845E+01 ,  5.67388E-01 ,  6.40267E+00 ,  5.35184E+03 ,  7.68242E+03 
 1880.000 ,     0.6555 ,  1.13257E+01 ,  5.65491E-01 ,  6.40457E+00 ,  5.35750E+03 ,  7.74647E+03 
 1890.000 ,     0.6555 ,  1.13656E+01 ,  5.63664E-01 ,  6.40640E+00 ,  5.36313E+03 ,  7.81053E+03 
 1900.000 ,     0.6555 ,  1.14045E+01 ,  5.61899E-01 ,  6.40816E+00 ,  5.36875E+03 ,  7.87461E+03 
 1910.000 ,     0.6555 ,  1.14424E+01 ,  5.60188E-01 ,  6.40987E+00 ,  5.37435E+03 ,  7.93871E+03 
 1920.000 ,     0.6555 ,  1.14795E+01 ,  5.58519E-01 ,  6.41154E+00 ,  5.37994E+03 ,  8.00282E+03 
 1930.000 ,     0.6555 ,  1.15163E+01 ,  5.56880E-01 ,  6.41318E+00 ,  5.38551E+03 ,  8.06696E+03 
 1940.000 ,     0.6555 ,  1.15528E+01 ,  5.55260E-01 ,  6.41480E+00 ,  5.39106E+03 ,  8.13110E+03 
 1950.000 ,     0.6555 ,  1.15894E+01 ,  5.53647E-01 ,  6.41641E+00 ,  5.39660E+03 ,  8.19527E+03 
 1960.000 ,     0.6555 ,  1.16262E+01 ,  5.52029E-01 ,  6.41803E+00 ,  5.40212E+03 ,  8.25945E+03 
 1970.000 ,     0.6555 ,  1.16637E+01 ,  5.50396E-01 ,  6.41966E+00 ,  5.40762E+03 ,  8.32365E+03 
 1980.000 ,     0.6555 ,  1.17021E+01 ,  5.48734E-01 ,  6.42133E+00 ,  5.41311E+03 ,  8.38786E+03 
 1990.000 ,     0.6555 ,  1.17416E+01 ,  5.47033E-01 ,  6.42303E+00 ,  5.41858E+03 ,  8.45209E+03 
 2000.000 ,     0.6555 ,  1.17824E+01 ,  5.45284E-01 ,  6.42478E+00 ,  5.42403E+03 ,  8.51634E+03 
 2010.000 ,     0.6555 ,  1.18215E+01 ,  5.43621E-01 ,  6.42644E+00 ,  5.42947E+03 ,  8.58060E+03 
 2020.000 ,     0.6555 ,  1.18576E+01 ,  5.42097E-01 ,  6.42796E+00 ,  5.43489E+03 ,  8.64488E+03 
 2030.000 ,     0.6555 ,  1.18922E+01 ,  5.40640E-01 ,  6.42942E+00 ,  5.44030E+03 ,  8.70918E+03 
 2040.000 ,     0.6554 ,  1.19275E+01 ,  5.39166E-01 ,  6.43090E+00 ,  5.44569E+03 ,  8.77348E+03 
 2050.000 ,     0.6554 ,  1.19595E+01 ,  5.37835E-01 ,  6.43223E+00 ,  5.45107E+03 ,  8.83781E+03 
 2060.000 ,     0.6554 ,  1.19888E+01 ,  5.36623E-01 ,  6.43344E+00 ,  5.45643E+03 ,  8.90214E+03 
 2070.000 ,     0.6554 ,  1.20180E+01 ,  5.35417E-01 ,  6.43464E+00 ,  5.46179E+03 ,  8.96649E+03 
 2080.000 ,     0.6554 ,  1.20475E+01 ,  5.34208E-01 ,  6.43585E+00 ,  5.46713E+03 ,  9.03085E+03 
 2090.000 ,     0.6554 ,  1.20773E+01 ,  5.32987E-01 ,  6.43707E+00 ,  5.47246E+03 ,  9.09522E+03 
 2100.000 ,     0.6554 ,  1.21078E+01 ,  5.31749E-01 ,  6.43831E+00 ,  5.47778E+03 ,  9.15960E+03 
 2110.000 ,     0.6554 ,  1.21390E+01 ,  5.30488E-01 ,  6.43957E+00 ,  5.48308E+03 ,  9.22400E+03 
 2120.000 ,     0.6554 ,  1.21710E+01 ,  5.29199E-01 ,  6.44086E+00 ,  5.48837E+03 ,  9.28840E+03 
 2130.000 ,     0.6554 ,  1.22038E+01 ,  5.27881E-01 ,  6.44218E+00 ,  5.49365E+03 ,  9.35283E+03 
 2140.000 ,     0.6554 ,  1.22376E+01 ,  5.26536E-01 ,  6.44353E+00 ,  5.49892E+03 ,  9.41726E+03 
 2150.000 ,     0.6554 ,  1.22721E+01 ,  5.25165E-01 ,  6.44490E+00 ,  5.50417E+03 ,  9.48171E+03 
 2160.000 ,     0.6554 ,  1.23074E+01 ,  5.23773E-01 ,  6.44629E+00 ,  5.50941E+03 ,  9.54617E+03 
 2170.000 ,     0.6554 ,  1.23433E+01 ,  5.22364E-01 ,  6.44770E+00 ,  5.51463E+03 ,  9.61065E+03 
 2180.000 ,     0.6554 ,  1.23799E+01 ,  5.20936E-01 ,  6.44912E+00 ,  5.51984E+03 ,  9.67514E+03 
 2190.000 ,     0.6554 ,  1.24170E+01 ,  5.19493E-01 ,  6.45057E+00 ,  5.52503E+03 ,  9.73965E+03 
 2200.000 ,     0.6554 ,  1.24547E+01 ,  5.18039E-01 ,  6.45202E+00 ,  5.53021E+03 ,  9.80417E+03 
 2210.000 ,     0.6554 ,  1.24927E+01 ,  5.16580E-01 ,  6.45348E+00 ,  5.53538E+03 ,  9.86870E+03 
 2220.000 ,     0.6554 ,  1.25310E+01 ,  5.15120E-01 ,  6.45494E+00 ,  5.54053E+03 ,  9.93325E+03 
 2230.000 ,     0.6554 ,  1.25696E+01 ,  5.13651E-01 ,  6.45641E+00 ,  5.54567E+03 ,  9.99782E+03 
 2240.000 ,     0.6554 ,  1.26087E+01 ,  5.12178E-01 ,  6.45788E+00 ,  5.55079E+03 ,  1.00624E+04 
 2250.000 ,     0.6554 ,  1.26480E+01 ,  5.10700E-01 ,  6.45936E+00 ,  5.55590E+03 ,  1.01270E+04 
 2260.000 ,     0.6554 ,  1.26881E+01 ,  5.09207E-01 ,  6.46085E+00 ,  5.56099E+03 ,  1.01916E+04 
 2270.000 ,     0.6554 ,  1.27292E+01 ,  5.07681E-01 ,  6.46238E+00 ,  5.56607E+03 ,  1.02562E+04 
 2280.000 ,     0.6554 ,  1.27717E+01 ,  5.06115E-01 ,  6.46394E+00 ,  5.57113E+03 ,  1.03209E+04 
 2290.000 ,     0.6554 ,  1.28018E+01 ,  5.05012E-01 ,  6.46505E+00 ,  5.57618E+03 ,  1.03855E+04 
 2300.000 ,     0.6554 ,  1.28351E+01 ,  5.03794E-01 ,  6.46626E+00 ,  5.58121E+03 ,  1.04502E+04 
 2310.000 ,     0.6554 ,  1.28734E+01 ,  5.02405E-01 ,  6.46765E+00 ,  5.58624E+03 ,  1.05148E+04 
 2320.000 ,     0.6554 ,  1.29168E+01 ,  5.00837E-01 ,  6.46922E+00 ,  5.59125E+03 ,  1.05795E+04 
 2330.000 ,     0.6554 ,  1.29651E+01 ,  4.99107E-01 ,  6.47095E+00 ,  5.59624E+03 ,  1.06443E+04 
 2340.000 ,     0.6554 ,  1.30205E+01 ,  4.97133E-01 ,  6.47292E+00 ,  5.60121E+03 ,  1.07090E+04 
 2350.000 ,     0.6554 ,  1.30829E+01 ,  4.94931E-01 ,  6.47513E+00 ,  5.60616E+03 ,  1.07737E+04 
 2360.000 ,     0.6554 ,  1.31512E+01 ,  4.92542E-01 ,  6.47752E+00 ,  5.61108E+03 ,  1.08385E+04 
 2370.000 ,     0.6554 ,  1.32239E+01 ,  4.90026E-01 ,  6.48003E+00 ,  5.61598E+03 ,  1.09033E+04 
 2380.000 ,     0.6554 ,  1.32994E+01 ,  4.87439E-01 ,  6.48262E+00 ,  5.62086E+03 ,  1.09681E+04 
 2390.000 ,     0.6554 ,  1.33765E+01 ,  4.84824E-01 ,  6.48523E+00 ,  5.62571E+03 ,  1.10330E+04 
 2400.000 ,     0.6554 ,  1.34542E+01 ,  4.82215E-01 ,  6.48784E+00 ,  5.63053E+03 ,  1.10979E+04 
 2410.000 ,     0.6554 ,  1.35321E+01 ,  4.79632E-01 ,  6.49042E+00 ,  5.63533E+03 ,  1.11628E+04 
 2420.000 ,     0.6554 ,  1.36099E+01 ,  4.77077E-01 ,  6.49298E+00 ,  5.64010E+03 ,  1.12277E+04 
 2430.000 ,     0.6554 ,  1.36876E+01 ,  4.74554E-01 ,  6.49550E+00 ,  5.64484E+03 ,  1.12927E+04 
 2440.000 ,     0.6554 ,  1.37653E+01 ,  4.72056E-01 ,  6.49800E+00 ,  5.64956E+03 ,  1.13576E+04 
 2450.000 ,     0.6554 ,  1.38433E+01 ,  4.69574E-01 ,  6.50048E+00 ,  5.65426E+03 ,  1.14226E+04 
 2460.000 ,     0.6554 ,  1.39220E+01 ,  4.67099E-01 ,  6.50295E+00 ,  5.65893E+03 ,  1.14877E+04 
 2470.000 ,     0.6554 ,  1.40017E+01 ,  4.64618E-01 ,  6.50543E+00 ,  5.66358E+03 ,  1.15527E+04 
 2480.000 ,     0.6554 ,  1.40828E+01 ,  4.62118E-01 ,  6.50793E+00 ,  5.66820E+03 ,  1.16178E+04 
 2490.000 ,     0.6554 ,  1.41660E+01 ,  4.59585E-01 ,  6.51047E+00 ,  5.67279E+03 ,  1.16829E+04 
 2500.000 ,     0.6554 ,  1.42405E+01 ,  4.57337E-01 ,  6.51272E+00 ,  5.67737E+03 ,  1.17480E+04 
 2510.000 ,     0.6554 ,  1.43128E+01 ,  4.55179E-01 ,  6.51487E+00 ,  5.68192E+03 ,  1.18132E+04 
 2520.000 ,     0.6554 ,  1.43867E+01 ,  4.52991E-01 ,  6.51706E+00 ,  5.68645E+03 ,  1.18784E+04 
 2530.000 ,     0.6554 ,  1.44619E+01 ,  4.50789E-01 ,  6.51926E+00 ,  5.69096E+03 ,  1.19435E+04 
 2540.000 ,     0.6554 ,  1.45384E+01 ,  4.48569E-01 ,  6.52148E+00 ,  5.69544E+03 ,  1.20088E+04 
 2550.000 ,     0.6554 ,  1.46160E+01 ,  4.46340E-01 ,  6.52371E+00 ,  5.69990E+03 ,  1.20740E+04 
 2560.000 ,     0.6554 ,  1.46942E+01 ,  4.44117E-01 ,  6.52593E+00 ,  5.70435E+03 ,  1.21393E+04 
 2570.000 ,     0.6554 ,  1.47726E+01 ,  4.41908E-01 ,  6.52814E+00 ,  5.70876E+03 ,  1.22045E+04 
 2580.000 ,     0.6554 ,  1.48510E+01 ,  4.39722E-01 ,  6.53033E+00 ,  5.71316E+03 ,  1.22698E+04 
 2590.000 ,     0.6554 ,  1.49292E+01 ,  4.37565E-01 ,  6.53248E+00 ,  5.71754E+03 ,  1.23352E+04 
 2600.000 ,     0.6554 ,  1.49926E+01 ,  4.35830E-01 ,  6.53422E+00 ,  5.72190E+03 ,  1.24005E+04 
 2610.000 ,     0.6554 ,  1.50419E+01 ,  4.34490E-01 ,  6.53556E+00 ,  5.72624E+03 ,  1.24659E+04 
 2620.000 ,     0.6554 ,  1.50921E+01 ,  4.33136E-01 ,  6.53691E+00 ,  5.73057E+03 ,  1.25312E+04 
 2630.000 ,     0.6554 ,  1.51434E+01 ,  4.31758E-01 ,  6.53829E+00 ,  5.73489E+03 ,  1.25966E+04 
 2640.000 ,     0.6554 ,  1.51961E+01 ,  4.30353E-01 ,  6.53969E+00 ,  5.73919E+03 ,  1.26620E+04 
 2650.000 ,     0.6554 ,  1.52504E+01 ,  4.28916E-01 ,  6.54113E+00 ,  5.74348E+03 ,  1.27274E+04 
 2660.000 ,     0.6554 ,  1.53055E+01 ,  4.27467E-01 ,  6.54258E+00 ,  5.74776E+03 ,  1.27928E+04 
 2670.000 ,     0.6554 ,  1.53620E+01 ,  4.25989E-01 ,  6.54406E+00 ,  5.75202E+03 ,  1.28583E+04 
 2680.000 ,     0.6554 ,  1.54204E+01 ,  4.24474E-01 ,  6.54557E+00 ,  5.75626E+03 ,  1.29237E+04 
 2690.000 ,     0.6554 ,  1.54810E+01 ,  4.22915E-01 ,  6.54713E+00 ,  5.76049E+03 ,  1.29892E+04 
 2700.000 ,     0.6554 ,  1.55439E+01 ,  4.21307E-01 ,  6.54874E+00 ,  5.76470E+03 ,  1.30547E+04 
 2710.000 ,     0.6553 ,  1.56094E+01 ,  4.19645E-01 ,  6.55040E+00 ,  5.76890E+03 ,  1.31202E+04 
 2720.000 ,     0.6553 ,  1.56777E+01 ,  4.17926E-01 ,  6.55212E+00 ,  5.77308E+03 ,  1.31857E+04 
 2730.000 ,     0.6553 ,  1.57490E+01 ,  4.16146E-01 ,  6.55390E+00 ,  5.77724E+03 ,  1.32513E+04 
 2740.000 ,     0.6553 ,  1.58235E+01 ,  4.14304E-01 ,  6.55574E+00 ,  5.78138E+03 ,  1.33168E+04 
 2750.000 ,     0.6553 ,  1.58975E+01 ,  4.12489E-01 ,  6.55756E+00 ,  5.78551E+03 ,  1.33824E+04 
 2760.000 ,     0.6553 ,  1.59731E+01 ,  4.10654E-01 ,  6.55939E+00 ,  5.78962E+03 ,  1.34480E+04 
 2770.000 ,     0.6553 ,  1.60501E+01 ,  4.08797E-01 ,  6.56125E+00 ,  5.79370E+03 ,  1.35136E+04 
 2780.000 ,     0.6553 ,  1.61286E+01 ,  4.06924E-01 ,  6.56312E+00 ,  5.79777E+03 ,  1.35792E+04 
 2790.000 ,     0.6553 ,  1.62083E+01 ,  4.05039E-01 ,  6.56501E+00 ,  5.80182E+03 ,  1.36449E+04 
 2800.000 ,     0.6553 ,  1.62890E+01 ,  4.03149E-01 ,  6.56690E+00 ,  5.80585E+03 ,  1.37106E+04 
 2810.000 ,     0.6553 ,  1.63703E+01 ,  4.01262E-01 ,  6.56878E+00 ,  5.80987E+03 ,  1.37762E+04 
 2820.000 ,     0.6553 ,  1.64495E+01 ,  3.99441E-01 ,  6.57060E+00 ,  5.81386E+03 ,  1.38420E+04 
 2830.000 ,     0.6553 ,  1.65286E+01 ,  3.97639E-01 ,  6.57240E+00 ,  5.81784E+03 ,  1.39077E+04 
 2840.000 ,     0.6553 ,  1.66078E+01 ,  3.95851E-01 ,  6.57419E+00 ,  5.82180E+03 ,  1.39734E+04 
 2850.000 ,     0.6553 ,  1.66666E+01 ,  3.94532E-01 ,  6.57551E+00 ,  5.82574E+03 ,  1.40392E+04 
 2860.000 ,     0.6553 ,  1.67213E+01 ,  3.93314E-01 ,  6.57673E+00 ,  5.82967E+03 ,  1.41049E+04 
 2870.000 ,     0.6553 ,  1.67749E+01 ,  3.92129E-01 ,  6.57791E+00 ,  5.83360E+03 ,  1.41707E+04 
 2880.000 ,     0.6553 ,  1.68276E+01 ,  3.90968E-01 ,  6.57907E+00 ,  5.83751E+03 ,  1.42365E+04 
 2890.000 ,     0.6553 ,  1.68796E+01 ,  3.89832E-01 ,  6.58021E+00 ,  5.84140E+03 ,  1.43023E+04 
 2900.000 ,     0.6553 ,  1.69307E+01 ,  3.88722E-01 ,  6.58132E+00 ,  5.84529E+03 ,  1.43681E+04 
 2910.000 ,     0.6553 ,  1.69809E+01 ,  3.87637E-01 ,  6.58240E+00 ,  5.84917E+03 ,  1.44339E+04 
 2920.000 ,     0.6553 ,  1.70302E+01 ,  3.86575E-01 ,  6.58347E+00 ,  5.85303E+03 ,  1.44998E+04 
 2930.000 ,     0.6553 ,  1.70789E+01 ,  3.85535E-01 ,  6.58451E+00 ,  5.85689E+03 ,  1.45656E+04 
 2940.000 ,     0.6553 ,  1.71269E+01 ,  3.84513E-01 ,  6.58553E+00 ,  5.86073E+03 ,  1.46315E+04 
 2950.000 ,     0.6553 ,  1.71744E+01 ,  3.83509E-01 ,  6.58653E+00 ,  5.86457E+03 ,  1.46973E+04 
 2960.000 ,     0.6553 ,  1.72215E+01 ,  3.82518E-01 ,  6.58752E+00 ,  5.86839E+03 ,  1.47632E+04 
 2970.000 ,     0.6553 ,  1.72683E+01 ,  3.81538E-01 ,  6.58850E+00 ,  5.87221E+03 ,  1.48291E+04 
 2980.000 ,     0.6553 ,  1.73150E+01 ,  3.80565E-01 ,  6.58947E+00 ,  5.87602E+03 ,  1.48950E+04 
 2990.000 ,     0.6553 ,  1.73536E+01 ,  3.79764E-01 ,  6.59028E+00 ,  5.87981E+03 ,  1.49609E+04 
 3000.000 ,     0.6553 ,  1.73903E+01 ,  3.79005E-01 ,  6.59103E+00 ,  5.88360E+03 ,  1.50268E+04 
