Sw,Distance
0.8,0.00
0.7979224137931035,2.743072521122201e-2 
0.7958448275862069,5.543507315535871e-2 
0.7937672413793104,8.402277138983926e-2 
0.7916896551724139,0.11320366674776777 
0.7896120689655173,0.14298772469357086 
0.7875344827586207,0.17338502854928895 
0.7854568965517241,0.20440577858492096 
0.7833793103448277,0.23606029096603549 
0.7813017241379311,0.26835899655165348 
0.7792241379310345,0.3013124395350784 
0.777146551724138,0.3349312759202078 
0.7750689655172415,0.3692262718256195 
0.7729913793103449,0.40420830160827339 
0.7709137931034483,0.43988834579875826 
0.7688362068965517,0.47627748883942869 
0.7667586206896553,0.5133869166166963 
0.7646810344827587,0.5512279137784546 
0.7626034482758621,0.5898118608272984 
0.7605258620689656,0.629150230979955 
0.758448275862069,0.6692545867831774 
0.7563706896551725,0.7101365764758423 
0.7542931034482759,0.7518079300870136 
0.7522155172413794,0.7942804552592663 
0.7501379310344828,0.8375660327863572 
0.7480603448275862,0.881676611854109 
0.7459827586206898,0.9266242049730654 
0.7439051724137932,0.9724208825912286 
0.7418275862068966,1.0190787673749089 
0.73975,1.0666100281456439 
0.7376724137931034,1.115026873460562 
0.735594827586207,1.1643415448237764 
0.7335172413793104,1.2145663095157662 
0.7314396551724138,1.2657134530277797 
0.7293620689655174,1.317795271087959 
0.7272844827586208,1.3708240612657905 
0.7252068965517242,1.4248121141411785 
0.7231293103448276,1.479771704024522 
0.7210517241379311,1.535715079213765 
0.7189741379310346,1.5926544517745878 
0.716896551724138,1.6506019868295264 
0.7148189655172415,1.7095697913419892 
0.7127413793103449,1.7695699023809489 
0.7106637931034483,1.830614274852234 
0.7085862068965518,1.8927147686821713 
0.7065086206896553,1.9558831354396807 
0.7044310344827587,2.0201310043826856 
0.7023534482758621,2.0854698679152197 
0.7002758620689655,2.1519110664414788 
0.6981982758620691,2.2194657726035409 
0.6961206896551725,2.288144974889581 
0.6940431034482759,2.3579594605999056 
0.6919655172413793,2.428919798158395 
0.6898879310344828,2.501036318757539 
0.6878103448275863,2.5743190973256 
0.6857327586206897,2.6487779328052056 
0.6836551724137931,2.7244223277332129 
0.6815775862068966,2.8012614671124029 
0.6795,2.879304196566559 
0.6774224137931035,2.9585589997711456 
0.675344827586207,3.0390339751529025 
0.6732672413793104,3.1207368118527687 
0.6711896551724138,3.203674764947731 
0.6691120689655172,3.2878546299282389 
0.6670344827586208,3.3732827164296266 
0.6649568965517242,3.4599648212169629 
0.6628793103448276,3.547906200424806 
0.6608017241379312,3.637111541054591 
0.6587241379310346,3.727584931734747 
0.656646551724138,3.8193298327498574 
0.6545689655172414,3.9123490453481519 
0.6524913793103448,4.006644680337834 
0.6504137931034484,4.102218125986026 
0.6483362068965518,4.199070015235756 
0.6462586206896552,4.29720019225966 
0.6441810344827587,4.3966076783713359 
0.6421034482758621,4.497290637318565 
0.6400258620689656,4.599246339985196 
0.637948275862069,4.702471128532219 
0.6358706896551725,4.806960380011165 
0.6337931034482759,4.912708469487157 
0.6317155172413793,5.01970873271186 
0.6296379310344829,5.1279534283908358 
0.6275603448275863,5.237433700093232 
0.6254827586206897,5.34813953785612 
0.6234051724137932,5.460059739539527 
0.6213275862068967,5.573181871992852 
0.6192500000000001,5.687492232097349 
0.6171724137931035,5.802975807753972 
0.6150948275862069,5.9196162388906459 
0.6130172413793104,6.037395778567198 
0.6109396551724138,6.156295254261322 
0.6088620689655173,6.276294029423678 
0.6067844827586207,6.3973699653948279 
0.6047068965517242,6.519499383781809 
0.6026293103448277,6.642657029397079 
0.6005517241379311,6.766816033867173 
0.5984741379310345,6.891947880023626 
0.596396551724138,7.018022367193217 
0.5943189655172414,7.145007577509766 
0.5922413793103449,7.272869843373782 
0.5901637931034484,7.401573716191624 
0.5880862068965518,7.531081936529239 
0.5860086206896552,7.661355405820905 
0.5839310344827586,7.792353159776354 
0.5818534482758622,7.924032343634397 
0.5797758620689656,8.056348189413799 
0.577698275862069,8.18925399531616 
0.5756206896551724,8.32270110743794 
0.5745818965517242,8.389611911261277 
0.5735431034482759,8.456638903951323 
0.5725043103448276,8.523775448127222 
0.5714655172413794,8.59101478191586 
0.570426724137931,8.65835001869506 
0.5693879310344828,8.725774146884323 
0.5683491379310346,8.793280029784445 
0.5673103448275862,8.860860405467174 
0.566271551724138,8.928507886716196 
0.5652327586206898,8.996214961020995 
0.5641939655172414,9.063973990624485 
0.5631551724137932,9.131777212625959 
0.562116379310345,9.199616739140561 
0.5610775862068966,9.267484557516579 
0.5600387931034483,9.335372530611675 
0.559,9.403272397129462 
0.2,9.404 
0.2,100
