Sw,Distance
0.8,0. 
0.7979224137931035,0.10972290084488805 
0.7958448275862069,0.22174029262143486 
0.7937672413793104,0.336091085559357 
0.7916896551724139,0.4528146669910711 
0.7896120689655173,0.5719508987742834 
0.7875344827586207,0.6935401141971558 
0.7854568965517241,0.8176231143396838 
0.7833793103448277,0.9442411638641419 
0.7813017241379311,1.0734359862066139 
0.7792241379310345,1.2052497581403137 
0.777146551724138,1.3397251036808314 
0.7750689655172415,1.476905087302478 
0.7729913793103449,1.6168332064330935 
0.7709137931034483,1.759553383195033 
0.7688362068965517,1.9051099553577147 
0.7667586206896553,2.0535476664667855 
0.7646810344827587,2.2049116551138185 
0.7626034482758621,2.3592474433091938 
0.7605258620689656,2.51660092391982 
0.758448275862069,2.6770183471327098 
0.7563706896551725,2.840546305903369 
0.7542931034482759,3.0072317203480547 
0.7522155172413794,3.177121821037065 
0.7501379310344828,3.350264131145429 
0.7480603448275862,3.526706447416436 
0.7459827586206898,3.7064968198922618 
0.7439051724137932,3.8896835303649146 
0.7418275862068966,4.0763150694996359 
0.73975,4.2664401125825759 
0.7376724137931034,4.460107493842248 
0.735594827586207,4.6573661792951059 
0.7335172413793104,4.858265238063065 
0.7314396551724138,5.062853812111118 
0.7293620689655174,5.271181084351836 
0.7272844827586208,5.483296245063162 
0.7252068965517242,5.699248456564714 
0.7231293103448276,5.919086816098088 
0.7210517241379311,6.14286031685506 
0.7189741379310346,6.370617807098351 
0.716896551724138,6.602407947318105 
0.7148189655172415,6.838279165367957 
0.7127413793103449,7.078279609523795 
0.7106637931034483,7.322457099408936 
0.7085862068965518,7.570859074728685 
0.7065086206896553,7.8235325417587229 
0.7044310344827587,8.080524017530742 
0.7023534482758621,8.341879471660878 
0.7002758620689655,8.607644265765915 
0.6981982758620691,8.877863090414163 
0.6961206896551725,9.152579899558324 
0.6940431034482759,9.431837842399622 
0.6919655172413793,9.71567919263358 
0.6898879310344828,10.004145275030157 
0.6878103448275863,10.2972763893024 
0.6857327586206897,10.595111731220822 
0.6836551724137931,10.89768931093285 
0.6815775862068966,11.205045868449611 
0.6795,11.517216786266236 
0.6774224137931035,11.834235999084582 
0.675344827586207,12.15613590061161 
0.6732672413793104,12.482947247411074 
0.6711896551724138,12.814699059790924 
0.6691120689655172,13.151418519712955 
0.6670344827586208,13.493130865718506 
0.6649568965517242,13.83985928486785 
0.6628793103448276,14.191624801699224 
0.6608017241379312,14.548446164218364 
0.6587241379310346,14.910339726938988 
0.656646551724138,15.277319330999429 
0.6545689655172414,15.649396181392607 
0.6524913793103448,16.026578721351336 
0.6504137931034484,16.408872503944104 
0.6483362068965518,16.796280060943024 
0.6462586206896552,17.18880076903864 
0.6441810344827587,17.586430713485343 
0.6421034482758621,17.98916254927426 
0.6400258620689656,18.396985359940787 
0.637948275862069,18.809884514128876 
0.6358706896551725,19.22784152004466 
0.6337931034482759,19.650833877948629 
0.6317155172413793,20.07883493084744 
0.6296379310344829,20.511813713563343 
0.6275603448275863,20.949734800372928 
0.6254827586206897,21.39255815142448 
0.6234051724137932,21.840238958158108 
0.6213275862068967,22.29272748797141 
0.6192500000000001,22.749968928389398 
0.6171724137931035,23.21190323101589 
0.6150948275862069,23.678464955562583 
0.6130172413793104,24.149583114268795 
0.6109396551724138,24.62518101704529 
0.6088620689655173,25.10517611769471 
0.6067844827586207,25.58947986157931 
0.6047068965517242,26.077997535127236 
0.6026293103448277,26.570628117588318 
0.6005517241379311,27.06726413546869 
0.5984741379310345,27.567791520094504 
0.596396551724138,28.07208946877287 
0.5943189655172414,28.580030310039065 
0.5922413793103449,29.09147937349513 
0.5901637931034484,29.606294864766498 
0.5880862068965518,30.124327746116959 
0.5860086206896552,30.64542162328362 
0.5839310344827586,31.169412639105418 
0.5818534482758622,31.696129374537589 
0.5797758620689656,32.22539275765519 
0.577698275862069,32.75701598126464 
0.5756206896551724,33.29080442975176 
0.5745818965517242,33.558447645045109 
0.5735431034482759,33.82655561580529 
0.5725043103448276,34.095101792508888 
0.5714655172413794,34.36405912766344 
0.570426724137931,34.63340007478024 
0.5693879310344828,34.90309658753729 
0.5683491379310346,35.17312011913778 
0.5673103448275862,35.44344162186869 
0.566271551724138,35.71403154686478 
0.5652327586206898,35.98485984408398 
0.5641939655172414,36.25589596249794 
0.5631551724137932,36.527108850503839 
0.562116379310345,36.798466956562247 
0.5610775862068966,37.06993823006631 
0.5600387931034483,37.3414901224467 
0.559,37.613089588517848 
0.2,37.614
0.2,100
