\relax 
\catcode `:\active 
\catcode `;\active 
\catcode `!\active 
\catcode `?\active 
\select@language{english}
\@writefile{toc}{\select@language{english}}
\@writefile{lof}{\select@language{english}}
\@writefile{lot}{\select@language{english}}
\select@language{french}
\@writefile{toc}{\select@language{french}}
\@writefile{lof}{\select@language{french}}
\@writefile{lot}{\select@language{french}}
\select@language{english}
\@writefile{toc}{\select@language{english}}
\@writefile{lof}{\select@language{english}}
\@writefile{lot}{\select@language{english}}
\@writefile{toc}{\contentsline {subsection}{\numberline {0.1}}{1}}
\select@language{french}
\@writefile{toc}{\select@language{french}}
\@writefile{lof}{\select@language{french}}
\@writefile{lot}{\select@language{french}}
\select@language{english}
\@writefile{toc}{\select@language{english}}
\@writefile{lof}{\select@language{english}}
\@writefile{lot}{\select@language{english}}
\@writefile{toc}{\contentsline {subsection}{\numberline {0.2}}{1}}
\select@language{french}
\@writefile{toc}{\select@language{french}}
\@writefile{lof}{\select@language{french}}
\@writefile{lot}{\select@language{french}}
\select@language{english}
\@writefile{toc}{\select@language{english}}
\@writefile{lof}{\select@language{english}}
\@writefile{lot}{\select@language{english}}
\@writefile{toc}{\contentsline {subsection}{\numberline {0.3}}{1}}
\select@language{french}
\@writefile{toc}{\select@language{french}}
\@writefile{lof}{\select@language{french}}
\@writefile{lot}{\select@language{french}}
\select@language{english}
\@writefile{toc}{\select@language{english}}
\@writefile{lof}{\select@language{english}}
\@writefile{lot}{\select@language{english}}
\@writefile{toc}{\contentsline {subsection}{\numberline {0.4}}{1}}
\@writefile{toc}{\contentsline {section}{\numberline {1}Etude PVT:}{1}}
\@writefile{toc}{\contentsline {subsection}{\numberline {1.1}1.Les principaux tests du l{}'etude PVT~:}{1}}
\@writefile{toc}{\contentsline {subsubsection}{\numberline {1.1.1}1.1. Expansion \`a composition constante (CCE):}{2}}
\@writefile{toc}{\contentsline {subsubsection}{\numberline {1.1.2}1.2.Lib\'eration diff\'erentielle (DL) :}{3}}
\@writefile{toc}{\contentsline {subsubsection}{\numberline {1.1.3}1.3.Test de s\'eparateur (TS)~:}{5}}
\@writefile{toc}{\contentsline {subsection}{\numberline {1.2}2.Commentaire des r\'esultats~:}{6}}
