Time,Dt
6.355211000000000058e+04,2.623259999999999854e+04
5.417405444855967071e+05,1.214310000000000036e+04
9.816156999999999534e+05,1.211189999999999964e+04
1.351742130452674814e+06,1.123620000000000073e+04
1.717294000000000000e+06,1.122989999999999964e+04
2.075703777777777519e+06,1.118929999999999927e+04
2.434220000000000000e+06,1.123010000000000036e+04
2.793254386831275653e+06,1.117689999999999964e+04
3.151954000000000000e+06,1.117510000000000036e+04
3.507540617283950560e+06,1.101770000000000073e+04
3.862094000000000000e+06,1.101510000000000036e+04
4.213118641975308768e+06,1.092079999999999927e+04
4.563572000000000000e+06,1.092279999999999927e+04
4.910935012345679104e+06,5.122250000000000000e+03
5.255852000000000000e+06,1.090239999999999964e+04
5.604826024691357277e+06,1.091539999999999964e+04
5.953892000000000000e+06,1.091600000000000000e+04
6.303363860082305036e+06,1.092389999999999964e+04
6.652840000000000000e+06,1.091720000000000073e+04
7.001606987654320896e+06,1.086379999999999927e+04
7.350012000000000000e+06,1.086279999999999927e+04
7.696856576131687500e+06,1.080879999999999927e+04
8.043364000000000000e+06,1.080910000000000036e+04
8.388695020576132461e+06,1.077129999999999927e+04
8.733791000000000000e+06,1.077089999999999964e+04
9.078237823045266792e+06,1.075810000000000036e+04
9.422610000000000000e+06,1.075810000000000036e+04
9.766821786008229479e+06,1.075379999999999927e+04
1.011102000000000000e+07,1.075510000000000036e+04
1.045513679012345709e+07,1.075129999999999927e+04
1.079923000000000000e+07,1.075160000000000036e+04
1.114336917695473321e+07,1.075679999999999927e+04
1.148754000000000000e+07,1.075700000000000000e+04
1.183183308641975187e+07,1.076120000000000073e+04
1.217615000000000000e+07,1.076339999999999964e+04
1.252053518518518470e+07,1.076039999999999964e+04
1.286491000000000000e+07,1.076139999999999964e+04
1.320929897119341604e+07,1.076400000000000000e+04
1.355371000000000000e+07,1.076700000000000000e+04
1.389818662551440299e+07,1.076279999999999927e+04
1.424266000000000000e+07,1.076479999999999927e+04
1.458708329218106903e+07,1.076239999999999964e+04
1.493151000000000000e+07,1.076729999999999927e+04
1.527598917695473321e+07,1.076389999999999964e+04
1.562048000000000000e+07,1.076579999999999927e+04
1.596503884773662500e+07,1.077320000000000073e+04
1.630964000000000000e+07,1.077360000000000036e+04
1.665456707818930037e+07,1.078789999999999964e+04
1.699959000000000000e+07,1.078800000000000000e+04
1.734501831275720149e+07,1.080539999999999964e+04
1.769057000000000000e+07,1.080570000000000073e+04
1.803654185185185447e+07,1.082039999999999964e+04
1.838261000000000000e+07,1.082070000000000073e+04
1.872908506172839552e+07,1.083910000000000036e+04
1.907569000000000000e+07,1.083950000000000000e+04
1.942279864197530970e+07,1.085710000000000036e+04
1.977002000000000000e+07,1.085739999999999964e+04
2.011762320987654105e+07,1.086820000000000073e+04
2.046530000000000000e+07,1.086850000000000000e+04
2.081307448559670895e+07,1.086670000000000073e+04
2.116084000000000000e+07,1.086679999999999927e+04
2.150854304526748881e+07,1.086260000000000036e+04
2.185622000000000000e+07,1.086250000000000000e+04
2.220363802469135821e+07,1.084739999999999964e+04
2.255096000000000000e+07,1.084720000000000073e+04
2.289796049382716045e+07,1.084120000000000073e+04
2.324493000000000000e+07,1.084120000000000073e+04
2.359174037037036940e+07,1.083060000000000036e+04
2.393846000000000000e+07,1.083170000000000073e+04
2.428504172839506343e+07,1.082829999999999927e+04
2.463160000000000000e+07,1.082839999999999964e+04
2.497800032921810821e+07,1.082200000000000000e+04
2.532437000000000000e+07,1.082389999999999964e+04
2.567065633744855970e+07,1.081689999999999964e+04
2.601689000000000000e+07,1.081810000000000036e+04
2.636324687242798135e+07,1.083289999999999964e+04
2.670970000000000000e+07,1.083739999999999964e+04
2.705644156378600746e+07,1.083250000000000000e+04
2.740317000000000000e+07,1.083239999999999964e+04
2.774636341563786194e+07,5.762550000000000182e+03
2.809118000000000000e+07,1.082250000000000000e+04
2.843739061728395149e+07,1.081760000000000036e+04
2.878359000000000000e+07,1.081900000000000000e+04
2.912992432098765299e+07,1.082970000000000073e+04
2.947633000000000000e+07,1.082989999999999964e+04
2.982295082304526865e+07,1.083479999999999927e+04
3.016960000000000000e+07,1.083500000000000000e+04
3.051644732510288060e+07,1.084750000000000000e+04
3.086338000000000000e+07,1.084789999999999964e+04
3.121067432098765299e+07,1.085870000000000073e+04
3.155803000000000000e+07,1.085889999999999964e+04
3.190556185185185447e+07,1.086120000000000073e+04
3.225310000000000000e+07,1.086079999999999927e+04
3.260060855967077985e+07,1.085710000000000036e+04
3.294809000000000000e+07,1.085650000000000000e+04
3.329550967078189179e+07,1.085820000000000073e+04
3.364294000000000000e+07,1.085829999999999927e+04
3.399047078189300746e+07,1.086760000000000036e+04
3.433807000000000000e+07,1.086779999999999927e+04
3.468600925925926119e+07,1.088010000000000036e+04
3.503403000000000000e+07,1.088029999999999927e+04
3.538230135802469403e+07,1.088800000000000000e+04
3.573063000000000000e+07,1.088820000000000073e+04
3.607918251028806716e+07,1.089689999999999964e+04
3.642779000000000000e+07,1.089710000000000036e+04
3.677663913580247015e+07,1.090900000000000000e+04
3.712557000000000000e+07,1.090929999999999927e+04
3.747483995884773880e+07,1.092339999999999964e+04
3.782420000000000000e+07,1.092370000000000073e+04
3.817393621399176866e+07,1.093679999999999927e+04
3.852376000000000000e+07,1.093679999999999927e+04
3.887387670781893283e+07,1.094729999999999927e+04
3.922406000000000000e+07,1.094750000000000000e+04
3.957449489711933583e+07,1.095560000000000036e+04
3.992498000000000000e+07,1.095570000000000073e+04
4.027564427983538806e+07,1.096229999999999927e+04
4.062635000000000000e+07,1.096239999999999964e+04
4.097723189300411195e+07,1.096850000000000000e+04
4.132815000000000000e+07,1.096870000000000073e+04
4.167927987654320896e+07,1.097979999999999927e+04
4.203048000000000000e+07,1.098010000000000036e+04
4.238199753086419404e+07,1.099239999999999964e+04
4.273360000000000000e+07,1.099260000000000036e+04
4.308549366255144030e+07,1.100460000000000036e+04
4.343747000000000000e+07,1.100489999999999964e+04
4.378980802469135821e+07,1.101820000000000073e+04
4.414224000000000000e+07,1.101839999999999964e+04
4.449497876543209702e+07,1.103010000000000036e+04
4.484779000000000000e+07,1.103039999999999964e+04
4.520093403292181343e+07,1.104379999999999927e+04
4.555417000000000000e+07,1.104410000000000036e+04
4.590780390946502239e+07,1.106170000000000073e+04
4.626156000000000000e+07,1.106210000000000036e+04
4.661575119341563433e+07,1.107470000000000073e+04
4.697002000000000000e+07,1.107960000000000036e+04
4.732208633744855970e+07,3.963690000000000055e+03
4.767119000000000000e+07,7.723319999999999709e+03
4.802155781893003732e+07,1.107850000000000000e+04
4.836809000000000000e+07,2.941619999999999790e-01
4.864770596707818657e+07,1.108750000000000000e+04
4.886843000000000000e+07,4.589050000000000296e+00
4.895827761316872388e+07,1.110470000000000073e+04
4.906924400000000000e+07,4.221440000000000055e+02
4.926884150617284328e+07,1.113370000000000073e+04
4.946790700000000000e+07,4.865840000000000032e+02
4.967329611111111194e+07,1.115050000000000000e+04
4.987849300000000000e+07,5.835330000000000155e+02
5.008386467078189552e+07,1.123310000000000036e+04
5.028617300000000000e+07,6.148429999999999609e+02
5.048165281069958955e+07,1.126629999999999927e+04
5.067404000000000000e+07,6.544729999999999563e+02
5.085732023868312687e+07,1.127410000000000036e+04
5.103671500000000000e+07,7.189180000000000064e+02
5.120540141152263433e+07,1.131029999999999927e+04
5.136329300000000000e+07,7.490430000000000291e+03
5.151136393004114926e+07,7.742400000000000091e+02
5.165923600000000000e+07,8.515090000000000146e+02
5.181487431275720149e+07,1.135929999999999927e+04
5.196779800000000000e+07,7.916979999999999563e+03
5.211826883950617164e+07,9.771079999999999472e+02
5.226783200000000000e+07,1.126259999999999991e+03
5.241939866666666418e+07,7.906090000000000146e+03
5.257042100000000000e+07,1.345410000000000082e+03
5.272365146913580596e+07,8.024789999999999964e+03
5.287652800000000000e+07,8.530479999999999563e+03
5.303460167901234329e+07,1.618630000000000109e+03
5.319206800000000000e+07,8.135180000000000291e+03
5.334953392592592537e+07,1.173029999999999973e+03
5.350270200000000000e+07,9.806729999999999563e+03
5.363282577777777612e+07,5.839610000000000127e+02
5.375551000000000000e+07,8.065390000000000327e+03
5.390054148148148507e+07,4.084220000000000255e+02
5.403451500000000000e+07,7.233890000000000327e+03
5.413408011111111194e+07,1.916469999999999914e+02
5.421859500000000000e+07,2.141189999999999998e+02
5.428534533744855970e+07,5.404109999999999673e+03
5.435237200000000000e+07,4.889670000000000073e+03
5.440967483950617164e+07,1.817690000000000055e+02
5.446609800000000000e+07,5.768449999999999818e+03
5.452596051851851493e+07,9.886430000000000717e+00
5.458714800000000000e+07,4.926349999999999909e+02
5.471164763786008209e+07,5.754560000000000400e+03
5.483274500000000000e+07,4.571829999999999927e+03
5.492845073662551492e+07,5.177440000000000282e+02
5.502136825925926119e+07,3.418590000000000146e+03
5.509941054732510448e+07,5.427140000000000555e+02
5.517600451851852238e+07,5.507390000000000327e+02
5.525057780246913433e+07,3.113159999999999854e+03
5.532557292592592537e+07,5.604500000000000455e+02
5.540234493415638059e+07,3.279349999999999909e+03
5.548016848148147762e+07,5.740960000000000036e+02
5.556071861316872388e+07,3.478400000000000091e+03
5.564232818518518656e+07,5.909199999999999591e+02
5.572663682716049254e+07,3.651710000000000036e+03
5.581193444444444776e+07,6.119980000000000473e+02
5.589951990946502239e+07,3.774710000000000036e+03
5.598796307407407463e+07,6.380919999999999845e+02
5.607828440740741044e+07,3.849840000000000146e+03
5.616938500000000000e+07,6.741430000000000291e+02
5.626246127160493284e+07,3.903769999999999982e+03
5.635629155555555224e+07,7.176140000000000327e+02
5.645554476543209702e+07,3.911849999999999909e+03
5.655334964197530597e+07,7.520810000000000173e+02
5.664993565843621641e+07,3.939980000000000018e+03
5.674702600000000000e+07,8.253469999999999800e+02
5.684444241975308210e+07,3.942530000000000200e+03
5.694213280246913433e+07,8.831069999999999709e+02
5.703975192181070149e+07,3.925750000000000000e+03
5.713749293827160448e+07,9.507509999999999764e+02
5.723499122633744776e+07,3.903940000000000055e+03
5.733290219753086567e+07,1.027180000000000064e+03
5.743099325102880597e+07,3.902409999999999854e+03
5.752951640740741044e+07,3.915590000000000146e+03
5.762953472839505970e+07,1.114529999999999973e+03
5.772956914814814925e+07,1.136349999999999909e+03
5.782909979012345523e+07,3.984619999999999891e+03
5.792940538271605223e+07,1.054380000000000109e+03
5.802973320164608955e+07,4.056219999999999800e+03
5.813069116049382836e+07,7.295220000000000482e+02
5.823073875720164180e+07,4.212899999999999636e+03
5.832743448148148507e+07,2.701520000000000010e+01
5.841395030864197761e+07,5.334199999999999818e+03
5.849544367901235074e+07,2.535200000000000031e+01
5.860399315226337314e+07,6.962779999999999745e+03
5.873718823456790298e+07,4.563630000000000109e+03
5.889190289300411940e+07,5.088369999999999891e+03
5.904824933333333582e+07,4.802390000000000327e+03
5.920379866666667163e+07,5.860899999999999636e+03
5.936539190123456717e+07,4.144640000000000327e+03
5.953680441152263433e+07,6.539399999999999636e+03
5.971360064197530597e+07,6.924489999999999782e+03
5.989861176954732835e+07,1.764640000000000100e+03
6.007927995061728358e+07,1.198189999999999964e+04
6.034830620576132089e+07,2.211699999999999818e+03
6.063491343209876120e+07,1.200460000000000036e+04
6.091498625514402986e+07,1.853500000000000000e+03
6.117162711111111194e+07,1.673669999999999902e+02
6.132401525925926119e+07,8.691489999999999782e+03
6.148621651851852238e+07,8.010840000000000146e+03
6.164989261728394777e+07,1.188069999999999936e+03
6.180601311111111194e+07,7.472789999999999964e+03
6.191813333333333582e+07,3.732070000000000221e+01
6.203378366666666418e+07,7.091800000000000182e+03
6.216198196296296269e+07,7.867050000000000409e+02
6.228593086419752985e+07,6.399529999999999745e+03
6.239527725102880597e+07,6.199170000000000300e+02
6.249904792592592537e+07,6.181359999999999673e+03
6.259017627160494030e+07,4.825520000000000209e+02
6.267809148148148507e+07,6.123600000000000364e+03
6.275543975308641791e+07,4.024449999999999932e+02
6.282489892592592537e+07,3.434909999999999854e+03
6.287346601234567910e+07,3.402930000000000064e+02
6.291111330864197761e+07,7.036930000000000291e+03
6.294219984362140298e+07,6.438749999999999751e+00
6.300737325925926119e+07,8.053060000000000400e+03
6.312019767901234329e+07,2.229559999999999889e+02
6.323287749382716417e+07,9.075340000000000146e+03
6.334205812757202238e+07,2.426370000000000005e+02
6.345188622222222388e+07,2.433979999999999961e+02
6.356009874074073881e+07,1.027050000000000000e+04
6.365767941975308210e+07,2.736250000000000000e+03
6.369750017695473135e+07,1.486110000000000042e+01
6.372184191358024627e+07,5.615930000000000291e+03
6.373680130452674627e+07,7.349190000000000111e+00
6.375058988888888806e+07,1.727189999999999870e+01
6.378124524691358209e+07,4.943479999999999563e+03
6.381462297530864179e+07,2.309430000000000049e+01
6.385454489300411195e+07,5.433439999999999600e+03
6.389501202469135821e+07,2.653330000000000055e+01
6.393503262551440299e+07,5.811390000000000327e+03
6.397430608641975373e+07,2.819699999999999918e+01
6.401366988065843284e+07,5.998149999999999636e+03
6.405236948148148507e+07,1.218550000000000000e+04
6.412238525925926119e+07,2.490230000000000032e+01
6.419646393827160448e+07,1.219379999999999927e+04
6.428024997942386568e+07,2.289859999999999829e+01
6.436080588888888806e+07,2.252449999999999974e+01
6.444400280246913433e+07,1.220189999999999964e+04
6.450985249382716417e+07,1.314300000000000068e+01
6.454192507818929851e+07,6.429779999999999745e+03
6.457129890123456717e+07,7.285009999999999764e+00
6.458654970781893283e+07,5.042199999999999818e+03
6.461191925925926119e+07,6.653810000000000400e+03
6.466000602469135821e+07,1.318529999999999980e+01
6.470818446913580596e+07,6.553909999999999854e+03
6.475898230452675372e+07,1.243140000000000001e+01
6.480871907407407463e+07,6.547010000000000218e+03
6.485949700000000000e+07,1.197220000000000084e+01
6.490888398765432090e+07,1.153480000000000061e+01
6.495817098353908956e+07,6.560500000000000000e+03
6.499821127160493284e+07,6.547390000000000327e+03
6.502020736213991791e+07,1.068590000000000018e+01
6.503415735802469403e+07,1.054390000000000072e+01
6.503912093004114926e+07,4.589869999999999891e+03
6.504773092592592537e+07,1.003599999999999959e+01
6.507254231687242538e+07,9.518219999999999345e+03
6.509381425925926119e+07,2.587639999999999873e+03
6.511084402057613432e+07,1.129499999999999993e+01
6.512749659259258956e+07,2.474809999999999945e+03
6.514396367901234329e+07,1.204579999999999984e+01
6.516004659259258956e+07,2.350909999999999854e+03
6.517586386008229852e+07,1.276009999999999955e+01
6.519132962962962687e+07,2.212500000000000000e+03
6.520647265020576119e+07,1.338189999999999991e+01
6.522126277777777612e+07,2.050909999999999854e+03
6.523564427572016418e+07,1.390670000000000073e+01
6.524965503703703731e+07,1.851420000000000073e+03
6.526294900411522388e+07,1.434270000000000067e+01
6.527586903703703731e+07,1.596029999999999973e+03
6.528774133333333582e+07,1.467539999999999978e+01
6.529868444444444776e+07,1.459299999999999997e+01
6.531071615637860447e+07,6.571770000000000437e+03
6.532579611111111194e+07,1.460399999999999920e+01
6.534572318106995523e+07,6.003550000000000182e+03
6.537496577777777612e+07,1.390059999999999945e+03
6.538938350617284328e+07,1.683429999999999893e+01
6.540324377777777612e+07,1.969699999999999918e+01
6.541487377777777612e+07,1.276759999999999991e+03
6.542568388888888806e+07,9.487670000000000073e+03
6.545454481893004477e+07,1.892010000000000147e+01
6.547496766666666418e+07,1.482859999999999900e+03
6.548623560905349255e+07,1.819320000000000093e+01
6.549751900000000000e+07,1.707870000000000132e+01
6.551575591358024627e+07,2.851880000000000109e+03
6.554298466666666418e+07,2.394549999999999912e+01
6.556964395061728358e+07,6.492539999999999964e+03
6.560393266666666418e+07,6.482689999999999600e+03
6.564770060905350000e+07,2.704830000000000112e+01
6.569102200000000000e+07,6.463390000000000327e+03
6.572066707818930596e+07,1.403320000000000078e+01
6.574878600000000000e+07,1.335410000000000075e+01
6.576801869135802239e+07,3.526550000000000182e+03
6.578807933333333582e+07,1.248509999999999920e+01
6.581051576131687313e+07,4.211310000000000400e+03
6.583466666666666418e+07,1.316329999999999956e+01
6.585936698765432090e+07,4.195449999999999818e+03
6.588460366666666418e+07,1.405640000000000001e+01
6.590822106584361941e+07,4.168930000000000291e+03
6.593269807407407463e+07,1.471199999999999974e+01
6.595748144855967164e+07,4.144090000000000146e+03
6.598246359259258956e+07,1.529260000000000019e+01
6.600718025925925374e+07,4.118989999999999782e+03
6.603207366666666418e+07,1.572869999999999990e+01
6.605671200411522388e+07,4.093429999999999836e+03
6.608153414814814925e+07,1.605260000000000176e+01
6.610608408230452985e+07,4.067440000000000055e+03
6.613081900000000000e+07,1.629850000000000065e+01
6.615526585596708208e+07,4.041099999999999909e+03
6.617987703703703731e+07,1.648219999999999885e+01
6.620421513580247015e+07,4.014349999999999909e+03
6.622872585185185075e+07,1.661659999999999826e+01
6.625295084773662686e+07,3.987309999999999945e+03
6.627735185185185075e+07,1.671950000000000003e+01
6.630145457613168657e+07,3.960110000000000127e+03
6.632571388888888806e+07,1.679520000000000124e+01
6.634825433333332837e+07,3.932760000000000218e+03
6.637095944444444031e+07,3.912230000000000018e+03
6.639530344444444031e+07,1.686019999999999897e+01
6.641884877777777612e+07,3.884880000000000109e+03
6.644305408641975373e+07,1.689689999999999870e+01
6.646646965432098508e+07,3.857679999999999836e+03
6.649055586008230597e+07,1.691989999999999839e+01
6.651384661728395522e+07,3.830670000000000073e+03
6.653778640329218656e+07,1.693850000000000122e+01
6.656094454320987314e+07,3.803829999999999927e+03
6.658475361316872388e+07,1.694849999999999923e+01
6.660778627160494030e+07,3.777219999999999800e+03
6.663031712757201493e+07,1.695250000000000057e+01
6.665303700000000000e+07,3.742400000000000091e+03
6.667635862962963432e+07,1.699190000000000111e+01
6.669941201234567910e+07,3.716409999999999854e+03
6.672260467078189552e+07,1.698100000000000165e+01
6.674553161728394777e+07,3.690809999999999945e+03
6.676859853909464926e+07,1.697360000000000113e+01
6.679140276543209702e+07,3.666190000000000055e+03
6.681434862551440299e+07,1.697019999999999840e+01
6.683703466666666418e+07,3.641989999999999782e+03
6.685986185185185075e+07,1.696869999999999834e+01
6.688243156790123135e+07,3.618050000000000182e+03
6.690514252263374627e+07,1.696819999999999951e+01
6.692721913580247015e+07,1.696829999999999927e+01
6.695173597530864179e+07,3.597269999999999982e+03
6.697537307407407463e+07,1.696900000000000119e+01
6.699762104938271642e+07,3.573630000000000109e+03
6.702006544444444776e+07,1.697040000000000148e+01
6.704220016872428358e+07,3.550139999999999873e+03
6.706453003703703731e+07,1.697250000000000014e+01
6.708655239094650000e+07,3.526760000000000218e+03
6.710876888888888806e+07,1.697520000000000095e+01
6.713067911111110449e+07,3.503489999999999782e+03
6.715278203703704476e+07,1.697869999999999990e+01
6.717458066255144775e+07,3.480289999999999964e+03
6.719657037037037313e+07,1.698300000000000054e+01
6.720880251851852238e+07,3.457119999999999891e+03
6.722086944444444776e+07,1.698539999999999850e+01
6.723141102469135821e+07,3.445530000000000200e+03
6.724261644444444776e+07,1.698809999999999931e+01
6.725313083950617909e+07,3.433929999999999836e+03
6.726430777777777612e+07,1.699089999999999989e+01
6.727479476543208957e+07,3.422309999999999945e+03
6.728594244444444776e+07,1.699390000000000001e+01
6.729640246913580596e+07,3.410659999999999854e+03
6.730752044444444776e+07,1.699699999999999989e+01
6.731795335802470148e+07,3.398960000000000036e+03
6.732904211111111939e+07,1.700019999999999953e+01
6.733946124691358209e+07,3.387219999999999800e+03
6.735051688888888061e+07,3.375389999999999873e+03
6.736090165432098508e+07,1.700639999999999930e+01
6.737192411111111939e+07,3.363530000000000200e+03
6.738228556790123880e+07,1.700929999999999964e+01
6.739327288888888061e+07,3.351610000000000127e+03
6.740360856790122390e+07,1.701219999999999999e+01
6.741458422222222388e+07,1.701500000000000057e+01
6.742487804938271642e+07,3.339570000000000164e+03
6.743581644444444776e+07,1.701810000000000045e+01
6.744609597530864179e+07,3.327500000000000000e+03
6.745700122222222388e+07,3.315309999999999945e+03
6.746724934567901492e+07,1.702339999999999876e+01
6.747811455555555224e+07,3.303079999999999927e+03
6.748833704938271642e+07,1.702590000000000003e+01
6.749916955555555224e+07,3.290760000000000218e+03
6.750936325925925374e+07,1.702850000000000108e+01
6.751994633333332837e+07,3.278360000000000127e+03
6.753007546913580596e+07,1.703089999999999904e+01
6.754102633333332837e+07,3.265869999999999891e+03
6.755103065432098508e+07,1.703320000000000078e+01
6.756190133333332837e+07,3.253300000000000182e+03
6.757187691358023882e+07,1.703529999999999944e+01
6.758271533333332837e+07,3.240750000000000000e+03
6.759266259259259701e+07,1.703780000000000072e+01
6.760346933333332837e+07,3.228369999999999891e+03
6.761338844444444776e+07,1.704110000000000014e+01
6.762416333333332837e+07,3.215889999999999873e+03
6.763405437037037313e+07,1.704400000000000048e+01
6.764479733333332837e+07,3.203320000000000164e+03
6.765465970370370150e+07,1.704650000000000176e+01
6.766537033333332837e+07,3.190659999999999854e+03
6.767520411111110449e+07,1.704860000000000042e+01
6.768588233333332837e+07,3.177929999999999836e+03
6.769568719753086567e+07,1.705039999999999978e+01
6.770633200000000000e+07,3.165110000000000127e+03
6.771610780246913433e+07,1.705170000000000030e+01
6.772672000000000000e+07,3.152230000000000018e+03
6.773646654320986569e+07,1.705270000000000152e+01
6.774704533333332837e+07,3.139280000000000200e+03
6.775676200000000000e+07,1.705339999999999989e+01
6.776730733333332837e+07,3.126280000000000200e+03
6.777659792592592537e+07,1.705379999999999896e+01
6.778632240740740299e+07,3.116519999999999982e+03
6.779637272839505970e+07,1.705389999999999873e+01
6.780646062962962687e+07,3.103429999999999836e+03
6.781647939506173134e+07,1.705389999999999873e+01
6.782653492592592537e+07,3.090289999999999964e+03
6.783652179012346268e+07,1.705359999999999943e+01
6.784654440740740299e+07,3.077110000000000127e+03
6.785649954320988059e+07,1.705330000000000013e+01
6.786649037037037313e+07,3.063889999999999873e+03
6.787641434567901492e+07,1.705290000000000106e+01
6.788637877777777612e+07,1.706250000000000000e+01
6.789627670370370150e+07,3.044829999999999927e+03
6.790621255555555224e+07,1.706380000000000052e+01
6.791607922222222388e+07,3.031829999999999927e+03
6.792598285185185075e+07,1.706469999999999843e+01
6.793581858024691045e+07,3.018739999999999782e+03
6.794569014814814925e+07,1.706569999999999965e+01
6.795549375308641791e+07,3.005579999999999927e+03
6.796533318518517911e+07,1.706690000000000040e+01
6.797510520987653732e+07,2.992380000000000109e+03
6.798491174074074626e+07,1.706840000000000046e+01
6.799465198765432835e+07,2.979139999999999873e+03
6.800442603703704476e+07,1.708510000000000062e+01
6.801414208641976118e+07,2.969519999999999982e+03
6.802388803703704476e+07,1.708849999999999980e+01
6.803357290123456717e+07,2.956409999999999854e+03
6.804328711111110449e+07,1.709140000000000015e+01
6.805294029629628360e+07,2.943190000000000055e+03
6.806262229629629850e+07,1.709459999999999980e+01
6.807224380246913433e+07,2.929889999999999873e+03
6.808189285185185075e+07,1.709809999999999874e+01
6.809148258024691045e+07,2.916519999999999982e+03
6.810109914814814925e+07,1.710210000000000008e+01
6.811065675308641791e+07,2.903079999999999927e+03
6.812024051851852238e+07,1.710650000000000048e+01
6.812976602469135821e+07,2.889559999999999945e+03
6.813931692592592537e+07,1.711139999999999972e+01
6.814880979012346268e+07,2.875960000000000036e+03
6.815832740740740299e+07,1.711680000000000135e+01
6.816778787654320896e+07,2.862269999999999982e+03
6.817727337037037313e+07,2.855269999999999982e+03
6.818670341975308955e+07,1.712509999999999977e+01
6.819615414814814925e+07,2.839110000000000127e+03
6.820554123456789553e+07,1.713329999999999842e+01
6.821496625925925374e+07,1.713789999999999836e+01
6.822431460493826866e+07,2.820670000000000073e+03
6.823371025925925374e+07,2.811380000000000109e+03
6.824302719753086567e+07,1.714740000000000109e+01
6.825237255555555224e+07,1.715259999999999962e+01
6.826095929629629850e+07,2.793670000000000073e+03
6.827008244444444776e+07,2.781820000000000164e+03
6.827924237037037313e+07,1.716329999999999956e+01
6.828863166666665673e+07,1.716860000000000142e+01
6.829773877777777612e+07,2.767079999999999927e+03
6.830710329629629850e+07,1.718019999999999925e+01
6.831618176543210447e+07,2.750019999999999982e+03
6.832550611111111939e+07,1.718740000000000023e+01
6.833455292592592537e+07,2.737469999999999800e+03
6.834383092592592537e+07,1.720060000000000144e+01
6.835285164197531343e+07,2.720329999999999927e+03
6.836209711111111939e+07,2.707369999999999891e+03
6.837108281481482089e+07,1.721430000000000149e+01
6.838029040740740299e+07,1.722030000000000172e+01
6.838922013580246270e+07,2.691619999999999891e+03
6.839840055555555224e+07,1.723470000000000013e+01
6.840730062962962687e+07,2.673699999999999818e+03
6.841643874074074626e+07,1.724309999999999832e+01
6.842530424691358209e+07,2.659920000000000073e+03
6.843439344444444776e+07,1.725819999999999865e+01
6.844323025925926864e+07,2.641650000000000091e+03
6.845228385185185075e+07,2.627349999999999909e+03
6.846108283950616419e+07,1.727380000000000138e+01
6.847009500000000000e+07,1.728059999999999974e+01
6.847883500000000000e+07,2.610280000000000200e+03
6.848781700000000000e+07,1.729680000000000106e+01
6.849652411111111939e+07,2.591030000000000200e+03
6.850546062962962687e+07,1.730620000000000047e+01
6.851414976543208957e+07,2.575710000000000036e+03
6.852304225925925374e+07,1.732090000000000174e+01
6.853167830864197016e+07,2.557769999999999982e+03
6.854052055555555224e+07,1.733419999999999916e+01
6.854909551851852238e+07,2.539500000000000000e+03
6.855790500000000000e+07,1.735160000000000124e+01
6.856644366666667163e+07,2.518929999999999836e+03
6.857520403703702986e+07,1.736169999999999902e+01
6.858370090123456717e+07,2.502079999999999927e+03
6.859240525925925374e+07,1.737959999999999994e+01
6.860086641975308955e+07,2.480869999999999891e+03
6.860952729629629850e+07,2.463190000000000055e+03
6.861794309876543283e+07,1.739770000000000039e+01
6.862655455555555224e+07,1.740549999999999997e+01
6.863490351851852238e+07,2.442710000000000036e+03
6.864347688888888061e+07,1.742419999999999902e+01
6.865178429629629850e+07,2.420010000000000218e+03
6.866029185185185075e+07,1.743939999999999912e+01
6.866856239506173134e+07,2.399099999999999909e+03
6.867702344444444776e+07,2.379300000000000182e+03
6.868362218518517911e+07,1.745830000000000126e+01
6.869135588888888061e+07,1.746659999999999968e+01
6.869938576543208957e+07,2.360420000000000073e+03
6.870788022222222388e+07,2.339550000000000182e+03
6.871586417283950746e+07,1.748629999999999995e+01
6.872428577777777612e+07,2.314400000000000091e+03
6.873222232098765671e+07,1.748649999999999949e+01
6.874058755555555224e+07,2.292000000000000000e+03
6.874847190123456717e+07,1.751660000000000039e+01
6.875678100000000000e+07,2.267010000000000218e+03
6.876460497530864179e+07,1.753770000000000095e+01
6.877285788888888061e+07,1.754660000000000153e+01
6.878060880246913433e+07,2.239599999999999909e+03
6.878880011111111939e+07,2.215030000000000200e+03
6.879649724691358209e+07,1.756709999999999994e+01
6.880460700000000000e+07,2.186250000000000000e+03
6.881181803703702986e+07,1.753750000000000142e+01
6.881918355555555224e+07,2.158320000000000164e+03
6.882671041975308955e+07,1.754429999999999978e+01
6.883465922222222388e+07,2.131710000000000036e+03
6.884215808641976118e+07,1.759619999999999962e+01
6.885007211111111939e+07,1.758510000000000062e+01
6.885750030864197016e+07,2.099190000000000055e+03
6.886532044444444776e+07,2.068530000000000200e+03
6.887268735802470148e+07,1.760999999999999943e+01
6.888043377777777612e+07,2.037490000000000009e+03
6.888772434567901492e+07,1.763449999999999918e+01
6.889538811111111939e+07,2.003049999999999955e+03
6.890259801234567165e+07,1.765330000000000155e+01
6.891017422222222388e+07,1.967279999999999973e+03
6.891643219753086567e+07,1.767299999999999827e+01
6.892306766666667163e+07,1.937170000000000073e+03
6.893039020987653732e+07,1.769300000000000139e+01
6.893752466666667163e+07,1.898490000000000009e+03
6.894475407407407463e+07,1.772269999999999968e+01
6.895180100000000000e+07,1.858680000000000064e+03
6.895893070370370150e+07,1.774589999999999890e+01
6.896588033333332837e+07,1.816019999999999982e+03
6.897290719753086567e+07,1.775609999999999999e+01
6.897974333333332837e+07,1.770430000000000064e+03
6.898666772839505970e+07,1.778940000000000055e+01
6.899341800000000000e+07,1.723980000000000018e+03
6.900020237037037313e+07,1.779939999999999856e+01
6.900681600000000000e+07,1.670769999999999982e+03
6.901347533333332837e+07,1.781299999999999883e+01
6.901995500000000000e+07,1.615920000000000073e+03
6.902647969135801494e+07,1.782819999999999894e+01
6.903283166666667163e+07,1.559059999999999945e+03
6.903920100000000000e+07,1.792419999999999902e+01
6.904540800000000000e+07,1.496150000000000091e+03
6.905163237037037313e+07,1.789610000000000056e+01
6.905768766666667163e+07,1.426299999999999955e+03
6.906373514814814925e+07,1.790810000000000102e+01
6.906961433333332837e+07,1.347670000000000073e+03
6.907545025925925374e+07,1.790960000000000107e+01
6.908113766666667163e+07,1.261400000000000091e+03
6.908673986419753730e+07,1.792190000000000083e+01
6.909219433333332837e+07,1.164299999999999955e+03
6.909459766666665673e+07,1.110150000000000091e+03
6.909972522222222388e+07,1.792340000000000089e+01
6.910488292592592537e+07,9.847980000000000018e+02
6.910982430864197016e+07,1.790390000000000015e+01
6.911469129629629850e+07,8.308600000000000136e+02
6.911925643209876120e+07,1.783599999999999852e+01
6.912323033333332837e+07,6.625700000000000500e+02
6.912630944444444776e+07,2.714089999999999847e+01
6.912867707407407463e+07,1.992299999999999960e+00
6.913389969135802984e+07,1.975329999999999927e+03
6.914170818518517911e+07,2.861009999999999920e+01
6.915147672839505970e+07,1.907609999999999900e+03
6.916123040740741789e+07,2.883050000000000068e+01
6.917044946913580596e+07,1.819049999999999955e+03
6.917992092592592537e+07,2.910979999999999990e+01
6.918898630864197016e+07,1.723380000000000109e+03
6.919816070370370150e+07,2.965419999999999945e+01
6.920698823456789553e+07,1.631069999999999936e+03
6.921589000000000000e+07,2.999930000000000163e+01
6.922444600000000000e+07,1.510839999999999918e+03
6.923311637037037313e+07,3.041450000000000031e+01
6.924154079012346268e+07,1.366740000000000009e+03
6.924984055555555224e+07,3.087600000000000122e+01
6.925779285185185075e+07,1.280490000000000009e+03
6.926558374074074626e+07,3.132250000000000156e+01
6.927290058024691045e+07,1.121660000000000082e+03
6.927999877777777612e+07,1.265529999999999973e+03
6.928600759259259701e+07,5.954690000000000261e-01
6.929096422222222388e+07,5.669829999999999927e+03
6.930797207407407463e+07,1.575060000000000038e+01
6.932723185185185075e+07,5.668909999999999854e+03
6.934350995061728358e+07,8.179639999999999134e+00
6.935820018518517911e+07,2.617739999999999782e+03
6.936890107407407463e+07,1.400900000000000034e+01
6.938050755555555224e+07,2.519590000000000146e+03
6.939229930864197016e+07,1.353889999999999993e+01
6.940407277777777612e+07,2.368989999999999782e+03
6.941543783950617909e+07,1.338530000000000086e+01
6.942674833333332837e+07,2.194250000000000000e+03
6.943763332098765671e+07,1.326890000000000036e+01
6.944841322222222388e+07,1.982309999999999945e+03
6.945872591358023882e+07,1.318640000000000079e+01
6.946886400000000000e+07,1.711940000000000055e+03
6.947845071604938805e+07,1.312550000000000061e+01
6.948775611111111939e+07,1.332140000000000100e+03
6.949641097530864179e+07,1.299799999999999933e+01
6.950446355555555224e+07,1.265320000000000000e+01
6.951027182716049254e+07,1.489039999999999964e+03
6.951620544444444776e+07,1.372930000000000028e+01
6.952182813580246270e+07,1.261720000000000027e+03
6.952749000000000000e+07,1.417430000000000057e+01
6.953302632098765671e+07,1.257130000000000109e+03
6.953859355555555224e+07,1.455160000000000053e+01
6.954402338271604478e+07,1.252539999999999964e+03
6.954947677777777612e+07,1.488519999999999932e+01
6.955477937037037313e+07,1.249079999999999927e+03
6.956009388888888061e+07,1.517559999999999931e+01
6.956523574074074626e+07,1.247089999999999918e+03
6.957037300000000000e+07,1.541859999999999964e+01
6.957529682716049254e+07,1.245660000000000082e+03
6.958038900000000000e+07,1.482579999999999920e+01
6.958808428395061195e+07,5.211430000000000291e+03
6.959759433333332837e+07,1.634540000000000148e+01
6.961212371604937315e+07,4.222310000000000400e+03
6.962595333333332837e+07,3.041400000000000091e+03
6.964123187654320896e+07,2.535470000000000113e+01
6.965579933333332837e+07,2.627990000000000137e+01
6.967137029629629850e+07,3.028480000000000018e+03
6.968628966666667163e+07,3.022409999999999854e+03
6.970213640740740299e+07,2.761609999999999943e+01
6.971712600000000000e+07,3.013219999999999800e+03
6.973291153086419404e+07,2.873509999999999920e+01
6.974784433333332837e+07,3.002989999999999782e+03
6.976358956790122390e+07,2.928780000000000072e+01
6.977848600000000000e+07,2.992849999999999909e+03
6.979418925925925374e+07,2.975580000000000069e+01
6.980904700000000000e+07,2.982670000000000073e+03
6.982470877777777612e+07,3.018900000000000006e+01
6.983952800000000000e+07,2.972690000000000055e+03
6.985512182716049254e+07,3.023939999999999984e+01
6.986991833333332837e+07,2.962340000000000146e+03
6.988541625925925374e+07,3.038370000000000104e+01
6.990008100000000000e+07,2.953760000000000218e+03
6.991559951851852238e+07,3.050110000000000099e+01
6.993029766666667163e+07,2.943880000000000109e+03
6.994304529629629850e+07,3.055130000000000123e+01
6.995309400000000000e+07,2.937019999999999982e+03
6.996073414814814925e+07,3.059669999999999845e+01
6.996813600000000000e+07,2.932150000000000091e+03
6.997573281481482089e+07,3.063779999999999859e+01
6.998315400000000000e+07,2.927050000000000182e+03
6.999072007407407463e+07,3.067520000000000024e+01
6.999815200000000000e+07,2.921250000000000000e+03
7.000566474074074626e+07,3.070909999999999940e+01
7.001298600000000000e+07,2.918699999999999818e+03
7.002058214814814925e+07,3.095129999999999981e+01
7.002794100000000000e+07,2.913820000000000164e+03
7.003552500000000000e+07,3.073989999999999867e+01
7.004287200000000000e+07,2.909050000000000182e+03
7.005041385185185075e+07,3.076790000000000092e+01
7.005778100000000000e+07,2.904019999999999982e+03
7.006529225925925374e+07,3.079339999999999833e+01
7.007267000000000000e+07,2.898320000000000164e+03
7.008012807407407463e+07,3.081670000000000087e+01
7.008739600000000000e+07,2.895820000000000164e+03
7.009493666666667163e+07,3.105020000000000024e+01
7.010224200000000000e+07,2.891269999999999982e+03
7.010977155555555224e+07,3.083749999999999858e+01
7.011706600000000000e+07,2.886510000000000218e+03
7.012453281481482089e+07,3.076150000000000162e+01
7.013186700000000000e+07,2.880639999999999873e+03
7.013928196296297014e+07,3.079810000000000159e+01
7.014650800000000000e+07,2.878210000000000036e+03
7.015400496296297014e+07,3.104360000000000142e+01
7.016126800000000000e+07,2.873489999999999782e+03
7.016875333333332837e+07,3.082199999999999918e+01
7.017600500000000000e+07,2.868849999999999909e+03
7.018344907407407463e+07,3.084400000000000119e+01
7.019072000000000000e+07,2.863860000000000127e+03
7.019813377777777612e+07,3.086459999999999937e+01
7.020541600000000000e+07,2.858539999999999964e+03
7.021277800000000000e+07,3.089959999999999951e+01
7.021995200000000000e+07,2.856639999999999873e+03
7.022739896296297014e+07,3.118299999999999983e+01
7.023461300000000000e+07,2.852079999999999927e+03
7.024201485185185075e+07,3.080679999999999907e+01
7.024924500000000000e+07,2.846880000000000109e+03
7.025661640740741789e+07,3.084260000000000090e+01
7.026385700000000000e+07,2.841389999999999873e+03
7.027117662962962687e+07,3.086230000000000118e+01
7.027830900000000000e+07,2.839059999999999945e+03
7.028571085185185075e+07,3.109499999999999886e+01
7.029288000000000000e+07,2.834340000000000146e+03
7.030027029629629850e+07,3.087809999999999988e+01
7.030743000000000000e+07,2.830019999999999982e+03
7.031477940740741789e+07,3.092170000000000130e+01
7.032195800000000000e+07,2.825489999999999782e+03
7.032923762962962687e+07,3.082110000000000127e+01
7.033633000000000000e+07,2.822110000000000127e+03
7.034368962962962687e+07,3.106439999999999912e+01
7.035081800000000000e+07,2.817639999999999873e+03
7.035816725925925374e+07,3.085439999999999827e+01
7.036528600000000000e+07,2.813030000000000200e+03
7.037257400000000000e+07,3.077949999999999875e+01
7.037973200000000000e+07,2.807659999999999854e+03
7.038696933333332837e+07,3.081970000000000098e+01
7.039402100000000000e+07,2.805420000000000073e+03
7.040133966666667163e+07,3.106729999999999947e+01
7.040842800000000000e+07,2.800940000000000055e+03
7.041573600000000000e+07,3.085419999999999874e+01
7.042281400000000000e+07,2.796590000000000146e+03
7.043008162962962687e+07,3.088939999999999841e+01
7.043718100000000000e+07,2.792360000000000127e+03
7.044437966666667163e+07,3.080379999999999896e+01
7.045139400000000000e+07,2.790449999999999818e+03
7.045734355555555224e+07,3.128529999999999944e+01
7.046160200000000000e+07,2.787800000000000182e+03
7.046547822222222388e+07,3.086619999999999919e+01
7.046869800000000000e+07,2.786860000000000127e+03
7.047266311111111939e+07,3.153300000000000125e+01
7.047592800000000000e+07,2.784500000000000000e+03
7.047980133333332837e+07,3.111570000000000036e+01
7.048301900000000000e+07,2.783489999999999782e+03
7.048690011111111939e+07,3.090429999999999922e+01
7.049024200000000000e+07,2.781000000000000000e+03
7.049411088888888061e+07,3.138510000000000133e+01
7.049732600000000000e+07,2.780670000000000073e+03
7.050119377777777612e+07,3.097569999999999979e+01
7.050440600000000000e+07,2.779829999999999927e+03
7.050836222222222388e+07,3.165279999999999916e+01
7.051162100000000000e+07,2.777179999999999836e+03
7.051548544444444776e+07,3.128659999999999997e+01
7.051869700000000000e+07,2.776820000000000164e+03
7.052255855555555224e+07,3.089379999999999882e+01
7.052576600000000000e+07,2.775710000000000036e+03
7.052971666666667163e+07,3.156889999999999930e+01
7.053297000000000000e+07,2.773280000000000200e+03
7.053682844444444776e+07,3.116290000000000049e+01
7.054003500000000000e+07,2.772579999999999927e+03
7.054390100000000000e+07,3.095489999999999853e+01
7.054723200000000000e+07,2.769570000000000164e+03
7.055108533333332837e+07,3.142190000000000083e+01
7.055428900000000000e+07,2.769309999999999945e+03
7.055814122222222388e+07,3.100829999999999842e+01
7.056134200000000000e+07,2.768340000000000146e+03
7.056528266666667163e+07,3.167299999999999827e+01
7.056852900000000000e+07,2.765880000000000109e+03
7.057237744444444776e+07,3.126409999999999911e+01
7.057557600000000000e+07,2.765039999999999964e+03
7.057943266666667163e+07,3.105499999999999972e+01
7.058275600000000000e+07,2.762679999999999836e+03
7.058659977777777612e+07,3.151999999999999957e+01
7.058979600000000000e+07,2.761949999999999818e+03
7.059363888888888061e+07,3.110699999999999932e+01
7.059683200000000000e+07,2.760829999999999927e+03
7.060068266666667163e+07,3.096760000000000090e+01
7.060400100000000000e+07,2.757900000000000091e+03
7.060783944444444776e+07,3.145380000000000109e+01
7.061103100000000000e+07,2.757510000000000218e+03
7.061486722222222388e+07,3.104619999999999891e+01
7.061805500000000000e+07,2.756559999999999945e+03
7.062198011111111939e+07,3.171259999999999835e+01
7.062521400000000000e+07,2.754070000000000164e+03
7.062904711111111939e+07,3.131230000000000047e+01
7.063223400000000000e+07,2.753239999999999782e+03
7.063606400000000000e+07,3.097479999999999833e+01
7.063924700000000000e+07,2.752190000000000055e+03
7.064316588888888061e+07,3.165589999999999904e+01
7.064639500000000000e+07,2.749710000000000036e+03
7.065022188888888061e+07,3.125829999999999842e+01
7.065340300000000000e+07,2.749289999999999964e+03
7.065723811111111939e+07,3.104970000000000141e+01
7.066054400000000000e+07,2.746030000000000200e+03
7.066436444444444776e+07,3.126429999999999865e+01
7.066754100000000000e+07,2.745820000000000164e+03
7.067145100000000000e+07,3.160150000000000148e+01
7.067467300000000000e+07,2.743550000000000182e+03
7.067858033333332837e+07,3.191290000000000049e+01
7.068180100000000000e+07,2.741380000000000109e+03
7.068570655555555224e+07,3.224539999999999651e+01
7.068892800000000000e+07,2.739289999999999964e+03
7.069283133333332837e+07,3.257439999999999714e+01
7.069605200000000000e+07,2.737250000000000000e+03
7.069987666666667163e+07,3.238360000000000127e+01
7.070317400000000000e+07,3.270870000000000033e+01
7.070699555555555224e+07,2.734550000000000182e+03
7.071029200000000000e+07,2.732750000000000000e+03
7.071410222222222388e+07,3.282009999999999650e+01
7.071727600000000000e+07,2.731789999999999964e+03
7.072117066666667163e+07,3.316810000000000258e+01
7.072438700000000000e+07,2.729550000000000182e+03
7.072820388888888061e+07,3.296410000000000196e+01
7.073149600000000000e+07,2.726719999999999800e+03
7.073529911111111939e+07,3.310060000000000002e+01
7.073846900000000000e+07,2.724480000000000018e+03
7.074235500000000000e+07,3.343050000000000210e+01
7.074556600000000000e+07,2.723800000000000182e+03
7.074937622222222388e+07,3.324020000000000152e+01
7.075266300000000000e+07,2.720920000000000073e+03
7.075646011111111939e+07,3.336280000000000001e+01
7.075962600000000000e+07,2.720639999999999873e+03
7.076350644444444776e+07,3.368690000000000140e+01
7.076671400000000000e+07,2.718260000000000218e+03
7.077051711111111939e+07,3.347679999999999723e+01
7.077379900000000000e+07,2.715429999999999836e+03
7.077758966666667163e+07,3.358840000000000003e+01
7.078075100000000000e+07,2.715059999999999945e+03
7.078462477777777612e+07,3.390979999999999706e+01
7.078782800000000000e+07,2.712309999999999945e+03
7.079162466666667163e+07,3.369610000000000127e+01
7.079490100000000000e+07,2.709409999999999854e+03
7.079868455555555224e+07,3.379010000000000247e+01
7.080184100000000000e+07,2.709150000000000091e+03
7.080570744444444776e+07,3.410779999999999745e+01
7.080890500000000000e+07,2.706769999999999982e+03
7.081269522222222388e+07,3.388779999999999859e+01
7.081596700000000000e+07,2.703820000000000164e+03
7.081974344444444776e+07,3.397820000000000107e+01
7.082289500000000000e+07,2.702980000000000018e+03
7.082675588888888061e+07,3.443299999999999983e+01
7.082995100000000000e+07,2.701570000000000164e+03
7.083373455555555224e+07,3.407780000000000342e+01
7.083700100000000000e+07,2.698150000000000091e+03
7.084077100000000000e+07,3.414710000000000178e+01
7.084102200000000000e+07,2.698150000000000091e+03
7.084295266666667163e+07,3.414710000000000178e+01
7.084448000000000000e+07,2.697579999999999927e+03
7.084649466666667163e+07,5.596540000000000248e+01
7.084806300000000000e+07,2.694199999999999818e+03
7.084999300000000000e+07,3.446189999999999998e+01
7.085151900000000000e+07,2.695099999999999909e+03
7.085344833333332837e+07,3.422500000000000142e+01
7.085497400000000000e+07,2.694550000000000182e+03
7.085698666666667163e+07,5.600480000000000302e+01
7.085855400000000000e+07,2.691179999999999836e+03
7.086048200000000000e+07,3.453849999999999909e+01
7.086200600000000000e+07,2.692000000000000000e+03
7.086393333333332837e+07,3.430010000000000048e+01
7.086545800000000000e+07,2.691559999999999945e+03
7.086746933333332837e+07,5.604209999999999781e+01
7.086903500000000000e+07,2.688139999999999873e+03
7.087096100000000000e+07,3.461359999999999815e+01
7.087248400000000000e+07,2.689019999999999982e+03
7.087440933333332837e+07,3.437109999999999843e+01
7.087593200000000000e+07,2.688460000000000036e+03
7.087794133333332837e+07,5.608030000000000115e+01
7.087950500000000000e+07,2.685110000000000127e+03
7.088142966666667163e+07,3.468359999999999843e+01
7.088295100000000000e+07,2.685889999999999873e+03
7.088487500000000000e+07,3.443990000000000151e+01
7.088639600000000000e+07,2.685440000000000055e+03
7.088840333333332837e+07,5.611670000000000158e+01
7.088996600000000000e+07,2.682070000000000164e+03
7.089188866666667163e+07,3.475150000000000006e+01
7.089340900000000000e+07,2.682809999999999945e+03
7.089533100000000000e+07,3.450529999999999831e+01
7.089685000000000000e+07,2.682349999999999909e+03
7.089885533333332837e+07,5.614970000000000283e+01
7.090041600000000000e+07,2.678900000000000091e+03
7.090233666666667163e+07,3.481660000000000110e+01
7.090385600000000000e+07,2.679739999999999782e+03
7.090577600000000000e+07,3.456700000000000017e+01
7.090729400000000000e+07,2.679159999999999854e+03
7.090929733333332837e+07,5.618399999999999750e+01
7.091085600000000000e+07,2.675820000000000164e+03
7.091277533333332837e+07,3.487870000000000203e+01
7.091429200000000000e+07,2.676619999999999891e+03
7.091621066666667163e+07,3.462689999999999912e+01
7.091772700000000000e+07,2.676010000000000218e+03
7.091972833333332837e+07,5.621650000000000347e+01
7.092128600000000000e+07,2.672670000000000073e+03
7.092320266666667163e+07,3.493679999999999808e+01
7.092471800000000000e+07,2.673369999999999891e+03
7.092663466666667163e+07,3.468439999999999657e+01
7.092815000000000000e+07,2.672869999999999891e+03
7.093014933333332837e+07,5.624819999999999709e+01
7.093170500000000000e+07,2.669500000000000000e+03
7.093361966666667163e+07,3.499329999999999785e+01
7.093513400000000000e+07,2.670170000000000073e+03
7.093704800000000000e+07,3.473910000000000053e+01
7.093856200000000000e+07,2.669650000000000091e+03
7.094055933333332837e+07,5.627689999999999770e+01
7.094211300000000000e+07,2.666199999999999818e+03
7.094402566666667163e+07,3.504769999999999897e+01
7.094553800000000000e+07,2.666960000000000036e+03
7.094745066666667163e+07,3.479070000000000107e+01
7.094896200000000000e+07,2.666369999999999891e+03
7.095095733333332837e+07,5.630740000000000123e+01
7.095251000000000000e+07,2.663010000000000218e+03
7.095442133333332837e+07,3.509850000000000136e+01
7.095593200000000000e+07,2.663630000000000109e+03
7.095784200000000000e+07,3.484140000000000015e+01
7.095935200000000000e+07,2.663090000000000146e+03
7.096134533333332837e+07,5.633389999999999986e+01
7.096289600000000000e+07,2.659630000000000109e+03
7.096480533333332837e+07,3.514759999999999707e+01
7.096631400000000000e+07,2.660340000000000146e+03
7.096822200000000000e+07,3.488940000000000197e+01
7.096973100000000000e+07,2.659750000000000000e+03
7.097172166666667163e+07,5.635969999999999658e+01
7.097327100000000000e+07,2.656250000000000000e+03
7.097517766666667163e+07,3.519080000000000297e+01
7.097668400000000000e+07,2.656449999999999818e+03
7.097859000000000000e+07,3.493529999999999802e+01
7.098009700000000000e+07,2.656380000000000109e+03
7.098208566666667163e+07,5.639150000000000063e+01
7.098363300000000000e+07,2.653019999999999982e+03
7.098553766666667163e+07,3.524150000000000205e+01
7.098704300000000000e+07,2.653590000000000146e+03
7.098894766666667163e+07,3.497959999999999781e+01
7.099045200000000000e+07,2.653000000000000000e+03
7.099243933333332837e+07,5.641839999999999833e+01
7.099398500000000000e+07,2.649610000000000127e+03
7.099588766666667163e+07,3.528479999999999706e+01
7.099739100000000000e+07,2.650139999999999873e+03
7.099929300000000000e+07,3.502159999999999940e+01
7.100079600000000000e+07,2.649539999999999964e+03
7.100278066666667163e+07,5.644129999999999825e+01
7.100432400000000000e+07,2.646050000000000182e+03
7.100622466666667163e+07,3.532480000000000331e+01
7.100772700000000000e+07,2.646639999999999873e+03
7.100962700000000000e+07,3.506150000000000233e+01
7.101112800000000000e+07,2.089679999999999836e+03
7.101273933333332837e+07,5.639809999999999945e+01
7.101409500000000000e+07,2.642420000000000073e+03
7.101599300000000000e+07,3.522509999999999764e+01
7.101749300000000000e+07,2.642949999999999818e+03
7.101939033333332837e+07,3.501359999999999673e+01
7.102088900000000000e+07,2.642190000000000055e+03
7.102286900000000000e+07,5.645360000000000156e+01
7.102440800000000000e+07,2.638780000000000200e+03
7.102630400000000000e+07,3.532800000000000296e+01
7.102780200000000000e+07,2.639269999999999982e+03
7.102969733333332837e+07,3.506419999999999959e+01
7.103119400000000000e+07,2.638630000000000109e+03
7.103317200000000000e+07,5.648190000000000310e+01
7.103471000000000000e+07,2.635159999999999854e+03
7.103660333333332837e+07,3.537140000000000128e+01
7.103809900000000000e+07,2.635719999999999800e+03
7.103999166666667163e+07,3.510289999999999822e+01
7.104148700000000000e+07,2.634949999999999818e+03
7.104346233333332837e+07,5.650880000000000081e+01
7.104499800000000000e+07,2.631550000000000182e+03
7.104688933333332837e+07,3.540919999999999845e+01
7.104838300000000000e+07,2.631989999999999782e+03
7.105027366666667163e+07,3.514090000000000202e+01
7.105176700000000000e+07,2.631320000000000164e+03
7.105374033333332837e+07,5.653430000000000177e+01
7.105527400000000000e+07,2.627880000000000109e+03
7.105716333333332837e+07,3.544610000000000127e+01
7.105865500000000000e+07,2.628289999999999964e+03
7.106054300000000000e+07,3.517680000000000007e+01
7.106203500000000000e+07,2.627599999999999909e+03
7.106400566666667163e+07,5.655720000000000169e+01
7.106553700000000000e+07,2.624070000000000164e+03
7.106742366666667163e+07,3.548169999999999646e+01
7.106891400000000000e+07,2.624570000000000164e+03
7.107080000000000000e+07,3.521029999999999660e+01
7.107228900000000000e+07,2.623750000000000000e+03
7.107425700000000000e+07,5.658189999999999742e+01
7.107578700000000000e+07,2.620320000000000164e+03
7.107767100000000000e+07,3.551530000000000342e+01
7.107915900000000000e+07,2.620769999999999982e+03
7.108104300000000000e+07,3.524309999999999832e+01
7.108253000000000000e+07,2.619920000000000073e+03
7.108449600000000000e+07,5.660499999999999687e+01
7.108602400000000000e+07,2.616469999999999800e+03
7.108790533333332837e+07,3.554560000000000031e+01
7.108939100000000000e+07,2.616809999999999945e+03
7.109127233333332837e+07,3.527450000000000330e+01
7.109275800000000000e+07,2.616059999999999945e+03
7.109472066666667163e+07,5.662559999999999860e+01
7.109624700000000000e+07,2.612530000000000200e+03
7.109812633333332837e+07,3.557500000000000284e+01
7.109961000000000000e+07,2.612900000000000091e+03
7.110148866666667163e+07,3.530290000000000106e+01
7.110297200000000000e+07,2.611809999999999945e+03
7.110493200000000000e+07,5.666040000000000276e+01
7.110645600000000000e+07,2.608389999999999873e+03
7.110833200000000000e+07,3.561469999999999914e+01
7.110981400000000000e+07,2.608730000000000018e+03
7.111169000000000000e+07,3.533400000000000318e+01
7.111317100000000000e+07,2.607739999999999782e+03
7.111512833333332837e+07,5.664629999999999654e+01
7.111665000000000000e+07,2.604610000000000127e+03
7.111852400000000000e+07,3.562189999999999657e+01
7.112000400000000000e+07,2.604929999999999836e+03
7.112187733333332837e+07,3.535979999999999990e+01
7.112335600000000000e+07,2.604159999999999854e+03
7.112531133333332837e+07,5.669659999999999656e+01
7.112683100000000000e+07,2.600590000000000146e+03
7.112870300000000000e+07,3.566349999999999909e+01
7.113018000000000000e+07,2.600960000000000036e+03
7.113205133333332837e+07,3.538499999999999801e+01
7.113352800000000000e+07,2.600059999999999945e+03
7.113548066666667163e+07,5.672149999999999892e+01
7.113699800000000000e+07,2.596590000000000146e+03
7.113886733333332837e+07,3.569069999999999965e+01
7.114034300000000000e+07,2.596920000000000073e+03
7.114221100000000000e+07,3.540959999999999752e+01
7.114368600000000000e+07,2.596039999999999964e+03
7.114563600000000000e+07,5.674519999999999698e+01
7.114715100000000000e+07,2.592909999999999854e+03
7.114901766666667163e+07,3.571370000000000289e+01
7.115049200000000000e+07,2.592539999999999964e+03
7.115235733333332837e+07,3.543200000000000216e+01
7.115366700000000000e+07,1.812940000000000055e+03
7.115509566666667163e+07,5.687270000000000181e+01
7.115635000000000000e+07,2.589889999999999873e+03
7.115821400000000000e+07,3.565720000000000312e+01
7.115968600000000000e+07,2.589400000000000091e+03
7.116154866666667163e+07,3.535450000000000159e+01
7.116301900000000000e+07,2.588019999999999982e+03
7.116496433333332837e+07,5.673879999999999768e+01
7.116647500000000000e+07,2.584269999999999982e+03
7.116833566666667163e+07,3.565200000000000102e+01
7.116980400000000000e+07,2.584320000000000164e+03
7.117166400000000000e+07,3.537369999999999948e+01
7.117313200000000000e+07,2.583369999999999891e+03
7.117507400000000000e+07,5.675209999999999866e+01
7.117658200000000000e+07,2.579659999999999854e+03
7.117844000000000000e+07,3.567399999999999949e+01
7.117990600000000000e+07,2.579880000000000109e+03
7.118176266666667163e+07,3.539650000000000318e+01
7.118322900000000000e+07,2.578929999999999836e+03
7.118516766666667163e+07,5.677250000000000085e+01
7.118667300000000000e+07,2.575239999999999782e+03
7.118852833333332837e+07,3.569650000000000034e+01
7.118924800000000000e+07,3.569650000000000034e+01
7.118928400000000000e+07,1.713429999999999893e+02
7.118945600000000000e+07,5.365499999999999545e+02
7.118999200000000000e+07,2.575440000000000055e+03
7.119256700000000000e+07,3.541749999999999687e+01
7.119260300000000000e+07,1.700039999999999907e+02
7.119277300000000000e+07,5.363350000000000364e+02
7.119330900000000000e+07,2.574409999999999854e+03
7.119588400000000000e+07,5.679410000000000025e+01
7.119594000000000000e+07,2.726109999999999900e+02
7.119621300000000000e+07,5.355890000000000555e+02
7.119674900000000000e+07,2.570829999999999927e+03
7.119931900000000000e+07,3.571809999999999974e+01
7.119935500000000000e+07,1.714470000000000027e+02
7.119952700000000000e+07,5.356230000000000473e+02
7.120006200000000000e+07,2.570989999999999782e+03
7.120263300000000000e+07,3.543849999999999767e+01
7.120266900000000000e+07,1.701049999999999898e+02
7.120283900000000000e+07,5.354030000000000200e+02
7.120337400000000000e+07,2.569929999999999836e+03
7.120594400000000000e+07,5.681459999999999866e+01
7.120600100000000000e+07,2.727099999999999795e+02
7.120627400000000000e+07,5.346549999999999727e+02
7.120680800000000000e+07,2.566340000000000146e+03
7.120937500000000000e+07,3.573700000000000188e+01
7.120941000000000000e+07,1.715370000000000061e+02
7.120958200000000000e+07,5.346670000000000300e+02
7.121011700000000000e+07,2.566400000000000091e+03
7.121268300000000000e+07,3.545839999999999748e+01
7.121271800000000000e+07,1.701999999999999886e+02
7.121288900000000000e+07,5.344679999999999609e+02
7.121342300000000000e+07,2.565449999999999818e+03
7.121598900000000000e+07,5.683350000000000080e+01
7.121604500000000000e+07,2.728009999999999877e+02
7.121631800000000000e+07,5.336970000000000027e+02
7.121685200000000000e+07,2.561739999999999782e+03
7.121941400000000000e+07,3.575600000000000023e+01
7.121944900000000000e+07,1.716289999999999907e+02
7.121962100000000000e+07,5.337259999999999991e+02
7.122015500000000000e+07,2.561880000000000109e+03
7.122271700000000000e+07,3.547679999999999723e+01
7.122275200000000000e+07,1.702889999999999873e+02
7.122292200000000000e+07,5.335180000000000291e+02
7.122345600000000000e+07,2.560880000000000109e+03
7.122601700000000000e+07,5.685309999999999775e+01
7.122607400000000000e+07,2.728949999999999818e+02
7.122634700000000000e+07,5.327430000000000518e+02
7.122687900000000000e+07,2.557159999999999854e+03
7.122943600000000000e+07,3.577289999999999992e+01
7.122947200000000000e+07,1.717100000000000080e+02
7.122964400000000000e+07,5.327659999999999627e+02
7.123017700000000000e+07,2.557280000000000200e+03
7.123273400000000000e+07,3.549240000000000350e+01
7.123276900000000000e+07,1.703629999999999995e+02
7.123294000000000000e+07,5.325380000000000109e+02
7.123347200000000000e+07,2.556179999999999836e+03
7.123602900000000000e+07,5.687259999999999849e+01
7.123608500000000000e+07,2.729889999999999759e+02
7.123635800000000000e+07,5.317839999999999918e+02
7.123689000000000000e+07,2.552570000000000164e+03
7.123944300000000000e+07,3.578739999999999810e+01
7.123947900000000000e+07,1.717800000000000011e+02
7.123965000000000000e+07,5.317910000000000537e+02
7.124018200000000000e+07,2.552590000000000146e+03
7.124273500000000000e+07,3.550840000000000174e+01
7.124277000000000000e+07,1.704399999999999977e+02
7.124294100000000000e+07,5.315760000000000218e+02
7.124347200000000000e+07,2.551570000000000164e+03
7.124602400000000000e+07,5.688960000000000150e+01
7.124608100000000000e+07,2.730699999999999932e+02
7.124635400000000000e+07,5.307970000000000255e+02
7.124688500000000000e+07,2.547829999999999927e+03
7.124943200000000000e+07,3.580160000000000053e+01
7.124946800000000000e+07,1.718480000000000132e+02
7.124964000000000000e+07,5.308099999999999454e+02
7.125017100000000000e+07,2.547889999999999873e+03
7.125271900000000000e+07,3.552109999999999701e+01
7.125275400000000000e+07,1.705010000000000048e+02
7.125292500000000000e+07,5.305729999999999791e+02
7.125345500000000000e+07,2.546750000000000000e+03
7.125600200000000000e+07,5.690659999999999741e+01
7.125605900000000000e+07,2.731519999999999868e+02
7.125633200000000000e+07,5.298120000000000118e+02
7.125686200000000000e+07,2.543099999999999909e+03
7.125940500000000000e+07,3.581119999999999948e+01
7.125944100000000000e+07,1.718940000000000055e+02
7.125961300000000000e+07,5.297989999999999782e+02
7.126014300000000000e+07,2.543030000000000200e+03
7.126268600000000000e+07,3.553329999999999700e+01
7.126272100000000000e+07,1.705600000000000023e+02
7.126289200000000000e+07,5.297380000000000564e+02
7.126342100000000000e+07,2.542739999999999782e+03
7.126596400000000000e+07,5.693359999999999843e+01
7.126602100000000000e+07,2.732810000000000059e+02
7.126629400000000000e+07,5.288339999999999463e+02
7.126682300000000000e+07,2.538400000000000091e+03
7.126936200000000000e+07,3.582979999999999876e+01
7.126939700000000000e+07,1.719830000000000041e+02
7.126956900000000000e+07,5.287999999999999545e+02
7.127009800000000000e+07,2.538239999999999782e+03
7.127263600000000000e+07,3.553790000000000049e+01
7.127267200000000000e+07,1.705819999999999936e+02
7.127284300000000000e+07,5.285739999999999554e+02
7.127337100000000000e+07,2.537159999999999854e+03
7.127590800000000000e+07,5.694420000000000215e+01
7.127596500000000000e+07,2.733319999999999936e+02
7.127623900000000000e+07,5.278260000000000218e+02
7.127676600000000000e+07,2.533570000000000164e+03
7.127930000000000000e+07,3.583879999999999910e+01
7.127933600000000000e+07,1.720260000000000105e+02
7.127950800000000000e+07,5.278220000000000027e+02
7.128003600000000000e+07,2.533550000000000182e+03
7.128256900000000000e+07,3.555630000000000024e+01
7.128260500000000000e+07,1.706699999999999875e+02
7.128277500000000000e+07,5.276009999999999991e+02
7.128330300000000000e+07,2.532489999999999782e+03
7.128583600000000000e+07,5.696170000000000044e+01
7.128589300000000000e+07,2.734159999999999968e+02
7.128616600000000000e+07,5.268200000000000500e+02
7.128669300000000000e+07,2.528730000000000018e+03
7.128922100000000000e+07,3.584949999999999903e+01
7.128925700000000000e+07,1.720780000000000030e+02
7.128942900000000000e+07,5.268189999999999600e+02
7.128995600000000000e+07,2.528730000000000018e+03
7.129248500000000000e+07,3.556439999999999912e+01
7.129252100000000000e+07,1.707090000000000032e+02
7.129269100000000000e+07,5.265750000000000455e+02
7.129321800000000000e+07,2.527559999999999945e+03
7.129574500000000000e+07,5.697899999999999920e+01
7.129580200000000000e+07,2.734990000000000236e+02
7.129607600000000000e+07,5.258150000000000546e+02
7.129660200000000000e+07,2.523909999999999854e+03
7.129912600000000000e+07,3.585710000000000264e+01
7.129916100000000000e+07,1.721140000000000043e+02
7.129933400000000000e+07,5.257980000000000018e+02
7.129985900000000000e+07,2.523829999999999927e+03
7.130238300000000000e+07,3.557289999999999708e+01
7.130241900000000000e+07,1.707500000000000000e+02
7.130259000000000000e+07,5.255689999999999600e+02
7.130311500000000000e+07,2.522730000000000018e+03
7.130563800000000000e+07,5.699389999999999645e+01
7.130569500000000000e+07,2.735710000000000264e+02
7.130596800000000000e+07,5.247849999999999682e+02
7.130649300000000000e+07,2.518969999999999800e+03
7.130901200000000000e+07,3.586480000000000246e+01
7.130904800000000000e+07,1.721510000000000105e+02
7.130922000000000000e+07,5.247770000000000437e+02
7.130974500000000000e+07,2.518929999999999836e+03
7.131226400000000000e+07,3.557829999999999870e+01
7.131229900000000000e+07,1.707760000000000105e+02
7.131247000000000000e+07,5.245289999999999964e+02
7.131299500000000000e+07,2.517739999999999782e+03
7.131551200000000000e+07,5.701010000000000133e+01
7.131556900000000000e+07,2.736490000000000009e+02
7.131584300000000000e+07,5.237690000000000055e+02
7.131636700000000000e+07,2.514090000000000146e+03
7.131888100000000000e+07,3.587010000000000076e+01
7.131891700000000000e+07,1.721769999999999925e+02
7.131908900000000000e+07,5.237480000000000473e+02
7.131961300000000000e+07,2.513989999999999782e+03
7.132212700000000000e+07,3.558440000000000225e+01
7.132216200000000000e+07,1.708050000000000068e+02
7.132233300000000000e+07,5.235249999999999773e+02
7.132285700000000000e+07,2.512920000000000073e+03
7.132537000000000000e+07,5.702519999999999811e+01
7.132542700000000000e+07,2.737210000000000036e+02
7.132570000000000000e+07,5.227809999999999491e+02
7.132622300000000000e+07,2.509349999999999909e+03
7.132873200000000000e+07,3.587160000000000082e+01
7.132876800000000000e+07,1.721839999999999975e+02
7.132894100000000000e+07,5.226430000000000291e+02
7.132946300000000000e+07,2.508690000000000055e+03
7.133197200000000000e+07,3.558789999999999765e+01
7.133200700000000000e+07,1.708220000000000027e+02
7.133217800000000000e+07,5.223619999999999663e+02
7.133270100000000000e+07,2.507340000000000146e+03
7.133520800000000000e+07,5.704820000000000135e+01
7.133526500000000000e+07,2.738310000000000173e+02
7.133553900000000000e+07,5.215850000000000364e+02
7.133606000000000000e+07,2.503610000000000127e+03
7.133856400000000000e+07,3.586710000000000065e+01
7.133860000000000000e+07,1.721620000000000061e+02
7.133877200000000000e+07,5.216259999999999764e+02
7.133929400000000000e+07,2.503800000000000182e+03
7.134179800000000000e+07,3.558959999999999724e+01
7.134183300000000000e+07,1.708300000000000125e+02
7.134200400000000000e+07,5.213990000000000009e+02
7.134252500000000000e+07,2.502719999999999800e+03
7.134502800000000000e+07,5.704840000000000089e+01
7.134508500000000000e+07,2.738319999999999936e+02
7.134535900000000000e+07,5.206180000000000518e+02
7.134588000000000000e+07,2.498969999999999800e+03
7.134837900000000000e+07,3.587890000000000157e+01
7.134841400000000000e+07,1.722189999999999941e+02
7.134858700000000000e+07,5.206059999999999945e+02
7.134910700000000000e+07,2.498909999999999854e+03
7.135160600000000000e+07,3.559089999999999776e+01
7.135164200000000000e+07,1.708360000000000127e+02
7.135181300000000000e+07,5.203769999999999527e+02
7.135233300000000000e+07,2.497809999999999945e+03
7.135483100000000000e+07,5.705420000000000158e+01
7.135488800000000000e+07,2.738600000000000136e+02
7.135516200000000000e+07,5.202740000000000009e+02
7.135568200000000000e+07,2.497320000000000164e+03
7.135817900000000000e+07,3.594279999999999831e+01
7.135821500000000000e+07,1.725260000000000105e+02
7.135838800000000000e+07,5.197119999999999891e+02
7.135890700000000000e+07,2.494619999999999891e+03
7.136140200000000000e+07,3.560660000000000025e+01
7.136143800000000000e+07,1.709120000000000061e+02
7.136160900000000000e+07,5.193930000000000291e+02
7.136212800000000000e+07,2.493090000000000146e+03
7.136462100000000000e+07,5.707009999999999650e+01
7.136467800000000000e+07,2.739370000000000118e+02
7.136495200000000000e+07,5.185579999999999927e+02
7.136547100000000000e+07,2.489079999999999927e+03
7.136796000000000000e+07,3.587330000000000041e+01
7.136799600000000000e+07,1.721920000000000073e+02
7.136816800000000000e+07,5.185059999999999718e+02
7.136868600000000000e+07,2.488829999999999927e+03
7.137117500000000000e+07,3.559349999999999881e+01
7.137121100000000000e+07,1.708489999999999895e+02
7.137138200000000000e+07,5.182319999999999709e+02
7.137190000000000000e+07,2.487510000000000218e+03
7.137438700000000000e+07,5.708539999999999992e+01
7.137444400000000000e+07,2.740099999999999909e+02
7.137471800000000000e+07,5.174550000000000409e+02
7.137523600000000000e+07,2.483780000000000200e+03
7.137772000000000000e+07,3.587429999999999808e+01
7.137775500000000000e+07,1.721959999999999980e+02
7.137792800000000000e+07,5.174030000000000200e+02
7.137844500000000000e+07,2.483539999999999964e+03
7.138092900000000000e+07,3.559080000000000155e+01
7.138096400000000000e+07,1.708360000000000127e+02
7.138113500000000000e+07,5.171539999999999964e+02
7.138165200000000000e+07,2.482340000000000146e+03
7.138413500000000000e+07,5.709270000000000067e+01
7.138419200000000000e+07,2.740450000000000159e+02
7.138446600000000000e+07,5.163579999999999472e+02
7.138498200000000000e+07,2.478519999999999982e+03
7.138746100000000000e+07,3.587049999999999983e+01
7.138749600000000000e+07,1.721779999999999973e+02
7.138766900000000000e+07,5.163189999999999600e+02
7.138818500000000000e+07,2.478329999999999927e+03
7.139066300000000000e+07,3.558599999999999852e+01
7.139069900000000000e+07,1.708129999999999882e+02
7.139087000000000000e+07,5.160499999999999545e+02
7.139138600000000000e+07,2.477039999999999964e+03
7.139386300000000000e+07,5.710029999999999717e+01
7.139392000000000000e+07,2.740819999999999936e+02
7.139419400000000000e+07,5.152759999999999536e+02
7.139470900000000000e+07,2.473320000000000164e+03
7.139718300000000000e+07,3.586260000000000048e+01
7.139721800000000000e+07,1.721399999999999864e+02
7.139739100000000000e+07,5.152050000000000409e+02
7.139790600000000000e+07,2.472980000000000018e+03
7.140037900000000000e+07,3.558089999999999975e+01
7.140041400000000000e+07,1.707880000000000109e+02
7.140058500000000000e+07,5.147530000000000427e+02
7.140110000000000000e+07,2.470820000000000164e+03
7.140357100000000000e+07,5.709940000000000282e+01
7.140362800000000000e+07,2.740769999999999982e+02
7.140390200000000000e+07,5.140080000000000382e+02
7.140441600000000000e+07,2.316289999999999964e+03
7.140673200000000000e+07,3.585529999999999973e+01
7.140676800000000000e+07,1.721049999999999898e+02
7.140694000000000000e+07,5.139049999999999727e+02
7.140745400000000000e+07,2.466739999999999782e+03
7.140992100000000000e+07,3.571470000000000056e+01
7.140995600000000000e+07,1.714310000000000116e+02
7.141012800000000000e+07,5.136970000000000027e+02
7.141064200000000000e+07,2.465750000000000000e+03
7.141310700000000000e+07,3.555910000000000082e+01
7.141314300000000000e+07,1.706839999999999975e+02
7.141331400000000000e+07,5.134249999999999545e+02
7.141382700000000000e+07,2.464440000000000055e+03
7.141629100000000000e+07,3.540240000000000009e+01
7.141632700000000000e+07,1.699319999999999879e+02
7.141649700000000000e+07,5.131609999999999445e+02
7.141701000000000000e+07,2.463170000000000073e+03
7.141947300000000000e+07,3.524289999999999878e+01
7.141950800000000000e+07,1.691659999999999968e+02
7.141967700000000000e+07,5.128700000000000045e+02
7.142019000000000000e+07,2.461780000000000200e+03
7.142265200000000000e+07,3.508350000000000080e+01
7.142268700000000000e+07,1.684010000000000105e+02
7.142285600000000000e+07,5.125979999999999563e+02
7.142336800000000000e+07,2.460469999999999800e+03
7.142582900000000000e+07,3.492289999999999850e+01
7.142586400000000000e+07,1.676299999999999955e+02
7.142603100000000000e+07,5.123189999999999600e+02
7.142654400000000000e+07,2.459130000000000109e+03
7.142900300000000000e+07,3.476019999999999754e+01
7.142903700000000000e+07,1.668489999999999895e+02
7.142920400000000000e+07,5.120230000000000246e+02
7.142971600000000000e+07,2.457710000000000036e+03
7.143217400000000000e+07,3.459819999999999851e+01
7.143220900000000000e+07,1.660709999999999980e+02
7.143237500000000000e+07,5.117500000000000000e+02
7.143288600000000000e+07,2.456400000000000091e+03
7.143534300000000000e+07,3.443410000000000082e+01
7.143537700000000000e+07,1.652839999999999918e+02
7.143554300000000000e+07,5.114560000000000173e+02
7.143605400000000000e+07,2.454989999999999782e+03
7.143850900000000000e+07,3.427069999999999794e+01
7.143854300000000000e+07,1.644989999999999952e+02
7.143870800000000000e+07,5.111840000000000259e+02
7.143921900000000000e+07,2.453679999999999836e+03
7.144167300000000000e+07,3.411339999999999861e+01
7.144170700000000000e+07,1.637439999999999998e+02
7.144187100000000000e+07,5.108919999999999959e+02
7.144238100000000000e+07,2.452280000000000200e+03
7.144483400000000000e+07,5.671329999999999671e+01
7.144489000000000000e+07,2.722239999999999895e+02
7.144516300000000000e+07,5.100779999999999745e+02
7.144567300000000000e+07,2.448369999999999891e+03
7.144812100000000000e+07,3.473400000000000176e+01
7.144815600000000000e+07,1.667230000000000132e+02
7.144832300000000000e+07,5.100570000000000164e+02
7.144883300000000000e+07,2.448269999999999982e+03
7.145128100000000000e+07,3.457399999999999807e+01
7.145131500000000000e+07,1.659550000000000125e+02
7.145148100000000000e+07,5.097959999999999923e+02
7.145199100000000000e+07,2.447019999999999982e+03
7.145443800000000000e+07,3.440939999999999799e+01
7.145447300000000000e+07,1.651649999999999920e+02
7.145463800000000000e+07,5.095339999999999918e+02
7.145514700000000000e+07,2.445760000000000218e+03
7.145759300000000000e+07,3.424219999999999686e+01
7.145762700000000000e+07,1.643629999999999995e+02
7.145779200000000000e+07,5.092450000000000045e+02
7.145830100000000000e+07,2.444380000000000109e+03
7.146074500000000000e+07,3.407529999999999859e+01
7.146077900000000000e+07,1.635620000000000118e+02
7.146094300000000000e+07,5.089780000000000086e+02
7.146145200000000000e+07,2.443090000000000146e+03
7.146389500000000000e+07,3.390659999999999741e+01
7.146392900000000000e+07,1.627520000000000095e+02
7.146409200000000000e+07,5.086879999999999882e+02
7.146460000000000000e+07,2.441699999999999818e+03
7.146704200000000000e+07,3.373839999999999861e+01
7.146707600000000000e+07,1.619449999999999932e+02
7.146723800000000000e+07,5.084209999999999923e+02
7.146774600000000000e+07,2.440420000000000073e+03
7.147018700000000000e+07,3.356960000000000122e+01
7.147022000000000000e+07,1.611339999999999861e+02
7.147038100000000000e+07,5.081490000000000009e+02
7.147088900000000000e+07,2.439110000000000127e+03
7.147332900000000000e+07,3.339900000000000091e+01
7.147336200000000000e+07,1.603149999999999977e+02
7.147352200000000000e+07,5.078600000000000136e+02
7.147403000000000000e+07,2.437730000000000018e+03
7.147646800000000000e+07,3.322930000000000206e+01
7.147650100000000000e+07,1.595010000000000048e+02
7.147666100000000000e+07,5.075960000000000036e+02
7.147716800000000000e+07,2.436460000000000036e+03
7.147960500000000000e+07,3.305810000000000315e+01
7.147963800000000000e+07,1.586790000000000020e+02
7.147979600000000000e+07,5.073109999999999786e+02
7.148030400000000000e+07,2.435099999999999909e+03
7.148273900000000000e+07,3.288770000000000238e+01
7.148277200000000000e+07,1.578609999999999900e+02
7.148293000000000000e+07,5.070500000000000114e+02
7.148343700000000000e+07,2.433840000000000146e+03
7.148587000000000000e+07,5.615290000000000248e+01
7.148592700000000000e+07,2.695339999999999918e+02
7.148619600000000000e+07,5.061879999999999882e+02
7.148670200000000000e+07,2.429699999999999818e+03
7.148913200000000000e+07,3.348629999999999995e+01
7.148916500000000000e+07,1.607340000000000089e+02
7.148932600000000000e+07,5.062060000000000173e+02
7.148983200000000000e+07,2.429789999999999964e+03
7.149226200000000000e+07,3.332189999999999941e+01
7.149229600000000000e+07,1.599449999999999932e+02
7.149245500000000000e+07,5.059750000000000227e+02
7.149296100000000000e+07,2.428679999999999836e+03
7.149539000000000000e+07,3.315039999999999765e+01
7.149542300000000000e+07,1.591220000000000141e+02
7.149558200000000000e+07,5.057019999999999982e+02
7.149608800000000000e+07,2.427369999999999891e+03
7.149851500000000000e+07,3.297899999999999920e+01
7.149854800000000000e+07,1.582990000000000066e+02
7.149870700000000000e+07,5.054460000000000264e+02
7.149921200000000000e+07,2.426139999999999873e+03
7.150163800000000000e+07,3.280590000000000117e+01
7.150167100000000000e+07,1.574679999999999893e+02
7.150182900000000000e+07,5.051680000000000064e+02
7.150233400000000000e+07,2.424809999999999945e+03
7.150475900000000000e+07,3.263349999999999795e+01
7.150479100000000000e+07,1.566409999999999911e+02
7.150494800000000000e+07,5.049119999999999777e+02
7.150545300000000000e+07,2.423579999999999927e+03
7.150787600000000000e+07,3.245960000000000178e+01
7.150790900000000000e+07,1.558060000000000116e+02
7.150806500000000000e+07,5.046349999999999909e+02
7.150856900000000000e+07,2.422250000000000000e+03
7.151099200000000000e+07,3.231130000000000280e+01
7.151102400000000000e+07,1.550939999999999941e+02
7.151117900000000000e+07,5.043809999999999718e+02
7.151168300000000000e+07,2.421030000000000200e+03
7.151410400000000000e+07,5.592479999999999762e+01
7.151416000000000000e+07,2.684390000000000214e+02
7.151442900000000000e+07,5.035260000000000105e+02
7.151493200000000000e+07,2.416920000000000073e+03
7.151734900000000000e+07,3.291799999999999926e+01
7.151738200000000000e+07,1.580060000000000002e+02
7.151754000000000000e+07,5.035380000000000109e+02
7.151804400000000000e+07,2.416980000000000018e+03
7.152046100000000000e+07,3.275139999999999674e+01
7.152049300000000000e+07,1.572069999999999936e+02
7.152065100000000000e+07,5.033199999999999932e+02
7.152115400000000000e+07,2.415940000000000055e+03
7.152357000000000000e+07,3.257789999999999964e+01
7.152360200000000000e+07,1.563739999999999952e+02
7.152375900000000000e+07,5.030559999999999832e+02
7.152426200000000000e+07,2.414670000000000073e+03
7.152667600000000000e+07,3.240449999999999875e+01
7.152670900000000000e+07,1.555420000000000016e+02
7.152686400000000000e+07,5.028090000000000259e+02
7.152736700000000000e+07,2.413480000000000018e+03
7.152978100000000000e+07,3.222939999999999827e+01
7.152981300000000000e+07,1.547009999999999934e+02
7.152996800000000000e+07,5.025389999999999873e+02
7.153047000000000000e+07,2.412190000000000055e+03
7.153288200000000000e+07,3.205519999999999925e+01
7.153291400000000000e+07,1.538650000000000091e+02
7.153306800000000000e+07,5.022909999999999968e+02
7.153357100000000000e+07,2.411000000000000000e+03
7.153598200000000000e+07,5.585410000000000252e+01
7.153603700000000000e+07,2.681000000000000227e+02
7.153630600000000000e+07,5.014350000000000023e+02
7.153680700000000000e+07,2.406889999999999873e+03
7.153921400000000000e+07,3.264330000000000354e+01
7.153924700000000000e+07,1.566879999999999882e+02
7.153940300000000000e+07,5.014599999999999795e+02
7.153990500000000000e+07,2.407010000000000218e+03
7.154231200000000000e+07,3.247619999999999862e+01
7.154234400000000000e+07,1.558859999999999957e+02
7.154250000000000000e+07,5.012549999999999955e+02
7.154300100000000000e+07,2.406030000000000200e+03
7.154540700000000000e+07,3.230239999999999867e+01
7.154544000000000000e+07,1.550519999999999925e+02
7.154559500000000000e+07,5.010179999999999723e+02
7.154609600000000000e+07,2.404889999999999873e+03
7.154850100000000000e+07,3.211809999999999832e+01
7.154853300000000000e+07,1.541670000000000016e+02
7.154868700000000000e+07,5.000950000000000273e+02
7.154918700000000000e+07,2.400449999999999818e+03
7.155158700000000000e+07,3.184919999999999973e+01
7.155161900000000000e+07,1.528760000000000048e+02
7.155177200000000000e+07,5.003290000000000077e+02
7.155227200000000000e+07,2.401579999999999927e+03
7.155467400000000000e+07,5.549689999999999657e+01
7.155473000000000000e+07,2.663849999999999909e+02
7.155499600000000000e+07,4.995869999999999891e+02
7.155549500000000000e+07,2.398019999999999982e+03
7.155789400000000000e+07,3.214569999999999794e+01
7.155792600000000000e+07,1.543000000000000114e+02
7.155808000000000000e+07,4.996890000000000214e+02
7.155858000000000000e+07,2.398510000000000218e+03
7.156097800000000000e+07,5.566040000000000276e+01
7.156103400000000000e+07,2.671700000000000159e+02
7.156130100000000000e+07,4.988890000000000100e+02
7.156180000000000000e+07,2.394670000000000073e+03
7.156419500000000000e+07,3.242600000000000193e+01
7.156422700000000000e+07,1.556450000000000102e+02
7.156438300000000000e+07,4.989619999999999891e+02
7.156488200000000000e+07,2.395019999999999982e+03
7.156727700000000000e+07,3.225900000000000034e+01
7.156730900000000000e+07,1.548429999999999893e+02
7.156746400000000000e+07,4.987529999999999859e+02
7.156796200000000000e+07,2.394010000000000218e+03
7.157035600000000000e+07,5.568379999999999797e+01
7.157041200000000000e+07,2.672819999999999823e+02
7.157067900000000000e+07,4.979320000000000164e+02
7.157117700000000000e+07,2.390079999999999927e+03
7.157356700000000000e+07,3.253459999999999752e+01
7.157360000000000000e+07,1.561659999999999968e+02
7.157375600000000000e+07,4.979619999999999891e+02
7.157425400000000000e+07,2.390219999999999800e+03
7.157664400000000000e+07,5.585390000000000299e+01
7.157670000000000000e+07,2.680989999999999895e+02
7.157696800000000000e+07,4.971589999999999918e+02
7.157746500000000000e+07,2.386360000000000127e+03
7.157985200000000000e+07,3.281179999999999808e+01
7.157988500000000000e+07,1.574970000000000141e+02
7.158004200000000000e+07,4.971360000000000241e+02
7.158053900000000000e+07,2.386260000000000218e+03
7.158292500000000000e+07,3.260679999999999978e+01
7.158295800000000000e+07,1.565130000000000052e+02
7.158311500000000000e+07,4.969599999999999795e+02
7.158361200000000000e+07,2.385409999999999854e+03
7.158599700000000000e+07,5.584779999999999944e+01
7.158605300000000000e+07,2.680690000000000168e+02
7.158632100000000000e+07,4.961689999999999827e+02
7.158681700000000000e+07,2.381610000000000127e+03
7.158919900000000000e+07,3.288719999999999999e+01
7.158923200000000000e+07,1.578590000000000089e+02
7.158938900000000000e+07,4.961890000000000214e+02
7.158988600000000000e+07,2.381710000000000036e+03
7.159226700000000000e+07,3.272930000000000206e+01
7.159230000000000000e+07,1.571009999999999991e+02
7.159245700000000000e+07,4.959920000000000186e+02
7.159295300000000000e+07,2.380760000000000218e+03
7.159533400000000000e+07,5.590659999999999741e+01
7.159539000000000000e+07,2.683519999999999754e+02
7.159565800000000000e+07,4.951770000000000209e+02
7.159615300000000000e+07,2.376849999999999909e+03
7.159853000000000000e+07,3.300789999999999935e+01
7.159856300000000000e+07,1.584379999999999882e+02
7.159872200000000000e+07,4.952019999999999982e+02
7.159921700000000000e+07,2.376969999999999800e+03
7.160159400000000000e+07,3.284409999999999741e+01
7.160162700000000000e+07,1.576519999999999868e+02
7.160178400000000000e+07,4.949789999999999850e+02
7.160227900000000000e+07,2.375900000000000091e+03
7.160465500000000000e+07,5.596540000000000248e+01
7.160471100000000000e+07,2.686340000000000146e+02
7.160498000000000000e+07,4.941800000000000068e+02
7.160547400000000000e+07,2.372059999999999945e+03
7.160784600000000000e+07,3.312080000000000268e+01
7.160787900000000000e+07,1.589799999999999898e+02
7.160803800000000000e+07,4.941829999999999927e+02
7.160853200000000000e+07,2.372079999999999927e+03
7.161090400000000000e+07,3.295280000000000342e+01
7.161093700000000000e+07,1.581730000000000018e+02
7.161109600000000000e+07,4.939809999999999945e+02
7.161158900000000000e+07,2.371110000000000127e+03
7.161396100000000000e+07,5.601870000000000260e+01
7.161401700000000000e+07,2.688899999999999864e+02
7.161428600000000000e+07,4.931669999999999732e+02
7.161477900000000000e+07,2.367199999999999818e+03
7.161714600000000000e+07,3.322840000000000060e+01
7.161717900000000000e+07,1.594960000000000093e+02
7.161733900000000000e+07,4.931870000000000118e+02
7.161783200000000000e+07,2.367300000000000182e+03
7.162019900000000000e+07,3.305290000000000106e+01
7.162023200000000000e+07,1.586539999999999964e+02
7.162039100000000000e+07,0.000000000000000000e+00
