Time,CumQo
4.00478e+0,4.24921e+1
4.92693e+1,2.51609e+3
1.05951e+2,4.72971e+3
1.49547e+2,6.59993e+3
1.97065e+2,8.58499e+3
2.47962e+2,1.07339e+4
2.80352e+2,1.24928e+4
3.28936e+2,1.45083e+4
3.77521e+2,1.67062e+4
4.26105e+2,1.87619e+4
4.74689e+2,2.08650e+4
5.23273e+2,2.28971e+4
5.86253e+2,2.46369e+4
6.44734e+2,2.63248e+4
7.66195e+2,2.78887e+4
9.28142e+2,2.92840e+4
1.09981e+3,3.05486e+4
1.25852e+3,3.13830e+4
1.43018e+3,3.21349e+4
1.60832e+3,3.27738e+4
1.78646e+3,3.33121e+4
1.96461e+3,3.37329e+4
2.14275e+3,3.42069e+4
2.32089e+3,3.46461e+4
2.49903e+3,3.50586e+4
2.67718e+3,3.54879e+4
2.85532e+3,3.58289e+4
3.03346e+3,3.61703e+4
