Time,Dt
2.309979999999999905e+02,1.330980000000000132e+02
3.640950000000000273e+02,1.464070000000000107e+02
5.105029999999999859e+02,1.610459999999999923e+02
6.715489999999999782e+02,1.771479999999999961e+02
8.486970000000000027e+02,1.948609999999999900e+02
1.043559999999999945e+03,2.143449999999999989e+02
1.257900000000000091e+03,2.357740000000000009e+02
1.493680000000000064e+03,2.593450000000000273e+02
1.753019999999999982e+03,2.852789999999999964e+02
2.038299999999999955e+03,3.138000000000000114e+02
2.352099999999999909e+03,3.451750000000000114e+02
2.697269999999999982e+03,3.796779999999999973e+02
3.076949999999999818e+03,4.176460000000000150e+02
3.494599999999999909e+03,4.593890000000000100e+02
3.953989999999999782e+03,5.052980000000000018e+02
4.459279999999999745e+03,5.558049999999999500e+02
5.015090000000000146e+03,6.113700000000000045e+02
5.626460000000000036e+03,6.724589999999999463e+02
6.298920000000000073e+03,7.396929999999999836e+02
7.038609999999999673e+03,8.135860000000000127e+02
7.852199999999999818e+03,8.948940000000000055e+02
8.747090000000000146e+03,9.842920000000000300e+02
9.731379999999999200e+03,1.082710000000000036e+03
1.081410000000000036e+04,1.190890000000000100e+03
1.200500000000000000e+04,1.309849999999999909e+03
1.331479999999999927e+04,1.440660000000000082e+03
1.475550000000000000e+04,1.584650000000000091e+03
1.634010000000000036e+04,1.742859999999999900e+03
1.808300000000000000e+04,1.916829999999999927e+03
1.999979999999999927e+04,2.108090000000000146e+03
2.210790000000000146e+04,2.318510000000000218e+03
2.442640000000000146e+04,2.549739999999999782e+03
2.697620000000000073e+04,2.804630000000000109e+03
2.978079999999999927e+04,3.084989999999999782e+03
3.286580000000000291e+04,3.392639999999999873e+03
3.625840000000000146e+04,3.731019999999999982e+03
3.998950000000000000e+04,4.103060000000000400e+03
4.409250000000000000e+04,4.512289999999999964e+03
4.860480000000000291e+04,4.963260000000000218e+03
5.356809999999999854e+04,5.458630000000000109e+03
5.902669999999999709e+04,6.000680000000000291e+03
6.502740000000000146e+04,6.596130000000000109e+03
7.162350000000000000e+04,7.255189999999999600e+03
7.887869999999999709e+04,7.978680000000000291e+03
8.685739999999999418e+04,8.772450000000000728e+03
9.562980000000000291e+04,9.643760000000000218e+03
1.052740000000000000e+05,1.060210000000000036e+04
1.158760000000000000e+05,1.166089999999999964e+04
1.275370000000000000e+05,1.282000000000000000e+04
1.403570000000000000e+05,1.409560000000000036e+04
1.544520000000000000e+05,1.509879999999999927e+04
1.695510000000000000e+05,1.559939999999999964e+04
1.851500000000000000e+05,1.613520000000000073e+04
2.012860000000000000e+05,1.671029999999999927e+04
2.179960000000000000e+05,1.729359999999999854e+04
2.352900000000000000e+05,1.788240000000000146e+04
2.531720000000000000e+05,1.855490000000000146e+04
2.717270000000000000e+05,1.923740000000000146e+04
2.909640000000000000e+05,1.992609999999999854e+04
3.108900000000000000e+05,2.066779999999999927e+04
3.315580000000000000e+05,2.146879999999999927e+04
3.530270000000000000e+05,2.233690000000000146e+04
3.753640000000000000e+05,2.321529999999999927e+04
3.985790000000000000e+05,2.416840000000000146e+04
4.227480000000000000e+05,2.512920000000000073e+04
4.478770000000000000e+05,2.625679999999999927e+04
4.741340000000000000e+05,2.740220000000000073e+04
5.015360000000000000e+05,2.855600000000000000e+04
5.300920000000000000e+05,2.992590000000000146e+04
5.600180000000000000e+05,3.131779999999999927e+04
5.913350000000000000e+05,3.285169999999999709e+04
6.241870000000000000e+05,3.425559999999999854e+04
6.584430000000000000e+05,3.485400000000000000e+04
6.932970000000000000e+05,3.563540000000000146e+04
7.289320000000000000e+05,3.645650000000000000e+04
7.653890000000000000e+05,3.732040000000000146e+04
8.027090000000000000e+05,3.823069999999999709e+04
8.409400000000000000e+05,3.919130000000000291e+04
8.801310000000000000e+05,4.020659999999999854e+04
9.203380000000000000e+05,4.128159999999999854e+04
9.616190000000000000e+05,4.242200000000000000e+04
1.004040000000000000e+06,4.363409999999999854e+04
1.047680000000000000e+06,4.519240000000000146e+04
1.092870000000000000e+06,4.658719999999999709e+04
1.139450000000000000e+06,4.808040000000000146e+04
1.187540000000000000e+06,4.968309999999999854e+04
1.237220000000000000e+06,5.140819999999999709e+04
1.288630000000000000e+06,5.288759999999999854e+04
1.341510000000000000e+06,5.366530000000000291e+04
1.395180000000000000e+06,5.488500000000000000e+04
1.450060000000000000e+06,5.617140000000000146e+04
1.506240000000000000e+06,5.753040000000000146e+04
1.563770000000000000e+06,5.896859999999999854e+04
1.622730000000000000e+06,6.049369999999999709e+04
1.683230000000000000e+06,6.211400000000000000e+04
1.745340000000000000e+06,6.383940000000000146e+04
1.809180000000000000e+06,6.568089999999999418e+04
1.874860000000000000e+06,6.765139999999999418e+04
1.942510000000000000e+06,6.904619999999999709e+04
2.011560000000000000e+06,7.051530000000000291e+04
2.082080000000000000e+06,7.206510000000000582e+04
2.154140000000000000e+06,7.370289999999999418e+04
2.227840000000000000e+06,7.543710000000000582e+04
2.303280000000000000e+06,7.727710000000000582e+04
2.380560000000000000e+06,7.923339999999999418e+04
2.459790000000000000e+06,8.131850000000000000e+04
2.541110000000000000e+06,8.354639999999999418e+04
2.624660000000000000e+06,8.472310000000000582e+04
2.709380000000000000e+06,8.721500000000000000e+04
2.796590000000000000e+06,8.853639999999999418e+04
2.885130000000000000e+06,8.991980000000000291e+04
2.975050000000000000e+06,9.286800000000000000e+04
3.067920000000000000e+06,9.444210000000000582e+04
3.162360000000000000e+06,9.781500000000000000e+04
3.260180000000000000e+06,9.962639999999999418e+04
3.359800000000000000e+06,1.015420000000000000e+05
3.461340000000000000e+06,1.035730000000000000e+05
3.564920000000000000e+06,1.057310000000000000e+05
3.670650000000000000e+06,1.080290000000000000e+05
3.778680000000000000e+06,1.104850000000000000e+05
3.889160000000000000e+06,1.131150000000000000e+05
4.002280000000000000e+06,1.159430000000000000e+05
4.118220000000000000e+06,1.159430000000000000e+05
4.234160000000000000e+06,1.190770000000000000e+05
4.353240000000000000e+06,1.224790000000000000e+05
4.475720000000000000e+06,1.261900000000000000e+05
4.601910000000000000e+06,1.261900000000000000e+05
4.728100000000000000e+06,1.303970000000000000e+05
4.858500000000000000e+06,1.303970000000000000e+05
4.988890000000000000e+06,1.352260000000000000e+05
5.124120000000000000e+06,1.352260000000000000e+05
5.259350000000000000e+06,1.408610000000000000e+05
5.400210000000000000e+06,1.408610000000000000e+05
5.541070000000000000e+06,1.475680000000000000e+05
5.688640000000000000e+06,1.475680000000000000e+05
5.836200000000000000e+06,1.475680000000000000e+05
5.983770000000000000e+06,1.562490000000000000e+05
6.140020000000000000e+06,1.562490000000000000e+05
6.296270000000000000e+06,1.562490000000000000e+05
6.452520000000000000e+06,1.562490000000000000e+05
6.608770000000000000e+06,1.692690000000000000e+05
6.778040000000000000e+06,1.692690000000000000e+05
6.947310000000000000e+06,1.692690000000000000e+05
7.116570000000000000e+06,1.692690000000000000e+05
7.285840000000000000e+06,1.692690000000000000e+05
7.455110000000000000e+06,1.692690000000000000e+05
7.624380000000000000e+06,1.692690000000000000e+05
7.793650000000000000e+06,1.692690000000000000e+05
7.962920000000000000e+06,1.692690000000000000e+05
8.132190000000000000e+06,1.692690000000000000e+05
8.301460000000000000e+06,1.692690000000000000e+05
8.470730000000000000e+06,1.692690000000000000e+05
8.640000000000000000e+06,1.694120000000000000e+05
8.809410000000000000e+06,1.694120000000000000e+05
8.978820000000000000e+06,1.694120000000000000e+05
9.148240000000000000e+06,1.694120000000000000e+05
9.317650000000000000e+06,1.694120000000000000e+05
9.487060000000000000e+06,1.694120000000000000e+05
9.656470000000000000e+06,1.694120000000000000e+05
9.825880000000000000e+06,1.694120000000000000e+05
9.995290000000000000e+06,1.694120000000000000e+05
1.016470000000000000e+07,1.694120000000000000e+05
1.033410000000000000e+07,1.694120000000000000e+05
1.050350000000000000e+07,1.694120000000000000e+05
1.067290000000000000e+07,1.694120000000000000e+05
1.084240000000000000e+07,1.694120000000000000e+05
1.101180000000000000e+07,1.694120000000000000e+05
1.118120000000000000e+07,1.694120000000000000e+05
1.135060000000000000e+07,1.694120000000000000e+05
1.152000000000000000e+07,1.694120000000000000e+05
1.168940000000000000e+07,1.694120000000000000e+05
1.185880000000000000e+07,1.694120000000000000e+05
1.202820000000000000e+07,1.694120000000000000e+05
1.219760000000000000e+07,1.694120000000000000e+05
1.236710000000000000e+07,1.694120000000000000e+05
1.253650000000000000e+07,1.694120000000000000e+05
1.270590000000000000e+07,1.694120000000000000e+05
1.287530000000000000e+07,1.694120000000000000e+05
1.304470000000000000e+07,1.694120000000000000e+05
1.321410000000000000e+07,1.694120000000000000e+05
1.338350000000000000e+07,1.694120000000000000e+05
1.355290000000000000e+07,1.694120000000000000e+05
1.372240000000000000e+07,1.694120000000000000e+05
1.389180000000000000e+07,1.694120000000000000e+05
1.406120000000000000e+07,1.694120000000000000e+05
1.423060000000000000e+07,1.694120000000000000e+05
1.440000000000000000e+07,1.694120000000000000e+05
1.456940000000000000e+07,1.694120000000000000e+05
1.473880000000000000e+07,1.694120000000000000e+05
1.490820000000000000e+07,1.694120000000000000e+05
1.507760000000000000e+07,1.694120000000000000e+05
1.524710000000000000e+07,1.694120000000000000e+05
1.541650000000000000e+07,1.694120000000000000e+05
1.558590000000000000e+07,1.694120000000000000e+05
1.575530000000000000e+07,1.694120000000000000e+05
1.592470000000000000e+07,1.694120000000000000e+05
1.609410000000000000e+07,1.694120000000000000e+05
1.626350000000000000e+07,1.694120000000000000e+05
1.643290000000000000e+07,1.694120000000000000e+05
1.660240000000000000e+07,1.694120000000000000e+05
1.677180000000000000e+07,1.694120000000000000e+05
1.694120000000000000e+07,1.694120000000000000e+05
1.711060000000000000e+07,1.694120000000000000e+05
1.728000000000000000e+07,1.694120000000000000e+05
1.744940000000000000e+07,1.694120000000000000e+05
1.761880000000000000e+07,1.694120000000000000e+05
1.778820000000000000e+07,1.694120000000000000e+05
1.795760000000000000e+07,1.694120000000000000e+05
1.812710000000000000e+07,1.694120000000000000e+05
1.829650000000000000e+07,1.694120000000000000e+05
1.846590000000000000e+07,1.694120000000000000e+05
1.863530000000000000e+07,1.694120000000000000e+05
1.880470000000000000e+07,1.694120000000000000e+05
1.897410000000000000e+07,1.694120000000000000e+05
1.914350000000000000e+07,1.694120000000000000e+05
1.931290000000000000e+07,1.694120000000000000e+05
1.948240000000000000e+07,1.694120000000000000e+05
1.965180000000000000e+07,1.694120000000000000e+05
1.982120000000000000e+07,1.694120000000000000e+05
1.999060000000000000e+07,1.694120000000000000e+05
2.016000000000000000e+07,1.694120000000000000e+05
2.032940000000000000e+07,1.694120000000000000e+05
2.049880000000000000e+07,1.694120000000000000e+05
2.066820000000000000e+07,1.694120000000000000e+05
2.083760000000000000e+07,1.694120000000000000e+05
2.100710000000000000e+07,1.694120000000000000e+05
2.117650000000000000e+07,1.694120000000000000e+05
2.134590000000000000e+07,1.694120000000000000e+05
2.151530000000000000e+07,1.694120000000000000e+05
2.168470000000000000e+07,1.694120000000000000e+05
2.185410000000000000e+07,1.694120000000000000e+05
2.202350000000000000e+07,1.694120000000000000e+05
2.219290000000000000e+07,1.694120000000000000e+05
2.236240000000000000e+07,1.694120000000000000e+05
2.253180000000000000e+07,1.694120000000000000e+05
2.270120000000000000e+07,1.694120000000000000e+05
2.287060000000000000e+07,1.694120000000000000e+05
2.304000000000000000e+07,1.694120000000000000e+05
2.320940000000000000e+07,1.694120000000000000e+05
2.337880000000000000e+07,1.694120000000000000e+05
2.354820000000000000e+07,1.694120000000000000e+05
2.371760000000000000e+07,1.694120000000000000e+05
2.388710000000000000e+07,1.694120000000000000e+05
2.405650000000000000e+07,1.694120000000000000e+05
2.422590000000000000e+07,1.694120000000000000e+05
2.439530000000000000e+07,1.694120000000000000e+05
2.456470000000000000e+07,1.694120000000000000e+05
2.473410000000000000e+07,1.694120000000000000e+05
2.490350000000000000e+07,1.694120000000000000e+05
2.507290000000000000e+07,1.694120000000000000e+05
2.524240000000000000e+07,1.694120000000000000e+05
2.541180000000000000e+07,1.694120000000000000e+05
2.558120000000000000e+07,1.694120000000000000e+05
2.575060000000000000e+07,1.694120000000000000e+05
2.592000000000000000e+07,1.694120000000000000e+05
2.608940000000000000e+07,1.694120000000000000e+05
2.625880000000000000e+07,1.694120000000000000e+05
2.642820000000000000e+07,1.694120000000000000e+05
2.659760000000000000e+07,1.694120000000000000e+05
2.676710000000000000e+07,1.694120000000000000e+05
2.693650000000000000e+07,1.694120000000000000e+05
2.710590000000000000e+07,1.694120000000000000e+05
2.727530000000000000e+07,1.694120000000000000e+05
2.744470000000000000e+07,1.694120000000000000e+05
2.761410000000000000e+07,1.694120000000000000e+05
2.778350000000000000e+07,1.694120000000000000e+05
2.795290000000000000e+07,1.694120000000000000e+05
2.812240000000000000e+07,1.694120000000000000e+05
2.829180000000000000e+07,1.694120000000000000e+05
2.846120000000000000e+07,1.694120000000000000e+05
2.863060000000000000e+07,1.694120000000000000e+05
2.880000000000000000e+07,1.694120000000000000e+05
2.896940000000000000e+07,1.694120000000000000e+05
2.913880000000000000e+07,1.694120000000000000e+05
2.930820000000000000e+07,1.694120000000000000e+05
2.947760000000000000e+07,1.694120000000000000e+05
2.964710000000000000e+07,1.694120000000000000e+05
2.981650000000000000e+07,1.694120000000000000e+05
2.998590000000000000e+07,1.694120000000000000e+05
3.015530000000000000e+07,1.694120000000000000e+05
3.032470000000000000e+07,1.694120000000000000e+05
3.049410000000000000e+07,1.694120000000000000e+05
3.066350000000000000e+07,1.694120000000000000e+05
3.083290000000000000e+07,1.694120000000000000e+05
3.100240000000000000e+07,1.694120000000000000e+05
3.117180000000000000e+07,1.694120000000000000e+05
3.134120000000000000e+07,1.694120000000000000e+05
3.151060000000000000e+07,1.694120000000000000e+05
3.168000000000000000e+07,1.694120000000000000e+05
3.184940000000000000e+07,1.694120000000000000e+05
3.201880000000000000e+07,1.694120000000000000e+05
3.218820000000000000e+07,1.694120000000000000e+05
3.235760000000000000e+07,1.694120000000000000e+05
3.252710000000000000e+07,1.694120000000000000e+05
3.269650000000000000e+07,1.694120000000000000e+05
3.286590000000000000e+07,1.694120000000000000e+05
3.303530000000000000e+07,1.694120000000000000e+05
3.320470000000000000e+07,1.694120000000000000e+05
3.337410000000000000e+07,1.694120000000000000e+05
3.354350000000000000e+07,1.694120000000000000e+05
3.371290000000000000e+07,1.694120000000000000e+05
3.388240000000000000e+07,1.694120000000000000e+05
3.405180000000000000e+07,1.694120000000000000e+05
3.422120000000000000e+07,1.694120000000000000e+05
3.439060000000000000e+07,1.694120000000000000e+05
3.456000000000000000e+07,1.694120000000000000e+05
3.472940000000000000e+07,1.694120000000000000e+05
3.489880000000000000e+07,1.694120000000000000e+05
3.506820000000000000e+07,1.694120000000000000e+05
3.523760000000000000e+07,1.694120000000000000e+05
3.540710000000000000e+07,1.694120000000000000e+05
3.557650000000000000e+07,1.694120000000000000e+05
3.574590000000000000e+07,1.694120000000000000e+05
3.591530000000000000e+07,1.694120000000000000e+05
3.608470000000000000e+07,1.694120000000000000e+05
3.625410000000000000e+07,1.694120000000000000e+05
3.642350000000000000e+07,1.694120000000000000e+05
3.659290000000000000e+07,1.694120000000000000e+05
3.676240000000000000e+07,1.694120000000000000e+05
3.693180000000000000e+07,1.694120000000000000e+05
3.710120000000000000e+07,1.694120000000000000e+05
3.727060000000000000e+07,1.694120000000000000e+05
3.744000000000000000e+07,1.694120000000000000e+05
3.760940000000000000e+07,1.694120000000000000e+05
3.777880000000000000e+07,1.694120000000000000e+05
3.794820000000000000e+07,1.694120000000000000e+05
3.811760000000000000e+07,1.694120000000000000e+05
3.828710000000000000e+07,1.694120000000000000e+05
3.845650000000000000e+07,1.694120000000000000e+05
3.862590000000000000e+07,1.694120000000000000e+05
3.879530000000000000e+07,1.694120000000000000e+05
3.896470000000000000e+07,1.694120000000000000e+05
3.913410000000000000e+07,1.694120000000000000e+05
3.930350000000000000e+07,1.694120000000000000e+05
3.947290000000000000e+07,1.694120000000000000e+05
3.964240000000000000e+07,1.694120000000000000e+05
3.981180000000000000e+07,1.694120000000000000e+05
3.998120000000000000e+07,1.694120000000000000e+05
4.015060000000000000e+07,1.694120000000000000e+05
4.032000000000000000e+07,1.694120000000000000e+05
4.048940000000000000e+07,1.694120000000000000e+05
4.065880000000000000e+07,1.694120000000000000e+05
4.082820000000000000e+07,1.694120000000000000e+05
4.099760000000000000e+07,1.694120000000000000e+05
4.116710000000000000e+07,1.694120000000000000e+05
4.133650000000000000e+07,1.694120000000000000e+05
4.150590000000000000e+07,1.694120000000000000e+05
4.167530000000000000e+07,1.694120000000000000e+05
4.184470000000000000e+07,1.694120000000000000e+05
4.201410000000000000e+07,1.694120000000000000e+05
4.218350000000000000e+07,1.694120000000000000e+05
4.235290000000000000e+07,1.694120000000000000e+05
4.252240000000000000e+07,1.694120000000000000e+05
4.269180000000000000e+07,1.694120000000000000e+05
4.286120000000000000e+07,1.694120000000000000e+05
4.303060000000000000e+07,1.694120000000000000e+05
4.320000000000000000e+07,1.694120000000000000e+05
4.336940000000000000e+07,1.694120000000000000e+05
4.353880000000000000e+07,1.694120000000000000e+05
4.370820000000000000e+07,1.694120000000000000e+05
4.387760000000000000e+07,1.694120000000000000e+05
4.404710000000000000e+07,1.694120000000000000e+05
4.421650000000000000e+07,1.694120000000000000e+05
4.438590000000000000e+07,1.694120000000000000e+05
4.455530000000000000e+07,1.694120000000000000e+05
4.472470000000000000e+07,1.694120000000000000e+05
4.489410000000000000e+07,1.694120000000000000e+05
4.506350000000000000e+07,1.694120000000000000e+05
4.523290000000000000e+07,1.694120000000000000e+05
4.540240000000000000e+07,1.694120000000000000e+05
4.557180000000000000e+07,1.694120000000000000e+05
4.574120000000000000e+07,1.694120000000000000e+05
4.591060000000000000e+07,1.694120000000000000e+05
4.608000000000000000e+07,1.694120000000000000e+05
4.624940000000000000e+07,1.694120000000000000e+05
4.641880000000000000e+07,1.694120000000000000e+05
4.658820000000000000e+07,1.694120000000000000e+05
4.675760000000000000e+07,1.694120000000000000e+05
4.692710000000000000e+07,1.694120000000000000e+05
4.709650000000000000e+07,1.694120000000000000e+05
4.726590000000000000e+07,1.694120000000000000e+05
4.743530000000000000e+07,1.694120000000000000e+05
4.760470000000000000e+07,1.694120000000000000e+05
4.777410000000000000e+07,1.694120000000000000e+05
4.794350000000000000e+07,1.694120000000000000e+05
4.811290000000000000e+07,1.694120000000000000e+05
4.828240000000000000e+07,1.694120000000000000e+05
4.845180000000000000e+07,1.694120000000000000e+05
4.862120000000000000e+07,1.694120000000000000e+05
4.879060000000000000e+07,1.694120000000000000e+05
4.896000000000000000e+07,1.694120000000000000e+05
4.912940000000000000e+07,1.694120000000000000e+05
4.929880000000000000e+07,1.694120000000000000e+05
4.946820000000000000e+07,1.694120000000000000e+05
4.963760000000000000e+07,1.694120000000000000e+05
4.980710000000000000e+07,1.694120000000000000e+05
4.997650000000000000e+07,1.694120000000000000e+05
5.014590000000000000e+07,1.694120000000000000e+05
5.031530000000000000e+07,1.694120000000000000e+05
5.048470000000000000e+07,1.694120000000000000e+05
5.065410000000000000e+07,1.694120000000000000e+05
5.082350000000000000e+07,1.694120000000000000e+05
5.099290000000000000e+07,1.694120000000000000e+05
5.116240000000000000e+07,1.694120000000000000e+05
5.133180000000000000e+07,1.694120000000000000e+05
5.150120000000000000e+07,1.694120000000000000e+05
5.167060000000000000e+07,1.694120000000000000e+05
5.184000000000000000e+07,1.694120000000000000e+05
5.200940000000000000e+07,1.694120000000000000e+05
5.217880000000000000e+07,1.694120000000000000e+05
5.234820000000000000e+07,1.694120000000000000e+05
5.251760000000000000e+07,1.694120000000000000e+05
5.268710000000000000e+07,1.694120000000000000e+05
5.285650000000000000e+07,1.694120000000000000e+05
5.302590000000000000e+07,1.694120000000000000e+05
5.319530000000000000e+07,1.694120000000000000e+05
5.336470000000000000e+07,1.694120000000000000e+05
5.353410000000000000e+07,1.694120000000000000e+05
5.370350000000000000e+07,1.694120000000000000e+05
5.387290000000000000e+07,1.694120000000000000e+05
5.404240000000000000e+07,1.694120000000000000e+05
5.421180000000000000e+07,1.694120000000000000e+05
5.438120000000000000e+07,1.694120000000000000e+05
5.455060000000000000e+07,1.694120000000000000e+05
5.472000000000000000e+07,1.694120000000000000e+05
5.488940000000000000e+07,1.694120000000000000e+05
5.505880000000000000e+07,1.694120000000000000e+05
5.522820000000000000e+07,1.694120000000000000e+05
5.539760000000000000e+07,1.694120000000000000e+05
5.556710000000000000e+07,1.694120000000000000e+05
5.573650000000000000e+07,1.694120000000000000e+05
5.590590000000000000e+07,1.694120000000000000e+05
5.607530000000000000e+07,1.694120000000000000e+05
5.624470000000000000e+07,1.694120000000000000e+05
5.641410000000000000e+07,1.694120000000000000e+05
5.658350000000000000e+07,1.694120000000000000e+05
5.675290000000000000e+07,1.694120000000000000e+05
5.692240000000000000e+07,1.694120000000000000e+05
5.709180000000000000e+07,1.694120000000000000e+05
5.726120000000000000e+07,1.694120000000000000e+05
5.743060000000000000e+07,1.694120000000000000e+05
5.760000000000000000e+07,1.694120000000000000e+05
5.776940000000000000e+07,1.694120000000000000e+05
5.793880000000000000e+07,1.694120000000000000e+05
5.810820000000000000e+07,1.694120000000000000e+05
5.827760000000000000e+07,1.694120000000000000e+05
5.844710000000000000e+07,1.694120000000000000e+05
5.861650000000000000e+07,1.694120000000000000e+05
5.878590000000000000e+07,1.694120000000000000e+05
5.895530000000000000e+07,1.694120000000000000e+05
5.912470000000000000e+07,1.694120000000000000e+05
5.929410000000000000e+07,1.694120000000000000e+05
5.946350000000000000e+07,1.694120000000000000e+05
5.963290000000000000e+07,1.694120000000000000e+05
5.980240000000000000e+07,1.694120000000000000e+05
5.997180000000000000e+07,1.694120000000000000e+05
6.014120000000000000e+07,1.694120000000000000e+05
6.031060000000000000e+07,1.694120000000000000e+05
6.048000000000000000e+07,1.694120000000000000e+05
6.064940000000000000e+07,1.694120000000000000e+05
6.081880000000000000e+07,1.694120000000000000e+05
6.098820000000000000e+07,1.694120000000000000e+05
6.115760000000000000e+07,1.694120000000000000e+05
6.132710000000000000e+07,1.694120000000000000e+05
6.149650000000000000e+07,1.694120000000000000e+05
6.166590000000000000e+07,1.694120000000000000e+05
6.183530000000000000e+07,1.694120000000000000e+05
6.200470000000000000e+07,1.694120000000000000e+05
6.217410000000000000e+07,1.694120000000000000e+05
6.234350000000000000e+07,1.694120000000000000e+05
6.251290000000000000e+07,1.694120000000000000e+05
6.268240000000000000e+07,1.694120000000000000e+05
6.285180000000000000e+07,1.694120000000000000e+05
6.302120000000000000e+07,1.694120000000000000e+05
6.319060000000000000e+07,1.694120000000000000e+05
6.336000000000000000e+07,1.694120000000000000e+05
6.352940000000000000e+07,1.694120000000000000e+05
6.369880000000000000e+07,1.694120000000000000e+05
6.386820000000000000e+07,1.694120000000000000e+05
6.403760000000000000e+07,1.694120000000000000e+05
6.420710000000000000e+07,1.694120000000000000e+05
6.437650000000000000e+07,1.694120000000000000e+05
6.454590000000000000e+07,1.694120000000000000e+05
6.471530000000000000e+07,1.694120000000000000e+05
6.488470000000000000e+07,1.694120000000000000e+05
6.505410000000000000e+07,1.694120000000000000e+05
6.522350000000000000e+07,1.694120000000000000e+05
6.539290000000000000e+07,1.694120000000000000e+05
6.556240000000000000e+07,1.694120000000000000e+05
6.573180000000000000e+07,1.694120000000000000e+05
6.590120000000000000e+07,1.694120000000000000e+05
6.607060000000000000e+07,1.694120000000000000e+05
6.624000000000000000e+07,1.694120000000000000e+05
6.640940000000000000e+07,1.694120000000000000e+05
6.657880000000000000e+07,1.694120000000000000e+05
6.674820000000000000e+07,1.694120000000000000e+05
6.691760000000000000e+07,1.694120000000000000e+05
6.708710000000000000e+07,1.694120000000000000e+05
6.725650000000000000e+07,1.694120000000000000e+05
6.742590000000000000e+07,1.694120000000000000e+05
6.759530000000000000e+07,1.694120000000000000e+05
6.776470000000000000e+07,1.694120000000000000e+05
6.793410000000000000e+07,1.694120000000000000e+05
6.810350000000000000e+07,1.694120000000000000e+05
6.827290000000000000e+07,1.694120000000000000e+05
6.844240000000000000e+07,1.694120000000000000e+05
6.861180000000000000e+07,1.694120000000000000e+05
6.878120000000000000e+07,1.694120000000000000e+05
6.895060000000000000e+07,1.694120000000000000e+05
6.912000000000000000e+07,1.694120000000000000e+05
6.928940000000000000e+07,1.694120000000000000e+05
6.945880000000000000e+07,1.694120000000000000e+05
6.962820000000000000e+07,1.694120000000000000e+05
6.979760000000000000e+07,1.694120000000000000e+05
6.996710000000000000e+07,1.694120000000000000e+05
7.013650000000000000e+07,1.694120000000000000e+05
7.030590000000000000e+07,1.694120000000000000e+05
7.047530000000000000e+07,1.694120000000000000e+05
7.064470000000000000e+07,1.694120000000000000e+05
7.081410000000000000e+07,1.694120000000000000e+05
7.098350000000000000e+07,1.694120000000000000e+05
7.115290000000000000e+07,1.694120000000000000e+05
7.132240000000000000e+07,1.694120000000000000e+05
7.149180000000000000e+07,1.694120000000000000e+05
7.166120000000000000e+07,1.694120000000000000e+05
7.183060000000000000e+07,1.694120000000000000e+05
7.200000000000000000e+07,1.694120000000000000e+05
7.216940000000000000e+07,1.694120000000000000e+05
7.233880000000000000e+07,1.694120000000000000e+05
7.250820000000000000e+07,1.694120000000000000e+05
7.267760000000000000e+07,1.694120000000000000e+05
7.284710000000000000e+07,1.694120000000000000e+05
7.301650000000000000e+07,1.694120000000000000e+05
7.318590000000000000e+07,1.694120000000000000e+05
7.335530000000000000e+07,1.694120000000000000e+05
7.352470000000000000e+07,1.694120000000000000e+05
7.369410000000000000e+07,1.694120000000000000e+05
7.386350000000000000e+07,1.694120000000000000e+05
7.403290000000000000e+07,1.694120000000000000e+05
7.420240000000000000e+07,1.694120000000000000e+05
7.437180000000000000e+07,1.694120000000000000e+05
7.454120000000000000e+07,1.694120000000000000e+05
7.471060000000000000e+07,1.694120000000000000e+05
7.488000000000000000e+07,1.694120000000000000e+05
7.504940000000000000e+07,1.694120000000000000e+05
7.521880000000000000e+07,1.694120000000000000e+05
7.538820000000000000e+07,1.694120000000000000e+05
7.555760000000000000e+07,1.694120000000000000e+05
7.572710000000000000e+07,1.694120000000000000e+05
7.589650000000000000e+07,1.694120000000000000e+05
7.606590000000000000e+07,1.694120000000000000e+05
7.623530000000000000e+07,1.694120000000000000e+05
7.640470000000000000e+07,1.694120000000000000e+05
7.657410000000000000e+07,1.694120000000000000e+05
7.674350000000000000e+07,1.694120000000000000e+05
7.691290000000000000e+07,1.694120000000000000e+05
7.708240000000000000e+07,1.694120000000000000e+05
7.725180000000000000e+07,1.694120000000000000e+05
7.742120000000000000e+07,1.694120000000000000e+05
7.759060000000000000e+07,1.694120000000000000e+05
7.776000000000000000e+07,1.694120000000000000e+05
7.792940000000000000e+07,1.694120000000000000e+05
7.809880000000000000e+07,1.694120000000000000e+05
7.826820000000000000e+07,1.694120000000000000e+05
7.843760000000000000e+07,1.694120000000000000e+05
7.860710000000000000e+07,1.694120000000000000e+05
7.877650000000000000e+07,1.694120000000000000e+05
7.894590000000000000e+07,1.694120000000000000e+05
7.911530000000000000e+07,1.694120000000000000e+05
7.928470000000000000e+07,1.694120000000000000e+05
7.945410000000000000e+07,1.694120000000000000e+05
7.962350000000000000e+07,1.694120000000000000e+05
7.979290000000000000e+07,1.694120000000000000e+05
7.996240000000000000e+07,1.694120000000000000e+05
8.013180000000000000e+07,1.694120000000000000e+05
8.030120000000000000e+07,1.694120000000000000e+05
8.047060000000000000e+07,1.694120000000000000e+05
8.064000000000000000e+07,1.694120000000000000e+05
8.080940000000000000e+07,1.694120000000000000e+05
8.097880000000000000e+07,1.694120000000000000e+05
8.114820000000000000e+07,1.694120000000000000e+05
8.131760000000000000e+07,1.694120000000000000e+05
8.148710000000000000e+07,1.694120000000000000e+05
8.165650000000000000e+07,1.694120000000000000e+05
8.182590000000000000e+07,1.694120000000000000e+05
8.199530000000000000e+07,1.694120000000000000e+05
8.216470000000000000e+07,1.694120000000000000e+05
8.233410000000000000e+07,1.694120000000000000e+05
8.250350000000000000e+07,1.694120000000000000e+05
8.267290000000000000e+07,1.694120000000000000e+05
8.284240000000000000e+07,1.694120000000000000e+05
8.301180000000000000e+07,1.694120000000000000e+05
8.318120000000000000e+07,1.694120000000000000e+05
8.335060000000000000e+07,1.694120000000000000e+05
8.352000000000000000e+07,1.694120000000000000e+05
8.368940000000000000e+07,1.694120000000000000e+05
8.385880000000000000e+07,1.694120000000000000e+05
8.402820000000000000e+07,1.694120000000000000e+05
8.419760000000000000e+07,1.694120000000000000e+05
8.436710000000000000e+07,1.694120000000000000e+05
8.453650000000000000e+07,1.694120000000000000e+05
8.470590000000000000e+07,1.694120000000000000e+05
8.487530000000000000e+07,1.694120000000000000e+05
8.504470000000000000e+07,1.694120000000000000e+05
8.521410000000000000e+07,1.694120000000000000e+05
8.538350000000000000e+07,1.694120000000000000e+05
8.555290000000000000e+07,1.694120000000000000e+05
8.572240000000000000e+07,1.694120000000000000e+05
8.589180000000000000e+07,1.694120000000000000e+05
8.606120000000000000e+07,1.694120000000000000e+05
8.623060000000000000e+07,1.694120000000000000e+05
8.640000000000000000e+07,1.694120000000000000e+05
8.656940000000000000e+07,1.694120000000000000e+05
8.673880000000000000e+07,1.694120000000000000e+05
8.690820000000000000e+07,1.694120000000000000e+05
8.707760000000000000e+07,1.694120000000000000e+05
8.724710000000000000e+07,1.694120000000000000e+05
8.741650000000000000e+07,1.694120000000000000e+05
8.758590000000000000e+07,1.694120000000000000e+05
8.775530000000000000e+07,1.694120000000000000e+05
8.792470000000000000e+07,1.694120000000000000e+05
8.809410000000000000e+07,1.694120000000000000e+05
8.826350000000000000e+07,1.694120000000000000e+05
8.843290000000000000e+07,1.694120000000000000e+05
8.860240000000000000e+07,1.694120000000000000e+05
8.877180000000000000e+07,1.694120000000000000e+05
8.894120000000000000e+07,1.694120000000000000e+05
8.911060000000000000e+07,1.694120000000000000e+05
8.928000000000000000e+07,1.694120000000000000e+05
8.944940000000000000e+07,1.694120000000000000e+05
8.961880000000000000e+07,1.694120000000000000e+05
8.978820000000000000e+07,1.694120000000000000e+05
8.995760000000000000e+07,1.694120000000000000e+05
9.012710000000000000e+07,1.694120000000000000e+05
9.029650000000000000e+07,1.694120000000000000e+05
9.046590000000000000e+07,1.694120000000000000e+05
9.063530000000000000e+07,1.694120000000000000e+05
9.080470000000000000e+07,1.694120000000000000e+05
9.097410000000000000e+07,1.694120000000000000e+05
9.114350000000000000e+07,1.694120000000000000e+05
9.131290000000000000e+07,1.694120000000000000e+05
9.148240000000000000e+07,1.694120000000000000e+05
9.165180000000000000e+07,1.694120000000000000e+05
9.182120000000000000e+07,1.694120000000000000e+05
9.199060000000000000e+07,1.694120000000000000e+05
9.216000000000000000e+07,1.694120000000000000e+05
9.232940000000000000e+07,1.694120000000000000e+05
9.249880000000000000e+07,1.694120000000000000e+05
9.266820000000000000e+07,1.694120000000000000e+05
9.283760000000000000e+07,1.694120000000000000e+05
9.300710000000000000e+07,1.694120000000000000e+05
9.317650000000000000e+07,1.694120000000000000e+05
9.334590000000000000e+07,1.694120000000000000e+05
9.351530000000000000e+07,1.694120000000000000e+05
9.368470000000000000e+07,1.694120000000000000e+05
9.385410000000000000e+07,1.694120000000000000e+05
9.402350000000000000e+07,1.694120000000000000e+05
9.419290000000000000e+07,1.694120000000000000e+05
9.436240000000000000e+07,1.694120000000000000e+05
9.453180000000000000e+07,1.694120000000000000e+05
9.470120000000000000e+07,1.694120000000000000e+05
9.487060000000000000e+07,1.694120000000000000e+05
9.504000000000000000e+07,1.694120000000000000e+05
9.520940000000000000e+07,1.694120000000000000e+05
9.537880000000000000e+07,1.694120000000000000e+05
9.554820000000000000e+07,1.694120000000000000e+05
9.571760000000000000e+07,1.694120000000000000e+05
9.588710000000000000e+07,1.694120000000000000e+05
9.605650000000000000e+07,1.694120000000000000e+05
9.622590000000000000e+07,1.694120000000000000e+05
9.639530000000000000e+07,1.694120000000000000e+05
9.656470000000000000e+07,1.694120000000000000e+05
9.673410000000000000e+07,1.694120000000000000e+05
9.690350000000000000e+07,1.694120000000000000e+05
9.707290000000000000e+07,1.694120000000000000e+05
9.724240000000000000e+07,1.694120000000000000e+05
9.741180000000000000e+07,1.694120000000000000e+05
9.758120000000000000e+07,1.694120000000000000e+05
9.775060000000000000e+07,1.694120000000000000e+05
9.792000000000000000e+07,1.694120000000000000e+05
9.808940000000000000e+07,1.694120000000000000e+05
9.825880000000000000e+07,1.694120000000000000e+05
9.842820000000000000e+07,1.694120000000000000e+05
9.859760000000000000e+07,1.694120000000000000e+05
9.876710000000000000e+07,1.694120000000000000e+05
9.893650000000000000e+07,1.694120000000000000e+05
9.910590000000000000e+07,1.694120000000000000e+05
9.927530000000000000e+07,1.694120000000000000e+05
9.944470000000000000e+07,1.694120000000000000e+05
9.961410000000000000e+07,1.694120000000000000e+05
9.978350000000000000e+07,1.694120000000000000e+05
9.995290000000000000e+07,1.694120000000000000e+05
1.001220000000000000e+08,1.694120000000000000e+05
1.002920000000000000e+08,1.694120000000000000e+05
1.004610000000000000e+08,1.694120000000000000e+05
1.006310000000000000e+08,1.694120000000000000e+05
1.008000000000000000e+08,1.694120000000000000e+05
1.009690000000000000e+08,1.694120000000000000e+05
1.011390000000000000e+08,1.694120000000000000e+05
1.013080000000000000e+08,1.694120000000000000e+05
1.014780000000000000e+08,1.694120000000000000e+05
1.016470000000000000e+08,1.694120000000000000e+05
1.018160000000000000e+08,1.694120000000000000e+05
1.019860000000000000e+08,1.694120000000000000e+05
1.021550000000000000e+08,1.694120000000000000e+05
1.023250000000000000e+08,1.694120000000000000e+05
1.024940000000000000e+08,1.694120000000000000e+05
1.026640000000000000e+08,1.694120000000000000e+05
1.028330000000000000e+08,1.694120000000000000e+05
1.030020000000000000e+08,1.694120000000000000e+05
1.031720000000000000e+08,1.694120000000000000e+05
1.033410000000000000e+08,1.694120000000000000e+05
1.035110000000000000e+08,1.694120000000000000e+05
1.036800000000000000e+08,1.694120000000000000e+05
1.038490000000000000e+08,1.694120000000000000e+05
1.040190000000000000e+08,1.694120000000000000e+05
1.041880000000000000e+08,1.694120000000000000e+05
1.043580000000000000e+08,1.694120000000000000e+05
1.045270000000000000e+08,1.694120000000000000e+05
1.046960000000000000e+08,1.694120000000000000e+05
1.048660000000000000e+08,1.694120000000000000e+05
1.050350000000000000e+08,1.694120000000000000e+05
1.052050000000000000e+08,1.694120000000000000e+05
1.053740000000000000e+08,1.694120000000000000e+05
1.055440000000000000e+08,1.694120000000000000e+05
1.057130000000000000e+08,1.694120000000000000e+05
1.058820000000000000e+08,1.694120000000000000e+05
1.060520000000000000e+08,1.694120000000000000e+05
1.062210000000000000e+08,1.694120000000000000e+05
1.063910000000000000e+08,1.694120000000000000e+05
1.065600000000000000e+08,1.694120000000000000e+05
1.067290000000000000e+08,1.694120000000000000e+05
1.068990000000000000e+08,1.694120000000000000e+05
1.070680000000000000e+08,1.694120000000000000e+05
1.072380000000000000e+08,1.694120000000000000e+05
1.074070000000000000e+08,1.694120000000000000e+05
1.075760000000000000e+08,1.694120000000000000e+05
1.077460000000000000e+08,1.694120000000000000e+05
1.079150000000000000e+08,1.694120000000000000e+05
1.080850000000000000e+08,1.694120000000000000e+05
1.082540000000000000e+08,1.694120000000000000e+05
1.084240000000000000e+08,1.694120000000000000e+05
1.085930000000000000e+08,1.694120000000000000e+05
1.087620000000000000e+08,1.694120000000000000e+05
1.089320000000000000e+08,1.694120000000000000e+05
1.091010000000000000e+08,1.694120000000000000e+05
1.092710000000000000e+08,1.694120000000000000e+05
1.094400000000000000e+08,1.694120000000000000e+05
1.096090000000000000e+08,1.694120000000000000e+05
1.097790000000000000e+08,1.694120000000000000e+05
1.099480000000000000e+08,1.694120000000000000e+05
1.101180000000000000e+08,1.694120000000000000e+05
1.102870000000000000e+08,1.694120000000000000e+05
1.104560000000000000e+08,1.694120000000000000e+05
1.106260000000000000e+08,1.694120000000000000e+05
1.107950000000000000e+08,1.694120000000000000e+05
1.109650000000000000e+08,1.694120000000000000e+05
1.111340000000000000e+08,1.694120000000000000e+05
1.113040000000000000e+08,1.694120000000000000e+05
1.114730000000000000e+08,1.694120000000000000e+05
1.116420000000000000e+08,1.694120000000000000e+05
1.118120000000000000e+08,1.694120000000000000e+05
1.119810000000000000e+08,1.694120000000000000e+05
1.121510000000000000e+08,1.694120000000000000e+05
1.123200000000000000e+08,1.694120000000000000e+05
1.124890000000000000e+08,1.694120000000000000e+05
1.126590000000000000e+08,1.694120000000000000e+05
1.128280000000000000e+08,1.694120000000000000e+05
1.129980000000000000e+08,1.694120000000000000e+05
1.131670000000000000e+08,1.694120000000000000e+05
1.133360000000000000e+08,1.694120000000000000e+05
1.135060000000000000e+08,1.694120000000000000e+05
1.136750000000000000e+08,1.694120000000000000e+05
1.138450000000000000e+08,1.694120000000000000e+05
1.140140000000000000e+08,1.694120000000000000e+05
1.141840000000000000e+08,1.694120000000000000e+05
1.143530000000000000e+08,1.694120000000000000e+05
1.145220000000000000e+08,1.694120000000000000e+05
1.146920000000000000e+08,1.694120000000000000e+05
1.148610000000000000e+08,1.694120000000000000e+05
1.150310000000000000e+08,1.694120000000000000e+05
1.152000000000000000e+08,1.694120000000000000e+05
1.153690000000000000e+08,1.694120000000000000e+05
1.155390000000000000e+08,1.694120000000000000e+05
1.157080000000000000e+08,1.694120000000000000e+05
1.158780000000000000e+08,1.694120000000000000e+05
1.160470000000000000e+08,1.694120000000000000e+05
1.162160000000000000e+08,1.694120000000000000e+05
1.163860000000000000e+08,1.694120000000000000e+05
1.165550000000000000e+08,1.694120000000000000e+05
1.167250000000000000e+08,1.694120000000000000e+05
1.168940000000000000e+08,1.694120000000000000e+05
1.170640000000000000e+08,1.694120000000000000e+05
1.172330000000000000e+08,1.694120000000000000e+05
1.174020000000000000e+08,1.694120000000000000e+05
1.175720000000000000e+08,1.694120000000000000e+05
1.177410000000000000e+08,1.694120000000000000e+05
1.179110000000000000e+08,1.694120000000000000e+05
1.180800000000000000e+08,1.694120000000000000e+05
1.182490000000000000e+08,1.694120000000000000e+05
1.184190000000000000e+08,1.694120000000000000e+05
1.185880000000000000e+08,1.694120000000000000e+05
1.187580000000000000e+08,1.694120000000000000e+05
1.189270000000000000e+08,1.694120000000000000e+05
1.190960000000000000e+08,1.694120000000000000e+05
1.192660000000000000e+08,1.694120000000000000e+05
1.194350000000000000e+08,1.694120000000000000e+05
1.196050000000000000e+08,1.694120000000000000e+05
1.197740000000000000e+08,1.694120000000000000e+05
1.199440000000000000e+08,1.694120000000000000e+05
1.201130000000000000e+08,1.694120000000000000e+05
1.202820000000000000e+08,1.694120000000000000e+05
1.204520000000000000e+08,1.694120000000000000e+05
1.206210000000000000e+08,1.694120000000000000e+05
1.207910000000000000e+08,1.694120000000000000e+05
1.209600000000000000e+08,1.694120000000000000e+05
1.211290000000000000e+08,1.694120000000000000e+05
1.212990000000000000e+08,1.694120000000000000e+05
1.214680000000000000e+08,1.694120000000000000e+05
1.216380000000000000e+08,1.694120000000000000e+05
1.218070000000000000e+08,1.694120000000000000e+05
1.219760000000000000e+08,1.694120000000000000e+05
1.221460000000000000e+08,1.694120000000000000e+05
1.223150000000000000e+08,1.694120000000000000e+05
1.224850000000000000e+08,1.694120000000000000e+05
1.226540000000000000e+08,1.694120000000000000e+05
1.228240000000000000e+08,1.694120000000000000e+05
1.229930000000000000e+08,1.694120000000000000e+05
1.231620000000000000e+08,1.694120000000000000e+05
1.233320000000000000e+08,1.694120000000000000e+05
1.235010000000000000e+08,1.694120000000000000e+05
1.236710000000000000e+08,1.694120000000000000e+05
1.238400000000000000e+08,1.694120000000000000e+05
1.240090000000000000e+08,1.694120000000000000e+05
1.241790000000000000e+08,1.694120000000000000e+05
1.243480000000000000e+08,1.694120000000000000e+05
1.245180000000000000e+08,1.694120000000000000e+05
1.246870000000000000e+08,1.694120000000000000e+05
1.248560000000000000e+08,1.694120000000000000e+05
1.250260000000000000e+08,1.694120000000000000e+05
1.251950000000000000e+08,1.694120000000000000e+05
1.253650000000000000e+08,1.694120000000000000e+05
1.255340000000000000e+08,1.694120000000000000e+05
1.257040000000000000e+08,1.694120000000000000e+05
1.258730000000000000e+08,1.694120000000000000e+05
1.260420000000000000e+08,1.694120000000000000e+05
1.262120000000000000e+08,1.694120000000000000e+05
1.263810000000000000e+08,1.694120000000000000e+05
1.265510000000000000e+08,1.694120000000000000e+05
1.267200000000000000e+08,1.694120000000000000e+05
1.268890000000000000e+08,1.694120000000000000e+05
1.270590000000000000e+08,1.694120000000000000e+05
1.272280000000000000e+08,1.694120000000000000e+05
1.273980000000000000e+08,1.694120000000000000e+05
1.275670000000000000e+08,1.694120000000000000e+05
1.277360000000000000e+08,1.694120000000000000e+05
1.279060000000000000e+08,1.694120000000000000e+05
1.280750000000000000e+08,1.694120000000000000e+05
1.282450000000000000e+08,1.694120000000000000e+05
1.284140000000000000e+08,1.694120000000000000e+05
1.285840000000000000e+08,1.694120000000000000e+05
1.287530000000000000e+08,1.694120000000000000e+05
1.289220000000000000e+08,1.694120000000000000e+05
1.290920000000000000e+08,1.694120000000000000e+05
1.292610000000000000e+08,1.694120000000000000e+05
1.294310000000000000e+08,1.694120000000000000e+05
1.296000000000000000e+08,1.694120000000000000e+05
1.297690000000000000e+08,1.694120000000000000e+05
1.299390000000000000e+08,1.694120000000000000e+05
1.301080000000000000e+08,1.694120000000000000e+05
1.302780000000000000e+08,1.694120000000000000e+05
1.304470000000000000e+08,1.694120000000000000e+05
1.306160000000000000e+08,1.694120000000000000e+05
1.307860000000000000e+08,1.694120000000000000e+05
1.309550000000000000e+08,1.694120000000000000e+05
1.311250000000000000e+08,1.694120000000000000e+05
1.312940000000000000e+08,1.694120000000000000e+05
1.314640000000000000e+08,1.694120000000000000e+05
1.316330000000000000e+08,1.694120000000000000e+05
1.318020000000000000e+08,1.694120000000000000e+05
1.319720000000000000e+08,1.694120000000000000e+05
1.321410000000000000e+08,1.694120000000000000e+05
1.323110000000000000e+08,1.694120000000000000e+05
1.324800000000000000e+08,1.694120000000000000e+05
1.326490000000000000e+08,1.694120000000000000e+05
1.328190000000000000e+08,1.694120000000000000e+05
1.329880000000000000e+08,1.694120000000000000e+05
1.331580000000000000e+08,1.694120000000000000e+05
1.333270000000000000e+08,1.694120000000000000e+05
1.334960000000000000e+08,1.694120000000000000e+05
1.336660000000000000e+08,1.694120000000000000e+05
1.338350000000000000e+08,1.694120000000000000e+05
1.340050000000000000e+08,1.694120000000000000e+05
1.341740000000000000e+08,1.694120000000000000e+05
1.343440000000000000e+08,1.694120000000000000e+05
1.345130000000000000e+08,1.694120000000000000e+05
1.346820000000000000e+08,1.694120000000000000e+05
1.348520000000000000e+08,1.694120000000000000e+05
1.350210000000000000e+08,1.694120000000000000e+05
1.351910000000000000e+08,1.694120000000000000e+05
1.353600000000000000e+08,1.694120000000000000e+05
1.355290000000000000e+08,1.694120000000000000e+05
1.356990000000000000e+08,1.694120000000000000e+05
1.358680000000000000e+08,1.694120000000000000e+05
1.360380000000000000e+08,1.694120000000000000e+05
1.362070000000000000e+08,1.694120000000000000e+05
1.363760000000000000e+08,1.694120000000000000e+05
1.365460000000000000e+08,1.694120000000000000e+05
1.367150000000000000e+08,1.694120000000000000e+05
1.368850000000000000e+08,1.694120000000000000e+05
1.370540000000000000e+08,1.694120000000000000e+05
1.372240000000000000e+08,1.694120000000000000e+05
1.373930000000000000e+08,1.694120000000000000e+05
1.375620000000000000e+08,1.694120000000000000e+05
1.377320000000000000e+08,1.694120000000000000e+05
1.379010000000000000e+08,1.694120000000000000e+05
1.380710000000000000e+08,1.694120000000000000e+05
1.382400000000000000e+08,1.694120000000000000e+05
1.384090000000000000e+08,1.694120000000000000e+05
1.385790000000000000e+08,1.694120000000000000e+05
1.387480000000000000e+08,1.694120000000000000e+05
1.389180000000000000e+08,1.694120000000000000e+05
1.390870000000000000e+08,1.694120000000000000e+05
1.392560000000000000e+08,1.694120000000000000e+05
1.394260000000000000e+08,1.694120000000000000e+05
1.395950000000000000e+08,1.694120000000000000e+05
1.397650000000000000e+08,1.694120000000000000e+05
1.399340000000000000e+08,1.694120000000000000e+05
1.401040000000000000e+08,1.694120000000000000e+05
1.402730000000000000e+08,1.694120000000000000e+05
1.404420000000000000e+08,1.694120000000000000e+05
1.406120000000000000e+08,1.694120000000000000e+05
1.407810000000000000e+08,1.694120000000000000e+05
1.409510000000000000e+08,1.694120000000000000e+05
1.411200000000000000e+08,1.694120000000000000e+05
1.412890000000000000e+08,1.694120000000000000e+05
1.414590000000000000e+08,1.694120000000000000e+05
1.416280000000000000e+08,1.694120000000000000e+05
1.417980000000000000e+08,1.694120000000000000e+05
1.419670000000000000e+08,1.694120000000000000e+05
1.421360000000000000e+08,1.694120000000000000e+05
1.423060000000000000e+08,1.694120000000000000e+05
1.424750000000000000e+08,1.694120000000000000e+05
1.426450000000000000e+08,1.694120000000000000e+05
1.428140000000000000e+08,1.694120000000000000e+05
1.429840000000000000e+08,1.694120000000000000e+05
1.431530000000000000e+08,1.694120000000000000e+05
1.433220000000000000e+08,1.694120000000000000e+05
1.434920000000000000e+08,1.694120000000000000e+05
1.436610000000000000e+08,1.694120000000000000e+05
1.438310000000000000e+08,1.694120000000000000e+05
1.440000000000000000e+08,1.694120000000000000e+05
1.441690000000000000e+08,1.694120000000000000e+05
1.443390000000000000e+08,1.694120000000000000e+05
1.445080000000000000e+08,1.694120000000000000e+05
1.446780000000000000e+08,1.694120000000000000e+05
1.448470000000000000e+08,1.694120000000000000e+05
1.450160000000000000e+08,1.694120000000000000e+05
1.451860000000000000e+08,1.694120000000000000e+05
1.453550000000000000e+08,1.694120000000000000e+05
1.455250000000000000e+08,1.694120000000000000e+05
1.456940000000000000e+08,1.694120000000000000e+05
1.458640000000000000e+08,1.694120000000000000e+05
1.460330000000000000e+08,1.694120000000000000e+05
1.462020000000000000e+08,1.694120000000000000e+05
1.463720000000000000e+08,1.694120000000000000e+05
1.465410000000000000e+08,1.694120000000000000e+05
1.467110000000000000e+08,1.694120000000000000e+05
1.468800000000000000e+08,1.694120000000000000e+05
1.470490000000000000e+08,1.694120000000000000e+05
1.472190000000000000e+08,1.694120000000000000e+05
1.473880000000000000e+08,1.694120000000000000e+05
1.475580000000000000e+08,1.694120000000000000e+05
1.477270000000000000e+08,1.694120000000000000e+05
1.478960000000000000e+08,1.694120000000000000e+05
1.480660000000000000e+08,1.694120000000000000e+05
1.482350000000000000e+08,1.694120000000000000e+05
1.484050000000000000e+08,1.694120000000000000e+05
1.485740000000000000e+08,1.694120000000000000e+05
1.487440000000000000e+08,1.694120000000000000e+05
1.489130000000000000e+08,1.694120000000000000e+05
1.490820000000000000e+08,1.694120000000000000e+05
1.492520000000000000e+08,1.694120000000000000e+05
1.494210000000000000e+08,1.694120000000000000e+05
1.495910000000000000e+08,1.694120000000000000e+05
1.497600000000000000e+08,1.694120000000000000e+05
1.499290000000000000e+08,1.694120000000000000e+05
1.500990000000000000e+08,1.694120000000000000e+05
1.502680000000000000e+08,1.694120000000000000e+05
1.504380000000000000e+08,1.694120000000000000e+05
1.506070000000000000e+08,1.694120000000000000e+05
1.507760000000000000e+08,1.694120000000000000e+05
1.509460000000000000e+08,1.694120000000000000e+05
1.511150000000000000e+08,1.694120000000000000e+05
1.512850000000000000e+08,1.694120000000000000e+05
1.514540000000000000e+08,1.694120000000000000e+05
1.516240000000000000e+08,1.694120000000000000e+05
1.517930000000000000e+08,1.694120000000000000e+05
1.519620000000000000e+08,1.694120000000000000e+05
1.521320000000000000e+08,1.694120000000000000e+05
1.523010000000000000e+08,1.694120000000000000e+05
1.524710000000000000e+08,1.694120000000000000e+05
1.526400000000000000e+08,1.694120000000000000e+05
1.528090000000000000e+08,1.694120000000000000e+05
1.529790000000000000e+08,1.694120000000000000e+05
1.531480000000000000e+08,1.694120000000000000e+05
1.533180000000000000e+08,1.694120000000000000e+05
1.534870000000000000e+08,1.694120000000000000e+05
1.536560000000000000e+08,1.694120000000000000e+05
1.538260000000000000e+08,1.694120000000000000e+05
1.539950000000000000e+08,1.694120000000000000e+05
1.541650000000000000e+08,1.694120000000000000e+05
1.543340000000000000e+08,1.694120000000000000e+05
1.545040000000000000e+08,1.694120000000000000e+05
1.546730000000000000e+08,1.694120000000000000e+05
1.548420000000000000e+08,1.694120000000000000e+05
1.550120000000000000e+08,1.694120000000000000e+05
1.551810000000000000e+08,1.694120000000000000e+05
1.553510000000000000e+08,1.694120000000000000e+05
1.555200000000000000e+08,1.694120000000000000e+05
1.556890000000000000e+08,1.694120000000000000e+05
1.558590000000000000e+08,1.694120000000000000e+05
1.560280000000000000e+08,1.694120000000000000e+05
1.561980000000000000e+08,1.694120000000000000e+05
1.563670000000000000e+08,1.694120000000000000e+05
1.565360000000000000e+08,1.694120000000000000e+05
1.567060000000000000e+08,1.694120000000000000e+05
1.568750000000000000e+08,1.694120000000000000e+05
1.570450000000000000e+08,1.694120000000000000e+05
1.572140000000000000e+08,1.694120000000000000e+05
1.573840000000000000e+08,1.694120000000000000e+05
1.575530000000000000e+08,1.694120000000000000e+05
1.577220000000000000e+08,1.694120000000000000e+05
1.578920000000000000e+08,1.694120000000000000e+05
1.580610000000000000e+08,1.694120000000000000e+05
1.582310000000000000e+08,1.694120000000000000e+05
1.584000000000000000e+08,1.694120000000000000e+05
1.585690000000000000e+08,1.694120000000000000e+05
1.587390000000000000e+08,1.694120000000000000e+05
1.589080000000000000e+08,1.694120000000000000e+05
1.590780000000000000e+08,1.694120000000000000e+05
1.592470000000000000e+08,1.694120000000000000e+05
1.594160000000000000e+08,1.694120000000000000e+05
1.595860000000000000e+08,1.694120000000000000e+05
1.597550000000000000e+08,1.694120000000000000e+05
1.599250000000000000e+08,1.694120000000000000e+05
1.600940000000000000e+08,1.694120000000000000e+05
1.602640000000000000e+08,1.694120000000000000e+05
1.604330000000000000e+08,1.694120000000000000e+05
1.606020000000000000e+08,1.694120000000000000e+05
1.607720000000000000e+08,1.694120000000000000e+05
1.609410000000000000e+08,1.694120000000000000e+05
1.611110000000000000e+08,1.694120000000000000e+05
1.612800000000000000e+08,1.694120000000000000e+05
1.614490000000000000e+08,1.694120000000000000e+05
1.616190000000000000e+08,1.694120000000000000e+05
1.617880000000000000e+08,1.694120000000000000e+05
1.619580000000000000e+08,1.694120000000000000e+05
1.621270000000000000e+08,1.694120000000000000e+05
1.622960000000000000e+08,1.694120000000000000e+05
1.624660000000000000e+08,1.694120000000000000e+05
1.626350000000000000e+08,1.694120000000000000e+05
1.628050000000000000e+08,1.694120000000000000e+05
1.629740000000000000e+08,1.694120000000000000e+05
1.631440000000000000e+08,1.694120000000000000e+05
1.633130000000000000e+08,1.694120000000000000e+05
1.634820000000000000e+08,1.694120000000000000e+05
1.636520000000000000e+08,1.694120000000000000e+05
1.638210000000000000e+08,1.694120000000000000e+05
1.639910000000000000e+08,1.694120000000000000e+05
1.641600000000000000e+08,1.694120000000000000e+05
1.643290000000000000e+08,1.694120000000000000e+05
1.644990000000000000e+08,1.694120000000000000e+05
1.646680000000000000e+08,1.694120000000000000e+05
1.648380000000000000e+08,1.694120000000000000e+05
1.650070000000000000e+08,1.694120000000000000e+05
1.651760000000000000e+08,1.694120000000000000e+05
1.653460000000000000e+08,1.694120000000000000e+05
1.655150000000000000e+08,1.694120000000000000e+05
1.656850000000000000e+08,1.694120000000000000e+05
1.658540000000000000e+08,1.694120000000000000e+05
1.660240000000000000e+08,1.694120000000000000e+05
1.661930000000000000e+08,1.694120000000000000e+05
1.663620000000000000e+08,1.694120000000000000e+05
1.665320000000000000e+08,1.694120000000000000e+05
1.667010000000000000e+08,1.694120000000000000e+05
1.668710000000000000e+08,1.694120000000000000e+05
1.670400000000000000e+08,1.694120000000000000e+05
1.672090000000000000e+08,1.694120000000000000e+05
1.673790000000000000e+08,1.694120000000000000e+05
1.675480000000000000e+08,1.694120000000000000e+05
1.677180000000000000e+08,1.694120000000000000e+05
1.678870000000000000e+08,1.694120000000000000e+05
1.680560000000000000e+08,1.694120000000000000e+05
1.682260000000000000e+08,1.694120000000000000e+05
1.683950000000000000e+08,1.694120000000000000e+05
1.685650000000000000e+08,1.694120000000000000e+05
1.687340000000000000e+08,1.694120000000000000e+05
1.689040000000000000e+08,1.694120000000000000e+05
1.690730000000000000e+08,1.694120000000000000e+05
1.692420000000000000e+08,1.694120000000000000e+05
1.694120000000000000e+08,1.694120000000000000e+05
1.695810000000000000e+08,1.694120000000000000e+05
1.697510000000000000e+08,1.694120000000000000e+05
1.699200000000000000e+08,1.694120000000000000e+05
1.700890000000000000e+08,1.694120000000000000e+05
1.702590000000000000e+08,1.694120000000000000e+05
1.704280000000000000e+08,1.694120000000000000e+05
1.705980000000000000e+08,1.694120000000000000e+05
1.707670000000000000e+08,1.694120000000000000e+05
1.709360000000000000e+08,1.694120000000000000e+05
1.711060000000000000e+08,1.694120000000000000e+05
1.712750000000000000e+08,1.694120000000000000e+05
1.714450000000000000e+08,1.694120000000000000e+05
1.716140000000000000e+08,1.694120000000000000e+05
1.717840000000000000e+08,1.694120000000000000e+05
1.719530000000000000e+08,1.694120000000000000e+05
1.721220000000000000e+08,1.694120000000000000e+05
1.722920000000000000e+08,1.694120000000000000e+05
1.724610000000000000e+08,1.694120000000000000e+05
1.726310000000000000e+08,1.694120000000000000e+05
1.728000000000000000e+08,1.694120000000000000e+05
1.729690000000000000e+08,1.694120000000000000e+05
1.731390000000000000e+08,1.694120000000000000e+05
1.733080000000000000e+08,1.694120000000000000e+05
1.734780000000000000e+08,1.694120000000000000e+05
1.736470000000000000e+08,1.694120000000000000e+05
1.738160000000000000e+08,1.694120000000000000e+05
1.739860000000000000e+08,1.694120000000000000e+05
1.741550000000000000e+08,1.694120000000000000e+05
1.743250000000000000e+08,1.694120000000000000e+05
1.744940000000000000e+08,1.694120000000000000e+05
1.746640000000000000e+08,1.694120000000000000e+05
1.748330000000000000e+08,1.694120000000000000e+05
1.750020000000000000e+08,1.694120000000000000e+05
1.751720000000000000e+08,1.694120000000000000e+05
1.753410000000000000e+08,1.694120000000000000e+05
1.755110000000000000e+08,1.694120000000000000e+05
1.756800000000000000e+08,1.694120000000000000e+05
1.758490000000000000e+08,1.694120000000000000e+05
1.760190000000000000e+08,1.694120000000000000e+05
1.761880000000000000e+08,1.694120000000000000e+05
1.763580000000000000e+08,1.694120000000000000e+05
1.765270000000000000e+08,1.694120000000000000e+05
1.766960000000000000e+08,1.694120000000000000e+05
1.768660000000000000e+08,1.694120000000000000e+05
1.770350000000000000e+08,1.694120000000000000e+05
1.772050000000000000e+08,1.694120000000000000e+05
1.773740000000000000e+08,1.694120000000000000e+05
1.775440000000000000e+08,1.694120000000000000e+05
1.777130000000000000e+08,1.694120000000000000e+05
1.778820000000000000e+08,1.694120000000000000e+05
1.780520000000000000e+08,1.694120000000000000e+05
1.782210000000000000e+08,1.694120000000000000e+05
1.783910000000000000e+08,1.694120000000000000e+05
1.785600000000000000e+08,1.694120000000000000e+05
1.787290000000000000e+08,1.694120000000000000e+05
1.788990000000000000e+08,1.694120000000000000e+05
1.790680000000000000e+08,1.694120000000000000e+05
1.792380000000000000e+08,1.694120000000000000e+05
1.794070000000000000e+08,1.694120000000000000e+05
1.795760000000000000e+08,1.694120000000000000e+05
1.797460000000000000e+08,1.694120000000000000e+05
1.799150000000000000e+08,1.694120000000000000e+05
1.800850000000000000e+08,1.694120000000000000e+05
1.802540000000000000e+08,1.694120000000000000e+05
1.804240000000000000e+08,1.694120000000000000e+05
1.805930000000000000e+08,1.694120000000000000e+05
1.807620000000000000e+08,1.694120000000000000e+05
1.809320000000000000e+08,1.694120000000000000e+05
1.811010000000000000e+08,1.694120000000000000e+05
1.812710000000000000e+08,1.694120000000000000e+05
1.814400000000000000e+08,1.694120000000000000e+05
1.816090000000000000e+08,1.694120000000000000e+05
1.817790000000000000e+08,1.694120000000000000e+05
1.819480000000000000e+08,1.694120000000000000e+05
1.821180000000000000e+08,1.694120000000000000e+05
1.822870000000000000e+08,1.694120000000000000e+05
1.824560000000000000e+08,1.694120000000000000e+05
1.826260000000000000e+08,1.694120000000000000e+05
1.827950000000000000e+08,1.694120000000000000e+05
1.829650000000000000e+08,1.694120000000000000e+05
1.831340000000000000e+08,1.694120000000000000e+05
1.833040000000000000e+08,1.694120000000000000e+05
1.834730000000000000e+08,1.694120000000000000e+05
1.836420000000000000e+08,1.694120000000000000e+05
1.838120000000000000e+08,1.694120000000000000e+05
1.839810000000000000e+08,1.694120000000000000e+05
1.841510000000000000e+08,1.694120000000000000e+05
1.843200000000000000e+08,1.694120000000000000e+05
1.844890000000000000e+08,1.694120000000000000e+05
1.846590000000000000e+08,1.694120000000000000e+05
1.848280000000000000e+08,1.694120000000000000e+05
1.849980000000000000e+08,1.694120000000000000e+05
1.851670000000000000e+08,1.694120000000000000e+05
1.853360000000000000e+08,1.694120000000000000e+05
1.855060000000000000e+08,1.694120000000000000e+05
1.856750000000000000e+08,1.694120000000000000e+05
1.858450000000000000e+08,1.694120000000000000e+05
1.860140000000000000e+08,1.694120000000000000e+05
1.861840000000000000e+08,1.694120000000000000e+05
1.863530000000000000e+08,1.694120000000000000e+05
1.865220000000000000e+08,1.694120000000000000e+05
1.866920000000000000e+08,1.694120000000000000e+05
1.868610000000000000e+08,1.694120000000000000e+05
1.870310000000000000e+08,1.694120000000000000e+05
1.872000000000000000e+08,1.694120000000000000e+05
1.873690000000000000e+08,1.694120000000000000e+05
1.875390000000000000e+08,1.694120000000000000e+05
1.877080000000000000e+08,1.694120000000000000e+05
1.878780000000000000e+08,1.694120000000000000e+05
1.880470000000000000e+08,1.694120000000000000e+05
1.882160000000000000e+08,1.694120000000000000e+05
1.883860000000000000e+08,1.694120000000000000e+05
1.885550000000000000e+08,1.694120000000000000e+05
1.887250000000000000e+08,1.694120000000000000e+05
1.888940000000000000e+08,1.694120000000000000e+05
1.890640000000000000e+08,1.694120000000000000e+05
1.892330000000000000e+08,1.694120000000000000e+05
1.894020000000000000e+08,1.694120000000000000e+05
1.895720000000000000e+08,1.694120000000000000e+05
1.897410000000000000e+08,1.694120000000000000e+05
1.899110000000000000e+08,1.694120000000000000e+05
1.900800000000000000e+08,1.694120000000000000e+05
1.902490000000000000e+08,1.694120000000000000e+05
1.904190000000000000e+08,1.694120000000000000e+05
1.905880000000000000e+08,1.694120000000000000e+05
1.907580000000000000e+08,1.694120000000000000e+05
1.909270000000000000e+08,1.694120000000000000e+05
1.910960000000000000e+08,1.694120000000000000e+05
1.912660000000000000e+08,1.694120000000000000e+05
1.914350000000000000e+08,1.694120000000000000e+05
1.916050000000000000e+08,1.694120000000000000e+05
1.917740000000000000e+08,1.694120000000000000e+05
1.919440000000000000e+08,1.694120000000000000e+05
1.921130000000000000e+08,1.694120000000000000e+05
1.922820000000000000e+08,1.694120000000000000e+05
1.924520000000000000e+08,1.694120000000000000e+05
1.926210000000000000e+08,1.694120000000000000e+05
1.927910000000000000e+08,1.694120000000000000e+05
1.929600000000000000e+08,1.694120000000000000e+05
1.931290000000000000e+08,1.694120000000000000e+05
1.932990000000000000e+08,1.694120000000000000e+05
1.934680000000000000e+08,1.694120000000000000e+05
1.936380000000000000e+08,1.694120000000000000e+05
1.938070000000000000e+08,1.694120000000000000e+05
1.939760000000000000e+08,1.694120000000000000e+05
1.941460000000000000e+08,1.694120000000000000e+05
1.943150000000000000e+08,1.694120000000000000e+05
1.944850000000000000e+08,1.694120000000000000e+05
1.946540000000000000e+08,1.694120000000000000e+05
1.948240000000000000e+08,1.694120000000000000e+05
1.949930000000000000e+08,1.694120000000000000e+05
1.951620000000000000e+08,1.694120000000000000e+05
1.953320000000000000e+08,1.694120000000000000e+05
1.955010000000000000e+08,1.694120000000000000e+05
1.956710000000000000e+08,1.694120000000000000e+05
1.958400000000000000e+08,1.694120000000000000e+05
1.960090000000000000e+08,1.694120000000000000e+05
1.961790000000000000e+08,1.694120000000000000e+05
1.963480000000000000e+08,1.694120000000000000e+05
1.965180000000000000e+08,1.694120000000000000e+05
1.966870000000000000e+08,1.694120000000000000e+05
1.968560000000000000e+08,1.694120000000000000e+05
1.970260000000000000e+08,1.694120000000000000e+05
1.971950000000000000e+08,1.694120000000000000e+05
1.973650000000000000e+08,1.694120000000000000e+05
1.975340000000000000e+08,1.694120000000000000e+05
1.977040000000000000e+08,1.694120000000000000e+05
1.978730000000000000e+08,1.694120000000000000e+05
1.980420000000000000e+08,1.694120000000000000e+05
1.982120000000000000e+08,1.694120000000000000e+05
1.983810000000000000e+08,1.694120000000000000e+05
1.985510000000000000e+08,1.694120000000000000e+05
1.987200000000000000e+08,1.694120000000000000e+05
1.988890000000000000e+08,1.694120000000000000e+05
1.990590000000000000e+08,1.694120000000000000e+05
1.992280000000000000e+08,1.694120000000000000e+05
1.993980000000000000e+08,1.694120000000000000e+05
1.995670000000000000e+08,1.694120000000000000e+05
1.997360000000000000e+08,1.694120000000000000e+05
1.999060000000000000e+08,1.694120000000000000e+05
2.000750000000000000e+08,1.694120000000000000e+05
2.002450000000000000e+08,1.694120000000000000e+05
2.004140000000000000e+08,1.694120000000000000e+05
2.005840000000000000e+08,1.694120000000000000e+05
2.007530000000000000e+08,1.694120000000000000e+05
2.009220000000000000e+08,1.694120000000000000e+05
2.010920000000000000e+08,1.694120000000000000e+05
2.012610000000000000e+08,1.694120000000000000e+05
2.014310000000000000e+08,1.694120000000000000e+05
2.016000000000000000e+08,1.694120000000000000e+05
2.017690000000000000e+08,1.694120000000000000e+05
2.019390000000000000e+08,1.694120000000000000e+05
2.021080000000000000e+08,1.694120000000000000e+05
2.022780000000000000e+08,1.694120000000000000e+05
2.024470000000000000e+08,1.694120000000000000e+05
2.026160000000000000e+08,1.694120000000000000e+05
2.027860000000000000e+08,1.694120000000000000e+05
2.029550000000000000e+08,1.694120000000000000e+05
2.031250000000000000e+08,1.694120000000000000e+05
2.032940000000000000e+08,1.694120000000000000e+05
2.034640000000000000e+08,1.694120000000000000e+05
2.036330000000000000e+08,1.694120000000000000e+05
2.038020000000000000e+08,1.694120000000000000e+05
2.039720000000000000e+08,1.694120000000000000e+05
2.041410000000000000e+08,1.694120000000000000e+05
2.043110000000000000e+08,1.694120000000000000e+05
2.044800000000000000e+08,1.694120000000000000e+05
2.046490000000000000e+08,1.694120000000000000e+05
2.048190000000000000e+08,1.694120000000000000e+05
2.049880000000000000e+08,1.694120000000000000e+05
2.051580000000000000e+08,1.694120000000000000e+05
2.053270000000000000e+08,1.694120000000000000e+05
2.054960000000000000e+08,1.694120000000000000e+05
2.056660000000000000e+08,1.694120000000000000e+05
2.058350000000000000e+08,1.694120000000000000e+05
2.060050000000000000e+08,1.694120000000000000e+05
2.061740000000000000e+08,1.694120000000000000e+05
2.063440000000000000e+08,1.694120000000000000e+05
2.065130000000000000e+08,1.694120000000000000e+05
2.066820000000000000e+08,1.694120000000000000e+05
2.068520000000000000e+08,1.694120000000000000e+05
2.070210000000000000e+08,1.694120000000000000e+05
2.071910000000000000e+08,1.694120000000000000e+05
2.073600000000000000e+08,1.694120000000000000e+05
2.075290000000000000e+08,1.694120000000000000e+05
2.076990000000000000e+08,1.694120000000000000e+05
2.078680000000000000e+08,1.694120000000000000e+05
2.080380000000000000e+08,1.694120000000000000e+05
2.082070000000000000e+08,1.694120000000000000e+05
2.083760000000000000e+08,1.694120000000000000e+05
2.085460000000000000e+08,1.694120000000000000e+05
2.087150000000000000e+08,1.694120000000000000e+05
2.088850000000000000e+08,1.694120000000000000e+05
2.090540000000000000e+08,1.694120000000000000e+05
2.092240000000000000e+08,1.694120000000000000e+05
2.093930000000000000e+08,1.694120000000000000e+05
2.095620000000000000e+08,1.694120000000000000e+05
2.097320000000000000e+08,1.694120000000000000e+05
2.099010000000000000e+08,1.694120000000000000e+05
2.100710000000000000e+08,1.694120000000000000e+05
2.102400000000000000e+08,1.694120000000000000e+05
2.104090000000000000e+08,1.694120000000000000e+05
2.105790000000000000e+08,1.694120000000000000e+05
2.107480000000000000e+08,1.694120000000000000e+05
2.109180000000000000e+08,1.694120000000000000e+05
2.110870000000000000e+08,1.694120000000000000e+05
2.112560000000000000e+08,1.694120000000000000e+05
2.114260000000000000e+08,1.694120000000000000e+05
2.115950000000000000e+08,1.694120000000000000e+05
2.117650000000000000e+08,1.694120000000000000e+05
2.119340000000000000e+08,1.694120000000000000e+05
2.121040000000000000e+08,1.694120000000000000e+05
2.122730000000000000e+08,1.694120000000000000e+05
2.124420000000000000e+08,1.694120000000000000e+05
2.126120000000000000e+08,1.694120000000000000e+05
2.127810000000000000e+08,1.694120000000000000e+05
2.129510000000000000e+08,1.694120000000000000e+05
2.131200000000000000e+08,1.694120000000000000e+05
2.132890000000000000e+08,1.694120000000000000e+05
2.134590000000000000e+08,1.694120000000000000e+05
2.136280000000000000e+08,1.694120000000000000e+05
2.137980000000000000e+08,1.694120000000000000e+05
2.139670000000000000e+08,1.694120000000000000e+05
2.141360000000000000e+08,1.694120000000000000e+05
2.143060000000000000e+08,1.694120000000000000e+05
2.144750000000000000e+08,1.694120000000000000e+05
2.146450000000000000e+08,1.694120000000000000e+05
2.148140000000000000e+08,1.694120000000000000e+05
2.149840000000000000e+08,1.694120000000000000e+05
2.151530000000000000e+08,1.694120000000000000e+05
2.153220000000000000e+08,1.694120000000000000e+05
2.154920000000000000e+08,1.694120000000000000e+05
2.156610000000000000e+08,1.694120000000000000e+05
2.158310000000000000e+08,1.694120000000000000e+05
