time,p,Sw
4.065880000000000291e+04,3.788569999999999818e-42,1.325529999999999997e-46
6.226519999999999709e+04,8.702120000000000409e-34,5.927870000000000348e-37
8.454500000000000000e+04,1.464199999999999964e-33,2.274700000000000077e-36
1.075440000000000000e+05,3.873610000000000101e-33,1.920370000000000039e-35
1.312450000000000000e+05,2.729210000000000135e-34,7.400490000000000263e-37
1.556950000000000000e+05,3.250530000000000094e-33,5.308260000000000231e-35
1.809460000000000000e+05,7.211439999999999630e-33,7.786119999999999475e-35
2.069740000000000000e+05,4.453059999999999898e-32,3.612789999999999826e-34
2.339170000000000000e+05,2.352460000000000120e-36,3.028790000000000003e-37
2.616590000000000000e+05,4.256370000000000334e-36,3.667549999999999816e-38
2.903520000000000000e+05,2.977039999999999984e-32,8.155810000000000160e-35
3.199610000000000000e+05,2.336980000000000067e-32,1.923930000000000008e-34
3.506620000000000000e+05,6.670210000000000031e-33,1.873050000000000069e-34
3.824220000000000000e+05,5.333790000000000222e-33,1.838610000000000101e-34
4.151900000000000000e+05,3.259729999999999884e-32,6.696209999999999706e-34
4.491770000000000000e+05,9.525850000000000299e-33,1.429719999999999943e-34
4.843310000000000000e+05,4.562739999999999949e-35,1.057280000000000003e-36
5.207400000000000000e+05,1.575039999999999909e-32,1.125759999999999944e-34
5.585040000000000000e+05,2.834420000000000103e-33,1.614700000000000029e-35
5.975450000000000000e+05,7.429309999999999754e-33,1.879749999999999950e-34
6.381640000000000000e+05,2.225059999999999968e-32,9.745379999999999791e-35
6.802790000000000000e+05,1.706859999999999894e-32,2.836859999999999827e-34
7.240130000000000000e+05,2.212809999999999941e-32,2.742590000000000147e-34
7.695080000000000000e+05,5.437110000000000297e-33,1.060820000000000003e-34
8.169200000000000000e+05,1.299329999999999939e-32,1.870629999999999965e-34
8.661220000000000000e+05,1.594329999999999966e-32,6.455749999999999819e-34
9.176050000000000000e+05,1.923130000000000117e-33,2.594000000000000226e-35
9.712320000000000000e+05,9.874990000000000679e-33,2.880129999999999797e-34
1.027210000000000000e+06,3.576889999999999768e-33,6.475210000000000036e-35
1.085770000000000000e+06,1.298790000000000025e-34,1.259159999999999979e-35
1.146690000000000000e+06,1.461840000000000053e-32,4.312969999999999583e-34
1.210740000000000000e+06,3.723049999999999925e-33,1.500899999999999998e-34
1.277670000000000000e+06,7.030939999999999614e-33,4.569890000000000043e-34
1.346470000000000000e+06,6.079989999999999703e-33,2.800200000000000016e-34
1.416600000000000000e+06,2.212310000000000113e-33,9.044189999999999495e-35
1.488120000000000000e+06,1.168509999999999919e-33,4.343269999999999937e-35
1.561100000000000000e+06,1.671280000000000048e-33,6.370180000000000495e-35
1.635610000000000000e+06,1.492650000000000109e-32,3.496420000000000030e-34
1.712590000000000000e+06,4.311959999999999899e-33,2.011789999999999790e-34
1.791310000000000000e+06,2.295730000000000167e-33,4.900749999999999589e-35
1.871880000000000000e+06,1.229899999999999932e-32,3.396560000000000177e-34
1.955440000000000000e+06,2.183000000000000089e-32,9.745879999999999909e-34
2.041140000000000000e+06,1.636739999999999971e-32,1.077630000000000060e-33
2.129120000000000000e+06,1.374230000000000057e-32,1.204010000000000053e-33
2.219550000000000000e+06,7.375450000000000049e-33,7.303800000000000011e-34
2.313970000000000000e+06,1.790609999999999949e-32,8.525629999999999421e-34
2.411290000000000000e+06,1.670000000000000087e-32,1.322229999999999989e-33
2.511750000000000000e+06,7.021110000000000145e-33,4.094119999999999996e-34
2.615620000000000000e+06,7.184360000000000213e-33,7.678100000000000379e-34
2.721310000000000000e+06,6.603530000000000446e-33,3.979810000000000347e-34
2.828930000000000000e+06,1.457409999999999985e-32,8.079560000000000012e-34
2.938570000000000000e+06,1.118089999999999970e-32,1.447790000000000044e-33
3.050360000000000000e+06,5.473210000000000061e-34,9.031990000000000232e-35
3.164440000000000000e+06,1.327619999999999944e-33,1.149869999999999982e-34
3.283470000000000000e+06,7.407210000000000407e-33,6.566979999999999763e-34
3.405210000000000000e+06,3.266459999999999900e-33,4.240730000000000046e-34
3.529850000000000000e+06,3.304709999999999875e-33,3.785130000000000043e-34
3.657600000000000000e+06,2.147570000000000014e-32,2.147019999999999874e-33
3.788720000000000000e+06,9.547689999999999669e-33,1.050140000000000075e-33
3.923470000000000000e+06,6.355380000000000145e-33,3.599800000000000034e-34
4.062200000000000000e+06,1.002619999999999943e-32,1.112759999999999979e-33
4.200920000000000000e+06,3.446579999999999740e-33,4.693480000000000015e-34
4.344110000000000000e+06,1.156490000000000058e-32,2.594289999999999910e-33
4.492250000000000000e+06,4.865360000000000122e-33,8.842179999999999545e-34
4.640380000000000000e+06,5.652899999999999927e-33,5.496809999999999679e-34
4.794210000000000000e+06,7.728230000000000096e-33,1.247609999999999973e-33
4.948040000000000000e+06,8.336680000000000520e-34,1.779880000000000010e-34
5.108560000000000000e+06,1.848630000000000095e-32,4.211289999999999897e-33
5.276730000000000000e+06,9.339809999999999737e-33,1.766060000000000063e-33
5.444890000000000000e+06,3.015830000000000036e-33,5.080820000000000400e-34
5.613060000000000000e+06,5.502429999999999901e-33,1.006620000000000003e-33
5.791110000000000000e+06,4.510979999999999695e-33,1.131999999999999929e-33
5.969170000000000000e+06,8.208750000000000459e-33,1.527190000000000084e-33
6.147220000000000000e+06,1.344049999999999954e-32,1.629669999999999960e-33
6.325280000000000000e+06,5.310549999999999663e-33,4.852379999999999691e-34
6.518170000000000000e+06,1.284579999999999952e-32,4.343760000000000096e-33
6.711060000000000000e+06,1.041709999999999946e-32,1.766699999999999873e-33
6.903960000000000000e+06,2.100219999999999913e-32,3.141359999999999869e-33
7.096850000000000000e+06,1.603050000000000053e-32,4.726849999999999686e-33
7.289750000000000000e+06,1.611200000000000012e-32,2.014299999999999830e-33
7.482640000000000000e+06,1.557129999999999958e-32,2.673929999999999836e-33
7.675530000000000000e+06,7.704029999999999994e-33,2.514190000000000131e-33
7.868430000000000000e+06,1.179170000000000004e-32,3.211609999999999917e-33
8.061320000000000000e+06,2.756969999999999851e-32,9.133689999999999538e-33
8.254210000000000000e+06,6.961890000000000193e-33,1.461949999999999985e-33
8.447110000000000000e+06,3.828909999999999663e-33,1.415359999999999997e-33
8.640000000000000000e+06,9.315089999999999682e-33,3.649019999999999749e-33
8.880000000000000000e+06,5.822719999999999973e-33,1.988530000000000082e-33
9.127060000000000000e+06,1.067510000000000018e-32,3.706869999999999931e-33
9.381840000000000000e+06,1.168449999999999990e-33,1.462709999999999995e-34
9.636620000000000000e+06,1.679709999999999904e-32,6.189710000000000615e-33
9.900180000000000000e+06,2.396860000000000022e-32,1.371749999999999947e-32
1.016370000000000000e+07,2.299470000000000114e-33,8.689899999999999474e-34
1.043740000000000000e+07,3.434780000000000188e-33,1.302050000000000072e-33
1.071120000000000000e+07,6.952989999999999534e-33,2.290679999999999865e-33
1.099680000000000000e+07,1.022629999999999965e-32,3.640290000000000285e-33
1.128240000000000000e+07,1.490729999999999927e-32,5.408250000000000200e-33
1.158220000000000000e+07,5.329720000000000068e-33,1.707080000000000169e-33
1.188210000000000000e+07,4.574580000000000088e-33,1.517639999999999997e-33
1.218200000000000000e+07,3.768220000000000004e-33,1.218870000000000075e-33
1.250060000000000000e+07,1.782069999999999888e-32,7.928659999999999500e-33
1.281930000000000000e+07,9.386569999999999381e-34,3.918879999999999947e-34
1.313790000000000000e+07,1.057140000000000061e-32,6.221619999999999854e-33
1.345650000000000000e+07,1.652580000000000038e-32,9.872670000000000470e-33
1.377510000000000000e+07,9.564060000000000435e-33,6.282079999999999586e-33
1.412560000000000000e+07,1.073459999999999968e-32,4.187630000000000009e-33
1.447610000000000000e+07,4.555409999999999683e-33,2.615610000000000012e-33
1.482660000000000000e+07,3.098550000000000248e-32,1.509699999999999907e-32
1.517710000000000000e+07,3.717000000000000173e-32,1.730069999999999992e-32
1.552760000000000000e+07,2.176120000000000028e-33,7.672650000000000154e-34
1.587810000000000000e+07,3.486980000000000097e-33,2.554040000000000144e-33
1.622850000000000000e+07,1.647480000000000041e-32,1.011670000000000031e-32
1.657900000000000000e+07,1.948879999999999946e-32,1.247210000000000117e-32
1.692950000000000000e+07,4.032529999999999764e-32,2.403109999999999924e-32
1.728000000000000000e+07,5.395739999999999923e-33,2.691819999999999936e-33
1.769140000000000000e+07,6.433010000000000149e-33,5.045589999999999689e-33
1.810290000000000000e+07,3.109149999999999994e-32,1.832960000000000128e-32
1.853710000000000000e+07,5.195949999999999988e-33,1.994039999999999894e-33
1.897140000000000000e+07,3.482379999999999929e-32,2.036910000000000094e-32
1.940570000000000000e+07,3.594629999999999756e-32,2.137770000000000047e-32
1.987100000000000000e+07,1.763679999999999960e-32,9.449739999999999629e-33
2.033630000000000000e+07,1.635570000000000078e-33,1.508169999999999929e-33
2.080160000000000000e+07,3.054190000000000011e-32,2.181519999999999908e-32
2.126690000000000000e+07,1.871600000000000067e-32,1.501839999999999974e-32
2.173220000000000000e+07,3.878429999999999962e-34,1.688899999999999957e-34
2.219760000000000000e+07,2.051840000000000107e-32,2.121190000000000027e-32
2.266290000000000000e+07,2.358099999999999883e-32,1.376379999999999892e-32
2.312820000000000000e+07,7.355450000000000089e-33,5.688670000000000340e-33
2.359350000000000000e+07,1.789060000000000017e-32,1.270099999999999866e-32
2.405880000000000000e+07,8.093879999999999650e-32,8.805259999999999569e-32
2.452410000000000000e+07,9.328849999999999187e-34,8.128489999999999274e-34
2.498940000000000000e+07,4.706590000000000023e-32,2.813260000000000039e-32
2.545470000000000000e+07,1.062049999999999970e-32,1.416860000000000062e-32
2.592000000000000000e+07,2.518970000000000189e-32,2.394919999999999988e-32
2.649600000000000000e+07,8.643840000000000082e-33,9.560659999999999799e-33
2.707200000000000000e+07,5.765119999999999568e-32,6.112610000000000488e-32
2.764800000000000000e+07,1.201189999999999948e-31,1.036559999999999939e-31
2.822400000000000000e+07,1.118549999999999960e-32,7.285999999999999547e-33
2.885760000000000000e+07,3.356679999999999995e-32,3.890199999999999909e-32
2.949120000000000000e+07,5.680479999999999720e-33,3.980590000000000105e-33
3.012480000000000000e+07,4.050399999999999740e-32,4.739569999999999765e-32
3.075840000000000000e+07,3.173990000000000169e-32,3.055430000000000066e-32
3.139200000000000000e+07,2.104530000000000056e-32,1.410239999999999910e-32
3.202560000000000000e+07,7.752579999999999900e-32,1.182279999999999957e-31
3.265920000000000000e+07,2.771560000000000211e-32,2.763470000000000077e-32
3.329280000000000000e+07,1.619150000000000096e-32,1.941619999999999915e-32
3.392640000000000000e+07,2.006830000000000066e-32,3.422870000000000225e-32
3.456000000000000000e+07,5.270239999999999866e-32,8.639199999999999664e-32
3.528000000000000000e+07,4.939059999999999749e-33,5.403330000000000229e-33
3.600000000000000000e+07,1.085529999999999969e-32,1.394459999999999943e-32
3.672000000000000000e+07,2.063040000000000030e-32,3.939109999999999867e-32
3.744000000000000000e+07,6.680199999999999949e-32,1.012210000000000025e-31
3.816000000000000000e+07,3.278079999999999837e-33,6.059930000000000328e-33
3.888000000000000000e+07,3.338829999999999870e-32,6.094619999999999765e-32
3.960000000000000000e+07,5.808089999999999500e-32,1.170159999999999946e-31
4.032000000000000000e+07,1.140280000000000014e-32,2.657950000000000129e-32
4.104000000000000000e+07,3.169100000000000248e-32,6.162319999999999951e-32
4.176000000000000000e+07,3.224740000000000085e-32,4.901560000000000200e-32
4.248000000000000000e+07,2.214520000000000048e-32,4.081719999999999823e-32
4.320000000000000000e+07,8.271110000000000249e-32,2.134159999999999937e-31
4.406400000000000000e+07,3.126689999999999969e-32,5.869309999999999858e-32
4.492800000000000000e+07,1.327690000000000003e-33,2.296919999999999979e-33
4.579200000000000000e+07,1.662850000000000056e-32,4.582520000000000246e-32
4.665600000000000000e+07,9.264750000000000266e-32,2.071829999999999923e-31
4.752000000000000000e+07,4.063040000000000142e-33,7.729609999999999654e-33
4.838400000000000000e+07,4.040239999999999996e-32,9.272960000000000052e-32
4.924800000000000000e+07,7.152629999999999904e-33,2.255210000000000020e-32
5.011200000000000000e+07,6.099150000000000319e-33,3.235240000000000029e-32
5.097600000000000000e+07,3.538359999999999966e-32,7.623329999999999902e-32
5.184000000000000000e+07,2.870669999999999945e-33,2.193189999999999883e-32
5.280000000000000000e+07,5.019229999999999552e-32,1.199250000000000079e-31
5.376000000000000000e+07,3.742749999999999934e-32,5.468989999999999760e-32
5.472000000000000000e+07,9.576370000000000288e-32,2.382769999999999982e-31
5.568000000000000000e+07,3.616679999999999749e-32,1.024500000000000028e-31
5.664000000000000000e+07,4.018349999999999903e-32,1.356550000000000086e-31
5.760000000000000000e+07,6.965200000000000680e-33,5.819020000000000206e-33
5.856000000000000000e+07,3.900559999999999804e-32,1.188470000000000033e-31
5.952000000000000000e+07,6.896429999999999718e-32,2.812010000000000003e-31
6.048000000000000000e+07,1.988289999999999888e-32,6.974219999999999897e-32
6.156000000000000000e+07,1.932800000000000027e-32,1.035919999999999897e-31
6.264000000000000000e+07,1.869709999999999935e-32,1.353790000000000095e-31
6.372000000000000000e+07,6.693629999999999658e-32,2.678459999999999788e-31
6.480000000000000000e+07,5.517619999999999617e-32,1.997239999999999956e-31
6.588000000000000000e+07,7.348440000000000383e-32,2.354530000000000022e-31
6.696000000000000000e+07,1.341659999999999994e-32,4.198629999999999918e-32
6.804000000000000000e+07,1.543739999999999951e-32,7.022550000000000350e-32
6.912000000000000000e+07,4.707369999999999678e-33,1.603989999999999882e-32
7.035430000000000000e+07,1.612599999999999969e-32,6.913149999999999789e-32
7.158860000000000000e+07,2.837190000000000034e-33,1.850430000000000077e-32
7.282290000000000000e+07,1.761800000000000026e-32,3.785590000000000015e-32
7.381030000000000000e+07,2.143300000000000120e-32,1.023779999999999925e-31
7.512690000000000000e+07,2.093710000000000035e-32,9.571560000000000318e-32
7.644340000000000000e+07,2.312179999999999925e-33,1.417639999999999991e-32
7.776000000000000000e+07,1.289269999999999996e-32,5.862869999999999732e-32
7.920000000000000000e+07,2.719810000000000092e-32,1.407640000000000093e-31
8.064000000000000000e+07,4.506289999999999924e-32,2.863959999999999835e-31
8.208000000000000000e+07,3.918189999999999928e-32,1.911640000000000072e-31
8.352000000000000000e+07,4.544870000000000037e-32,2.712789999999999803e-31
8.496000000000000000e+07,2.192060000000000102e-32,1.207959999999999966e-31
8.640000000000000000e+07,1.256690000000000008e-32,9.710919999999999612e-32
8.784000000000000000e+07,3.784009999999999759e-32,2.653080000000000059e-31
8.928000000000000000e+07,6.917610000000000454e-33,2.877199999999999811e-32
9.072000000000000000e+07,1.726180000000000000e-32,1.321249999999999917e-31
9.216000000000000000e+07,2.328020000000000129e-32,1.450220000000000034e-31
9.360000000000000000e+07,5.157360000000000086e-32,5.088460000000000094e-31
9.504000000000000000e+07,4.462200000000000136e-32,3.920869999999999969e-31
9.676800000000000000e+07,3.500939999999999957e-32,3.508950000000000140e-31
9.849600000000000000e+07,2.539929999999999830e-32,2.348670000000000057e-31
1.002240000000000000e+08,3.034329999999999828e-32,2.696159999999999882e-31
1.019520000000000000e+08,1.458530000000000114e-32,1.926119999999999994e-31
1.036800000000000000e+08,1.797879999999999905e-32,2.266579999999999879e-31
1.054080000000000000e+08,2.846459999999999781e-32,3.014600000000000152e-31
1.071360000000000000e+08,1.036950000000000013e-32,1.173450000000000089e-31
1.088640000000000000e+08,9.329820000000000230e-34,8.511980000000000669e-33
1.105920000000000000e+08,9.238709999999999932e-33,1.647690000000000062e-31
1.123200000000000000e+08,1.913369999999999852e-33,2.089939999999999969e-32
1.140480000000000000e+08,5.825799999999999849e-33,1.043549999999999959e-31
1.157760000000000000e+08,4.158720000000000285e-33,8.184390000000000182e-32
1.175040000000000000e+08,2.695349999999999740e-32,5.125859999999999814e-31
1.192320000000000000e+08,5.263879999999999827e-33,5.554150000000000518e-32
1.209600000000000000e+08,2.098290000000000148e-33,4.281409999999999820e-32
1.231200000000000000e+08,6.573269999999999675e-34,2.021779999999999930e-32
1.252800000000000000e+08,1.217800000000000018e-32,2.770749999999999849e-31
1.274400000000000000e+08,1.494560000000000092e-32,3.014559999999999794e-31
1.296000000000000000e+08,7.002289999999999867e-33,1.806800000000000087e-31
1.317600000000000000e+08,1.430859999999999898e-32,4.501369999999999734e-31
1.339200000000000000e+08,4.412590000000000063e-33,1.768610000000000075e-31
1.360800000000000000e+08,5.720810000000000189e-33,1.357910000000000013e-31
1.382400000000000000e+08,8.356710000000000188e-34,1.260739999999999901e-32
1.404000000000000000e+08,5.323120000000000040e-33,1.850439999999999893e-31
1.425600000000000000e+08,5.265589999999999934e-33,1.396930000000000018e-31
1.447200000000000000e+08,1.298530000000000091e-34,4.874840000000000149e-33
1.468800000000000000e+08,2.783750000000000172e-34,9.513460000000000222e-33
1.490400000000000000e+08,7.960289999999999527e-34,2.582010000000000107e-32
1.512000000000000000e+08,1.292520000000000075e-33,3.573730000000000215e-32
1.533600000000000000e+08,2.030730000000000012e-33,8.099830000000000422e-32
1.555200000000000000e+08,4.611220000000000065e-34,1.539669999999999934e-32
1.576800000000000000e+08,3.289469999999999848e-34,6.133660000000000005e-33
1.598400000000000000e+08,3.261370000000000017e-34,2.279799999999999950e-32
1.620000000000000000e+08,1.606670000000000143e-33,8.637149999999999904e-32
1.641600000000000000e+08,1.091780000000000042e-33,6.361609999999999649e-32
1.670400000000000000e+08,1.052260000000000065e-33,7.255319999999999890e-32
1.699200000000000000e+08,3.278350000000000029e-34,2.755200000000000191e-32
1.728000000000000000e+08,3.052150000000000194e-34,4.447059999999999773e-32
1.756800000000000000e+08,1.074479999999999954e-33,8.044580000000000138e-32
1.785600000000000000e+08,6.062310000000000123e-34,3.588229999999999878e-32
1.814400000000000000e+08,1.080820000000000048e-34,5.230379999999999996e-33
1.843200000000000000e+08,1.303510000000000034e-34,1.736529999999999970e-32
1.872000000000000000e+08,7.829179999999999523e-35,1.394370000000000067e-32
1.900800000000000000e+08,3.038640000000000107e-35,3.629320000000000288e-33
1.929600000000000000e+08,1.204240000000000022e-34,1.367670000000000004e-32
1.958400000000000000e+08,1.324420000000000060e-35,4.456019999999999985e-33
1.987200000000000000e+08,1.139749999999999974e-34,3.323500000000000104e-32
2.016000000000000000e+08,1.166400000000000048e-35,3.393100000000000211e-33
2.044800000000000000e+08,3.386960000000000303e-36,1.448869999999999958e-33
2.073600000000000000e+08,1.437379999999999917e-36,3.554949999999999775e-33
2.102400000000000000e+08,7.857570000000000514e-36,1.390349999999999951e-32
2.131200000000000000e+08,8.852769999999999622e-35,2.087449999999999934e-32
2.160000000000000000e+08,2.015630000000000028e-35,3.279989999999999820e-33
