time,Dt
2.199989999999999952e+02,1.439960000000000093e+02
2.835366004897119128e+05,1.802090000000000146e+04
6.556890000000000000e+05,1.339650000000000000e+04
1.057375098765431903e+06,1.173050000000000000e+04
1.449210000000000000e+06,1.171139999999999964e+04
1.815157078189300373e+06,1.110429999999999927e+04
2.177300000000000000e+06,1.110429999999999927e+04
2.527948148148148321e+06,1.077270000000000073e+04
2.876590000000000000e+06,1.077270000000000073e+04
3.218792551440329291e+06,1.058379999999999927e+04
3.559790000000000000e+06,1.058379999999999927e+04
3.896743580246913712e+06,1.046810000000000036e+04
4.232930000000000000e+06,1.046810000000000036e+04
4.566434938271605410e+06,1.036170000000000073e+04
4.899440000000000000e+06,1.036170000000000073e+04
5.230556790123457089e+06,1.029650000000000000e+04
5.561350000000000000e+06,1.029650000000000000e+04
5.890703168724279851e+06,1.025550000000000000e+04
6.219710000000000000e+06,1.025550000000000000e+04
6.547882427983539179e+06,1.025550000000000000e+04
6.876060000000000000e+06,1.025550000000000000e+04
7.202545514403291978e+06,1.019370000000000073e+04
7.528890000000000000e+06,1.019370000000000073e+04
7.855086378600822762e+06,1.019370000000000073e+04
8.181280000000000000e+06,1.019370000000000073e+04
8.507514074074072763e+06,1.020070000000000073e+04
8.833810000000000000e+06,1.020070000000000073e+04
9.160236419753085822e+06,1.020070000000000073e+04
9.486660000000000000e+06,1.020070000000000073e+04
9.812690534979423508e+06,1.018729999999999927e+04
1.013870000000000000e+07,1.018729999999999927e+04
1.046469506172839552e+07,1.018729999999999927e+04
1.079070000000000000e+07,1.018729999999999927e+04
1.111666213991769589e+07,1.016979999999999927e+04
1.144250000000000000e+07,1.016979999999999927e+04
1.176795596707819030e+07,1.016979999999999927e+04
1.209340000000000000e+07,1.016979999999999927e+04
1.241881893004115298e+07,1.016979999999999927e+04
1.274430000000000000e+07,1.016979999999999927e+04
1.306971234567901306e+07,1.016979999999999927e+04
1.339510000000000000e+07,1.016979999999999927e+04
1.372055596707819030e+07,1.016979999999999927e+04
1.404600000000000000e+07,1.016979999999999927e+04
1.437141893004115298e+07,1.016979999999999927e+04
1.469690000000000000e+07,1.016979999999999927e+04
1.502231893004115298e+07,1.016979999999999927e+04
1.534770000000000000e+07,1.016979999999999927e+04
1.567315596707819030e+07,1.016979999999999927e+04
1.599860000000000000e+07,1.016979999999999927e+04
1.632403374485596828e+07,1.016979999999999927e+04
1.664950000000000000e+07,1.016979999999999927e+04
1.697491893004115298e+07,1.017670000000000073e+04
1.730040000000000000e+07,1.017670000000000073e+04
1.762601646090535074e+07,1.017670000000000073e+04
1.795170000000000000e+07,1.017670000000000073e+04
1.827732633744855970e+07,1.017670000000000073e+04
1.860300000000000000e+07,1.017670000000000073e+04
1.892862633744855970e+07,1.017670000000000073e+04
1.925430000000000000e+07,1.017670000000000073e+04
1.957994115226337686e+07,1.017670000000000073e+04
1.990560000000000000e+07,1.017670000000000073e+04
2.023124115226337686e+07,1.017670000000000073e+04
2.055690000000000000e+07,1.017670000000000073e+04
2.088254115226337686e+07,1.017670000000000073e+04
2.120820000000000000e+07,1.017670000000000073e+04
2.153386337448559701e+07,1.017670000000000073e+04
2.185950000000000000e+07,1.017670000000000073e+04
2.218516337448559701e+07,1.017670000000000073e+04
2.251080000000000000e+07,1.017670000000000073e+04
2.283646337448559701e+07,1.017670000000000073e+04
2.316210000000000000e+07,1.017670000000000073e+04
2.348777654320987687e+07,1.017670000000000073e+04
2.381340000000000000e+07,1.017670000000000073e+04
2.413907654320987687e+07,1.017670000000000073e+04
2.446470000000000000e+07,1.017670000000000073e+04
2.479037654320987687e+07,1.017670000000000073e+04
2.511600000000000000e+07,1.017670000000000073e+04
2.544167654320987687e+07,1.017670000000000073e+04
2.576730000000000000e+07,1.017670000000000073e+04
2.609298312757201865e+07,1.017670000000000073e+04
2.641870000000000000e+07,1.017670000000000073e+04
2.674432633744855970e+07,1.017670000000000073e+04
2.707000000000000000e+07,1.017670000000000073e+04
2.739562633744855970e+07,1.017670000000000073e+04
2.772130000000000000e+07,1.017670000000000073e+04
2.804694115226337686e+07,1.017670000000000073e+04
2.837260000000000000e+07,1.017670000000000073e+04
2.869824115226337686e+07,1.017670000000000073e+04
2.902390000000000000e+07,1.017670000000000073e+04
2.934954115226337686e+07,1.017670000000000073e+04
2.967520000000000000e+07,1.017670000000000073e+04
3.000084115226337686e+07,1.017670000000000073e+04
3.032650000000000000e+07,1.017670000000000073e+04
3.065216337448559701e+07,1.017670000000000073e+04
3.097780000000000000e+07,1.017670000000000073e+04
3.130346337448559701e+07,1.017670000000000073e+04
3.162910000000000000e+07,1.017670000000000073e+04
3.195476337448559701e+07,1.017670000000000073e+04
3.228040000000000000e+07,1.017670000000000073e+04
3.260607654320987687e+07,1.017670000000000073e+04
3.293170000000000000e+07,1.017670000000000073e+04
3.325737654320987687e+07,1.017670000000000073e+04
3.358300000000000000e+07,1.017670000000000073e+04
3.390867654320987314e+07,1.017670000000000073e+04
3.423430000000000000e+07,1.017670000000000073e+04
3.455997654320987314e+07,1.017670000000000073e+04
3.488570000000000000e+07,1.017670000000000073e+04
3.521131646090535074e+07,1.017670000000000073e+04
3.553700000000000000e+07,1.017670000000000073e+04
3.586262633744855970e+07,1.017670000000000073e+04
3.618830000000000000e+07,1.017670000000000073e+04
3.651392633744855970e+07,1.017670000000000073e+04
3.683960000000000000e+07,1.017670000000000073e+04
3.716524115226337314e+07,1.017670000000000073e+04
3.749090000000000000e+07,1.017670000000000073e+04
3.781654115226337314e+07,1.017670000000000073e+04
3.814220000000000000e+07,1.017670000000000073e+04
3.846784115226337314e+07,1.017670000000000073e+04
3.879350000000000000e+07,1.017670000000000073e+04
3.911916337448559701e+07,1.017670000000000073e+04
3.944480000000000000e+07,1.017670000000000073e+04
3.977046337448559701e+07,1.017670000000000073e+04
4.009610000000000000e+07,1.017670000000000073e+04
4.042176337448559701e+07,1.017670000000000073e+04
4.074740000000000000e+07,1.017670000000000073e+04
4.107307654320987314e+07,1.017670000000000073e+04
4.139870000000000000e+07,1.017670000000000073e+04
4.172437654320987314e+07,1.017670000000000073e+04
4.205000000000000000e+07,1.017670000000000073e+04
4.237567654320987314e+07,1.017670000000000073e+04
4.270130000000000000e+07,1.017670000000000073e+04
4.302697654320987314e+07,1.017670000000000073e+04
4.335270000000000000e+07,1.017670000000000073e+04
4.367831646090535074e+07,1.017670000000000073e+04
4.400400000000000000e+07,1.017670000000000073e+04
4.432962633744855970e+07,1.017670000000000073e+04
4.465530000000000000e+07,1.017670000000000073e+04
4.498092633744855970e+07,1.017670000000000073e+04
4.530660000000000000e+07,1.017670000000000073e+04
4.563224115226337314e+07,1.017670000000000073e+04
4.595790000000000000e+07,1.017670000000000073e+04
4.628354115226337314e+07,1.017670000000000073e+04
4.660920000000000000e+07,1.017670000000000073e+04
4.693484115226337314e+07,1.017670000000000073e+04
4.726050000000000000e+07,1.017670000000000073e+04
4.758614115226337314e+07,1.017670000000000073e+04
4.791180000000000000e+07,1.017670000000000073e+04
4.823746337448559701e+07,1.017670000000000073e+04
4.856310000000000000e+07,1.017670000000000073e+04
4.888876337448559701e+07,1.017670000000000073e+04
4.921440000000000000e+07,1.017670000000000073e+04
4.954006337448559701e+07,1.017670000000000073e+04
4.986570000000000000e+07,1.017670000000000073e+04
5.019137654320987314e+07,1.017670000000000073e+04
5.051700000000000000e+07,1.017670000000000073e+04
5.084267654320987314e+07,1.017670000000000073e+04
5.116830000000000000e+07,1.017670000000000073e+04
5.149397654320987314e+07,1.017670000000000073e+04
5.181960000000000000e+07,1.017670000000000073e+04
5.214527654320987314e+07,1.017670000000000073e+04
5.247100000000000000e+07,1.017670000000000073e+04
5.279661646090535074e+07,1.017670000000000073e+04
5.312230000000000000e+07,1.017670000000000073e+04
5.344792633744855970e+07,1.017670000000000073e+04
5.377360000000000000e+07,1.017670000000000073e+04
5.409922633744855970e+07,1.017670000000000073e+04
5.442490000000000000e+07,1.017670000000000073e+04
5.475054115226337314e+07,1.017670000000000073e+04
5.507620000000000000e+07,1.017670000000000073e+04
5.540184115226337314e+07,1.017670000000000073e+04
5.572750000000000000e+07,1.017670000000000073e+04
5.605314115226337314e+07,1.017670000000000073e+04
5.637880000000000000e+07,1.017670000000000073e+04
5.670446337448559701e+07,1.017670000000000073e+04
5.703010000000000000e+07,1.017670000000000073e+04
5.735576337448559701e+07,1.017670000000000073e+04
5.768140000000000000e+07,1.017670000000000073e+04
5.800706337448559701e+07,1.017670000000000073e+04
5.833270000000000000e+07,1.017670000000000073e+04
5.865837654320987314e+07,1.017670000000000073e+04
5.898400000000000000e+07,1.017670000000000073e+04
5.930967654320987314e+07,1.017670000000000073e+04
5.963530000000000000e+07,1.017670000000000073e+04
5.994690740740741044e+07,1.017670000000000073e+04
6.026629629629629850e+07,1.017670000000000073e+04
6.059195555555555969e+07,1.017670000000000073e+04
6.091759629629629850e+07,1.017670000000000073e+04
6.124325555555555969e+07,1.017670000000000073e+04
6.156889629629629850e+07,1.017670000000000073e+04
6.189455555555555969e+07,1.017670000000000073e+04
6.222019629629629850e+07,1.017670000000000073e+04
6.254585720164608955e+07,1.017670000000000073e+04
6.287149629629629850e+07,1.017670000000000073e+04
6.319715967078189552e+07,1.017670000000000073e+04
6.352279629629629850e+07,1.017670000000000073e+04
6.384847942386831343e+07,1.017670000000000073e+04
6.417411111111111194e+07,1.017670000000000073e+04
6.449978436213991791e+07,1.017670000000000073e+04
6.482541111111111194e+07,1.017670000000000073e+04
6.515108436213991791e+07,1.017670000000000073e+04
6.547677777777777612e+07,1.017670000000000073e+04
6.581598024691358209e+07,1.017670000000000073e+04
6.614842345679012686e+07,1.017670000000000073e+04
6.647406213991770148e+07,1.017670000000000073e+04
6.679972345679012686e+07,1.017670000000000073e+04
6.712538189300411940e+07,1.017670000000000073e+04
6.745103333333332837e+07,1.017670000000000073e+04
6.777668518518517911e+07,1.017670000000000073e+04
6.810233333333332837e+07,1.017670000000000073e+04
6.842800000000000000e+07,1.017670000000000073e+04
6.875364074074074626e+07,1.017670000000000073e+04
6.907930246913580596e+07,1.017670000000000073e+04
6.940494074074074626e+07,1.017670000000000073e+04
6.973740246913580596e+07,1.017670000000000073e+04
7.006643580246913433e+07,1.017670000000000073e+04
7.039210823045267165e+07,1.017670000000000073e+04
7.071773950617283583e+07,1.017670000000000073e+04
7.104340946502058208e+07,1.017670000000000073e+04
7.136903950617283583e+07,1.017670000000000073e+04
7.169470946502058208e+07,1.017670000000000073e+04
7.202036913580246270e+07,1.017670000000000073e+04
7.234601934156379104e+07,1.017670000000000073e+04
7.267166913580246270e+07,1.017670000000000073e+04
7.299731934156379104e+07,1.017670000000000073e+04
7.332296913580246270e+07,1.017670000000000073e+04
7.364861934156379104e+07,1.017670000000000073e+04
7.397426913580246270e+07,1.017670000000000073e+04
7.428636378600822389e+07,1.017670000000000073e+04
7.460523086419753730e+07,1.017670000000000073e+04
7.493089917695473135e+07,1.017670000000000073e+04
7.525653827160494030e+07,1.017670000000000073e+04
7.558220164609053731e+07,1.017670000000000073e+04
7.590783827160494030e+07,1.017670000000000073e+04
7.623350164609053731e+07,1.017670000000000073e+04
7.655913827160494030e+07,1.017670000000000073e+04
7.688480164609053731e+07,1.017670000000000073e+04
7.721043827160494030e+07,1.017670000000000073e+04
7.753610164609053731e+07,1.017670000000000073e+04
7.786174814814814925e+07,1.017670000000000073e+04
7.818740493827159703e+07,1.017670000000000073e+04
7.850855925925925374e+07,1.017670000000000073e+04
7.883041604938271642e+07,1.017670000000000073e+04
7.915420370370370150e+07,1.017670000000000073e+04
7.947984567901234329e+07,1.017670000000000073e+04
7.980551358024691045e+07,1.017670000000000073e+04
8.013114897119341791e+07,1.017670000000000073e+04
8.045681358024691045e+07,1.017670000000000073e+04
8.078249341563785076e+07,1.017670000000000073e+04
8.110813580246913433e+07,1.017670000000000073e+04
8.143380082304526865e+07,1.017670000000000073e+04
8.175943580246913433e+07,1.017670000000000073e+04
8.208510823045267165e+07,1.017670000000000073e+04
8.241073950617283583e+07,1.017670000000000073e+04
8.273640946502058208e+07,1.017670000000000073e+04
8.306203950617283583e+07,1.017670000000000073e+04
8.338770946502058208e+07,1.017670000000000073e+04
8.371336913580246270e+07,1.017670000000000073e+04
8.403901934156379104e+07,1.017670000000000073e+04
8.436466913580246270e+07,1.017670000000000073e+04
8.469031934156379104e+07,1.017670000000000073e+04
8.501596913580246270e+07,1.017670000000000073e+04
8.534161934156379104e+07,1.017670000000000073e+04
8.566726913580246270e+07,1.017670000000000073e+04
8.599291934156379104e+07,1.017670000000000073e+04
8.629141851851852238e+07,1.017670000000000073e+04
8.660803086419752240e+07,1.017670000000000073e+04
8.692920123456789553e+07,1.017670000000000073e+04
8.725485473251028359e+07,1.017670000000000073e+04
8.758051604938271642e+07,1.017670000000000073e+04
8.790615967078189552e+07,1.017670000000000073e+04
8.823182345679011941e+07,1.017670000000000073e+04
8.855746213991768658e+07,1.017670000000000073e+04
8.888312345679011941e+07,1.017670000000000073e+04
8.920876213991768658e+07,1.017670000000000073e+04
8.953442345679011941e+07,1.017670000000000073e+04
8.986008189300410450e+07,1.017670000000000073e+04
9.018573333333332837e+07,1.017670000000000073e+04
9.051138518518517911e+07,1.017670000000000073e+04
9.083703333333332837e+07,1.017670000000000073e+04
9.116720370370370150e+07,1.017670000000000073e+04
9.149738518518517911e+07,1.017670000000000073e+04
9.182380987654320896e+07,1.017670000000000073e+04
9.214982962962962687e+07,1.017670000000000073e+04
9.247549629629629850e+07,1.017670000000000073e+04
9.280113209876543283e+07,1.017670000000000073e+04
9.312679711934156716e+07,1.017670000000000073e+04
9.345243209876543283e+07,1.017670000000000073e+04
9.377810452674897015e+07,1.017670000000000073e+04
9.410373580246913433e+07,1.017670000000000073e+04
9.442940576131688058e+07,1.017670000000000073e+04
9.475503580246913433e+07,1.017670000000000073e+04
9.508070576131688058e+07,1.017670000000000073e+04
9.540638024691358209e+07,1.017670000000000073e+04
9.570185843621398509e+07,1.017670000000000073e+04
9.601697777777777612e+07,1.017670000000000073e+04
9.634261646090534329e+07,1.017670000000000073e+04
9.666828518518517911e+07,1.017670000000000073e+04
9.699393374485597014e+07,1.017670000000000073e+04
9.731959629629629850e+07,1.017670000000000073e+04
9.764523744855967164e+07,1.017670000000000073e+04
9.797089629629629850e+07,1.017670000000000073e+04
9.829654074074073136e+07,1.017670000000000073e+04
9.862219629629629850e+07,1.017670000000000073e+04
9.894785555555555224e+07,1.017670000000000073e+04
9.927349629629629850e+07,1.017670000000000073e+04
9.959915555555555224e+07,1.017670000000000073e+04
9.992479629629629850e+07,1.017670000000000073e+04
1.002504218106995970e+08,1.017670000000000073e+04
1.005762222222222239e+08,1.017670000000000073e+04
1.009017860082304478e+08,1.017670000000000073e+04
1.012000370370370448e+08,1.017670000000000073e+04
1.015303662551440448e+08,1.017670000000000073e+04
1.018585555555555522e+08,1.017670000000000073e+04
1.021839876543209851e+08,1.017670000000000073e+04
1.025096666666666716e+08,1.017670000000000073e+04
1.028353539094650149e+08,1.017670000000000073e+04
1.031606666666666716e+08,1.017670000000000073e+04
1.034865761316872537e+08,1.017670000000000073e+04
1.038125555555555522e+08,1.017670000000000073e+04
1.041379876543209851e+08,1.017670000000000073e+04
1.044636666666666716e+08,1.017670000000000073e+04
1.047892551440329254e+08,1.017670000000000073e+04
1.051146666666666716e+08,1.017670000000000073e+04
1.054372510288065821e+08,1.017670000000000073e+04
1.057560000000000000e+08,1.017670000000000073e+04
1.060817037037037015e+08,1.017670000000000073e+04
1.064076666666666716e+08,1.017670000000000073e+04
1.067330000000000000e+08,1.017670000000000073e+04
1.070586666666666716e+08,1.017670000000000073e+04
1.073843127572016418e+08,1.017670000000000073e+04
1.077100000000000000e+08,1.017670000000000073e+04
1.080357037037037015e+08,1.017670000000000073e+04
1.083610000000000000e+08,1.017670000000000073e+04
1.086867777777777761e+08,1.017670000000000073e+04
1.090126666666666716e+08,1.017670000000000073e+04
1.093383127572016418e+08,1.017670000000000073e+04
1.096640000000000000e+08,1.017670000000000073e+04
1.099625185185185224e+08,1.017670000000000073e+04
1.102743703703703731e+08,1.017670000000000073e+04
1.106001481481481493e+08,1.017670000000000073e+04
1.109261481481481493e+08,1.017670000000000073e+04
1.112515390946502090e+08,1.017670000000000073e+04
1.115772222222222239e+08,1.017670000000000073e+04
1.119027860082304478e+08,1.017670000000000073e+04
1.122283703703703731e+08,1.017670000000000073e+04
1.125541481481481493e+08,1.017670000000000073e+04
1.128794814814814776e+08,1.017670000000000073e+04
1.132052839506172836e+08,1.017670000000000073e+04
1.135312222222222239e+08,1.017670000000000073e+04
1.138565884773662537e+08,1.017670000000000073e+04
1.141822222222222239e+08,1.017670000000000073e+04
1.145080987654321045e+08,1.017670000000000073e+04
1.148334814814814776e+08,1.017670000000000073e+04
1.151592839506172836e+08,1.017670000000000073e+04
1.154852222222222239e+08,1.017670000000000073e+04
1.157970740740740746e+08,1.017670000000000073e+04
1.161160370370370299e+08,1.017670000000000073e+04
1.164414938271604925e+08,1.017670000000000073e+04
1.167671851851851940e+08,1.017670000000000073e+04
1.170930370370370448e+08,1.017670000000000073e+04
1.174184320987654328e+08,1.017670000000000073e+04
1.177441440329218060e+08,1.017670000000000073e+04
1.180700370370370299e+08,1.017670000000000073e+04
1.183954938271604925e+08,1.017670000000000073e+04
1.187211111111111045e+08,1.017670000000000073e+04
1.190467160493827164e+08,1.017670000000000073e+04
1.193722839506172836e+08,1.017670000000000073e+04
1.196912057613168806e+08,1.017670000000000073e+04
1.200135555555555522e+08,1.017670000000000073e+04
1.203391111111111194e+08,1.017670000000000073e+04
1.206647777777777761e+08,1.017670000000000073e+04
1.209906296296296269e+08,1.017670000000000073e+04
1.213161975308641940e+08,1.017670000000000073e+04
1.216418436213991791e+08,1.017670000000000073e+04
1.219675308641975373e+08,1.017670000000000073e+04
1.222929547325102985e+08,1.017670000000000073e+04
1.226187037037037015e+08,1.017670000000000073e+04
1.229446049382715970e+08,1.017670000000000073e+04
1.232700493827160448e+08,1.017670000000000073e+04
1.235957942386831343e+08,1.017670000000000073e+04
1.239123456790123433e+08,1.017670000000000073e+04
1.242712098765432090e+08,1.017670000000000073e+04
1.246132592592592686e+08,1.017670000000000073e+04
1.249388641975308657e+08,1.017670000000000073e+04
1.252647037037037015e+08,1.017670000000000073e+04
1.255903662551440448e+08,1.017670000000000073e+04
1.259160000000000000e+08,1.017670000000000073e+04
1.262417119341563731e+08,1.017670000000000073e+04
1.265672592592592686e+08,1.017670000000000073e+04
1.268928641975308657e+08,1.017670000000000073e+04
1.272187037037037015e+08,1.017670000000000073e+04
1.275443333333333284e+08,1.017670000000000073e+04
1.278700000000000000e+08,1.017670000000000073e+04
1.280529876543209851e+08,1.017670000000000073e+04
1.283854403292181045e+08,1.017670000000000073e+04
1.287147037037037015e+08,1.017670000000000073e+04
1.290403086419753134e+08,1.017670000000000073e+04
1.293658518518518507e+08,1.017670000000000073e+04
1.296915802469135821e+08,1.017670000000000073e+04
1.300171358024691343e+08,1.017670000000000073e+04
1.303428230452674925e+08,1.017670000000000073e+04
1.306687037037037015e+08,1.017670000000000073e+04
1.309943086419753134e+08,1.017670000000000073e+04
1.313198518518518507e+08,1.017670000000000073e+04
1.316455802469135821e+08,1.017670000000000073e+04
1.319710617283950597e+08,1.017670000000000073e+04
1.322967983539094627e+08,1.017670000000000073e+04
1.326226543209876567e+08,1.017670000000000073e+04
1.329413292181070000e+08,1.017670000000000073e+04
1.332635555555555522e+08,1.017670000000000073e+04
1.335891851851851791e+08,1.017670000000000073e+04
1.339148395061728507e+08,1.017670000000000073e+04
1.342407242798354030e+08,1.017670000000000073e+04
1.345663580246913433e+08,1.017670000000000073e+04
1.348918971193415523e+08,1.017670000000000073e+04
1.352175555555555522e+08,1.017670000000000073e+04
1.355431851851851940e+08,1.017670000000000073e+04
1.358686666666666567e+08,1.017670000000000073e+04
1.361942222222222090e+08,1.017670000000000073e+04
1.365201358024691343e+08,1.017670000000000073e+04
1.368321934156378508e+08,1.017670000000000073e+04
1.371511851851851642e+08,1.017670000000000073e+04
1.374766419753086269e+08,1.017670000000000073e+04
1.378022345679012239e+08,1.017670000000000073e+04
1.381281769547325075e+08,1.017670000000000073e+04
1.384537901234567761e+08,1.017670000000000073e+04
1.387794115226337314e+08,1.017670000000000073e+04
1.391050370370370448e+08,1.017670000000000073e+04
1.394305925925925970e+08,1.017670000000000073e+04
1.397562345679012239e+08,1.017670000000000073e+04
1.400821769547325075e+08,1.017670000000000073e+04
1.404077901234567761e+08,1.017670000000000073e+04
1.407334115226337314e+08,1.017670000000000073e+04
1.410590370370370448e+08,1.017670000000000073e+04
1.413845925925925970e+08,1.017670000000000073e+04
1.417102345679012239e+08,1.017670000000000073e+04
1.420357325102880597e+08,1.017670000000000073e+04
1.423612716049382687e+08,1.017670000000000073e+04
1.426872386831275523e+08,1.017670000000000073e+04
1.430130370370370448e+08,1.017670000000000073e+04
1.433384938271604776e+08,1.017670000000000073e+04
1.436641851851851642e+08,1.017670000000000073e+04
1.439897160493827164e+08,1.017670000000000073e+04
1.443152716049382687e+08,1.017670000000000073e+04
1.446412386831275523e+08,1.017670000000000073e+04
1.449667407407407463e+08,1.017670000000000073e+04
1.452922469135802388e+08,1.017670000000000073e+04
1.456181111111111045e+08,1.017670000000000073e+04
1.459438395061728358e+08,1.017670000000000073e+04
1.462693456790123284e+08,1.017670000000000073e+04
1.465951152263374329e+08,1.017670000000000073e+04
1.469206666666666567e+08,1.017670000000000073e+04
1.472462222222222090e+08,1.017670000000000073e+04
1.475721111111111045e+08,1.017670000000000073e+04
1.478978395061728358e+08,1.017670000000000073e+04
1.482233456790123284e+08,1.017670000000000073e+04
1.485490658436213732e+08,1.017670000000000073e+04
1.488746419753086269e+08,1.017670000000000073e+04
1.492002139917695522e+08,1.017670000000000073e+04
1.495261111111111045e+08,1.017670000000000073e+04
1.498515432098765373e+08,1.017670000000000073e+04
1.501771975308641791e+08,1.017670000000000073e+04
1.505028683127571940e+08,1.017670000000000073e+04
1.508285679012345672e+08,1.017670000000000073e+04
1.511541893004115224e+08,1.017670000000000073e+04
1.514796666666666567e+08,1.017670000000000073e+04
1.518053950617283881e+08,1.017670000000000073e+04
1.521311975308641791e+08,1.017670000000000073e+04
1.524568683127571940e+08,1.017670000000000073e+04
1.527494567901234627e+08,1.017670000000000073e+04
1.530632263374485672e+08,1.017670000000000073e+04
1.533828518518518507e+08,1.017670000000000073e+04
1.537085802469135821e+08,1.017670000000000073e+04
1.540340617283950448e+08,1.017670000000000073e+04
1.543597983539094627e+08,1.017670000000000073e+04
1.546857037037037015e+08,1.017670000000000073e+04
1.550113086419753134e+08,1.017670000000000073e+04
1.553368518518518507e+08,1.017670000000000073e+04
1.556625802469135821e+08,1.017670000000000073e+04
1.559880617283950448e+08,1.017670000000000073e+04
1.563137983539094627e+08,1.017670000000000073e+04
1.566396543209876418e+08,1.017670000000000073e+04
1.569649958847736418e+08,1.017670000000000073e+04
1.572907037037037015e+08,1.017670000000000073e+04
1.575960123456790149e+08,1.017670000000000073e+04
1.579115555555555522e+08,1.017670000000000073e+04
1.582371851851851940e+08,1.017670000000000073e+04
1.585626666666666567e+08,1.017670000000000073e+04
1.588882222222222090e+08,1.017670000000000073e+04
1.592141358024691343e+08,1.017670000000000073e+04
1.595398230452674925e+08,1.017670000000000073e+04
1.598655555555555522e+08,1.017670000000000073e+04
1.601911851851851940e+08,1.017670000000000073e+04
1.605166666666666567e+08,1.017670000000000073e+04
1.608422222222222090e+08,1.017670000000000073e+04
1.611681358024691343e+08,1.017670000000000073e+04
1.614938230452674925e+08,1.017670000000000073e+04
1.618195061728394926e+08,1.017670000000000073e+04
1.620784526748971045e+08,1.017670000000000073e+04
1.623687777777777612e+08,1.017670000000000073e+04
1.626946213991769552e+08,1.017670000000000073e+04
1.630201111111111045e+08,1.017670000000000073e+04
1.633457654320987761e+08,1.017670000000000073e+04
1.636716296296296418e+08,1.017670000000000073e+04
1.639970123456790149e+08,1.017670000000000073e+04
1.643227777777777612e+08,1.017670000000000073e+04
1.646485720164608955e+08,1.017670000000000073e+04
1.649741111111111045e+08,1.017670000000000073e+04
1.652997325102880597e+08,1.017670000000000073e+04
1.656254074074074030e+08,1.017670000000000073e+04
1.659509382716049254e+08,1.017670000000000073e+04
1.662766296296296418e+08,1.017670000000000073e+04
1.666025226337448657e+08,1.017670000000000073e+04
1.669281111111111045e+08,1.017670000000000073e+04
1.672435761316872537e+08,1.017670000000000073e+04
1.675591111111111045e+08,1.017670000000000073e+04
1.678848065843621194e+08,1.017670000000000073e+04
1.682104444444444478e+08,1.017670000000000073e+04
1.685360493827160597e+08,1.017670000000000073e+04
1.688616666666666567e+08,1.017670000000000073e+04
1.691872633744855821e+08,1.017670000000000073e+04
1.695126666666666567e+08,1.017670000000000073e+04
1.698386584362139702e+08,1.017670000000000073e+04
1.701644444444444478e+08,1.017670000000000073e+04
1.704899506172839403e+08,1.017670000000000073e+04
1.708156666666666567e+08,1.017670000000000073e+04
1.711411893004115224e+08,1.017670000000000073e+04
1.714666666666666567e+08,1.017670000000000073e+04
1.717910781893004179e+08,1.017670000000000073e+04
1.721180000000000000e+08,1.017670000000000073e+04
1.724437037037037015e+08,1.017670000000000073e+04
1.727696666666666567e+08,1.017670000000000073e+04
1.730951152263374329e+08,1.017670000000000073e+04
1.734206666666666567e+08,1.017670000000000073e+04
1.737464609053497910e+08,1.017670000000000073e+04
1.740720000000000000e+08,1.017670000000000073e+04
1.743977037037037015e+08,1.017670000000000073e+04
1.747236666666666567e+08,1.017670000000000073e+04
1.750490493827160597e+08,1.017670000000000073e+04
1.753746666666666567e+08,1.017670000000000073e+04
1.756853827160493731e+08,1.017670000000000073e+04
1.760255802469135821e+08,1.017670000000000073e+04
1.763582798353909552e+08,1.017670000000000073e+04
1.766875432098765373e+08,1.017670000000000073e+04
1.770132551440329254e+08,1.017670000000000073e+04
1.773387037037037015e+08,1.017670000000000073e+04
1.776645061728394926e+08,1.017670000000000073e+04
1.779904691358024776e+08,1.017670000000000073e+04
1.783159094650205970e+08,1.017670000000000073e+04
1.786415432098765373e+08,1.017670000000000073e+04
1.789670329218106866e+08,1.017670000000000073e+04
1.792925925925925970e+08,1.017670000000000073e+04
1.796182716049382687e+08,1.017670000000000073e+04
1.799437037037037015e+08,1.017670000000000073e+04
1.802696543209876716e+08,1.017670000000000073e+04
1.805955432098765373e+08,1.017670000000000073e+04
1.809210329218106866e+08,1.017670000000000073e+04
1.812465925925925970e+08,1.017670000000000073e+04
1.815653086419753134e+08,1.017670000000000073e+04
1.818877037037037015e+08,1.017670000000000073e+04
1.822135308641975224e+08,1.017670000000000073e+04
1.825390617283950448e+08,1.017670000000000073e+04
1.828647983539094627e+08,1.017670000000000073e+04
1.831906543209876418e+08,1.017670000000000073e+04
1.835159958847736418e+08,1.017670000000000073e+04
1.838417037037037015e+08,1.017670000000000073e+04
1.841673086419753134e+08,1.017670000000000073e+04
1.844929506172839403e+08,1.017670000000000073e+04
1.848186131687242687e+08,1.017670000000000073e+04
1.851441358024691343e+08,1.017670000000000073e+04
1.854698230452674925e+08,1.017670000000000073e+04
1.857957037037037015e+08,1.017670000000000073e+04
1.860610534979423881e+08,1.017670000000000073e+04
1.863552592592592537e+08,1.017670000000000073e+04
1.866808641975308657e+08,1.017670000000000073e+04
1.870067037037037015e+08,1.017670000000000073e+04
1.873323333333333433e+08,1.017670000000000073e+04
1.876580000000000000e+08,1.017670000000000073e+04
1.879835637860082090e+08,1.017670000000000073e+04
1.883090000000000000e+08,1.017670000000000073e+04
1.886347777777777612e+08,1.017670000000000073e+04
1.889607037037037015e+08,1.017670000000000073e+04
1.892863086419753134e+08,1.017670000000000073e+04
1.896120000000000000e+08,1.017670000000000073e+04
1.899106008230452836e+08,1.017670000000000073e+04
1.901614444444444478e+08,1.017670000000000073e+04
1.903241358024691343e+08,1.017670000000000073e+04
1.904871111111111045e+08,1.017670000000000073e+04
1.906498518518518507e+08,1.017670000000000073e+04
1.908126666666666567e+08,1.017670000000000073e+04
1.909757037037037015e+08,1.017670000000000073e+04
1.911384444444444478e+08,1.017670000000000073e+04
1.913010617283950448e+08,1.017670000000000073e+04
1.914641111111111045e+08,1.017670000000000073e+04
1.916268518518518507e+08,1.017670000000000073e+04
1.917896666666666567e+08,1.017670000000000073e+04
1.919527037037037015e+08,1.017670000000000073e+04
1.921154444444444478e+08,1.017670000000000073e+04
1.922780617283950448e+08,1.017670000000000073e+04
1.924411111111111045e+08,1.017670000000000073e+04
1.926038518518518507e+08,1.017670000000000073e+04
1.927666666666666567e+08,1.017670000000000073e+04
1.929296543209876418e+08,1.017670000000000073e+04
1.930924444444444478e+08,1.017670000000000073e+04
1.932550617283950448e+08,1.017670000000000073e+04
1.934176666666666567e+08,1.017670000000000073e+04
1.935807037037037015e+08,1.017670000000000073e+04
1.937436666666666567e+08,1.017670000000000073e+04
1.939066543209876418e+08,1.017670000000000073e+04
1.940694444444444478e+08,1.017670000000000073e+04
1.942320617283950448e+08,1.017670000000000073e+04
1.943946666666666567e+08,1.017670000000000073e+04
1.945577037037037015e+08,1.017670000000000073e+04
1.947206666666666567e+08,1.017670000000000073e+04
1.948292592592592537e+08,1.017670000000000073e+04
1.949240000000000000e+08,1.017670000000000073e+04
1.950057037037037015e+08,1.017670000000000073e+04
1.950870000000000000e+08,1.017670000000000073e+04
1.951682592592592537e+08,1.017670000000000073e+04
1.952496666666666567e+08,1.017670000000000073e+04
1.953310000000000000e+08,1.017670000000000073e+04
1.954126666666666567e+08,1.017670000000000073e+04
1.954940000000000000e+08,1.017670000000000073e+04
1.955756666666666567e+08,1.017670000000000073e+04
1.956569259259259105e+08,1.017670000000000073e+04
1.957380000000000000e+08,1.017670000000000073e+04
1.958197037037037015e+08,1.017670000000000073e+04
1.959010000000000000e+08,1.017670000000000073e+04
1.959827037037037015e+08,1.017670000000000073e+04
1.960640000000000000e+08,1.017670000000000073e+04
1.961451111111111045e+08,1.017670000000000073e+04
1.962266666666666567e+08,1.017670000000000073e+04
1.963080000000000000e+08,1.017670000000000073e+04
1.963896666666666567e+08,1.017670000000000073e+04
1.964710000000000000e+08,1.017670000000000073e+04
1.965526666666666567e+08,1.017670000000000073e+04
1.966339259259259105e+08,1.017670000000000073e+04
1.967150000000000000e+08,1.017670000000000073e+04
1.967967037037037015e+08,1.017670000000000073e+04
1.968780000000000000e+08,1.017670000000000073e+04
1.969592592592592537e+08,1.017670000000000073e+04
1.970406666666666567e+08,1.017670000000000073e+04
1.971220000000000000e+08,1.017670000000000073e+04
1.972036666666666567e+08,1.017670000000000073e+04
1.972850000000000000e+08,1.017670000000000073e+04
1.973666666666666567e+08,1.017670000000000073e+04
1.974480000000000000e+08,1.017670000000000073e+04
1.975296666666666567e+08,1.017670000000000073e+04
1.976109259259259105e+08,1.017670000000000073e+04
1.976920000000000000e+08,1.017670000000000073e+04
1.977737037037037015e+08,1.017670000000000073e+04
1.978550000000000000e+08,1.017670000000000073e+04
1.979362592592592537e+08,1.017670000000000073e+04
1.980176666666666567e+08,1.017670000000000073e+04
1.980990000000000000e+08,1.017670000000000073e+04
1.981806666666666567e+08,1.017670000000000073e+04
1.982620000000000000e+08,1.017670000000000073e+04
1.983436666666666567e+08,1.017670000000000073e+04
1.984250000000000000e+08,1.017670000000000073e+04
1.985060000000000000e+08,1.017670000000000073e+04
1.985877037037037015e+08,1.017670000000000073e+04
1.986690000000000000e+08,1.017670000000000073e+04
1.987413703703703582e+08,1.017670000000000073e+04
1.988010000000000000e+08,1.017670000000000073e+04
1.988421111111111045e+08,1.017670000000000073e+04
1.988830000000000000e+08,1.017670000000000073e+04
1.989236666666666567e+08,1.017670000000000073e+04
1.989640000000000000e+08,1.017670000000000073e+04
1.990046666666666567e+08,1.017670000000000073e+04
1.990460000000000000e+08,1.017670000000000073e+04
1.990864444444444478e+08,1.017670000000000073e+04
1.991270000000000000e+08,1.017670000000000073e+04
1.991676666666666567e+08,1.017670000000000073e+04
1.992080000000000000e+08,1.017670000000000073e+04
1.992491111111111045e+08,1.017670000000000073e+04
1.992900000000000000e+08,1.017670000000000073e+04
1.993306666666666567e+08,1.017670000000000073e+04
1.993710000000000000e+08,1.017670000000000073e+04
1.994121111111111045e+08,1.017670000000000073e+04
1.994530000000000000e+08,1.017670000000000073e+04
1.994934444444444478e+08,1.017670000000000073e+04
1.995340000000000000e+08,1.017670000000000073e+04
1.995746666666666567e+08,1.017670000000000073e+04
1.996160000000000000e+08,1.017670000000000073e+04
1.996564444444444478e+08,1.017670000000000073e+04
1.996970000000000000e+08,1.017670000000000073e+04
1.997376666666666567e+08,1.017670000000000073e+04
1.997780000000000000e+08,1.017670000000000073e+04
1.998191111111111045e+08,1.017670000000000073e+04
1.998600000000000000e+08,1.017670000000000073e+04
1.999004444444444478e+08,1.017670000000000073e+04
1.999410000000000000e+08,1.017670000000000073e+04
1.999816666666666567e+08,1.017670000000000073e+04
2.000230000000000000e+08,1.017670000000000073e+04
2.000634444444444478e+08,1.017670000000000073e+04
2.001040000000000000e+08,1.017670000000000073e+04
2.001446666666666567e+08,1.017670000000000073e+04
2.001850000000000000e+08,1.017670000000000073e+04
2.002261111111111045e+08,1.017670000000000073e+04
2.002670000000000000e+08,1.017670000000000073e+04
2.003076666666666567e+08,1.017670000000000073e+04
2.003480000000000000e+08,1.017670000000000073e+04
2.003891111111111045e+08,1.017670000000000073e+04
2.004300000000000000e+08,1.017670000000000073e+04
2.004704444444444478e+08,1.017670000000000073e+04
2.005110000000000000e+08,1.017670000000000073e+04
2.005516666666666567e+08,1.017670000000000073e+04
2.005930000000000000e+08,1.017670000000000073e+04
2.006334444444444478e+08,1.017670000000000073e+04
2.006740000000000000e+08,1.017670000000000073e+04
2.007146666666666567e+08,1.017670000000000073e+04
2.007550000000000000e+08,1.017670000000000073e+04
2.007961111111111045e+08,1.017670000000000073e+04
2.008370000000000000e+08,1.017670000000000073e+04
2.008774444444444478e+08,1.017670000000000073e+04
2.009180000000000000e+08,1.017670000000000073e+04
2.009586666666666567e+08,1.017670000000000073e+04
2.010000000000000000e+08,1.017670000000000073e+04
2.010404444444444478e+08,1.017670000000000073e+04
2.010810000000000000e+08,1.017670000000000073e+04
2.011216666666666567e+08,1.017670000000000073e+04
2.011620000000000000e+08,1.017670000000000073e+04
2.012031111111111045e+08,1.017670000000000073e+04
2.012440000000000000e+08,1.017670000000000073e+04
2.012846666666666567e+08,1.017670000000000073e+04
2.013250000000000000e+08,1.017670000000000073e+04
2.013656666666666567e+08,1.017670000000000073e+04
2.014070000000000000e+08,1.017670000000000073e+04
2.014474444444444478e+08,1.017670000000000073e+04
2.014880000000000000e+08,1.017670000000000073e+04
2.015286666666666567e+08,1.017670000000000073e+04
2.015690000000000000e+08,1.017670000000000073e+04
2.016101111111111045e+08,1.017670000000000073e+04
2.016510000000000000e+08,1.017670000000000073e+04
2.016916666666666567e+08,1.017670000000000073e+04
2.017320000000000000e+08,1.017670000000000073e+04
2.017731111111111045e+08,1.017670000000000073e+04
2.018140000000000000e+08,1.017670000000000073e+04
2.018544444444444478e+08,1.017670000000000073e+04
2.018950000000000000e+08,1.017670000000000073e+04
2.019356666666666567e+08,1.017670000000000073e+04
2.019770000000000000e+08,1.017670000000000073e+04
2.020174444444444478e+08,1.017670000000000073e+04
2.020580000000000000e+08,1.017670000000000073e+04
2.020986666666666567e+08,1.017670000000000073e+04
2.021390000000000000e+08,1.017670000000000073e+04
2.021801111111111045e+08,1.017670000000000073e+04
2.022210000000000000e+08,1.017670000000000073e+04
2.022614444444444478e+08,1.017670000000000073e+04
2.023020000000000000e+08,1.017670000000000073e+04
2.023426666666666567e+08,1.017670000000000073e+04
2.023840000000000000e+08,1.017670000000000073e+04
2.024244444444444478e+08,1.017670000000000073e+04
2.024650000000000000e+08,1.017670000000000073e+04
2.025056666666666567e+08,1.017670000000000073e+04
2.025460000000000000e+08,1.017670000000000073e+04
2.025871111111111045e+08,1.017670000000000073e+04
2.026280000000000000e+08,1.017670000000000073e+04
2.026686666666666567e+08,1.017670000000000073e+04
2.027090000000000000e+08,1.017670000000000073e+04
2.027496666666666567e+08,1.017670000000000073e+04
2.027910000000000000e+08,1.017670000000000073e+04
2.028314444444444478e+08,1.017670000000000073e+04
2.028720000000000000e+08,1.017670000000000073e+04
2.029126666666666567e+08,1.017670000000000073e+04
2.029530000000000000e+08,1.017670000000000073e+04
2.029941111111111045e+08,1.017670000000000073e+04
2.030350000000000000e+08,1.017670000000000073e+04
2.030756666666666567e+08,1.017670000000000073e+04
2.030860000000000000e+08,1.017670000000000073e+04
2.031060000000000000e+08,1.017670000000000073e+04
2.031270000000000000e+08,1.017670000000000073e+04
2.031470000000000000e+08,1.017670000000000073e+04
2.031670000000000000e+08,1.017670000000000073e+04
2.031876666666666567e+08,1.017670000000000073e+04
2.032080000000000000e+08,1.017670000000000073e+04
2.032280000000000000e+08,1.017670000000000073e+04
2.032490000000000000e+08,1.017670000000000073e+04
2.032690000000000000e+08,1.017670000000000073e+04
2.032890000000000000e+08,1.017670000000000073e+04
2.033096666666666567e+08,1.017670000000000073e+04
2.033300000000000000e+08,1.017670000000000073e+04
2.033506666666666567e+08,1.017670000000000073e+04
2.033710000000000000e+08,1.017670000000000073e+04
2.033910000000000000e+08,1.017670000000000073e+04
2.034110000000000000e+08,1.017670000000000073e+04
2.034316666666666567e+08,1.017670000000000073e+04
2.034520000000000000e+08,1.017670000000000073e+04
2.034726666666666567e+08,1.017670000000000073e+04
2.034930000000000000e+08,1.017670000000000073e+04
2.035130000000000000e+08,1.017670000000000073e+04
2.035340000000000000e+08,1.017670000000000073e+04
2.035540000000000000e+08,1.017670000000000073e+04
2.035740000000000000e+08,1.017670000000000073e+04
2.035946666666666567e+08,1.017670000000000073e+04
2.036150000000000000e+08,1.017670000000000073e+04
2.036356666666666567e+08,1.017670000000000073e+04
2.036560000000000000e+08,1.017670000000000073e+04
2.036760000000000000e+08,1.017670000000000073e+04
2.036960000000000000e+08,1.017670000000000073e+04
2.037166666666666567e+08,1.017670000000000073e+04
2.037370000000000000e+08,1.017670000000000073e+04
2.037576666666666567e+08,1.017670000000000073e+04
2.037780000000000000e+08,1.017670000000000073e+04
2.037980000000000000e+08,1.017670000000000073e+04
2.038190000000000000e+08,1.017670000000000073e+04
2.038390000000000000e+08,1.017670000000000073e+04
2.038590000000000000e+08,1.017670000000000073e+04
2.038796666666666567e+08,1.017670000000000073e+04
2.039000000000000000e+08,1.017670000000000073e+04
2.039200000000000000e+08,1.017670000000000073e+04
2.039410000000000000e+08,1.017670000000000073e+04
2.039610000000000000e+08,1.017670000000000073e+04
2.039810000000000000e+08,1.017670000000000073e+04
2.040016666666666567e+08,1.017670000000000073e+04
2.040220000000000000e+08,1.017670000000000073e+04
2.040426666666666567e+08,1.017670000000000073e+04
2.040630000000000000e+08,1.017670000000000073e+04
2.040830000000000000e+08,1.017670000000000073e+04
2.041030000000000000e+08,1.017670000000000073e+04
2.041236666666666567e+08,1.017670000000000073e+04
2.041440000000000000e+08,1.017670000000000073e+04
2.041646666666666567e+08,1.017670000000000073e+04
2.041850000000000000e+08,1.017670000000000073e+04
2.042050000000000000e+08,1.017670000000000073e+04
2.042260000000000000e+08,1.017670000000000073e+04
2.042460000000000000e+08,1.017670000000000073e+04
2.042660000000000000e+08,1.017670000000000073e+04
2.042866666666666567e+08,1.017670000000000073e+04
2.043070000000000000e+08,1.017670000000000073e+04
2.043276666666666567e+08,1.017670000000000073e+04
2.043480000000000000e+08,1.017670000000000073e+04
2.043680000000000000e+08,1.017670000000000073e+04
2.043880000000000000e+08,1.017670000000000073e+04
2.044086666666666567e+08,1.017670000000000073e+04
2.044290000000000000e+08,1.017670000000000073e+04
2.044496666666666567e+08,1.017670000000000073e+04
2.044700000000000000e+08,1.017670000000000073e+04
2.044900000000000000e+08,1.017670000000000073e+04
2.045110000000000000e+08,1.017670000000000073e+04
2.045310000000000000e+08,1.017670000000000073e+04
2.045510000000000000e+08,1.017670000000000073e+04
2.045716666666666567e+08,1.017670000000000073e+04
2.045920000000000000e+08,1.017670000000000073e+04
2.046120000000000000e+08,1.017670000000000073e+04
2.046330000000000000e+08,1.017670000000000073e+04
2.046530000000000000e+08,1.017670000000000073e+04
2.046730000000000000e+08,1.017670000000000073e+04
2.046936666666666567e+08,1.017670000000000073e+04
2.047140000000000000e+08,1.017670000000000073e+04
2.047346666666666567e+08,1.017670000000000073e+04
2.047550000000000000e+08,1.017670000000000073e+04
2.047750000000000000e+08,1.017670000000000073e+04
2.047950000000000000e+08,1.017670000000000073e+04
2.048156666666666567e+08,1.017670000000000073e+04
2.048360000000000000e+08,1.017670000000000073e+04
2.048566666666666567e+08,1.017670000000000073e+04
2.048770000000000000e+08,1.017670000000000073e+04
2.048970000000000000e+08,1.017670000000000073e+04
2.049180000000000000e+08,1.017670000000000073e+04
2.049380000000000000e+08,1.017670000000000073e+04
2.049580000000000000e+08,1.017670000000000073e+04
2.049786666666666567e+08,1.017670000000000073e+04
2.049990000000000000e+08,1.017670000000000073e+04
2.050196666666666567e+08,1.017670000000000073e+04
2.050400000000000000e+08,1.017670000000000073e+04
2.050600000000000000e+08,1.017670000000000073e+04
2.050800000000000000e+08,1.017670000000000073e+04
2.051006666666666567e+08,1.017670000000000073e+04
2.051210000000000000e+08,1.017670000000000073e+04
2.051416666666666567e+08,1.017670000000000073e+04
2.051620000000000000e+08,1.017670000000000073e+04
2.051820000000000000e+08,1.017670000000000073e+04
2.052030000000000000e+08,1.017670000000000073e+04
2.052230000000000000e+08,1.017670000000000073e+04
2.052430000000000000e+08,1.017670000000000073e+04
2.052636666666666567e+08,1.017670000000000073e+04
2.052840000000000000e+08,1.017670000000000073e+04
2.053040000000000000e+08,1.017670000000000073e+04
2.053250000000000000e+08,1.017670000000000073e+04
2.053450000000000000e+08,1.017670000000000073e+04
2.053650000000000000e+08,1.017670000000000073e+04
2.053856666666666567e+08,1.017670000000000073e+04
2.054060000000000000e+08,1.017670000000000073e+04
2.054266666666666567e+08,1.017670000000000073e+04
2.054470000000000000e+08,1.017670000000000073e+04
2.054670000000000000e+08,1.017670000000000073e+04
2.054870000000000000e+08,1.017670000000000073e+04
2.055076666666666567e+08,1.017670000000000073e+04
2.055280000000000000e+08,1.017670000000000073e+04
2.055486666666666567e+08,1.017670000000000073e+04
2.055690000000000000e+08,1.017670000000000073e+04
2.055890000000000000e+08,1.017670000000000073e+04
2.056100000000000000e+08,1.017670000000000073e+04
2.056300000000000000e+08,1.017670000000000073e+04
2.056500000000000000e+08,1.017670000000000073e+04
2.056706666666666567e+08,1.017670000000000073e+04
2.056910000000000000e+08,1.017670000000000073e+04
2.057116666666666567e+08,1.017670000000000073e+04
2.057320000000000000e+08,1.017670000000000073e+04
2.057520000000000000e+08,1.017670000000000073e+04
2.057720000000000000e+08,1.017670000000000073e+04
2.057926666666666567e+08,1.017670000000000073e+04
2.058130000000000000e+08,1.017670000000000073e+04
2.058336666666666567e+08,1.017670000000000073e+04
2.058540000000000000e+08,1.017670000000000073e+04
2.058740000000000000e+08,1.017670000000000073e+04
2.058950000000000000e+08,1.017670000000000073e+04
2.059150000000000000e+08,1.017670000000000073e+04
2.059350000000000000e+08,1.017670000000000073e+04
2.059556666666666567e+08,1.017670000000000073e+04
2.059760000000000000e+08,1.017670000000000073e+04
2.059966666666666567e+08,1.017670000000000073e+04
2.060170000000000000e+08,1.017670000000000073e+04
2.060370000000000000e+08,1.017670000000000073e+04
2.060570000000000000e+08,1.017670000000000073e+04
2.060776666666666567e+08,1.017670000000000073e+04
2.060980000000000000e+08,1.017670000000000073e+04
2.061186666666666567e+08,1.017670000000000073e+04
2.061390000000000000e+08,1.017670000000000073e+04
2.061590000000000000e+08,1.017670000000000073e+04
2.061800000000000000e+08,1.017670000000000073e+04
2.062000000000000000e+08,1.017670000000000073e+04
2.062200000000000000e+08,1.017670000000000073e+04
2.062406666666666567e+08,1.017670000000000073e+04
2.062610000000000000e+08,1.017670000000000073e+04
2.062810000000000000e+08,1.017670000000000073e+04
2.063020000000000000e+08,1.017670000000000073e+04
2.063220000000000000e+08,1.017670000000000073e+04
2.063420000000000000e+08,1.017670000000000073e+04
2.063626666666666567e+08,1.017670000000000073e+04
2.063830000000000000e+08,1.017670000000000073e+04
2.064036666666666567e+08,1.017670000000000073e+04
2.064240000000000000e+08,1.017670000000000073e+04
2.064440000000000000e+08,1.017670000000000073e+04
2.064640000000000000e+08,1.017670000000000073e+04
2.064846666666666567e+08,1.017670000000000073e+04
2.065050000000000000e+08,1.017670000000000073e+04
2.065256666666666567e+08,1.017670000000000073e+04
2.065460000000000000e+08,1.017670000000000073e+04
2.065660000000000000e+08,1.017670000000000073e+04
2.065870000000000000e+08,1.017670000000000073e+04
2.066070000000000000e+08,1.017670000000000073e+04
2.066270000000000000e+08,1.017670000000000073e+04
2.066476666666666567e+08,1.017670000000000073e+04
2.066680000000000000e+08,1.017670000000000073e+04
2.066886666666666567e+08,1.017670000000000073e+04
2.067090000000000000e+08,1.017670000000000073e+04
2.067290000000000000e+08,1.017670000000000073e+04
2.067490000000000000e+08,1.017670000000000073e+04
2.067696666666666567e+08,1.017670000000000073e+04
2.067900000000000000e+08,1.017670000000000073e+04
2.068106666666666567e+08,1.017670000000000073e+04
2.068310000000000000e+08,1.017670000000000073e+04
2.068510000000000000e+08,1.017670000000000073e+04
2.068720000000000000e+08,1.017670000000000073e+04
2.068920000000000000e+08,1.017670000000000073e+04
2.069120000000000000e+08,1.017670000000000073e+04
2.069326666666666567e+08,1.017670000000000073e+04
2.069530000000000000e+08,1.017670000000000073e+04
2.069730000000000000e+08,1.017670000000000073e+04
2.069940000000000000e+08,1.017670000000000073e+04
2.070140000000000000e+08,1.017670000000000073e+04
2.070340000000000000e+08,1.017670000000000073e+04
2.070546666666666567e+08,1.017670000000000073e+04
2.070650000000000000e+08,1.017670000000000073e+04
2.070750000000000000e+08,1.017670000000000073e+04
2.070850000000000000e+08,1.017670000000000073e+04
2.070950000000000000e+08,1.017670000000000073e+04
2.071060000000000000e+08,1.017670000000000073e+04
2.071160000000000000e+08,1.017670000000000073e+04
2.071260000000000000e+08,1.017670000000000073e+04
2.071360000000000000e+08,1.017670000000000073e+04
2.071460000000000000e+08,1.017670000000000073e+04
2.071560000000000000e+08,1.017670000000000073e+04
2.071670000000000000e+08,1.017670000000000073e+04
2.071770000000000000e+08,1.017670000000000073e+04
2.071870000000000000e+08,1.017670000000000073e+04
2.071970000000000000e+08,1.017670000000000073e+04
2.072070000000000000e+08,1.017670000000000073e+04
2.072180000000000000e+08,1.017670000000000073e+04
2.072280000000000000e+08,1.017670000000000073e+04
2.072380000000000000e+08,1.017670000000000073e+04
2.072480000000000000e+08,1.017670000000000073e+04
2.072580000000000000e+08,1.017670000000000073e+04
2.072680000000000000e+08,1.017670000000000073e+04
2.072790000000000000e+08,1.017670000000000073e+04
2.072890000000000000e+08,1.017670000000000073e+04
2.072990000000000000e+08,1.017670000000000073e+04
2.073090000000000000e+08,1.017670000000000073e+04
2.073190000000000000e+08,1.017670000000000073e+04
2.073290000000000000e+08,1.017670000000000073e+04
2.073400000000000000e+08,1.017670000000000073e+04
2.073500000000000000e+08,1.017670000000000073e+04
2.073600000000000000e+08,1.017670000000000073e+04
2.073700000000000000e+08,1.017670000000000073e+04
2.073800000000000000e+08,1.017670000000000073e+04
2.073910000000000000e+08,1.017670000000000073e+04
2.074010000000000000e+08,1.017670000000000073e+04
2.074110000000000000e+08,1.017670000000000073e+04
2.074210000000000000e+08,1.017670000000000073e+04
2.074310000000000000e+08,1.017670000000000073e+04
2.074410000000000000e+08,1.017670000000000073e+04
2.074520000000000000e+08,1.017670000000000073e+04
2.074620000000000000e+08,1.017670000000000073e+04
2.074720000000000000e+08,1.017670000000000073e+04
2.074820000000000000e+08,1.017670000000000073e+04
2.074920000000000000e+08,1.017670000000000073e+04
2.075020000000000000e+08,1.017670000000000073e+04
2.075130000000000000e+08,1.017670000000000073e+04
2.075230000000000000e+08,1.017670000000000073e+04
2.075330000000000000e+08,1.017670000000000073e+04
2.075430000000000000e+08,1.017670000000000073e+04
2.075530000000000000e+08,1.017670000000000073e+04
2.075640000000000000e+08,1.017670000000000073e+04
2.075740000000000000e+08,1.017670000000000073e+04
2.075840000000000000e+08,1.017670000000000073e+04
2.075940000000000000e+08,1.017670000000000073e+04
2.076040000000000000e+08,1.017670000000000073e+04
2.076140000000000000e+08,1.017670000000000073e+04
2.076250000000000000e+08,1.017670000000000073e+04
2.076350000000000000e+08,1.017670000000000073e+04
2.076450000000000000e+08,1.017670000000000073e+04
2.076550000000000000e+08,1.017670000000000073e+04
2.076650000000000000e+08,1.017670000000000073e+04
2.076750000000000000e+08,1.017670000000000073e+04
2.076860000000000000e+08,1.017670000000000073e+04
2.076960000000000000e+08,1.017670000000000073e+04
2.077060000000000000e+08,1.017670000000000073e+04
2.077160000000000000e+08,1.017670000000000073e+04
2.077260000000000000e+08,1.017670000000000073e+04
2.077370000000000000e+08,1.017670000000000073e+04
2.077470000000000000e+08,1.017670000000000073e+04
2.077570000000000000e+08,1.017670000000000073e+04
2.077670000000000000e+08,1.017670000000000073e+04
2.077770000000000000e+08,1.017670000000000073e+04
2.077870000000000000e+08,1.017670000000000073e+04
2.077980000000000000e+08,1.017670000000000073e+04
2.078080000000000000e+08,1.017670000000000073e+04
2.078180000000000000e+08,1.017670000000000073e+04
2.078280000000000000e+08,1.017670000000000073e+04
2.078380000000000000e+08,1.017670000000000073e+04
2.078480000000000000e+08,1.017670000000000073e+04
2.078590000000000000e+08,1.017670000000000073e+04
2.078690000000000000e+08,1.017670000000000073e+04
2.078790000000000000e+08,1.017670000000000073e+04
2.078890000000000000e+08,1.017670000000000073e+04
2.078990000000000000e+08,1.017670000000000073e+04
2.079100000000000000e+08,1.017670000000000073e+04
2.079200000000000000e+08,1.017670000000000073e+04
2.079300000000000000e+08,1.017670000000000073e+04
2.079400000000000000e+08,1.017670000000000073e+04
2.079500000000000000e+08,1.017670000000000073e+04
2.079600000000000000e+08,1.017670000000000073e+04
2.079710000000000000e+08,1.017670000000000073e+04
2.079810000000000000e+08,1.017670000000000073e+04
2.079910000000000000e+08,1.017670000000000073e+04
2.080010000000000000e+08,1.017670000000000073e+04
2.080110000000000000e+08,1.017670000000000073e+04
2.080210000000000000e+08,1.017670000000000073e+04
2.080320000000000000e+08,1.017670000000000073e+04
2.080420000000000000e+08,1.017670000000000073e+04
2.080520000000000000e+08,1.017670000000000073e+04
2.080620000000000000e+08,1.017670000000000073e+04
2.080720000000000000e+08,1.017670000000000073e+04
2.080830000000000000e+08,1.017670000000000073e+04
2.080930000000000000e+08,1.017670000000000073e+04
2.081030000000000000e+08,1.017670000000000073e+04
2.081130000000000000e+08,1.017670000000000073e+04
2.081230000000000000e+08,1.017670000000000073e+04
2.081330000000000000e+08,1.017670000000000073e+04
2.081440000000000000e+08,1.017670000000000073e+04
2.081540000000000000e+08,1.017670000000000073e+04
2.081640000000000000e+08,1.017670000000000073e+04
2.081740000000000000e+08,1.017670000000000073e+04
2.081840000000000000e+08,1.017670000000000073e+04
2.081940000000000000e+08,1.017670000000000073e+04
2.082050000000000000e+08,1.017670000000000073e+04
2.082150000000000000e+08,1.017670000000000073e+04
2.082250000000000000e+08,1.017670000000000073e+04
2.082350000000000000e+08,1.017670000000000073e+04
2.082450000000000000e+08,1.017670000000000073e+04
2.082560000000000000e+08,1.017670000000000073e+04
2.082660000000000000e+08,1.017670000000000073e+04
2.082760000000000000e+08,1.017670000000000073e+04
2.082860000000000000e+08,1.017670000000000073e+04
2.082960000000000000e+08,1.017670000000000073e+04
2.083060000000000000e+08,1.017670000000000073e+04
2.083170000000000000e+08,1.017670000000000073e+04
2.083270000000000000e+08,1.017670000000000073e+04
2.083370000000000000e+08,1.017670000000000073e+04
2.083470000000000000e+08,1.017670000000000073e+04
2.083570000000000000e+08,1.017670000000000073e+04
2.083670000000000000e+08,1.017670000000000073e+04
2.083780000000000000e+08,1.017670000000000073e+04
2.083880000000000000e+08,1.017670000000000073e+04
2.083980000000000000e+08,1.017670000000000073e+04
2.084080000000000000e+08,1.017670000000000073e+04
2.084180000000000000e+08,1.017670000000000073e+04
2.084290000000000000e+08,1.017670000000000073e+04
2.084390000000000000e+08,1.017670000000000073e+04
2.084490000000000000e+08,1.017670000000000073e+04
2.084590000000000000e+08,1.017670000000000073e+04
2.084690000000000000e+08,1.017670000000000073e+04
2.084790000000000000e+08,1.017670000000000073e+04
2.084900000000000000e+08,1.017670000000000073e+04
2.085000000000000000e+08,1.017670000000000073e+04
2.085100000000000000e+08,1.017670000000000073e+04
2.085200000000000000e+08,1.017670000000000073e+04
2.085300000000000000e+08,1.017670000000000073e+04
2.085400000000000000e+08,1.017670000000000073e+04
2.085510000000000000e+08,1.017670000000000073e+04
2.085610000000000000e+08,1.017670000000000073e+04
2.085710000000000000e+08,1.017670000000000073e+04
2.085810000000000000e+08,1.017670000000000073e+04
2.085910000000000000e+08,1.017670000000000073e+04
2.086020000000000000e+08,1.017670000000000073e+04
2.086120000000000000e+08,1.017670000000000073e+04
2.086220000000000000e+08,1.017670000000000073e+04
2.086320000000000000e+08,1.017670000000000073e+04
2.086420000000000000e+08,1.017670000000000073e+04
2.086520000000000000e+08,1.017670000000000073e+04
2.086630000000000000e+08,1.017670000000000073e+04
2.086730000000000000e+08,1.017670000000000073e+04
2.086830000000000000e+08,1.017670000000000073e+04
2.086930000000000000e+08,1.017670000000000073e+04
2.087030000000000000e+08,1.017670000000000073e+04
2.087130000000000000e+08,1.017670000000000073e+04
2.087240000000000000e+08,1.017670000000000073e+04
2.087340000000000000e+08,1.017670000000000073e+04
2.087440000000000000e+08,1.017670000000000073e+04
2.087540000000000000e+08,1.017670000000000073e+04
2.087640000000000000e+08,1.017670000000000073e+04
2.087750000000000000e+08,1.017670000000000073e+04
2.087850000000000000e+08,1.017670000000000073e+04
2.087950000000000000e+08,1.017670000000000073e+04
2.088050000000000000e+08,1.017670000000000073e+04
2.088150000000000000e+08,1.017670000000000073e+04
2.088250000000000000e+08,1.017670000000000073e+04
2.088360000000000000e+08,1.017670000000000073e+04
2.088460000000000000e+08,1.017670000000000073e+04
2.088560000000000000e+08,1.017670000000000073e+04
2.088660000000000000e+08,1.017670000000000073e+04
2.088760000000000000e+08,1.017670000000000073e+04
2.088870000000000000e+08,1.017670000000000073e+04
2.088970000000000000e+08,1.017670000000000073e+04
2.089070000000000000e+08,1.017670000000000073e+04
2.089170000000000000e+08,1.017670000000000073e+04
2.089270000000000000e+08,1.017670000000000073e+04
2.089370000000000000e+08,1.017670000000000073e+04
2.089480000000000000e+08,1.017670000000000073e+04
2.089580000000000000e+08,1.017670000000000073e+04
2.089680000000000000e+08,1.017670000000000073e+04
2.089780000000000000e+08,1.017670000000000073e+04
2.089880000000000000e+08,1.017670000000000073e+04
2.089980000000000000e+08,1.017670000000000073e+04
2.090090000000000000e+08,1.017670000000000073e+04
2.090190000000000000e+08,1.017670000000000073e+04
2.090290000000000000e+08,1.017670000000000073e+04
2.090390000000000000e+08,1.017670000000000073e+04
2.090490000000000000e+08,1.017670000000000073e+04
2.090600000000000000e+08,1.017670000000000073e+04
2.090700000000000000e+08,1.017670000000000073e+04
2.090800000000000000e+08,1.017670000000000073e+04
2.090900000000000000e+08,1.017670000000000073e+04
2.091000000000000000e+08,1.017670000000000073e+04
2.091100000000000000e+08,1.017670000000000073e+04
2.091210000000000000e+08,1.017670000000000073e+04
2.091310000000000000e+08,1.017670000000000073e+04
2.091410000000000000e+08,1.017670000000000073e+04
2.091510000000000000e+08,1.017670000000000073e+04
2.091610000000000000e+08,1.017670000000000073e+04
2.091710000000000000e+08,1.017670000000000073e+04
2.091820000000000000e+08,1.017670000000000073e+04
2.091920000000000000e+08,1.017670000000000073e+04
2.092020000000000000e+08,1.017670000000000073e+04
2.092120000000000000e+08,1.017670000000000073e+04
2.092220000000000000e+08,1.017670000000000073e+04
2.092330000000000000e+08,1.017670000000000073e+04
2.092430000000000000e+08,1.017670000000000073e+04
2.092530000000000000e+08,1.017670000000000073e+04
2.092630000000000000e+08,1.017670000000000073e+04
2.092730000000000000e+08,1.017670000000000073e+04
2.092830000000000000e+08,1.017670000000000073e+04
2.092940000000000000e+08,1.017670000000000073e+04
2.093040000000000000e+08,1.017670000000000073e+04
2.093140000000000000e+08,1.017670000000000073e+04
2.093240000000000000e+08,1.017670000000000073e+04
2.093340000000000000e+08,1.017670000000000073e+04
2.093440000000000000e+08,1.017670000000000073e+04
2.093550000000000000e+08,1.017670000000000073e+04
2.093650000000000000e+08,1.017670000000000073e+04
2.093750000000000000e+08,1.017670000000000073e+04
2.093850000000000000e+08,1.017670000000000073e+04
2.093950000000000000e+08,1.017670000000000073e+04
2.094060000000000000e+08,1.017670000000000073e+04
2.094160000000000000e+08,1.017670000000000073e+04
2.094260000000000000e+08,1.017670000000000073e+04
2.094360000000000000e+08,1.017670000000000073e+04
2.094460000000000000e+08,1.017670000000000073e+04
2.094560000000000000e+08,1.017670000000000073e+04
2.094670000000000000e+08,1.017670000000000073e+04
2.094770000000000000e+08,1.017670000000000073e+04
2.094870000000000000e+08,1.017670000000000073e+04
2.094970000000000000e+08,1.017670000000000073e+04
2.095070000000000000e+08,1.017670000000000073e+04
2.095170000000000000e+08,1.017670000000000073e+04
2.095280000000000000e+08,1.017670000000000073e+04
2.095380000000000000e+08,1.017670000000000073e+04
2.095480000000000000e+08,1.017670000000000073e+04
2.095580000000000000e+08,1.017670000000000073e+04
2.095680000000000000e+08,1.017670000000000073e+04
2.095790000000000000e+08,1.017670000000000073e+04
2.095890000000000000e+08,1.017670000000000073e+04
2.095990000000000000e+08,1.017670000000000073e+04
2.096090000000000000e+08,1.017670000000000073e+04
2.096190000000000000e+08,1.017670000000000073e+04
2.096290000000000000e+08,1.017670000000000073e+04
2.096400000000000000e+08,1.017670000000000073e+04
2.096500000000000000e+08,1.017670000000000073e+04
2.096600000000000000e+08,1.017670000000000073e+04
2.096700000000000000e+08,1.017670000000000073e+04
2.096800000000000000e+08,1.017670000000000073e+04
2.096900000000000000e+08,1.017670000000000073e+04
2.097010000000000000e+08,1.017670000000000073e+04
2.097110000000000000e+08,1.017670000000000073e+04
2.097210000000000000e+08,1.017670000000000073e+04
2.097310000000000000e+08,1.017670000000000073e+04
2.097410000000000000e+08,1.017670000000000073e+04
2.097520000000000000e+08,1.017670000000000073e+04
2.097620000000000000e+08,1.017670000000000073e+04
2.097720000000000000e+08,1.017670000000000073e+04
2.097820000000000000e+08,1.017670000000000073e+04
2.097920000000000000e+08,1.017670000000000073e+04
2.098020000000000000e+08,1.017670000000000073e+04
2.098130000000000000e+08,1.017670000000000073e+04
2.098230000000000000e+08,1.017670000000000073e+04
2.098330000000000000e+08,1.017670000000000073e+04
2.098430000000000000e+08,1.017670000000000073e+04
2.098530000000000000e+08,1.017670000000000073e+04
2.098630000000000000e+08,1.017670000000000073e+04
2.098740000000000000e+08,1.017670000000000073e+04
2.098840000000000000e+08,1.017670000000000073e+04
2.098940000000000000e+08,1.017670000000000073e+04
2.099040000000000000e+08,1.017670000000000073e+04
2.099140000000000000e+08,1.017670000000000073e+04
2.099250000000000000e+08,1.017670000000000073e+04
2.099350000000000000e+08,1.017670000000000073e+04
2.099450000000000000e+08,1.017670000000000073e+04
2.099550000000000000e+08,1.017670000000000073e+04
2.099650000000000000e+08,1.017670000000000073e+04
2.099750000000000000e+08,1.017670000000000073e+04
2.099860000000000000e+08,1.017670000000000073e+04
2.099960000000000000e+08,1.017670000000000073e+04
2.100060000000000000e+08,1.017670000000000073e+04
2.100160000000000000e+08,1.017670000000000073e+04
2.100260000000000000e+08,1.017670000000000073e+04
2.100360000000000000e+08,1.017670000000000073e+04
2.100470000000000000e+08,1.017670000000000073e+04
2.100570000000000000e+08,1.017670000000000073e+04
2.100670000000000000e+08,1.017670000000000073e+04
2.100770000000000000e+08,1.017670000000000073e+04
2.100870000000000000e+08,1.017670000000000073e+04
2.100980000000000000e+08,1.017670000000000073e+04
2.101080000000000000e+08,1.017670000000000073e+04
2.101180000000000000e+08,1.017670000000000073e+04
2.101280000000000000e+08,1.017670000000000073e+04
2.101380000000000000e+08,1.017670000000000073e+04
2.101480000000000000e+08,1.017670000000000073e+04
2.101590000000000000e+08,1.017670000000000073e+04
2.101690000000000000e+08,1.017670000000000073e+04
2.101790000000000000e+08,1.017670000000000073e+04
2.101890000000000000e+08,1.017670000000000073e+04
2.101990000000000000e+08,1.017670000000000073e+04
2.102090000000000000e+08,1.017670000000000073e+04
2.102200000000000000e+08,1.017670000000000073e+04
2.102300000000000000e+08,1.017670000000000073e+04
2.102400000000000000e+08,1.017670000000000073e+04
2.102500000000000000e+08,1.017670000000000073e+04
2.102600000000000000e+08,1.017670000000000073e+04
2.102710000000000000e+08,1.017670000000000073e+04
2.102810000000000000e+08,1.017670000000000073e+04
2.102910000000000000e+08,1.017670000000000073e+04
2.103010000000000000e+08,1.017670000000000073e+04
2.103110000000000000e+08,1.017670000000000073e+04
2.103210000000000000e+08,1.017670000000000073e+04
2.103320000000000000e+08,1.017670000000000073e+04
2.103420000000000000e+08,1.017670000000000073e+04
2.103520000000000000e+08,1.017670000000000073e+04
2.103620000000000000e+08,1.017670000000000073e+04
2.103720000000000000e+08,1.017670000000000073e+04
2.103820000000000000e+08,1.017670000000000073e+04
2.103930000000000000e+08,1.017670000000000073e+04
2.104030000000000000e+08,1.017670000000000073e+04
2.104130000000000000e+08,1.017670000000000073e+04
2.104230000000000000e+08,1.017670000000000073e+04
2.104330000000000000e+08,1.017670000000000073e+04
2.104440000000000000e+08,1.017670000000000073e+04
2.104540000000000000e+08,1.017670000000000073e+04
2.104640000000000000e+08,1.017670000000000073e+04
2.104740000000000000e+08,1.017670000000000073e+04
2.104840000000000000e+08,1.017670000000000073e+04
2.104940000000000000e+08,1.017670000000000073e+04
2.105050000000000000e+08,1.017670000000000073e+04
2.105150000000000000e+08,1.017670000000000073e+04
2.105250000000000000e+08,1.017670000000000073e+04
2.105350000000000000e+08,1.017670000000000073e+04
2.105450000000000000e+08,1.017670000000000073e+04
2.105550000000000000e+08,1.017670000000000073e+04
2.105660000000000000e+08,1.017670000000000073e+04
2.105760000000000000e+08,1.017670000000000073e+04
2.105860000000000000e+08,1.017670000000000073e+04
2.105960000000000000e+08,1.017670000000000073e+04
2.106060000000000000e+08,1.017670000000000073e+04
2.106170000000000000e+08,1.017670000000000073e+04
2.106270000000000000e+08,1.017670000000000073e+04
2.106370000000000000e+08,1.017670000000000073e+04
2.106470000000000000e+08,1.017670000000000073e+04
2.106570000000000000e+08,1.017670000000000073e+04
2.106670000000000000e+08,1.017670000000000073e+04
2.106780000000000000e+08,1.017670000000000073e+04
2.106880000000000000e+08,1.017670000000000073e+04
2.106980000000000000e+08,1.017670000000000073e+04
2.107080000000000000e+08,1.017670000000000073e+04
2.107180000000000000e+08,1.017670000000000073e+04
2.107280000000000000e+08,1.017670000000000073e+04
2.107390000000000000e+08,1.017670000000000073e+04
2.107490000000000000e+08,1.017670000000000073e+04
2.107590000000000000e+08,1.017670000000000073e+04
2.107690000000000000e+08,1.017670000000000073e+04
2.107790000000000000e+08,1.017670000000000073e+04
2.107900000000000000e+08,1.017670000000000073e+04
2.108000000000000000e+08,1.017670000000000073e+04
2.108100000000000000e+08,1.017670000000000073e+04
2.108200000000000000e+08,1.017670000000000073e+04
2.108300000000000000e+08,1.017670000000000073e+04
2.108400000000000000e+08,1.017670000000000073e+04
2.108510000000000000e+08,1.017670000000000073e+04
2.108610000000000000e+08,1.017670000000000073e+04
2.108710000000000000e+08,1.017670000000000073e+04
2.108810000000000000e+08,1.017670000000000073e+04
2.108910000000000000e+08,1.017670000000000073e+04
2.109010000000000000e+08,1.017670000000000073e+04
2.109120000000000000e+08,1.017670000000000073e+04
2.109220000000000000e+08,1.017670000000000073e+04
2.109320000000000000e+08,1.017670000000000073e+04
2.109420000000000000e+08,1.017670000000000073e+04
2.109520000000000000e+08,1.017670000000000073e+04
2.109630000000000000e+08,1.017670000000000073e+04
2.109730000000000000e+08,1.017670000000000073e+04
2.109830000000000000e+08,1.017670000000000073e+04
2.109930000000000000e+08,1.017670000000000073e+04
2.110030000000000000e+08,1.017670000000000073e+04
2.110130000000000000e+08,1.017670000000000073e+04
2.110240000000000000e+08,1.017670000000000073e+04
2.110340000000000000e+08,1.017670000000000073e+04
2.110440000000000000e+08,1.017670000000000073e+04
2.110540000000000000e+08,1.017670000000000073e+04
2.110640000000000000e+08,1.017670000000000073e+04
2.110740000000000000e+08,1.017670000000000073e+04
2.110850000000000000e+08,1.017670000000000073e+04
2.110950000000000000e+08,1.017670000000000073e+04
2.111050000000000000e+08,1.017670000000000073e+04
2.111150000000000000e+08,1.017670000000000073e+04
2.111250000000000000e+08,1.017670000000000073e+04
2.111360000000000000e+08,1.017670000000000073e+04
2.111460000000000000e+08,1.017670000000000073e+04
2.111560000000000000e+08,1.017670000000000073e+04
2.111660000000000000e+08,1.017670000000000073e+04
2.111760000000000000e+08,1.017670000000000073e+04
2.111860000000000000e+08,1.017670000000000073e+04
2.111970000000000000e+08,1.017670000000000073e+04
2.112070000000000000e+08,1.017670000000000073e+04
2.112170000000000000e+08,1.017670000000000073e+04
2.112270000000000000e+08,1.017670000000000073e+04
2.112370000000000000e+08,1.017670000000000073e+04
2.112470000000000000e+08,1.017670000000000073e+04
2.112580000000000000e+08,1.017670000000000073e+04
2.112680000000000000e+08,1.017670000000000073e+04
2.112780000000000000e+08,1.017670000000000073e+04
2.112880000000000000e+08,1.017670000000000073e+04
2.112980000000000000e+08,1.017670000000000073e+04
2.113090000000000000e+08,1.017670000000000073e+04
2.113190000000000000e+08,1.017670000000000073e+04
2.113290000000000000e+08,1.017670000000000073e+04
2.113390000000000000e+08,1.017670000000000073e+04
2.113490000000000000e+08,1.017670000000000073e+04
2.113590000000000000e+08,1.017670000000000073e+04
2.113700000000000000e+08,1.017670000000000073e+04
2.113800000000000000e+08,1.017670000000000073e+04
2.113900000000000000e+08,1.017670000000000073e+04
2.114000000000000000e+08,1.017670000000000073e+04
2.114100000000000000e+08,1.017670000000000073e+04
2.114200000000000000e+08,1.017670000000000073e+04
2.114310000000000000e+08,1.017670000000000073e+04
2.114410000000000000e+08,1.017670000000000073e+04
2.114510000000000000e+08,1.017670000000000073e+04
2.114610000000000000e+08,1.017670000000000073e+04
2.114710000000000000e+08,1.017670000000000073e+04
2.114820000000000000e+08,1.017670000000000073e+04
2.114920000000000000e+08,1.017670000000000073e+04
2.115020000000000000e+08,1.017670000000000073e+04
2.115120000000000000e+08,1.017670000000000073e+04
2.115220000000000000e+08,1.017670000000000073e+04
2.115320000000000000e+08,1.017670000000000073e+04
2.115430000000000000e+08,1.017670000000000073e+04
2.115530000000000000e+08,1.017670000000000073e+04
2.115630000000000000e+08,1.017670000000000073e+04
2.115730000000000000e+08,1.017670000000000073e+04
2.115830000000000000e+08,1.017670000000000073e+04
2.115930000000000000e+08,1.017670000000000073e+04
2.116040000000000000e+08,1.017670000000000073e+04
2.116140000000000000e+08,1.017670000000000073e+04
2.116240000000000000e+08,1.017670000000000073e+04
2.116340000000000000e+08,1.017670000000000073e+04
2.116440000000000000e+08,1.017670000000000073e+04
2.116550000000000000e+08,1.017670000000000073e+04
2.116650000000000000e+08,1.017670000000000073e+04
2.116750000000000000e+08,1.017670000000000073e+04
2.116850000000000000e+08,1.017670000000000073e+04
2.116950000000000000e+08,1.017670000000000073e+04
2.117050000000000000e+08,1.017670000000000073e+04
2.117160000000000000e+08,1.017670000000000073e+04
2.117260000000000000e+08,1.017670000000000073e+04
2.117360000000000000e+08,1.017670000000000073e+04
2.117460000000000000e+08,1.017670000000000073e+04
2.117560000000000000e+08,1.017670000000000073e+04
2.117670000000000000e+08,1.017670000000000073e+04
2.117770000000000000e+08,1.017670000000000073e+04
2.117870000000000000e+08,1.017670000000000073e+04
2.117970000000000000e+08,1.017670000000000073e+04
2.118070000000000000e+08,1.017670000000000073e+04
2.118170000000000000e+08,1.017670000000000073e+04
2.118280000000000000e+08,1.017670000000000073e+04
2.118380000000000000e+08,1.017670000000000073e+04
2.118480000000000000e+08,1.017670000000000073e+04
2.118580000000000000e+08,1.017670000000000073e+04
2.118680000000000000e+08,1.017670000000000073e+04
2.118780000000000000e+08,1.017670000000000073e+04
2.118890000000000000e+08,1.017670000000000073e+04
2.118990000000000000e+08,1.017670000000000073e+04
2.119090000000000000e+08,1.017670000000000073e+04
2.119190000000000000e+08,1.017670000000000073e+04
2.119290000000000000e+08,1.017670000000000073e+04
2.119400000000000000e+08,1.017670000000000073e+04
2.119500000000000000e+08,1.017670000000000073e+04
2.119600000000000000e+08,1.017670000000000073e+04
2.119700000000000000e+08,1.017670000000000073e+04
2.119800000000000000e+08,1.017670000000000073e+04
2.119900000000000000e+08,1.017670000000000073e+04
2.120010000000000000e+08,1.017670000000000073e+04
2.120110000000000000e+08,1.017670000000000073e+04
2.120210000000000000e+08,1.017670000000000073e+04
2.120310000000000000e+08,1.017670000000000073e+04
2.120410000000000000e+08,1.017670000000000073e+04
2.120510000000000000e+08,1.017670000000000073e+04
2.120620000000000000e+08,1.017670000000000073e+04
2.120720000000000000e+08,1.017670000000000073e+04
2.120820000000000000e+08,1.017670000000000073e+04
2.120920000000000000e+08,1.017670000000000073e+04
2.121020000000000000e+08,1.017670000000000073e+04
2.121130000000000000e+08,1.017670000000000073e+04
2.121230000000000000e+08,1.017670000000000073e+04
2.121330000000000000e+08,1.017670000000000073e+04
2.121430000000000000e+08,1.017670000000000073e+04
2.121530000000000000e+08,1.017670000000000073e+04
2.121630000000000000e+08,1.017670000000000073e+04
2.121740000000000000e+08,1.017670000000000073e+04
2.121840000000000000e+08,1.017670000000000073e+04
2.121940000000000000e+08,1.017670000000000073e+04
2.122040000000000000e+08,1.017670000000000073e+04
2.122140000000000000e+08,1.017670000000000073e+04
2.122240000000000000e+08,1.017670000000000073e+04
2.122350000000000000e+08,1.017670000000000073e+04
2.122450000000000000e+08,1.017670000000000073e+04
2.122550000000000000e+08,1.017670000000000073e+04
2.122650000000000000e+08,1.017670000000000073e+04
2.122750000000000000e+08,1.017670000000000073e+04
2.122860000000000000e+08,1.017670000000000073e+04
2.122960000000000000e+08,1.017670000000000073e+04
2.123060000000000000e+08,1.017670000000000073e+04
2.123160000000000000e+08,1.017670000000000073e+04
2.123260000000000000e+08,1.017670000000000073e+04
2.123360000000000000e+08,1.017670000000000073e+04
2.123470000000000000e+08,1.017670000000000073e+04
2.123570000000000000e+08,1.017670000000000073e+04
2.123670000000000000e+08,1.017670000000000073e+04
2.123770000000000000e+08,1.017670000000000073e+04
2.123870000000000000e+08,1.017670000000000073e+04
2.123970000000000000e+08,1.017670000000000073e+04
2.124080000000000000e+08,1.017670000000000073e+04
2.124180000000000000e+08,1.017670000000000073e+04
2.124280000000000000e+08,1.017670000000000073e+04
2.124380000000000000e+08,1.017670000000000073e+04
2.124480000000000000e+08,1.017670000000000073e+04
2.124590000000000000e+08,1.017670000000000073e+04
2.124690000000000000e+08,1.017670000000000073e+04
2.124790000000000000e+08,1.017670000000000073e+04
2.124890000000000000e+08,1.017670000000000073e+04
2.124990000000000000e+08,1.017670000000000073e+04
2.125090000000000000e+08,1.017670000000000073e+04
2.125200000000000000e+08,1.017670000000000073e+04
2.125300000000000000e+08,1.017670000000000073e+04
2.125400000000000000e+08,1.017670000000000073e+04
2.125500000000000000e+08,1.017670000000000073e+04
2.125600000000000000e+08,1.017670000000000073e+04
2.125700000000000000e+08,1.017670000000000073e+04
2.125810000000000000e+08,1.017670000000000073e+04
2.125910000000000000e+08,1.017670000000000073e+04
2.126010000000000000e+08,1.017670000000000073e+04
2.126110000000000000e+08,1.017670000000000073e+04
2.126210000000000000e+08,1.017670000000000073e+04
2.126320000000000000e+08,1.017670000000000073e+04
2.126420000000000000e+08,1.017670000000000073e+04
2.126520000000000000e+08,1.017670000000000073e+04
2.126620000000000000e+08,1.017670000000000073e+04
2.126720000000000000e+08,1.017670000000000073e+04
2.126820000000000000e+08,1.017670000000000073e+04
2.126930000000000000e+08,1.017670000000000073e+04
2.127030000000000000e+08,1.017670000000000073e+04
2.127130000000000000e+08,1.017670000000000073e+04
2.127230000000000000e+08,1.017670000000000073e+04
2.127330000000000000e+08,1.017670000000000073e+04
2.127430000000000000e+08,1.017670000000000073e+04
2.127540000000000000e+08,1.017670000000000073e+04
2.127640000000000000e+08,1.017670000000000073e+04
2.127740000000000000e+08,1.017670000000000073e+04
2.127840000000000000e+08,1.017670000000000073e+04
2.127940000000000000e+08,1.017670000000000073e+04
2.128050000000000000e+08,1.017670000000000073e+04
2.128150000000000000e+08,1.017670000000000073e+04
2.128250000000000000e+08,1.017670000000000073e+04
2.128350000000000000e+08,1.017670000000000073e+04
2.128450000000000000e+08,1.017670000000000073e+04
2.128550000000000000e+08,1.017670000000000073e+04
2.128660000000000000e+08,1.017670000000000073e+04
2.128760000000000000e+08,1.017670000000000073e+04
2.128860000000000000e+08,1.017670000000000073e+04
2.128960000000000000e+08,1.017670000000000073e+04
2.129060000000000000e+08,1.017670000000000073e+04
2.129160000000000000e+08,1.017670000000000073e+04
2.129270000000000000e+08,1.017670000000000073e+04
2.129370000000000000e+08,1.017670000000000073e+04
2.129470000000000000e+08,1.017670000000000073e+04
2.129570000000000000e+08,1.017670000000000073e+04
2.129670000000000000e+08,1.017670000000000073e+04
2.129780000000000000e+08,1.017670000000000073e+04
2.129880000000000000e+08,1.017670000000000073e+04
2.129980000000000000e+08,1.017670000000000073e+04
2.130080000000000000e+08,1.017670000000000073e+04
2.130180000000000000e+08,1.017670000000000073e+04
2.130280000000000000e+08,1.017670000000000073e+04
2.130390000000000000e+08,1.017670000000000073e+04
2.130490000000000000e+08,1.017670000000000073e+04
2.130590000000000000e+08,1.017670000000000073e+04
2.130690000000000000e+08,1.017670000000000073e+04
2.130790000000000000e+08,1.017670000000000073e+04
2.130890000000000000e+08,1.017670000000000073e+04
2.131000000000000000e+08,1.017670000000000073e+04
2.131100000000000000e+08,1.017670000000000073e+04
2.131200000000000000e+08,1.017670000000000073e+04
2.131300000000000000e+08,1.017670000000000073e+04
2.131400000000000000e+08,1.017670000000000073e+04
2.131510000000000000e+08,1.017670000000000073e+04
2.131610000000000000e+08,1.017670000000000073e+04
2.131710000000000000e+08,1.017670000000000073e+04
2.131810000000000000e+08,1.017670000000000073e+04
2.131910000000000000e+08,1.017670000000000073e+04
2.132010000000000000e+08,1.017670000000000073e+04
2.132120000000000000e+08,1.017670000000000073e+04
2.132220000000000000e+08,1.017670000000000073e+04
2.132320000000000000e+08,1.017670000000000073e+04
2.132420000000000000e+08,1.017670000000000073e+04
2.132520000000000000e+08,1.017670000000000073e+04
2.132620000000000000e+08,1.017670000000000073e+04
2.132730000000000000e+08,1.017670000000000073e+04
2.132830000000000000e+08,1.017670000000000073e+04
2.132930000000000000e+08,1.017670000000000073e+04
2.133030000000000000e+08,1.017670000000000073e+04
2.133130000000000000e+08,1.017670000000000073e+04
2.133240000000000000e+08,1.017670000000000073e+04
2.133340000000000000e+08,1.017670000000000073e+04
2.133440000000000000e+08,1.017670000000000073e+04
2.133540000000000000e+08,1.017670000000000073e+04
2.133640000000000000e+08,1.017670000000000073e+04
2.133740000000000000e+08,1.017670000000000073e+04
2.133850000000000000e+08,1.017670000000000073e+04
2.133950000000000000e+08,1.017670000000000073e+04
2.134050000000000000e+08,1.017670000000000073e+04
2.134150000000000000e+08,1.017670000000000073e+04
2.134250000000000000e+08,1.017670000000000073e+04
2.134350000000000000e+08,1.017670000000000073e+04
2.134460000000000000e+08,1.017670000000000073e+04
2.134560000000000000e+08,1.017670000000000073e+04
2.134660000000000000e+08,1.017670000000000073e+04
2.134760000000000000e+08,1.017670000000000073e+04
2.134860000000000000e+08,1.017670000000000073e+04
2.134970000000000000e+08,1.017670000000000073e+04
2.135070000000000000e+08,1.017670000000000073e+04
2.135170000000000000e+08,1.017670000000000073e+04
2.135270000000000000e+08,1.017670000000000073e+04
2.135370000000000000e+08,1.017670000000000073e+04
2.135470000000000000e+08,1.017670000000000073e+04
2.135580000000000000e+08,1.017670000000000073e+04
2.135680000000000000e+08,1.017670000000000073e+04
2.135780000000000000e+08,1.017670000000000073e+04
2.135880000000000000e+08,1.017670000000000073e+04
2.135980000000000000e+08,1.017670000000000073e+04
2.136080000000000000e+08,1.017670000000000073e+04
2.136190000000000000e+08,1.017670000000000073e+04
2.136290000000000000e+08,1.017670000000000073e+04
2.136390000000000000e+08,1.017670000000000073e+04
2.136490000000000000e+08,1.017670000000000073e+04
2.136590000000000000e+08,1.017670000000000073e+04
2.136700000000000000e+08,1.017670000000000073e+04
2.136800000000000000e+08,1.017670000000000073e+04
2.136900000000000000e+08,1.017670000000000073e+04
2.137000000000000000e+08,1.017670000000000073e+04
2.137100000000000000e+08,1.017670000000000073e+04
2.137200000000000000e+08,1.017670000000000073e+04
2.137310000000000000e+08,1.017670000000000073e+04
2.137410000000000000e+08,1.017670000000000073e+04
2.137510000000000000e+08,1.017670000000000073e+04
2.137610000000000000e+08,1.017670000000000073e+04
2.137710000000000000e+08,1.017670000000000073e+04
2.137810000000000000e+08,1.017670000000000073e+04
2.137920000000000000e+08,1.017670000000000073e+04
2.138020000000000000e+08,1.017670000000000073e+04
2.138120000000000000e+08,1.017670000000000073e+04
2.138220000000000000e+08,1.017670000000000073e+04
2.138320000000000000e+08,1.017670000000000073e+04
2.138430000000000000e+08,1.017670000000000073e+04
2.138530000000000000e+08,1.017670000000000073e+04
2.138630000000000000e+08,1.017670000000000073e+04
2.138730000000000000e+08,1.017670000000000073e+04
2.138830000000000000e+08,1.017670000000000073e+04
2.138930000000000000e+08,1.017670000000000073e+04
2.139040000000000000e+08,1.017670000000000073e+04
2.139140000000000000e+08,1.017670000000000073e+04
2.139240000000000000e+08,1.017670000000000073e+04
2.139340000000000000e+08,1.017670000000000073e+04
2.139440000000000000e+08,1.017670000000000073e+04
2.139540000000000000e+08,1.017670000000000073e+04
2.139650000000000000e+08,1.017670000000000073e+04
2.139750000000000000e+08,1.017670000000000073e+04
2.139850000000000000e+08,1.017670000000000073e+04
2.139950000000000000e+08,1.017670000000000073e+04
2.140050000000000000e+08,1.017670000000000073e+04
2.140160000000000000e+08,1.017670000000000073e+04
2.140260000000000000e+08,1.017670000000000073e+04
2.140360000000000000e+08,1.017670000000000073e+04
2.140460000000000000e+08,1.017670000000000073e+04
2.140560000000000000e+08,1.017670000000000073e+04
2.140660000000000000e+08,1.017670000000000073e+04
2.140770000000000000e+08,1.017670000000000073e+04
2.140870000000000000e+08,1.017670000000000073e+04
2.140970000000000000e+08,1.017670000000000073e+04
2.141070000000000000e+08,1.017670000000000073e+04
2.141170000000000000e+08,1.017670000000000073e+04
2.141270000000000000e+08,1.017670000000000073e+04
2.141380000000000000e+08,1.017670000000000073e+04
2.141480000000000000e+08,1.017670000000000073e+04
2.141580000000000000e+08,1.017670000000000073e+04
2.141680000000000000e+08,1.017670000000000073e+04
2.141780000000000000e+08,1.017670000000000073e+04
2.141890000000000000e+08,1.017670000000000073e+04
2.141990000000000000e+08,1.017670000000000073e+04
2.142090000000000000e+08,1.017670000000000073e+04
2.142190000000000000e+08,1.017670000000000073e+04
2.142290000000000000e+08,1.017670000000000073e+04
2.142390000000000000e+08,1.017670000000000073e+04
2.142500000000000000e+08,1.017670000000000073e+04
2.142600000000000000e+08,1.017670000000000073e+04
2.142700000000000000e+08,1.017670000000000073e+04
2.142800000000000000e+08,1.017670000000000073e+04
2.142900000000000000e+08,1.017670000000000073e+04
2.143000000000000000e+08,1.017670000000000073e+04
2.143110000000000000e+08,1.017670000000000073e+04
2.143210000000000000e+08,1.017670000000000073e+04
2.143310000000000000e+08,1.017670000000000073e+04
2.143410000000000000e+08,1.017670000000000073e+04
2.143510000000000000e+08,1.017670000000000073e+04
2.143620000000000000e+08,1.017670000000000073e+04
2.143720000000000000e+08,1.017670000000000073e+04
2.143820000000000000e+08,1.017670000000000073e+04
2.143920000000000000e+08,1.017670000000000073e+04
2.144020000000000000e+08,1.017670000000000073e+04
2.144120000000000000e+08,1.017670000000000073e+04
2.144230000000000000e+08,1.017670000000000073e+04
2.144330000000000000e+08,1.017670000000000073e+04
2.144430000000000000e+08,1.017670000000000073e+04
2.144530000000000000e+08,1.017670000000000073e+04
2.144630000000000000e+08,1.017670000000000073e+04
2.144730000000000000e+08,1.017670000000000073e+04
2.144840000000000000e+08,1.017670000000000073e+04
2.144940000000000000e+08,1.017670000000000073e+04
2.145040000000000000e+08,1.017670000000000073e+04
2.145140000000000000e+08,1.017670000000000073e+04
2.145240000000000000e+08,1.017670000000000073e+04
2.145350000000000000e+08,1.017670000000000073e+04
2.145450000000000000e+08,1.017670000000000073e+04
2.145550000000000000e+08,1.017670000000000073e+04
2.145650000000000000e+08,1.017670000000000073e+04
2.145750000000000000e+08,1.017670000000000073e+04
2.145850000000000000e+08,1.017670000000000073e+04
2.145960000000000000e+08,1.017670000000000073e+04
2.146060000000000000e+08,1.017670000000000073e+04
2.146160000000000000e+08,1.017670000000000073e+04
2.146260000000000000e+08,1.017670000000000073e+04
2.146360000000000000e+08,1.017670000000000073e+04
2.146470000000000000e+08,1.017670000000000073e+04
2.146570000000000000e+08,1.017670000000000073e+04
2.146670000000000000e+08,1.017670000000000073e+04
2.146770000000000000e+08,1.017670000000000073e+04
2.146870000000000000e+08,1.017670000000000073e+04
2.146970000000000000e+08,1.017670000000000073e+04
2.147080000000000000e+08,1.017670000000000073e+04
2.147180000000000000e+08,1.017670000000000073e+04
2.147280000000000000e+08,1.017670000000000073e+04
2.147380000000000000e+08,1.017670000000000073e+04
2.147480000000000000e+08,1.017670000000000073e+04
2.147580000000000000e+08,1.017670000000000073e+04
2.147690000000000000e+08,1.017670000000000073e+04
2.147790000000000000e+08,1.017670000000000073e+04
2.147890000000000000e+08,1.017670000000000073e+04
2.147990000000000000e+08,1.017670000000000073e+04
2.148090000000000000e+08,1.017670000000000073e+04
2.148200000000000000e+08,1.017670000000000073e+04
2.148300000000000000e+08,1.017670000000000073e+04
2.148400000000000000e+08,1.017670000000000073e+04
2.148500000000000000e+08,1.017670000000000073e+04
2.148600000000000000e+08,1.017670000000000073e+04
2.148700000000000000e+08,1.017670000000000073e+04
2.148810000000000000e+08,1.017670000000000073e+04
2.148910000000000000e+08,1.017670000000000073e+04
2.149010000000000000e+08,1.017670000000000073e+04
2.149110000000000000e+08,1.017670000000000073e+04
2.149210000000000000e+08,1.017670000000000073e+04
2.149310000000000000e+08,1.017670000000000073e+04
2.149420000000000000e+08,1.017670000000000073e+04
2.149520000000000000e+08,1.017670000000000073e+04
2.149620000000000000e+08,1.017670000000000073e+04
2.149720000000000000e+08,1.017670000000000073e+04
2.149820000000000000e+08,1.017670000000000073e+04
2.149930000000000000e+08,1.017670000000000073e+04
2.150030000000000000e+08,1.017670000000000073e+04
2.150130000000000000e+08,1.017670000000000073e+04
2.150230000000000000e+08,1.017670000000000073e+04
2.150330000000000000e+08,1.017670000000000073e+04
2.150430000000000000e+08,1.017670000000000073e+04
2.150540000000000000e+08,1.017670000000000073e+04
2.150640000000000000e+08,1.017670000000000073e+04
2.150740000000000000e+08,1.017670000000000073e+04
2.150840000000000000e+08,1.017670000000000073e+04
2.150940000000000000e+08,1.017670000000000073e+04
2.151040000000000000e+08,1.017670000000000073e+04
2.151150000000000000e+08,1.017670000000000073e+04
2.151250000000000000e+08,1.017670000000000073e+04
2.151350000000000000e+08,1.017670000000000073e+04
2.151450000000000000e+08,1.017670000000000073e+04
2.151550000000000000e+08,1.017670000000000073e+04
2.151660000000000000e+08,1.017670000000000073e+04
2.151760000000000000e+08,1.017670000000000073e+04
2.151860000000000000e+08,1.017670000000000073e+04
2.151960000000000000e+08,1.017670000000000073e+04
2.152060000000000000e+08,1.017670000000000073e+04
2.152160000000000000e+08,1.017670000000000073e+04
2.152270000000000000e+08,1.017670000000000073e+04
2.152370000000000000e+08,1.017670000000000073e+04
2.152470000000000000e+08,1.017670000000000073e+04
2.152570000000000000e+08,1.017670000000000073e+04
2.152670000000000000e+08,1.017670000000000073e+04
2.152770000000000000e+08,1.017670000000000073e+04
2.152880000000000000e+08,1.017670000000000073e+04
2.152980000000000000e+08,1.017670000000000073e+04
2.153080000000000000e+08,1.017670000000000073e+04
2.153180000000000000e+08,1.017670000000000073e+04
2.153280000000000000e+08,1.017670000000000073e+04
2.153390000000000000e+08,1.017670000000000073e+04
2.153490000000000000e+08,1.017670000000000073e+04
2.153590000000000000e+08,1.017670000000000073e+04
2.153690000000000000e+08,1.017670000000000073e+04
2.153790000000000000e+08,1.017670000000000073e+04
2.153890000000000000e+08,1.017670000000000073e+04
2.154000000000000000e+08,1.017670000000000073e+04
2.154100000000000000e+08,1.017670000000000073e+04
2.154200000000000000e+08,1.017670000000000073e+04
2.154300000000000000e+08,1.017670000000000073e+04
2.154400000000000000e+08,1.017670000000000073e+04
2.154500000000000000e+08,1.017670000000000073e+04
2.154610000000000000e+08,1.017670000000000073e+04
2.154710000000000000e+08,1.017670000000000073e+04
2.154810000000000000e+08,1.017670000000000073e+04
2.154910000000000000e+08,1.017670000000000073e+04
2.155010000000000000e+08,1.017670000000000073e+04
2.155120000000000000e+08,1.017670000000000073e+04
2.155220000000000000e+08,1.017670000000000073e+04
2.155320000000000000e+08,1.017670000000000073e+04
2.155420000000000000e+08,1.017670000000000073e+04
2.155520000000000000e+08,1.017670000000000073e+04
2.155620000000000000e+08,1.017670000000000073e+04
2.155730000000000000e+08,1.017670000000000073e+04
2.155830000000000000e+08,1.017670000000000073e+04
2.155930000000000000e+08,1.017670000000000073e+04
2.156030000000000000e+08,1.017670000000000073e+04
2.156130000000000000e+08,1.017670000000000073e+04
2.156230000000000000e+08,1.017670000000000073e+04
2.156340000000000000e+08,1.017670000000000073e+04
2.156440000000000000e+08,1.017670000000000073e+04
2.156540000000000000e+08,1.017670000000000073e+04
2.156640000000000000e+08,1.017670000000000073e+04
2.156740000000000000e+08,1.017670000000000073e+04
2.156850000000000000e+08,1.017670000000000073e+04
2.156950000000000000e+08,1.017670000000000073e+04
2.157050000000000000e+08,1.017670000000000073e+04
2.157150000000000000e+08,1.017670000000000073e+04
2.157250000000000000e+08,1.017670000000000073e+04
2.157350000000000000e+08,1.017670000000000073e+04
2.157460000000000000e+08,1.017670000000000073e+04
2.157560000000000000e+08,1.017670000000000073e+04
2.157660000000000000e+08,1.017670000000000073e+04
2.157760000000000000e+08,1.017670000000000073e+04
2.157860000000000000e+08,1.017670000000000073e+04
2.157960000000000000e+08,1.017670000000000073e+04
2.158070000000000000e+08,1.017670000000000073e+04
2.158170000000000000e+08,1.017670000000000073e+04
2.158270000000000000e+08,1.017670000000000073e+04
2.158370000000000000e+08,1.017670000000000073e+04
2.158470000000000000e+08,1.017670000000000073e+04
2.158580000000000000e+08,1.017670000000000073e+04
2.158680000000000000e+08,1.017670000000000073e+04
2.158780000000000000e+08,1.017670000000000073e+04
2.158880000000000000e+08,1.017670000000000073e+04
2.158980000000000000e+08,1.017670000000000073e+04
2.159080000000000000e+08,1.017670000000000073e+04
2.159190000000000000e+08,1.017670000000000073e+04
2.159290000000000000e+08,1.017670000000000073e+04
2.159390000000000000e+08,1.017670000000000073e+04
2.159490000000000000e+08,1.017670000000000073e+04
2.159590000000000000e+08,1.017670000000000073e+04
2.159690000000000000e+08,1.017670000000000073e+04
2.159800000000000000e+08,1.017670000000000073e+04
2.159900000000000000e+08,1.017670000000000073e+04
2.160000000000000000e+08,1.017670000000000073e+04
