time,Swp[0]_final,Swp[1]_final,Swp_iterations,Swp[0],Swp[1]
2.309979999999999905e+02,2.727410000000000099e-04,2.727410000000000099e-04,1.000000000000000000e+00,2.727410000000000099e-04,2.727410000000000099e-04
3.640950000000000273e+02,2.724150000000000269e-04,2.724150000000000269e-04,1.000000000000000000e+00,2.724150000000000269e-04,2.724150000000000269e-04
5.105029999999999859e+02,2.721099999999999951e-04,2.721099999999999951e-04,1.000000000000000000e+00,2.721099999999999951e-04,2.721099999999999951e-04
6.715489999999999782e+02,2.718309999999999932e-04,2.718309999999999932e-04,1.000000000000000000e+00,2.718309999999999932e-04,2.718309999999999932e-04
8.486970000000000027e+02,2.715780000000000212e-04,2.715780000000000212e-04,1.000000000000000000e+00,2.715780000000000212e-04,2.715780000000000212e-04
1.043559999999999945e+03,2.713479999999999777e-04,2.713479999999999777e-04,1.000000000000000000e+00,2.713479999999999777e-04,2.713479999999999777e-04
1.257900000000000091e+03,2.711400000000000095e-04,2.711400000000000095e-04,1.000000000000000000e+00,2.711400000000000095e-04,2.711400000000000095e-04
1.493680000000000064e+03,2.709499999999999994e-04,2.709499999999999994e-04,1.000000000000000000e+00,2.709499999999999994e-04,2.709499999999999994e-04
1.753019999999999982e+03,2.707780000000000018e-04,2.707780000000000018e-04,1.000000000000000000e+00,2.707780000000000018e-04,2.707780000000000018e-04
2.038299999999999955e+03,2.706219999999999850e-04,2.706219999999999850e-04,1.000000000000000000e+00,2.706219999999999850e-04,2.706219999999999850e-04
2.352099999999999909e+03,2.704800000000000260e-04,2.704800000000000260e-04,1.000000000000000000e+00,2.704800000000000260e-04,2.704800000000000260e-04
2.697269999999999982e+03,2.703520000000000163e-04,2.703520000000000163e-04,1.000000000000000000e+00,2.703520000000000163e-04,2.703520000000000163e-04
3.076949999999999818e+03,2.702350000000000173e-04,2.702350000000000173e-04,1.000000000000000000e+00,2.702350000000000173e-04,2.702350000000000173e-04
3.494599999999999909e+03,2.701299999999999903e-04,2.701299999999999903e-04,1.000000000000000000e+00,2.701299999999999903e-04,2.701299999999999903e-04
3.953989999999999782e+03,2.700339999999999967e-04,2.700339999999999967e-04,1.000000000000000000e+00,2.700339999999999967e-04,2.700339999999999967e-04
4.459279999999999745e+03,2.699469999999999821e-04,2.699469999999999821e-04,1.000000000000000000e+00,2.699469999999999821e-04,2.699469999999999821e-04
5.015090000000000146e+03,2.698679999999999851e-04,2.698679999999999851e-04,1.000000000000000000e+00,2.698679999999999851e-04,2.698679999999999851e-04
5.626460000000000036e+03,2.697970000000000056e-04,2.697970000000000056e-04,1.000000000000000000e+00,2.697970000000000056e-04,2.697970000000000056e-04
6.298920000000000073e+03,2.697320000000000121e-04,2.697320000000000121e-04,1.000000000000000000e+00,2.697320000000000121e-04,2.697320000000000121e-04
7.038609999999999673e+03,2.696740000000000205e-04,2.696740000000000205e-04,1.000000000000000000e+00,2.696740000000000205e-04,2.696740000000000205e-04
7.852199999999999818e+03,2.696209999999999991e-04,2.696209999999999991e-04,1.000000000000000000e+00,2.696209999999999991e-04,2.696209999999999991e-04
8.747090000000000146e+03,2.695730000000000023e-04,2.695730000000000023e-04,1.000000000000000000e+00,2.695730000000000023e-04,2.695730000000000023e-04
9.731379999999999200e+03,2.695299999999999758e-04,2.695299999999999758e-04,1.000000000000000000e+00,2.695299999999999758e-04,2.695299999999999758e-04
1.081410000000000036e+04,2.694919999999999738e-04,2.694919999999999738e-04,1.000000000000000000e+00,2.694919999999999738e-04,2.694919999999999738e-04
1.200500000000000000e+04,2.694570000000000190e-04,2.694570000000000190e-04,1.000000000000000000e+00,2.694570000000000190e-04,2.694570000000000190e-04
1.331479999999999927e+04,2.694269999999999803e-04,2.694269999999999803e-04,1.000000000000000000e+00,2.694269999999999803e-04,2.694269999999999803e-04
1.475550000000000000e+04,2.693989999999999731e-04,2.693989999999999731e-04,1.000000000000000000e+00,2.693989999999999731e-04,2.693989999999999731e-04
1.634010000000000036e+04,2.693740000000000132e-04,2.693740000000000132e-04,1.000000000000000000e+00,2.693740000000000132e-04,2.693740000000000132e-04
1.808300000000000000e+04,2.693509999999999763e-04,2.693509999999999763e-04,1.000000000000000000e+00,2.693509999999999763e-04,2.693509999999999763e-04
1.999979999999999927e+04,2.693290000000000094e-04,2.693290000000000094e-04,1.000000000000000000e+00,2.693290000000000094e-04,2.693290000000000094e-04
2.210790000000000146e+04,2.693090000000000197e-04,2.693090000000000197e-04,1.000000000000000000e+00,2.693090000000000197e-04,2.693090000000000197e-04
2.442640000000000146e+04,2.692889999999999759e-04,2.692889999999999759e-04,1.000000000000000000e+00,2.692889999999999759e-04,2.692889999999999759e-04
2.697620000000000073e+04,2.692719999999999793e-04,2.692719999999999793e-04,1.000000000000000000e+00,2.692719999999999793e-04,2.692719999999999793e-04
2.978079999999999927e+04,2.692570000000000141e-04,2.692570000000000141e-04,1.000000000000000000e+00,2.692570000000000141e-04,2.692570000000000141e-04
3.286580000000000291e+04,2.692430000000000105e-04,2.692430000000000105e-04,1.000000000000000000e+00,2.692430000000000105e-04,2.692430000000000105e-04
3.625840000000000146e+04,2.692300000000000227e-04,2.692300000000000227e-04,1.000000000000000000e+00,2.692300000000000227e-04,2.692300000000000227e-04
3.998950000000000000e+04,2.692179999999999964e-04,2.692179999999999964e-04,1.000000000000000000e+00,2.692179999999999964e-04,2.692179999999999964e-04
4.409250000000000000e+04,2.692069999999999858e-04,2.692069999999999858e-04,1.000000000000000000e+00,2.692069999999999858e-04,2.692069999999999858e-04
4.860480000000000291e+04,2.691980000000000067e-04,2.691980000000000067e-04,1.000000000000000000e+00,2.691980000000000067e-04,2.691980000000000067e-04
5.356809999999999854e+04,2.691899999999999892e-04,2.691899999999999892e-04,1.000000000000000000e+00,2.691899999999999892e-04,2.691899999999999892e-04
5.902669999999999709e+04,2.691820000000000259e-04,2.691820000000000259e-04,1.000000000000000000e+00,2.691820000000000259e-04,2.691820000000000259e-04
6.502740000000000146e+04,2.691740000000000083e-04,2.691740000000000083e-04,1.000000000000000000e+00,2.691740000000000083e-04,2.691740000000000083e-04
7.162350000000000000e+04,2.691659999999999908e-04,2.691659999999999908e-04,1.000000000000000000e+00,2.691659999999999908e-04,2.691659999999999908e-04
7.887869999999999709e+04,2.691619999999999820e-04,2.691619999999999820e-04,1.000000000000000000e+00,2.691619999999999820e-04,2.691619999999999820e-04
8.685739999999999418e+04,2.691570000000000117e-04,2.691570000000000117e-04,1.000000000000000000e+00,2.691570000000000117e-04,2.691570000000000117e-04
9.562980000000000291e+04,2.691530000000000029e-04,2.691530000000000029e-04,1.000000000000000000e+00,2.691530000000000029e-04,2.691530000000000029e-04
1.052740000000000000e+05,2.691489999999999942e-04,2.691489999999999942e-04,1.000000000000000000e+00,2.691489999999999942e-04,2.691489999999999942e-04
1.158760000000000000e+05,2.691460000000000011e-04,2.691460000000000011e-04,1.000000000000000000e+00,2.691460000000000011e-04,2.691460000000000011e-04
1.275370000000000000e+05,2.691449999999999854e-04,2.691449999999999854e-04,1.000000000000000000e+00,2.691449999999999854e-04,2.691449999999999854e-04
1.403570000000000000e+05,2.691440000000000238e-04,2.691440000000000238e-04,1.000000000000000000e+00,2.691440000000000238e-04,2.691440000000000238e-04
1.544520000000000000e+05,2.691430000000000081e-04,2.691430000000000081e-04,1.000000000000000000e+00,2.691430000000000081e-04,2.691430000000000081e-04
1.699370000000000000e+05,2.691409999999999766e-04,2.691409999999999766e-04,1.000000000000000000e+00,2.691409999999999766e-04,2.691409999999999766e-04
1.869450000000000000e+05,2.691389999999999993e-04,2.691389999999999993e-04,1.000000000000000000e+00,2.691389999999999993e-04,2.691389999999999993e-04
2.056460000000000000e+05,2.691430000000000081e-04,2.691430000000000081e-04,1.000000000000000000e+00,2.691430000000000081e-04,2.691430000000000081e-04
2.262180000000000000e+05,2.691489999999999942e-04,2.691489999999999942e-04,1.000000000000000000e+00,2.691489999999999942e-04,2.691489999999999942e-04
2.488360000000000000e+05,2.691510000000000256e-04,2.691510000000000256e-04,1.000000000000000000e+00,2.691510000000000256e-04,2.691510000000000256e-04
2.736620000000000000e+05,2.691470000000000169e-04,2.691470000000000169e-04,1.000000000000000000e+00,2.691470000000000169e-04,2.691470000000000169e-04
3.009140000000000000e+05,2.691419999999999924e-04,2.691419999999999924e-04,1.000000000000000000e+00,2.691419999999999924e-04,2.691419999999999924e-04
3.308030000000000000e+05,2.691339999999999748e-04,2.691339999999999748e-04,1.000000000000000000e+00,2.691339999999999748e-04,2.691339999999999748e-04
3.616920000000000000e+05,2.688850000000000116e-04,2.688850000000000116e-04,1.000000000000000000e+00,2.688850000000000116e-04,2.688850000000000116e-04
3.936550000000000000e+05,2.686519999999999750e-04,2.686519999999999750e-04,1.000000000000000000e+00,2.686519999999999750e-04,2.686519999999999750e-04
4.267720000000000000e+05,2.684340000000000120e-04,2.684340000000000120e-04,1.000000000000000000e+00,2.684340000000000120e-04,2.684340000000000120e-04
4.609940000000000000e+05,2.682119999999999860e-04,2.682119999999999860e-04,1.000000000000000000e+00,2.682119999999999860e-04,2.682119999999999860e-04
4.964010000000000000e+05,2.680049999999999794e-04,2.680049999999999794e-04,1.000000000000000000e+00,2.680049999999999794e-04,2.680049999999999794e-04
5.330840000000000000e+05,2.678140000000000078e-04,2.678140000000000078e-04,1.000000000000000000e+00,2.678140000000000078e-04,2.678140000000000078e-04
5.711450000000000000e+05,2.676399999999999786e-04,2.676399999999999786e-04,1.000000000000000000e+00,2.676399999999999786e-04,2.676399999999999786e-04
6.106980000000000000e+05,2.674840000000000160e-04,2.674840000000000160e-04,1.000000000000000000e+00,2.674840000000000160e-04,2.674840000000000160e-04
6.516640000000000000e+05,2.673129999999999799e-04,2.673129999999999799e-04,1.000000000000000000e+00,2.673129999999999799e-04,2.673129999999999799e-04
6.941550000000000000e+05,2.671579999999999788e-04,2.671579999999999788e-04,1.000000000000000000e+00,2.671579999999999788e-04,2.671579999999999788e-04
7.382980000000000000e+05,2.670139999999999883e-04,2.670139999999999883e-04,1.000000000000000000e+00,2.670139999999999883e-04,2.670139999999999883e-04
7.842390000000000000e+05,2.668880000000000102e-04,2.668880000000000102e-04,1.000000000000000000e+00,2.668880000000000102e-04,2.668880000000000102e-04
8.321400000000000000e+05,2.667799999999999902e-04,2.667799999999999902e-04,1.000000000000000000e+00,2.667799999999999902e-04,2.667799999999999902e-04
8.818710000000000000e+05,2.666510000000000191e-04,2.666510000000000191e-04,1.000000000000000000e+00,2.666510000000000191e-04,2.666510000000000191e-04
9.335920000000000000e+05,2.665389999999999903e-04,2.665389999999999903e-04,1.000000000000000000e+00,2.665389999999999903e-04,2.665389999999999903e-04
9.878620000000000000e+05,2.664930000000000250e-04,2.664930000000000250e-04,1.000000000000000000e+00,2.664930000000000250e-04,2.664930000000000250e-04
1.044540000000000000e+06,2.664200000000000140e-04,2.664200000000000140e-04,1.000000000000000000e+00,2.664200000000000140e-04,2.664200000000000140e-04
1.103420000000000000e+06,2.663160000000000028e-04,2.663160000000000028e-04,1.000000000000000000e+00,2.663160000000000028e-04,2.663160000000000028e-04
1.165200000000000000e+06,2.662850000000000026e-04,2.662850000000000026e-04,1.000000000000000000e+00,2.662850000000000026e-04,2.662850000000000026e-04
1.230200000000000000e+06,2.662739999999999920e-04,2.662739999999999920e-04,1.000000000000000000e+00,2.662739999999999920e-04,2.662739999999999920e-04
1.298180000000000000e+06,2.662210000000000249e-04,2.662210000000000249e-04,1.000000000000000000e+00,2.662210000000000249e-04,2.662210000000000249e-04
1.367440000000000000e+06,2.659890000000000041e-04,2.659890000000000041e-04,1.000000000000000000e+00,2.659890000000000041e-04,2.659890000000000041e-04
1.438050000000000000e+06,2.657679999999999938e-04,2.657679999999999938e-04,1.000000000000000000e+00,2.657679999999999938e-04,2.657679999999999938e-04
1.510070000000000000e+06,2.655579999999999941e-04,2.655579999999999941e-04,1.000000000000000000e+00,2.655579999999999941e-04,2.655579999999999941e-04
1.583570000000000000e+06,2.653600000000000208e-04,2.653600000000000208e-04,1.000000000000000000e+00,2.653600000000000208e-04,2.653600000000000208e-04
1.659450000000000000e+06,2.652579999999999869e-04,2.652579999999999869e-04,1.000000000000000000e+00,2.652579999999999869e-04,2.652579999999999869e-04
1.737010000000000000e+06,2.650849999999999734e-04,2.650849999999999734e-04,1.000000000000000000e+00,2.650849999999999734e-04,2.650849999999999734e-04
1.816350000000000000e+06,2.649199999999999776e-04,2.649199999999999776e-04,1.000000000000000000e+00,2.649199999999999776e-04,2.649199999999999776e-04
1.897590000000000000e+06,2.647659999999999922e-04,2.647659999999999922e-04,1.000000000000000000e+00,2.647659999999999922e-04,2.647659999999999922e-04
1.981870000000000000e+06,2.647239999999999815e-04,2.647239999999999815e-04,1.000000000000000000e+00,2.647239999999999815e-04,2.647239999999999815e-04
2.068340000000000000e+06,2.645929999999999788e-04,2.645929999999999788e-04,1.000000000000000000e+00,2.645929999999999788e-04,2.645929999999999788e-04
2.157140000000000000e+06,2.644769999999999955e-04,2.644769999999999955e-04,1.000000000000000000e+00,2.644769999999999955e-04,2.644769999999999955e-04
2.248450000000000000e+06,2.643769999999999931e-04,2.643769999999999931e-04,1.000000000000000000e+00,2.643769999999999931e-04,2.643769999999999931e-04
2.343850000000000000e+06,2.644219999999999969e-04,2.644219999999999969e-04,1.000000000000000000e+00,2.644219999999999969e-04,2.644219999999999969e-04
2.442220000000000000e+06,2.643550000000000262e-04,2.643550000000000262e-04,1.000000000000000000e+00,2.643550000000000262e-04,2.643550000000000262e-04
2.543830000000000000e+06,2.643030000000000206e-04,2.643030000000000206e-04,1.000000000000000000e+00,2.643030000000000206e-04,2.643030000000000206e-04
2.647150000000000000e+06,2.641149999999999878e-04,2.641149999999999878e-04,1.000000000000000000e+00,2.641149999999999878e-04,2.641149999999999878e-04
2.754170000000000000e+06,2.640960000000000139e-04,2.640960000000000139e-04,1.000000000000000000e+00,2.640960000000000139e-04,2.640960000000000139e-04
2.863160000000000000e+06,2.639300000000000023e-04,2.639300000000000023e-04,1.000000000000000000e+00,2.639300000000000023e-04,2.639300000000000023e-04
2.974260000000000000e+06,2.637790000000000100e-04,2.637790000000000100e-04,1.000000000000000000e+00,2.637790000000000100e-04,2.637790000000000100e-04
3.087570000000000000e+06,2.636410000000000056e-04,2.636410000000000056e-04,1.000000000000000000e+00,2.636410000000000056e-04,2.636410000000000056e-04
3.203250000000000000e+06,2.635149999999999732e-04,2.635149999999999732e-04,1.000000000000000000e+00,2.635149999999999732e-04,2.635149999999999732e-04
3.321440000000000000e+06,2.634000000000000057e-04,2.634000000000000057e-04,1.000000000000000000e+00,2.634000000000000057e-04,2.634000000000000057e-04
3.442310000000000000e+06,2.632959999999999945e-04,2.632959999999999945e-04,1.000000000000000000e+00,2.632959999999999945e-04,2.632959999999999945e-04
3.566070000000000000e+06,2.632080000000000183e-04,2.632080000000000183e-04,1.000000000000000000e+00,2.632080000000000183e-04,2.632080000000000183e-04
3.696170000000000000e+06,2.633849999999999863e-04,2.633849999999999863e-04,1.000000000000000000e+00,2.633849999999999863e-04,2.633849999999999863e-04
3.829790000000000000e+06,2.633339999999999965e-04,2.633339999999999965e-04,1.000000000000000000e+00,2.633339999999999965e-04,2.633339999999999965e-04
3.967220000000000000e+06,2.633019999999999805e-04,2.633019999999999805e-04,1.000000000000000000e+00,2.633019999999999805e-04,2.633019999999999805e-04
4.104660000000000000e+06,2.629919999999999784e-04,2.629919999999999784e-04,1.000000000000000000e+00,2.629919999999999784e-04,2.629919999999999784e-04
4.246390000000000000e+06,2.629950000000000256e-04,2.629950000000000256e-04,1.000000000000000000e+00,2.629950000000000256e-04,2.629950000000000256e-04
4.388120000000000000e+06,2.626880000000000165e-04,2.626880000000000165e-04,1.000000000000000000e+00,2.626880000000000165e-04,2.626880000000000165e-04
4.534730000000000000e+06,2.627430000000000152e-04,2.627430000000000152e-04,1.000000000000000000e+00,2.627430000000000152e-04,2.627430000000000152e-04
4.686780000000000000e+06,2.628260000000000210e-04,2.628260000000000210e-04,1.000000000000000000e+00,2.628260000000000210e-04,2.628260000000000210e-04
4.838830000000000000e+06,2.625279999999999910e-04,2.625279999999999910e-04,1.000000000000000000e+00,2.625279999999999910e-04,2.625279999999999910e-04
4.997210000000000000e+06,2.626670000000000111e-04,2.626670000000000111e-04,1.000000000000000000e+00,2.626670000000000111e-04,2.626670000000000111e-04
5.155590000000000000e+06,2.623719999999999742e-04,2.623719999999999742e-04,1.000000000000000000e+00,2.623719999999999742e-04,2.623719999999999742e-04
5.321510000000000000e+06,2.625859999999999826e-04,2.625859999999999826e-04,1.000000000000000000e+00,2.625859999999999826e-04,2.625859999999999826e-04
5.487440000000000000e+06,2.623020000000000104e-04,2.623020000000000104e-04,1.000000000000000000e+00,2.623020000000000104e-04,2.623020000000000104e-04
5.662580000000000000e+06,2.626069999999999880e-04,2.626069999999999880e-04,1.000000000000000000e+00,2.626069999999999880e-04,2.626069999999999880e-04
5.837720000000000000e+06,2.623239999999999773e-04,2.623239999999999773e-04,1.000000000000000000e+00,2.623239999999999773e-04,2.623239999999999773e-04
6.012870000000000000e+06,2.620440000000000139e-04,2.620440000000000139e-04,1.000000000000000000e+00,2.620440000000000139e-04,2.620440000000000139e-04
6.200520000000000000e+06,2.625370000000000243e-04,2.625370000000000243e-04,1.000000000000000000e+00,2.625370000000000243e-04,2.625370000000000243e-04
6.388170000000000000e+06,2.622670000000000014e-04,2.622670000000000014e-04,1.000000000000000000e+00,2.622670000000000014e-04,2.622670000000000014e-04
6.575820000000000000e+06,2.619990000000000101e-04,2.619990000000000101e-04,1.000000000000000000e+00,2.619990000000000101e-04,2.619990000000000101e-04
6.763480000000000000e+06,2.617319999999999803e-04,2.617319999999999803e-04,1.000000000000000000e+00,2.617319999999999803e-04,2.617319999999999803e-04
6.951130000000000000e+06,2.614690000000000135e-04,2.614690000000000135e-04,1.000000000000000000e+00,2.614690000000000135e-04,2.614690000000000135e-04
7.138780000000000000e+06,2.612119999999999785e-04,2.612119999999999785e-04,1.000000000000000000e+00,2.612119999999999785e-04,2.612119999999999785e-04
7.326430000000000000e+06,2.609579999999999908e-04,2.609579999999999908e-04,1.000000000000000000e+00,2.609579999999999908e-04,2.609579999999999908e-04
7.514090000000000000e+06,2.607059999999999803e-04,2.607059999999999803e-04,1.000000000000000000e+00,2.607059999999999803e-04,2.607059999999999803e-04
7.701740000000000000e+06,2.604540000000000240e-04,2.604540000000000240e-04,1.000000000000000000e+00,2.604540000000000240e-04,2.604540000000000240e-04
7.889390000000000000e+06,2.602069999999999839e-04,2.602069999999999839e-04,1.000000000000000000e+00,2.602069999999999839e-04,2.602069999999999839e-04
8.077040000000000000e+06,2.599669999999999997e-04,2.599669999999999997e-04,1.000000000000000000e+00,2.599669999999999997e-04,2.599669999999999997e-04
8.264700000000000000e+06,2.597270000000000156e-04,2.597270000000000156e-04,1.000000000000000000e+00,2.597270000000000156e-04,2.597270000000000156e-04
8.452350000000000000e+06,2.594890000000000087e-04,2.594890000000000087e-04,1.000000000000000000e+00,2.594890000000000087e-04,2.594890000000000087e-04
8.640000000000000000e+06,2.592520000000000176e-04,2.592520000000000176e-04,1.000000000000000000e+00,2.592520000000000176e-04,2.592520000000000176e-04
8.845710000000000000e+06,2.602950000000000142e-04,2.602950000000000142e-04,1.000000000000000000e+00,2.602950000000000142e-04,2.602950000000000142e-04
9.067670000000000000e+06,2.610620000000000020e-04,2.610620000000000020e-04,1.000000000000000000e+00,2.610620000000000020e-04,2.610620000000000020e-04
9.309210000000000000e+06,2.618860000000000198e-04,2.618860000000000198e-04,1.000000000000000000e+00,2.618860000000000198e-04,2.618860000000000198e-04
9.566330000000000000e+06,2.624060000000000216e-04,2.624060000000000216e-04,1.000000000000000000e+00,2.624060000000000216e-04,2.624060000000000216e-04
9.823450000000000000e+06,2.621920000000000132e-04,2.621920000000000132e-04,1.000000000000000000e+00,2.621920000000000132e-04,2.621920000000000132e-04
1.008980000000000000e+07,2.624029999999999744e-04,2.624029999999999744e-04,1.000000000000000000e+00,2.624029999999999744e-04,2.624029999999999744e-04
1.036630000000000000e+07,2.626419999999999970e-04,2.626419999999999970e-04,1.000000000000000000e+00,2.626419999999999970e-04,2.626419999999999970e-04
1.064290000000000000e+07,2.624430000000000079e-04,2.624430000000000079e-04,1.000000000000000000e+00,2.624430000000000079e-04,2.624430000000000079e-04
1.093140000000000000e+07,2.627549999999999873e-04,2.627549999999999873e-04,1.000000000000000000e+00,2.627549999999999873e-04,2.627549999999999873e-04
1.122000000000000000e+07,2.625689999999999860e-04,2.625689999999999860e-04,1.000000000000000000e+00,2.625689999999999860e-04,2.625689999999999860e-04
1.150860000000000000e+07,2.623899999999999865e-04,2.623899999999999865e-04,1.000000000000000000e+00,2.623899999999999865e-04,2.623899999999999865e-04
1.181230000000000000e+07,2.628290000000000140e-04,2.628290000000000140e-04,1.000000000000000000e+00,2.628290000000000140e-04,2.628290000000000140e-04
1.211610000000000000e+07,2.626600000000000094e-04,2.626600000000000094e-04,1.000000000000000000e+00,2.626600000000000094e-04,2.626600000000000094e-04
1.241980000000000000e+07,2.624990000000000222e-04,2.624990000000000222e-04,1.000000000000000000e+00,2.624990000000000222e-04,2.624990000000000222e-04
1.274390000000000000e+07,2.631190000000000265e-04,2.631190000000000265e-04,1.000000000000000000e+00,2.631190000000000265e-04,2.631190000000000265e-04
1.306790000000000000e+07,2.629679999999999800e-04,2.629679999999999800e-04,1.000000000000000000e+00,2.629679999999999800e-04,2.629679999999999800e-04
1.339190000000000000e+07,2.628260000000000210e-04,2.628260000000000210e-04,1.000000000000000000e+00,2.628260000000000210e-04,2.628260000000000210e-04
1.371590000000000000e+07,2.626889999999999781e-04,2.626889999999999781e-04,1.000000000000000000e+00,2.626889999999999781e-04,2.626889999999999781e-04
1.403990000000000000e+07,2.625589999999999912e-04,2.625589999999999912e-04,1.000000000000000000e+00,2.625589999999999912e-04,2.625589999999999912e-04
1.436390000000000000e+07,2.624330000000000131e-04,2.624330000000000131e-04,1.000000000000000000e+00,2.624330000000000131e-04,2.624330000000000131e-04
1.468790000000000000e+07,2.623120000000000052e-04,2.623120000000000052e-04,1.000000000000000000e+00,2.623120000000000052e-04,2.623120000000000052e-04
1.501190000000000000e+07,2.621969999999999835e-04,2.621969999999999835e-04,1.000000000000000000e+00,2.621969999999999835e-04,2.621969999999999835e-04
1.533590000000000000e+07,2.620869999999999862e-04,2.620869999999999862e-04,1.000000000000000000e+00,2.620869999999999862e-04,2.620869999999999862e-04
1.565990000000000000e+07,2.619820000000000135e-04,2.619820000000000135e-04,1.000000000000000000e+00,2.619820000000000135e-04,2.619820000000000135e-04
1.598400000000000000e+07,2.618799999999999796e-04,2.618799999999999796e-04,1.000000000000000000e+00,2.618799999999999796e-04,2.618799999999999796e-04
1.630800000000000000e+07,2.617860000000000174e-04,2.617860000000000174e-04,1.000000000000000000e+00,2.617860000000000174e-04,2.617860000000000174e-04
1.663200000000000000e+07,2.616949999999999940e-04,2.616949999999999940e-04,1.000000000000000000e+00,2.616949999999999940e-04,2.616949999999999940e-04
1.695600000000000000e+07,2.616089999999999952e-04,2.616089999999999952e-04,1.000000000000000000e+00,2.616089999999999952e-04,2.616089999999999952e-04
1.728000000000000000e+07,2.615280000000000209e-04,2.615280000000000209e-04,1.000000000000000000e+00,2.615280000000000209e-04,2.615280000000000209e-04
1.762560000000000000e+07,2.623869999999999935e-04,2.623869999999999935e-04,1.000000000000000000e+00,2.623869999999999935e-04,2.623869999999999935e-04
1.800260000000000000e+07,2.635100000000000029e-04,2.635100000000000029e-04,1.000000000000000000e+00,2.635100000000000029e-04,2.635100000000000029e-04
1.839850000000000000e+07,2.640899999999999736e-04,2.640899999999999736e-04,1.000000000000000000e+00,2.640899999999999736e-04,2.640899999999999736e-04
1.881630000000000000e+07,2.647370000000000235e-04,2.647370000000000235e-04,1.000000000000000000e+00,2.647370000000000235e-04,2.647370000000000235e-04
1.926030000000000000e+07,2.654549999999999987e-04,2.654549999999999987e-04,1.000000000000000000e+00,2.654549999999999987e-04,2.654549999999999987e-04
1.970430000000000000e+07,2.654450000000000039e-04,2.654450000000000039e-04,1.000000000000000000e+00,2.654450000000000039e-04,2.654450000000000039e-04
2.014830000000000000e+07,2.654539999999999829e-04,2.654539999999999829e-04,1.000000000000000000e+00,2.654539999999999829e-04,2.654539999999999829e-04
2.059230000000000000e+07,2.654719999999999953e-04,2.654719999999999953e-04,1.000000000000000000e+00,2.654719999999999953e-04,2.654719999999999953e-04
2.107660000000000000e+07,2.665589999999999800e-04,2.665589999999999800e-04,1.000000000000000000e+00,2.665589999999999800e-04,2.665589999999999800e-04
2.156090000000000000e+07,2.665920000000000117e-04,2.665920000000000117e-04,1.000000000000000000e+00,2.665920000000000117e-04,2.665920000000000117e-04
2.204530000000000000e+07,2.666529999999999964e-04,2.666529999999999964e-04,1.000000000000000000e+00,2.666529999999999964e-04,2.666529999999999964e-04
2.252960000000000000e+07,2.667230000000000143e-04,2.667230000000000143e-04,1.000000000000000000e+00,2.667230000000000143e-04,2.667230000000000143e-04
2.301400000000000000e+07,2.668029999999999729e-04,2.668029999999999729e-04,1.000000000000000000e+00,2.668029999999999729e-04,2.668029999999999729e-04
2.349830000000000000e+07,2.668910000000000032e-04,2.668910000000000032e-04,1.000000000000000000e+00,2.668910000000000032e-04,2.668910000000000032e-04
2.398260000000000000e+07,2.669869999999999969e-04,2.669869999999999969e-04,1.000000000000000000e+00,2.669869999999999969e-04,2.669869999999999969e-04
2.446700000000000000e+07,2.670929999999999854e-04,2.670929999999999854e-04,1.000000000000000000e+00,2.670929999999999854e-04,2.670929999999999854e-04
2.495130000000000000e+07,2.672080000000000071e-04,2.672080000000000071e-04,1.000000000000000000e+00,2.672080000000000071e-04,2.672080000000000071e-04
2.543570000000000000e+07,2.673309999999999922e-04,2.673309999999999922e-04,1.000000000000000000e+00,2.673309999999999922e-04,2.673309999999999922e-04
2.592000000000000000e+07,2.674640000000000264e-04,2.674640000000000264e-04,1.000000000000000000e+00,2.674640000000000264e-04,2.674640000000000264e-04
2.642820000000000000e+07,2.682490000000000265e-04,2.682490000000000265e-04,1.000000000000000000e+00,2.682490000000000265e-04,2.682490000000000265e-04
2.697040000000000000e+07,2.692290000000000069e-04,2.692290000000000069e-04,1.000000000000000000e+00,2.692290000000000069e-04,2.692290000000000069e-04
2.755420000000000000e+07,2.703110000000000213e-04,2.703110000000000213e-04,1.000000000000000000e+00,2.703110000000000213e-04,2.703110000000000213e-04
2.813800000000000000e+07,2.705189999999999895e-04,2.705189999999999895e-04,1.000000000000000000e+00,2.705189999999999895e-04,2.705189999999999895e-04
2.872180000000000000e+07,2.707659999999999755e-04,2.707659999999999755e-04,1.000000000000000000e+00,2.707659999999999755e-04,2.707659999999999755e-04
2.930560000000000000e+07,2.710249999999999877e-04,2.710249999999999877e-04,1.000000000000000000e+00,2.710249999999999877e-04,2.710249999999999877e-04
2.988940000000000000e+07,2.712950000000000105e-04,2.712950000000000105e-04,1.000000000000000000e+00,2.712950000000000105e-04,2.712950000000000105e-04
3.047330000000000000e+07,2.715799999999999985e-04,2.715799999999999985e-04,1.000000000000000000e+00,2.715799999999999985e-04,2.715799999999999985e-04
3.105710000000000000e+07,2.718749999999999813e-04,2.718749999999999813e-04,1.000000000000000000e+00,2.718749999999999813e-04,2.718749999999999813e-04
3.164090000000000000e+07,2.721840000000000218e-04,2.721840000000000218e-04,1.000000000000000000e+00,2.721840000000000218e-04,2.721840000000000218e-04
3.222470000000000000e+07,2.725049999999999803e-04,2.725049999999999803e-04,1.000000000000000000e+00,2.725049999999999803e-04,2.725049999999999803e-04
3.280850000000000000e+07,2.728389999999999808e-04,2.728389999999999808e-04,1.000000000000000000e+00,2.728389999999999808e-04,2.728389999999999808e-04
3.339240000000000000e+07,2.731850000000000077e-04,2.731850000000000077e-04,1.000000000000000000e+00,2.731850000000000077e-04,2.731850000000000077e-04
3.397620000000000000e+07,2.735440000000000224e-04,2.735440000000000224e-04,1.000000000000000000e+00,2.735440000000000224e-04,2.735440000000000224e-04
3.456000000000000000e+07,2.739150000000000092e-04,2.739150000000000092e-04,1.000000000000000000e+00,2.739150000000000092e-04,2.739150000000000092e-04
3.517710000000000000e+07,2.750440000000000046e-04,2.750440000000000046e-04,1.000000000000000000e+00,2.750440000000000046e-04,2.750440000000000046e-04
3.584570000000000000e+07,2.764630000000000126e-04,2.764630000000000126e-04,1.000000000000000000e+00,2.764630000000000126e-04,2.764630000000000126e-04
3.651430000000000000e+07,2.769059999999999946e-04,2.769059999999999946e-04,1.000000000000000000e+00,2.769059999999999946e-04,2.769059999999999946e-04
3.718290000000000000e+07,2.774109999999999771e-04,2.774109999999999771e-04,1.000000000000000000e+00,2.774109999999999771e-04,2.774109999999999771e-04
3.785140000000000000e+07,2.779319999999999946e-04,2.779319999999999946e-04,1.000000000000000000e+00,2.779319999999999946e-04,2.779319999999999946e-04
3.852000000000000000e+07,2.784689999999999930e-04,2.784689999999999930e-04,1.000000000000000000e+00,2.784689999999999930e-04,2.784689999999999930e-04
3.918860000000000000e+07,2.790250000000000195e-04,2.790250000000000195e-04,1.000000000000000000e+00,2.790250000000000195e-04,2.790250000000000195e-04
3.985710000000000000e+07,2.795970000000000269e-04,2.795970000000000269e-04,1.000000000000000000e+00,2.795970000000000269e-04,2.795970000000000269e-04
4.052570000000000000e+07,2.801859999999999767e-04,2.801859999999999767e-04,1.000000000000000000e+00,2.801859999999999767e-04,2.801859999999999767e-04
4.119430000000000000e+07,2.807940000000000089e-04,2.807940000000000089e-04,1.000000000000000000e+00,2.807940000000000089e-04,2.807940000000000089e-04
4.186290000000000000e+07,2.814180000000000219e-04,2.814180000000000219e-04,1.000000000000000000e+00,2.814180000000000219e-04,2.814180000000000219e-04
4.253140000000000000e+07,2.820610000000000088e-04,2.820610000000000088e-04,1.000000000000000000e+00,2.820610000000000088e-04,2.820610000000000088e-04
4.320000000000000000e+07,2.827220000000000080e-04,2.827220000000000080e-04,1.000000000000000000e+00,2.827220000000000080e-04,2.827220000000000080e-04
4.392000000000000000e+07,2.843850000000000089e-04,2.843850000000000089e-04,1.000000000000000000e+00,2.843850000000000089e-04,2.843850000000000089e-04
4.471200000000000000e+07,2.862690000000000200e-04,2.862690000000000200e-04,1.000000000000000000e+00,2.862690000000000200e-04,2.862690000000000200e-04
4.550400000000000000e+07,2.870559999999999974e-04,2.870559999999999974e-04,1.000000000000000000e+00,2.870559999999999974e-04,2.870559999999999974e-04
4.629600000000000000e+07,2.879469999999999860e-04,2.879469999999999860e-04,1.000000000000000000e+00,2.879469999999999860e-04,2.879469999999999860e-04
4.708800000000000000e+07,2.888650000000000202e-04,2.888650000000000202e-04,1.000000000000000000e+00,2.888650000000000202e-04,2.888650000000000202e-04
4.788000000000000000e+07,2.898110000000000074e-04,2.898110000000000074e-04,1.000000000000000000e+00,2.898110000000000074e-04,2.898110000000000074e-04
4.867200000000000000e+07,2.907830000000000245e-04,2.907830000000000245e-04,1.000000000000000000e+00,2.907830000000000245e-04,2.907830000000000245e-04
4.946400000000000000e+07,2.917829999999999946e-04,2.917829999999999946e-04,1.000000000000000000e+00,2.917829999999999946e-04,2.917829999999999946e-04
5.025600000000000000e+07,2.928110000000000261e-04,2.928110000000000261e-04,1.000000000000000000e+00,2.928110000000000261e-04,2.928110000000000261e-04
5.104800000000000000e+07,2.938680000000000263e-04,2.938680000000000263e-04,1.000000000000000000e+00,2.938680000000000263e-04,2.938680000000000263e-04
5.184000000000000000e+07,2.949529999999999795e-04,2.949529999999999795e-04,1.000000000000000000e+00,2.949529999999999795e-04,2.949529999999999795e-04
5.270400000000000000e+07,2.971459999999999770e-04,2.971459999999999770e-04,1.000000000000000000e+00,2.971459999999999770e-04,2.971459999999999770e-04
5.356800000000000000e+07,2.982999999999999866e-04,2.982999999999999866e-04,1.000000000000000000e+00,2.982999999999999866e-04,2.982999999999999866e-04
5.443200000000000000e+07,2.995900000000000234e-04,2.995900000000000234e-04,1.000000000000000000e+00,2.995900000000000234e-04,2.995900000000000234e-04
5.529600000000000000e+07,3.009180000000000080e-04,3.009180000000000080e-04,1.000000000000000000e+00,3.009180000000000080e-04,3.009180000000000080e-04
5.616000000000000000e+07,3.022839999999999945e-04,3.022839999999999945e-04,1.000000000000000000e+00,3.022839999999999945e-04,3.022839999999999945e-04
5.702400000000000000e+07,3.036860000000000059e-04,3.036870000000000216e-04,1.000000000000000000e+00,3.036860000000000059e-04,3.036870000000000216e-04
5.788800000000000000e+07,3.051269999999999807e-04,3.051299999999999737e-04,1.000000000000000000e+00,3.051269999999999807e-04,3.051299999999999737e-04
5.875200000000000000e+07,3.066060000000000118e-04,3.066109999999999821e-04,1.000000000000000000e+00,3.066060000000000118e-04,3.066109999999999821e-04
5.961600000000000000e+07,3.081159999999999888e-04,3.081299999999999924e-04,1.000000000000000000e+00,3.081159999999999888e-04,3.081299999999999924e-04
6.048000000000000000e+07,3.096479999999999871e-04,3.096800000000000030e-04,1.000000000000000000e+00,3.096479999999999871e-04,3.096800000000000030e-04
6.134400000000000000e+07,3.111820000000000168e-04,3.112529999999999963e-04,1.000000000000000000e+00,3.111820000000000168e-04,3.112529999999999963e-04
6.220800000000000000e+07,3.126769999999999745e-04,3.128249999999999737e-04,1.000000000000000000e+00,3.126769999999999745e-04,3.128249999999999737e-04
6.307200000000000000e+07,3.140649999999999822e-04,3.143500000000000244e-04,1.000000000000000000e+00,3.140649999999999822e-04,3.143500000000000244e-04
6.393600000000000000e+07,3.152459999999999833e-04,3.157510000000000199e-04,1.000000000000000000e+00,3.152459999999999833e-04,3.157510000000000199e-04
6.480000000000000000e+07,3.161069999999999874e-04,3.169189999999999789e-04,1.000000000000000000e+00,3.161069999999999874e-04,3.169189999999999789e-04
6.566400000000000000e+07,3.165660000000000045e-04,3.177279999999999775e-04,1.000000000000000000e+00,3.165660000000000045e-04,3.177279999999999775e-04
6.652800000000000000e+07,3.166320000000000137e-04,3.180960000000000254e-04,1.000000000000000000e+00,3.166320000000000137e-04,3.180960000000000254e-04
6.739200000000000000e+07,3.164350000000000019e-04,3.180600000000000007e-04,1.000000000000000000e+00,3.164350000000000019e-04,3.180600000000000007e-04
6.825600000000000000e+07,3.161600000000000087e-04,3.177860000000000233e-04,1.000000000000000000e+00,3.161600000000000087e-04,3.177860000000000233e-04
6.912000000000000000e+07,3.159200000000000246e-04,3.174690000000000194e-04,1.000000000000000000e+00,3.159200000000000246e-04,3.174690000000000194e-04
6.998400000000000000e+07,3.156999999999999759e-04,3.172019999999999896e-04,1.000000000000000000e+00,3.156999999999999759e-04,3.172019999999999896e-04
7.084800000000000000e+07,3.154109999999999791e-04,3.169410000000000001e-04,1.000000000000000000e+00,3.154109999999999791e-04,3.169410000000000001e-04
7.171200000000000000e+07,3.149809999999999850e-04,3.165859999999999942e-04,1.000000000000000000e+00,3.149809999999999850e-04,3.165859999999999942e-04
7.257600000000000000e+07,3.144089999999999776e-04,3.160789999999999802e-04,1.000000000000000000e+00,3.144089999999999776e-04,3.160789999999999802e-04
7.344000000000000000e+07,3.137349999999999904e-04,3.154330000000000003e-04,1.000000000000000000e+00,3.137349999999999904e-04,3.154330000000000003e-04
7.430400000000000000e+07,3.129909999999999854e-04,3.146919999999999882e-04,1.000000000000000000e+00,3.129909999999999854e-04,3.146919999999999882e-04
7.516800000000000000e+07,3.121800000000000096e-04,3.138829999999999897e-04,1.000000000000000000e+00,3.121800000000000096e-04,3.138829999999999897e-04
7.603200000000000000e+07,3.112920000000000140e-04,3.130039999999999732e-04,1.000000000000000000e+00,3.112920000000000140e-04,3.130039999999999732e-04
7.689600000000000000e+07,3.103180000000000196e-04,3.120439999999999824e-04,1.000000000000000000e+00,3.103180000000000196e-04,3.120439999999999824e-04
7.776000000000000000e+07,3.092570000000000106e-04,3.109949999999999997e-04,1.000000000000000000e+00,3.092570000000000106e-04,3.109949999999999997e-04
7.862400000000000000e+07,3.081149999999999731e-04,3.098600000000000182e-04,1.000000000000000000e+00,3.081149999999999731e-04,3.098600000000000182e-04
7.948800000000000000e+07,3.068909999999999997e-04,3.086419999999999767e-04,1.000000000000000000e+00,3.068909999999999997e-04,3.086419999999999767e-04
8.035200000000000000e+07,3.055889999999999909e-04,3.073430000000000151e-04,1.000000000000000000e+00,3.055889999999999909e-04,3.073430000000000151e-04
8.121600000000000000e+07,3.042079999999999849e-04,3.059650000000000022e-04,1.000000000000000000e+00,3.042079999999999849e-04,3.059650000000000022e-04
8.208000000000000000e+07,3.027470000000000204e-04,3.045069999999999765e-04,1.000000000000000000e+00,3.027470000000000204e-04,3.045069999999999765e-04
8.294400000000000000e+07,3.012089999999999820e-04,3.029710000000000237e-04,1.000000000000000000e+00,3.012089999999999820e-04,3.029710000000000237e-04
8.380800000000000000e+07,2.995939999999999779e-04,3.013560000000000197e-04,1.000000000000000000e+00,2.995939999999999779e-04,3.013560000000000197e-04
8.467200000000000000e+07,2.979039999999999857e-04,2.996659999999999732e-04,1.000000000000000000e+00,2.979039999999999857e-04,2.996659999999999732e-04
8.553600000000000000e+07,2.961379999999999893e-04,2.978990000000000153e-04,1.000000000000000000e+00,2.961379999999999893e-04,2.978990000000000153e-04
8.640000000000000000e+07,2.942999999999999978e-04,2.960589999999999923e-04,1.000000000000000000e+00,2.942999999999999978e-04,2.960589999999999923e-04
8.726400000000000000e+07,2.923900000000000110e-04,2.941469999999999740e-04,1.000000000000000000e+00,2.923900000000000110e-04,2.941469999999999740e-04
8.812800000000000000e+07,2.904100000000000062e-04,2.921630000000000147e-04,1.000000000000000000e+00,2.904100000000000062e-04,2.921630000000000147e-04
8.899200000000000000e+07,2.883620000000000150e-04,2.901110000000000147e-04,1.000000000000000000e+00,2.883620000000000150e-04,2.901110000000000147e-04
8.985600000000000000e+07,2.862459999999999831e-04,2.879909999999999740e-04,1.000000000000000000e+00,2.862459999999999831e-04,2.879909999999999740e-04
9.072000000000000000e+07,2.840659999999999735e-04,2.858070000000000098e-04,1.000000000000000000e+00,2.840659999999999735e-04,2.858070000000000098e-04
9.158400000000000000e+07,2.818230000000000019e-04,2.835590000000000137e-04,1.000000000000000000e+00,2.818230000000000019e-04,2.835590000000000137e-04
9.244800000000000000e+07,2.795200000000000072e-04,2.812499999999999787e-04,1.000000000000000000e+00,2.795200000000000072e-04,2.812499999999999787e-04
9.331200000000000000e+07,2.771590000000000208e-04,2.788819999999999906e-04,1.000000000000000000e+00,2.771590000000000208e-04,2.788819999999999906e-04
9.417600000000000000e+07,2.747410000000000043e-04,2.764579999999999880e-04,1.000000000000000000e+00,2.747410000000000043e-04,2.764579999999999880e-04
9.504000000000000000e+07,2.722709999999999822e-04,2.739789999999999869e-04,1.000000000000000000e+00,2.722709999999999822e-04,2.739789999999999869e-04
9.590400000000000000e+07,2.697479999999999930e-04,2.714500000000000116e-04,1.000000000000000000e+00,2.697479999999999930e-04,2.714500000000000116e-04
9.676800000000000000e+07,2.671780000000000227e-04,2.688710000000000080e-04,1.000000000000000000e+00,2.671780000000000227e-04,2.688710000000000080e-04
9.763200000000000000e+07,2.645610000000000171e-04,2.662459999999999848e-04,1.000000000000000000e+00,2.645610000000000171e-04,2.662459999999999848e-04
9.849600000000000000e+07,2.619020000000000007e-04,2.635779999999999894e-04,1.000000000000000000e+00,2.619020000000000007e-04,2.635779999999999894e-04
9.936000000000000000e+07,2.592009999999999735e-04,2.608679999999999831e-04,1.000000000000000000e+00,2.592009999999999735e-04,2.608679999999999831e-04
1.002240000000000000e+08,2.564630000000000143e-04,2.581199999999999749e-04,1.000000000000000000e+00,2.564630000000000143e-04,2.581199999999999749e-04
1.010880000000000000e+08,2.536899999999999919e-04,2.553370000000000119e-04,1.000000000000000000e+00,2.536899999999999919e-04,2.553370000000000119e-04
1.019520000000000000e+08,2.508839999999999920e-04,2.525210000000000172e-04,1.000000000000000000e+00,2.508839999999999920e-04,2.525210000000000172e-04
1.028160000000000000e+08,2.480480000000000076e-04,2.496749999999999838e-04,1.000000000000000000e+00,2.480480000000000076e-04,2.496749999999999838e-04
1.036800000000000000e+08,2.451849999999999776e-04,2.468009999999999974e-04,1.000000000000000000e+00,2.451849999999999776e-04,2.468009999999999974e-04
1.045440000000000000e+08,2.422980000000000034e-04,2.439040000000000012e-04,1.000000000000000000e+00,2.422980000000000034e-04,2.439040000000000012e-04
1.054080000000000000e+08,2.393890000000000080e-04,2.409830000000000067e-04,1.000000000000000000e+00,2.393890000000000080e-04,2.409830000000000067e-04
1.062720000000000000e+08,2.364610000000000117e-04,2.380439999999999997e-04,1.000000000000000000e+00,2.364610000000000117e-04,2.380439999999999997e-04
1.071360000000000000e+08,2.335170000000000073e-04,2.350879999999999962e-04,1.000000000000000000e+00,2.335170000000000073e-04,2.350879999999999962e-04
1.080000000000000000e+08,2.305580000000000108e-04,2.321179999999999890e-04,1.000000000000000000e+00,2.305580000000000108e-04,2.321179999999999890e-04
1.088640000000000000e+08,2.275880000000000036e-04,2.291360000000000098e-04,1.000000000000000000e+00,2.275880000000000036e-04,2.291360000000000098e-04
1.097280000000000000e+08,2.246089999999999903e-04,2.261449999999999973e-04,1.000000000000000000e+00,2.246089999999999903e-04,2.261449999999999973e-04
1.105920000000000000e+08,2.216230000000000023e-04,2.231470000000000101e-04,1.000000000000000000e+00,2.216230000000000023e-04,2.231470000000000101e-04
1.114560000000000000e+08,2.186319999999999898e-04,2.201439999999999983e-04,1.000000000000000000e+00,2.186319999999999898e-04,2.201439999999999983e-04
1.123200000000000000e+08,2.156399999999999886e-04,2.171390000000000093e-04,1.000000000000000000e+00,2.156399999999999886e-04,2.171390000000000093e-04
1.131840000000000000e+08,2.126469999999999988e-04,2.141330000000000045e-04,1.000000000000000000e+00,2.126469999999999988e-04,2.141330000000000045e-04
1.140480000000000000e+08,2.096560000000000134e-04,2.111290000000000042e-04,1.000000000000000000e+00,2.096560000000000134e-04,2.111290000000000042e-04
1.149120000000000000e+08,2.066679999999999939e-04,2.081300000000000012e-04,1.000000000000000000e+00,2.066679999999999939e-04,2.081300000000000012e-04
1.157760000000000000e+08,2.036870000000000033e-04,2.051350000000000070e-04,1.000000000000000000e+00,2.036870000000000033e-04,2.051350000000000070e-04
1.166400000000000000e+08,2.007129999999999873e-04,2.021489999999999919e-04,1.000000000000000000e+00,2.007129999999999873e-04,2.021489999999999919e-04
1.175040000000000000e+08,1.977480000000000047e-04,1.991709999999999943e-04,1.000000000000000000e+00,1.977480000000000047e-04,1.991709999999999943e-04
1.183680000000000000e+08,1.947940000000000056e-04,1.962040000000000073e-04,1.000000000000000000e+00,1.947940000000000056e-04,1.962040000000000073e-04
1.192320000000000000e+08,1.918529999999999942e-04,1.932500000000000081e-04,1.000000000000000000e+00,1.918529999999999942e-04,1.932500000000000081e-04
1.200960000000000000e+08,1.889249999999999979e-04,1.903100000000000126e-04,1.000000000000000000e+00,1.889249999999999979e-04,1.903100000000000126e-04
1.209600000000000000e+08,1.860130000000000095e-04,1.873839999999999935e-04,1.000000000000000000e+00,1.860130000000000095e-04,1.873839999999999935e-04
1.218240000000000000e+08,1.831170000000000020e-04,1.844759999999999868e-04,1.000000000000000000e+00,1.831170000000000020e-04,1.844759999999999868e-04
1.226880000000000000e+08,1.802399999999999955e-04,1.815850000000000038e-04,1.000000000000000000e+00,1.802399999999999955e-04,1.815850000000000038e-04
1.235520000000000000e+08,1.773810000000000013e-04,1.787129999999999947e-04,1.000000000000000000e+00,1.773810000000000013e-04,1.787129999999999947e-04
1.244160000000000000e+08,1.745419999999999968e-04,1.758619999999999910e-04,1.000000000000000000e+00,1.745419999999999968e-04,1.758619999999999910e-04
1.252800000000000000e+08,1.717239999999999977e-04,1.730310000000000040e-04,1.000000000000000000e+00,1.717239999999999977e-04,1.730310000000000040e-04
1.261440000000000000e+08,1.689290000000000084e-04,1.702229999999999997e-04,1.000000000000000000e+00,1.689290000000000084e-04,1.702229999999999997e-04
1.270080000000000000e+08,1.661560000000000131e-04,1.674369999999999895e-04,1.000000000000000000e+00,1.661560000000000131e-04,1.674369999999999895e-04
1.278720000000000000e+08,1.634060000000000005e-04,1.646750000000000048e-04,1.000000000000000000e+00,1.634060000000000005e-04,1.646750000000000048e-04
1.287360000000000000e+08,1.606810000000000020e-04,1.619380000000000071e-04,1.000000000000000000e+00,1.606810000000000020e-04,1.619380000000000071e-04
1.296000000000000000e+08,1.579809999999999906e-04,1.592250000000000078e-04,1.000000000000000000e+00,1.579809999999999906e-04,1.592250000000000078e-04
1.304640000000000000e+08,1.553070000000000091e-04,1.565390000000000000e-04,1.000000000000000000e+00,1.553070000000000091e-04,1.565390000000000000e-04
1.313280000000000000e+08,1.526590000000000032e-04,1.538780000000000063e-04,1.000000000000000000e+00,1.526590000000000032e-04,1.538780000000000063e-04
1.321920000000000000e+08,1.500379999999999889e-04,1.512440000000000041e-04,1.000000000000000000e+00,1.500379999999999889e-04,1.512440000000000041e-04
1.330560000000000000e+08,1.474430000000000044e-04,1.486369999999999933e-04,1.000000000000000000e+00,1.474430000000000044e-04,1.486369999999999933e-04
1.339200000000000000e+08,1.448760000000000000e-04,1.460579999999999897e-04,1.000000000000000000e+00,1.448760000000000000e-04,1.460579999999999897e-04
1.347840000000000000e+08,1.423370000000000028e-04,1.435069999999999933e-04,1.000000000000000000e+00,1.423370000000000028e-04,1.435069999999999933e-04
1.356480000000000000e+08,1.398260000000000128e-04,1.409840000000000041e-04,1.000000000000000000e+00,1.398260000000000128e-04,1.409840000000000041e-04
1.365120000000000000e+08,1.373430000000000028e-04,1.384889999999999949e-04,1.000000000000000000e+00,1.373430000000000028e-04,1.384889999999999949e-04
1.373760000000000000e+08,1.348880000000000001e-04,1.360219999999999930e-04,1.000000000000000000e+00,1.348880000000000001e-04,1.360219999999999930e-04
1.382400000000000000e+08,1.324630000000000089e-04,1.335850000000000026e-04,1.000000000000000000e+00,1.324630000000000089e-04,1.335850000000000026e-04
1.391040000000000000e+08,1.300659999999999978e-04,1.311770000000000080e-04,1.000000000000000000e+00,1.300659999999999978e-04,1.311770000000000080e-04
1.399680000000000000e+08,1.276980000000000096e-04,1.287969999999999935e-04,1.000000000000000000e+00,1.276980000000000096e-04,1.287969999999999935e-04
1.408320000000000000e+08,1.253589999999999902e-04,1.264469999999999906e-04,1.000000000000000000e+00,1.253589999999999902e-04,1.264469999999999906e-04
1.416960000000000000e+08,1.230500000000000094e-04,1.241260000000000106e-04,1.000000000000000000e+00,1.230500000000000094e-04,1.241260000000000106e-04
1.425600000000000000e+08,1.207689999999999952e-04,1.218339999999999994e-04,1.000000000000000000e+00,1.207689999999999952e-04,1.218339999999999994e-04
1.434240000000000000e+08,1.185170000000000039e-04,1.195709999999999975e-04,1.000000000000000000e+00,1.185170000000000039e-04,1.195709999999999975e-04
1.442880000000000000e+08,1.162939999999999948e-04,1.173370000000000050e-04,1.000000000000000000e+00,1.162939999999999948e-04,1.173370000000000050e-04
1.451520000000000000e+08,1.140999999999999952e-04,1.151319999999999948e-04,1.000000000000000000e+00,1.140999999999999952e-04,1.151319999999999948e-04
1.460160000000000000e+08,1.119350000000000049e-04,1.129559999999999939e-04,1.000000000000000000e+00,1.119350000000000049e-04,1.129559999999999939e-04
1.468800000000000000e+08,1.097989999999999969e-04,1.108090000000000024e-04,1.000000000000000000e+00,1.097989999999999969e-04,1.108090000000000024e-04
1.477440000000000000e+08,1.076909999999999960e-04,1.086909999999999932e-04,1.000000000000000000e+00,1.076909999999999960e-04,1.086909999999999932e-04
1.486080000000000000e+08,1.056120000000000046e-04,1.066010000000000048e-04,1.000000000000000000e+00,1.056120000000000046e-04,1.066010000000000048e-04
1.494720000000000000e+08,1.035609999999999932e-04,1.045389999999999964e-04,1.000000000000000000e+00,1.035609999999999932e-04,1.045389999999999964e-04
1.503360000000000000e+08,1.015380000000000026e-04,1.025059999999999974e-04,1.000000000000000000e+00,1.015380000000000026e-04,1.025059999999999974e-04
1.512000000000000000e+08,9.954289999999999861e-05,1.005010000000000056e-04,1.000000000000000000e+00,9.954289999999999861e-05,1.005010000000000056e-04
1.520640000000000000e+08,9.757560000000000137e-05,9.852309999999999865e-05,1.000000000000000000e+00,9.757560000000000137e-05,9.852309999999999865e-05
1.529280000000000000e+08,9.563580000000000345e-05,9.657319999999999891e-05,1.000000000000000000e+00,9.563580000000000345e-05,9.657319999999999891e-05
1.537920000000000000e+08,9.372339999999999784e-05,9.465079999999999848e-05,1.000000000000000000e+00,9.372339999999999784e-05,9.465079999999999848e-05
1.546560000000000000e+08,9.183810000000000421e-05,9.275560000000000348e-05,1.000000000000000000e+00,9.183810000000000421e-05,9.275560000000000348e-05
1.555200000000000000e+08,8.997969999999999504e-05,9.088730000000000647e-05,1.000000000000000000e+00,8.997969999999999504e-05,9.088730000000000647e-05
1.563840000000000000e+08,8.814779999999999653e-05,8.904569999999999348e-05,1.000000000000000000e+00,8.814779999999999653e-05,8.904569999999999348e-05
1.572480000000000000e+08,8.634219999999999471e-05,8.723049999999999771e-05,1.000000000000000000e+00,8.634219999999999471e-05,8.723049999999999771e-05
1.581120000000000000e+08,8.456299999999999657e-05,8.544170000000000562e-05,1.000000000000000000e+00,8.456299999999999657e-05,8.544170000000000562e-05
1.589760000000000000e+08,8.280940000000000035e-05,8.367879999999999578e-05,1.000000000000000000e+00,8.280940000000000035e-05,8.367879999999999578e-05
1.598400000000000000e+08,8.108160000000000649e-05,8.194159999999999487e-05,1.000000000000000000e+00,8.108160000000000649e-05,8.194159999999999487e-05
1.607040000000000000e+08,7.937900000000000012e-05,8.022970000000000199e-05,1.000000000000000000e+00,7.937900000000000012e-05,8.022970000000000199e-05
1.615680000000000000e+08,7.770150000000000136e-05,7.854310000000000360e-05,1.000000000000000000e+00,7.770150000000000136e-05,7.854310000000000360e-05
1.624320000000000000e+08,7.604900000000000321e-05,7.688139999999999883e-05,1.000000000000000000e+00,7.604900000000000321e-05,7.688139999999999883e-05
1.632960000000000000e+08,7.442090000000000434e-05,7.524429999999999378e-05,1.000000000000000000e+00,7.442090000000000434e-05,7.524429999999999378e-05
1.641600000000000000e+08,7.281709999999999778e-05,7.363160000000000158e-05,1.000000000000000000e+00,7.281709999999999778e-05,7.363160000000000158e-05
1.650240000000000000e+08,7.123730000000000318e-05,7.204289999999999425e-05,1.000000000000000000e+00,7.123730000000000318e-05,7.204289999999999425e-05
1.658880000000000000e+08,6.968130000000000656e-05,7.047810000000000543e-05,1.000000000000000000e+00,6.968130000000000656e-05,7.047810000000000543e-05
1.667520000000000000e+08,6.814880000000000048e-05,6.893690000000000061e-05,1.000000000000000000e+00,6.814880000000000048e-05,6.893690000000000061e-05
1.676160000000000000e+08,6.663939999999999762e-05,6.741899999999999944e-05,1.000000000000000000e+00,6.663939999999999762e-05,6.741899999999999944e-05
1.684800000000000000e+08,6.515300000000000453e-05,6.592409999999999449e-05,1.000000000000000000e+00,6.515300000000000453e-05,6.592409999999999449e-05
1.693440000000000000e+08,6.368930000000000023e-05,6.445190000000000543e-05,1.000000000000000000e+00,6.368930000000000023e-05,6.445190000000000543e-05
1.702080000000000000e+08,6.224809999999999783e-05,6.300229999999999817e-05,1.000000000000000000e+00,6.224809999999999783e-05,6.300229999999999817e-05
1.710720000000000000e+08,6.082900000000000324e-05,6.157480000000000548e-05,1.000000000000000000e+00,6.082900000000000324e-05,6.157480000000000548e-05
1.719360000000000000e+08,5.943180000000000245e-05,6.016940000000000027e-05,1.000000000000000000e+00,5.943180000000000245e-05,6.016940000000000027e-05
1.728000000000000000e+08,5.805620000000000160e-05,5.878560000000000176e-05,1.000000000000000000e+00,5.805620000000000160e-05,5.878560000000000176e-05
1.736640000000000000e+08,5.670210000000000045e-05,5.742330000000000296e-05,1.000000000000000000e+00,5.670210000000000045e-05,5.742330000000000296e-05
1.745280000000000000e+08,5.536909999999999814e-05,5.608220000000000322e-05,1.000000000000000000e+00,5.536909999999999814e-05,5.608220000000000322e-05
1.753920000000000000e+08,5.405690000000000077e-05,5.476200000000000187e-05,1.000000000000000000e+00,5.405690000000000077e-05,5.476200000000000187e-05
1.762560000000000000e+08,5.276550000000000158e-05,5.346259999999999869e-05,1.000000000000000000e+00,5.276550000000000158e-05,5.346259999999999869e-05
1.771200000000000000e+08,5.149439999999999947e-05,5.218359999999999958e-05,1.000000000000000000e+00,5.149439999999999947e-05,5.218359999999999958e-05
1.779840000000000000e+08,5.024350000000000100e-05,5.092479999999999734e-05,1.000000000000000000e+00,5.024350000000000100e-05,5.092479999999999734e-05
1.788480000000000000e+08,4.901249999999999872e-05,4.968609999999999851e-05,1.000000000000000000e+00,4.901249999999999872e-05,4.968609999999999851e-05
1.797120000000000000e+08,4.780129999999999921e-05,4.846710000000000222e-05,1.000000000000000000e+00,4.780129999999999921e-05,4.846710000000000222e-05
1.805760000000000000e+08,4.660950000000000157e-05,4.726760000000000125e-05,1.000000000000000000e+00,4.660950000000000157e-05,4.726760000000000125e-05
1.814400000000000000e+08,4.543689999999999860e-05,4.608740000000000194e-05,1.000000000000000000e+00,4.543689999999999860e-05,4.608740000000000194e-05
1.823040000000000000e+08,4.428349999999999707e-05,4.492629999999999709e-05,1.000000000000000000e+00,4.428349999999999707e-05,4.492629999999999709e-05
1.831680000000000000e+08,4.314880000000000267e-05,4.378409999999999979e-05,1.000000000000000000e+00,4.314880000000000267e-05,4.378409999999999979e-05
1.840320000000000000e+08,4.203280000000000183e-05,4.266050000000000262e-05,1.000000000000000000e+00,4.203280000000000183e-05,4.266050000000000262e-05
1.848960000000000000e+08,4.093510000000000047e-05,4.155529999999999836e-05,1.000000000000000000e+00,4.093510000000000047e-05,4.155529999999999836e-05
1.857600000000000000e+08,3.985569999999999857e-05,4.046850000000000057e-05,1.000000000000000000e+00,3.985569999999999857e-05,4.046850000000000057e-05
1.866240000000000000e+08,3.879430000000000226e-05,3.939960000000000136e-05,1.000000000000000000e+00,3.879430000000000226e-05,3.939960000000000136e-05
1.874880000000000000e+08,3.775079999999999777e-05,3.834860000000000075e-05,1.000000000000000000e+00,3.775079999999999777e-05,3.834860000000000075e-05
1.883520000000000000e+08,3.672479999999999777e-05,3.731529999999999830e-05,1.000000000000000000e+00,3.672479999999999777e-05,3.731529999999999830e-05
1.892160000000000000e+08,3.571630000000000226e-05,3.629940000000000011e-05,1.000000000000000000e+00,3.571630000000000226e-05,3.629940000000000011e-05
1.900800000000000000e+08,3.472509999999999725e-05,3.530089999999999942e-05,1.000000000000000000e+00,3.472509999999999725e-05,3.530089999999999942e-05
1.909440000000000000e+08,3.375100000000000262e-05,3.431940000000000213e-05,1.000000000000000000e+00,3.375100000000000262e-05,3.431940000000000213e-05
1.918080000000000000e+08,3.279379999999999763e-05,3.335500000000000167e-05,1.000000000000000000e+00,3.279379999999999763e-05,3.335500000000000167e-05
1.926720000000000000e+08,3.185330000000000214e-05,3.240719999999999696e-05,1.000000000000000000e+00,3.185330000000000214e-05,3.240719999999999696e-05
1.935360000000000000e+08,3.092950000000000262e-05,3.147610000000000176e-05,1.000000000000000000e+00,3.092950000000000262e-05,3.147610000000000176e-05
1.944000000000000000e+08,3.002209999999999840e-05,3.056150000000000208e-05,1.000000000000000000e+00,3.002209999999999840e-05,3.056150000000000208e-05
1.952640000000000000e+08,2.913109999999999964e-05,2.966320000000000087e-05,1.000000000000000000e+00,2.913109999999999964e-05,2.966320000000000087e-05
1.961280000000000000e+08,2.825609999999999870e-05,2.878100000000000108e-05,1.000000000000000000e+00,2.825609999999999870e-05,2.878100000000000108e-05
1.969920000000000000e+08,2.739719999999999919e-05,2.791489999999999933e-05,1.000000000000000000e+00,2.739719999999999919e-05,2.791489999999999933e-05
1.978560000000000000e+08,2.655420000000000065e-05,2.706459999999999834e-05,1.000000000000000000e+00,2.655420000000000065e-05,2.706459999999999834e-05
1.987200000000000000e+08,2.572689999999999927e-05,2.623000000000000128e-05,1.000000000000000000e+00,2.572689999999999927e-05,2.623000000000000128e-05
1.995840000000000000e+08,2.491520000000000160e-05,2.541110000000000138e-05,1.000000000000000000e+00,2.491520000000000160e-05,2.541110000000000138e-05
2.004480000000000000e+08,2.411900000000000065e-05,2.460770000000000158e-05,1.000000000000000000e+00,2.411900000000000065e-05,2.460770000000000158e-05
2.013120000000000000e+08,2.333819999999999959e-05,2.381960000000000145e-05,1.000000000000000000e+00,2.333819999999999959e-05,2.381960000000000145e-05
2.021760000000000000e+08,2.257260000000000137e-05,2.304670000000000077e-05,1.000000000000000000e+00,2.257260000000000137e-05,2.304670000000000077e-05
2.030400000000000000e+08,2.182219999999999920e-05,2.228899999999999954e-05,1.000000000000000000e+00,2.182219999999999920e-05,2.228899999999999954e-05
2.039040000000000000e+08,2.108679999999999943e-05,2.154630000000000071e-05,1.000000000000000000e+00,2.108679999999999943e-05,2.154630000000000071e-05
2.047680000000000000e+08,2.036629999999999845e-05,2.081850000000000066e-05,1.000000000000000000e+00,2.036629999999999845e-05,2.081850000000000066e-05
2.056320000000000000e+08,1.966059999999999943e-05,2.010549999999999919e-05,1.000000000000000000e+00,1.966059999999999943e-05,2.010549999999999919e-05
2.064960000000000000e+08,1.896969999999999898e-05,1.940719999999999945e-05,1.000000000000000000e+00,1.896969999999999898e-05,1.940719999999999945e-05
2.073600000000000000e+08,1.829340000000000005e-05,1.872350000000000124e-05,1.000000000000000000e+00,1.829340000000000005e-05,1.872350000000000124e-05
2.082240000000000000e+08,1.763169999999999926e-05,1.805440000000000115e-05,1.000000000000000000e+00,1.763169999999999926e-05,1.805440000000000115e-05
2.090880000000000000e+08,1.698439999999999954e-05,1.739969999999999877e-05,1.000000000000000000e+00,1.698439999999999954e-05,1.739969999999999877e-05
2.099520000000000000e+08,1.635150000000000091e-05,1.675930000000000063e-05,1.000000000000000000e+00,1.635150000000000091e-05,1.675930000000000063e-05
2.108160000000000000e+08,1.573289999999999975e-05,1.613319999999999997e-05,1.000000000000000000e+00,1.573289999999999975e-05,1.613319999999999997e-05
2.116800000000000000e+08,1.512840000000000071e-05,1.552119999999999973e-05,1.000000000000000000e+00,1.512840000000000071e-05,1.552119999999999973e-05
2.125440000000000000e+08,1.453810000000000062e-05,1.492340000000000013e-05,1.000000000000000000e+00,1.453810000000000062e-05,1.492340000000000013e-05
2.134080000000000000e+08,1.396189999999999926e-05,1.433950000000000052e-05,1.000000000000000000e+00,1.396189999999999926e-05,1.433950000000000052e-05
2.142720000000000000e+08,1.339959999999999958e-05,1.376959999999999942e-05,1.000000000000000000e+00,1.339959999999999958e-05,1.376959999999999942e-05
2.151360000000000000e+08,1.285130000000000010e-05,1.321360000000000000e-05,1.000000000000000000e+00,1.285130000000000010e-05,1.321360000000000000e-05
2.160000000000000000e+08,1.231670000000000017e-05,1.267140000000000035e-05,1.000000000000000000e+00,1.231670000000000017e-05,1.267140000000000035e-05
