\relax 
\providecommand\zref@newlabel[2]{}
\providecommand\hyper@newdestlabel[2]{}
\@writefile{toc}{\contentsline {section}{\numberline {2.1}Motivation}{4}{section.2.1}}
\@setckpt{part1/chapter1/section-01}{
\setcounter{page}{5}
\setcounter{equation}{0}
\setcounter{enumi}{0}
\setcounter{enumii}{0}
\setcounter{enumiii}{0}
\setcounter{enumiv}{0}
\setcounter{footnote}{0}
\setcounter{mpfootnote}{0}
\setcounter{part}{1}
\setcounter{chapter}{2}
\setcounter{section}{1}
\setcounter{subsection}{0}
\setcounter{subsubsection}{0}
\setcounter{paragraph}{0}
\setcounter{subparagraph}{0}
\setcounter{figure}{0}
\setcounter{table}{0}
\setcounter{tcbbreakpart}{1}
\setcounter{tcblayer}{0}
\setcounter{parentequation}{0}
\setcounter{ContinuedFloat}{0}
\setcounter{subfigure}{0}
\setcounter{subtable}{0}
\setcounter{@anim@ltxcnt}{0}
\setcounter{FancyVerbLine}{2}
\setcounter{OptionTest}{1}
\setcounter{Item}{0}
\setcounter{Hfootnote}{0}
\setcounter{bookmark@seq@number}{0}
\setcounter{notation}{0}
\setcounter{dummy}{0}
\setcounter{problem}{0}
\setcounter{fileT}{0}
\setcounter{shellT}{0}
\setcounter{pyT}{0}
\setcounter{outputT}{0}
\setcounter{exerciseT}{0}
\setcounter{goalT}{0}
\setcounter{abstrT}{2}
\setcounter{exampleT}{0}
\setcounter{gnuT}{0}
\setcounter{vocabulary}{0}
\setcounter{definitionT}{0}
\setcounter{mdf@globalstyle@cnt}{1}
\setcounter{mdfcountframes}{0}
\setcounter{mdf@env@i}{0}
\setcounter{mdf@env@ii}{0}
\setcounter{mdf@zref@counter}{0}
\setcounter{float@type}{16}
\setcounter{linenumber}{1}
\setcounter{LN@truepage}{12}
\setcounter{FancyVerbLineBreakLast}{2}
\setcounter{minted@FancyVerbLineTemp}{0}
\setcounter{listing}{0}
\setcounter{sublisting}{0}
\setcounter{tcblisting}{3}
\setcounter{tcbrastercolumn}{0}
\setcounter{tcbrasterrow}{0}
\setcounter{tcbraster}{0}
\setcounter{Exercise}{0}
\setcounter{Answer}{0}
\setcounter{ExePart}{0}
\setcounter{Question}{0}
\setcounter{subQuestion}{0}
\setcounter{subsubQuestion}{0}
\setcounter{savedQuestion}{0}
\setcounter{savedsubQuestion}{0}
\setcounter{savedsubsubQuestion}{0}
\setcounter{tcb@cnt@tcbshellcode}{0}
\setcounter{tcb@cnt@tcbpythoncode}{0}
\setcounter{tcb@cnt@tcbgnuplotcode}{0}
\setcounter{tcb@cnt@tcbfoamcode}{0}
\setcounter{tcb@cnt@tcbcppcode}{0}
\setcounter{tcb@cnt@tcbgenericcode}{0}
\setcounter{tcb@cnt@tcbm4code}{0}
\setcounter{tcb@cnt@tcbexercise}{0}
\setcounter{tw@hyphen@char@num}{0}
\setcounter{blindtext}{1}
\setcounter{Blindtext}{5}
\setcounter{blind@countparstart}{0}
\setcounter{blindlist}{0}
\setcounter{blindlistlevel}{0}
\setcounter{blindlist@level}{0}
\setcounter{blind@listcount}{0}
\setcounter{blind@levelcount}{0}
\setcounter{blind@randomcount}{0}
\setcounter{blind@randommax}{0}
\setcounter{blind@pangramcount}{0}
\setcounter{blind@pangrammax}{0}
\setcounter{section@level}{1}
\setcounter{ttl@toc@default}{1}
}
