Time,Qo
2.69150e+5,3.016273e-9
1.66937e+7,3.01862e-9
2.77696e+7,3.01862e-9
4.56069e+7,5.96012e-6
5.46683e+7,6.63007e-6
6.46894e+7,7.13306e-6
7.57654e+7,7.51826e-6
8.68413e+7,7.79671e-6
9.79173e+7,8.01148e-6
1.08993e+8,8.17942e-6
1.20069e+8,8.31490e-6
1.31145e+8,8.42727e-6
1.42221e+8,8.52467e-6
1.53297e+8,8.60458e-6
1.64373e+8,8.67763e-6
1.75449e+8,8.73818e-6
1.86525e+8,8.79500e-6
1.93118e+8,8.82496e-6
