Time,Sw
43200,0.2
86400,0.2
129600,0.2
172800,0.2
216000,0.2
259200,0.2
302400,0.2
345600,0.2
388800,0.2
432000,0.2
475200,0.2
518400,0.2
561600,0.2
604800,0.2
648000,0.2
691200,0.2
734400,0.2
777600,0.2
820800,0.2
864000,0.2
907200,0.2
950400,0.2
993600,0.2
1.0368e+06,0.2
1.08e+06,0.2
1.1232e+06,0.2
1.1664e+06,0.2
1.2096e+06,0.2
1.2528e+06,0.2
1.296e+06,0.2
1.3392e+06,0.2
1.3824e+06,0.2
1.4256e+06,0.2
1.4688e+06,0.2
1.512e+06,0.2
1.5552e+06,0.2
1.5984e+06,0.2
1.6416e+06,0.2
1.6848e+06,0.2
1.728e+06,0.2
1.7712e+06,0.2
1.8144e+06,0.2
1.8576e+06,0.2
1.9008e+06,0.2
1.944e+06,0.2
1.9872e+06,0.2
2.0304e+06,0.2
2.0736e+06,0.2
2.1168e+06,0.2
2.16e+06,0.2
2.2032e+06,0.2
2.2464e+06,0.2
2.2896e+06,0.2
2.3328e+06,0.2
2.376e+06,0.2
2.4192e+06,0.2
2.4624e+06,0.2
2.5056e+06,0.2
2.5488e+06,0.2
2.592e+06,0.2
2.6352e+06,0.2
2.6784e+06,0.2
2.7216e+06,0.2
2.7648e+06,0.2
2.808e+06,0.2
2.8512e+06,0.2
2.8944e+06,0.2
2.9376e+06,0.2
2.9808e+06,0.2
3.024e+06,0.2
3.0672e+06,0.2
3.1104e+06,0.2
3.1536e+06,0.2
3.1968e+06,0.2
3.24e+06,0.2
3.2832e+06,0.2
3.3264e+06,0.2
3.3696e+06,0.2
3.4128e+06,0.2
3.456e+06,0.2
3.4992e+06,0.2
3.5424e+06,0.2
3.5856e+06,0.2
3.6288e+06,0.2
3.672e+06,0.2
3.7152e+06,0.2
3.7584e+06,0.2
3.8016e+06,0.2
3.8448e+06,0.2
3.888e+06,0.2
3.9312e+06,0.2
3.9744e+06,0.2
4.0176e+06,0.2
4.0608e+06,0.2
4.104e+06,0.2
4.1472e+06,0.2
4.1904e+06,0.2
4.2336e+06,0.2
4.2768e+06,0.2
4.32e+06,0.2
4.3632e+06,0.2
4.4064e+06,0.2
4.4496e+06,0.2
4.4928e+06,0.2
4.536e+06,0.2
4.5792e+06,0.2
4.6224e+06,0.2
4.6656e+06,0.2
4.7088e+06,0.2
4.752e+06,0.2
4.7952e+06,0.2
4.8384e+06,0.2
4.8816e+06,0.2
4.9248e+06,0.2
4.968e+06,0.2
5.0112e+06,0.2
5.0544e+06,0.2
5.0976e+06,0.2
5.1408e+06,0.2
5.184e+06,0.2
5.2272e+06,0.2
5.2704e+06,0.2
5.3136e+06,0.2
5.3568e+06,0.2
5.4e+06,0.2
5.4432e+06,0.2
5.4864e+06,0.2
5.5296e+06,0.2
5.5728e+06,0.2
5.616e+06,0.2
5.6592e+06,0.2
5.7024e+06,0.2
5.7456e+06,0.2
5.7888e+06,0.2
5.832e+06,0.2
5.8752e+06,0.2
5.9184e+06,0.2
5.9616e+06,0.2
6.0048e+06,0.2
6.048e+06,0.2
6.0912e+06,0.2
6.1344e+06,0.2
6.1776e+06,0.2
6.2208e+06,0.2
6.264e+06,0.2
6.3072e+06,0.2
6.3504e+06,0.2
6.3936e+06,0.2
6.4368e+06,0.2
6.48e+06,0.2
6.5232e+06,0.2
6.5664e+06,0.2
6.6096e+06,0.2
6.6528e+06,0.2
6.696e+06,0.2
6.7392e+06,0.2
6.7824e+06,0.2
6.8256e+06,0.2
6.8688e+06,0.2
6.912e+06,0.2
6.9552e+06,0.2
6.9984e+06,0.2
7.0416e+06,0.2
7.0848e+06,0.2
7.128e+06,0.2
7.1712e+06,0.2
7.2144e+06,0.2
7.2576e+06,0.2
7.3008e+06,0.2
7.344e+06,0.2
7.3872e+06,0.2
7.4304e+06,0.2
7.4736e+06,0.2
7.5168e+06,0.2
7.56e+06,0.2
7.6032e+06,0.2
7.6464e+06,0.2
7.6896e+06,0.2
7.7328e+06,0.2
7.776e+06,0.2
7.8192e+06,0.2
7.8624e+06,0.2
7.9056e+06,0.2
7.9488e+06,0.2
7.992e+06,0.2
8.0352e+06,0.2
8.0784e+06,0.2
8.1216e+06,0.2
8.1648e+06,0.2
8.208e+06,0.2
8.2512e+06,0.2
8.2944e+06,0.2
8.3376e+06,0.2
8.3808e+06,0.2
8.424e+06,0.2
8.4672e+06,0.2
8.5104e+06,0.2
8.5536e+06,0.2
8.5968e+06,0.2
8.64e+06,0.2
8.6832e+06,0.2
8.7264e+06,0.2
8.7696e+06,0.2
8.8128e+06,0.2
8.856e+06,0.2
8.8992e+06,0.2
8.9424e+06,0.2
8.9856e+06,0.2
9.0288e+06,0.2
9.072e+06,0.2
9.1152e+06,0.2
9.1584e+06,0.2
9.2016e+06,0.2
9.2448e+06,0.2
9.288e+06,0.2
9.3312e+06,0.2
9.3744e+06,0.2
9.4176e+06,0.2
9.4608e+06,0.2
9.504e+06,0.2
9.5472e+06,0.2
9.5904e+06,0.2
9.6336e+06,0.2
9.6768e+06,0.2
9.72e+06,0.2
9.7632e+06,0.2
9.8064e+06,0.2
9.8496e+06,0.2
9.8928e+06,0.2
9.936e+06,0.2
9.9792e+06,0.2
1.00224e+07,0.2
1.00656e+07,0.2
1.01088e+07,0.2
1.0152e+07,0.2
1.01952e+07,0.2
1.02384e+07,0.2
1.02816e+07,0.2
1.03248e+07,0.2
1.0368e+07,0.2
1.04112e+07,0.2
1.04544e+07,0.2
1.04976e+07,0.2
1.05408e+07,0.2
1.0584e+07,0.2
1.06272e+07,0.2
1.06704e+07,0.2
1.07136e+07,0.2
1.07568e+07,0.2
1.08e+07,0.2
1.08432e+07,0.2
1.08864e+07,0.2
1.09296e+07,0.2
1.09728e+07,0.2
1.1016e+07,0.2
1.10592e+07,0.2
1.11024e+07,0.2
1.11456e+07,0.2
1.11888e+07,0.2
1.1232e+07,0.2
1.12752e+07,0.2
1.13184e+07,0.2
1.13616e+07,0.2
1.14048e+07,0.2
1.1448e+07,0.2
1.14912e+07,0.2
1.15344e+07,0.2
1.15776e+07,0.2
1.16208e+07,0.2
1.1664e+07,0.2
1.17072e+07,0.2
1.17504e+07,0.2
1.17936e+07,0.2
1.18368e+07,0.2
1.188e+07,0.2
1.19232e+07,0.2
1.19664e+07,0.2
1.20096e+07,0.2
1.20528e+07,0.2
1.2096e+07,0.2
1.21392e+07,0.2
1.21824e+07,0.2
1.22256e+07,0.2
1.22688e+07,0.2
1.2312e+07,0.2
1.23552e+07,0.2
1.23984e+07,0.2
1.24416e+07,0.2
1.24848e+07,0.2
1.2528e+07,0.2
1.25712e+07,0.2
1.26144e+07,0.2
1.26576e+07,0.2
1.27008e+07,0.2
1.2744e+07,0.2
1.27872e+07,0.2
1.28304e+07,0.2
1.28736e+07,0.2
1.29168e+07,0.2
1.296e+07,0.2
1.30032e+07,0.2
1.30464e+07,0.2
1.30896e+07,0.2
1.31328e+07,0.2
1.3176e+07,0.2
1.32192e+07,0.2
1.32624e+07,0.2
1.33056e+07,0.2
1.33488e+07,0.2
1.3392e+07,0.2
1.34352e+07,0.2
1.34784e+07,0.2
1.35216e+07,0.2
1.35648e+07,0.2
1.3608e+07,0.2
1.36512e+07,0.2
1.36944e+07,0.2
1.37376e+07,0.2
1.37808e+07,0.2
1.3824e+07,0.2
1.38672e+07,0.2
1.39104e+07,0.2
1.39536e+07,0.2
1.39968e+07,0.2
1.404e+07,0.2
1.40832e+07,0.2
1.41264e+07,0.2
1.41696e+07,0.2
1.42128e+07,0.2
1.4256e+07,0.2
1.42992e+07,0.2
1.43424e+07,0.2
1.43856e+07,0.2
1.44288e+07,0.2
1.4472e+07,0.2
1.45152e+07,0.2
1.45584e+07,0.2
1.46016e+07,0.2
1.46448e+07,0.2
1.4688e+07,0.2
1.47312e+07,0.2
1.47744e+07,0.2
1.48176e+07,0.2
1.48608e+07,0.2
1.4904e+07,0.2
1.49472e+07,0.2
1.49904e+07,0.2
1.50336e+07,0.2
1.50768e+07,0.2
1.512e+07,0.2
1.51632e+07,0.2
1.52064e+07,0.2
1.52496e+07,0.2
1.52928e+07,0.2
1.5336e+07,0.2
1.53792e+07,0.2
1.54224e+07,0.2
1.54656e+07,0.2
1.55088e+07,0.2
1.5552e+07,0.2
1.55952e+07,0.2
1.56384e+07,0.2
1.56816e+07,0.2
1.57248e+07,0.2
1.5768e+07,0.2
1.58112e+07,0.2
1.58544e+07,0.2
1.58976e+07,0.2
1.59408e+07,0.2
1.5984e+07,0.2
1.60272e+07,0.2
1.60704e+07,0.2
1.61136e+07,0.2
1.61568e+07,0.2
1.62e+07,0.2
1.62432e+07,0.2
1.62864e+07,0.2
1.63296e+07,0.2
1.63728e+07,0.2
1.6416e+07,0.2
1.64592e+07,0.2
1.65024e+07,0.2
1.65456e+07,0.2
1.65888e+07,0.2
1.6632e+07,0.2
1.66752e+07,0.2
1.67184e+07,0.2
1.67616e+07,0.2
1.68048e+07,0.2
1.6848e+07,0.2
1.68912e+07,0.2
1.69344e+07,0.2
1.69776e+07,0.2
1.70208e+07,0.2
1.7064e+07,0.2
1.71072e+07,0.2
1.71504e+07,0.2
1.71936e+07,0.2
1.72368e+07,0.2
1.728e+07,0.2
1.73232e+07,0.2
1.73664e+07,0.2
1.74096e+07,0.2
1.74528e+07,0.2
1.7496e+07,0.2
1.75392e+07,0.2
1.75824e+07,0.2
1.76256e+07,0.2
1.76688e+07,0.2
1.7712e+07,0.2
1.77552e+07,0.2
1.77984e+07,0.2
1.78416e+07,0.2
1.78848e+07,0.2
1.7928e+07,0.2
1.79712e+07,0.2
1.80144e+07,0.2
1.80576e+07,0.2
1.81008e+07,0.2
1.8144e+07,0.2
1.81872e+07,0.2
1.82304e+07,0.2
1.82736e+07,0.2
1.83168e+07,0.2
1.836e+07,0.2
1.84032e+07,0.2
1.84464e+07,0.2
1.84896e+07,0.2
1.85328e+07,0.2
1.8576e+07,0.2
1.86192e+07,0.2
1.86624e+07,0.2
1.87056e+07,0.2
1.87488e+07,0.2
1.8792e+07,0.2
1.88352e+07,0.2
1.88784e+07,0.2
1.89216e+07,0.2
1.89648e+07,0.2
1.9008e+07,0.2
1.90512e+07,0.2
1.90944e+07,0.2
1.91376e+07,0.2
1.91808e+07,0.2
1.9224e+07,0.2
1.92672e+07,0.2
1.93104e+07,0.2
1.93536e+07,0.2
1.93968e+07,0.2
1.944e+07,0.2
1.94832e+07,0.2
1.95264e+07,0.2
1.95696e+07,0.2
1.96128e+07,0.2
1.9656e+07,0.2
1.96992e+07,0.2
1.97424e+07,0.2
1.97856e+07,0.2
1.98288e+07,0.2
1.9872e+07,0.2
1.99152e+07,0.2
1.99584e+07,0.2
2.00016e+07,0.2
2.00448e+07,0.2
2.0088e+07,0.2
2.01312e+07,0.2
2.01744e+07,0.2
2.02176e+07,0.2
2.02608e+07,0.2
2.0304e+07,0.2
2.03472e+07,0.2
2.03904e+07,0.2
2.04336e+07,0.2
2.04768e+07,0.2
2.052e+07,0.2
2.05632e+07,0.2
2.06064e+07,0.2
2.06496e+07,0.2
2.06928e+07,0.2
2.0736e+07,0.2
2.07792e+07,0.2
2.08224e+07,0.2
2.08656e+07,0.2
2.09088e+07,0.2
2.0952e+07,0.2
2.09952e+07,0.2
2.10384e+07,0.2
2.10816e+07,0.2
2.11248e+07,0.2
2.1168e+07,0.2
2.12112e+07,0.2
2.12544e+07,0.2
2.12976e+07,0.2
2.13408e+07,0.2
2.1384e+07,0.2
2.14272e+07,0.2
2.14704e+07,0.2
2.15136e+07,0.2
2.15568e+07,0.2
2.16e+07,0.2
2.16432e+07,0.2
2.16864e+07,0.2
2.17296e+07,0.2
2.17728e+07,0.2
2.1816e+07,0.2
2.18592e+07,0.2
2.19024e+07,0.2
2.19456e+07,0.2
2.19888e+07,0.2
2.2032e+07,0.2
2.20752e+07,0.2
2.21184e+07,0.2
2.21616e+07,0.2
2.22048e+07,0.2
2.2248e+07,0.2
2.22912e+07,0.2
2.23344e+07,0.2
2.23776e+07,0.2
2.24208e+07,0.2
2.2464e+07,0.2
2.25072e+07,0.2
2.25504e+07,0.2
2.25936e+07,0.2
2.26368e+07,0.2
2.268e+07,0.2
2.27232e+07,0.2
2.27664e+07,0.2
2.28096e+07,0.2
2.28528e+07,0.2
2.2896e+07,0.2
2.29392e+07,0.2
2.29824e+07,0.2
2.30256e+07,0.2
2.30688e+07,0.2
2.3112e+07,0.2
2.31552e+07,0.2
2.31984e+07,0.2
2.32416e+07,0.2
2.32848e+07,0.2
2.3328e+07,0.2
2.33712e+07,0.2
2.34144e+07,0.2
2.34576e+07,0.2
2.35008e+07,0.2
2.3544e+07,0.2
2.35872e+07,0.2
2.36304e+07,0.2
2.36736e+07,0.2
2.37168e+07,0.2
2.376e+07,0.2
2.38032e+07,0.2
2.38464e+07,0.2
2.38896e+07,0.2
2.39328e+07,0.2
2.3976e+07,0.2
2.40192e+07,0.2
2.40624e+07,0.2
2.41056e+07,0.2
2.41488e+07,0.2
2.4192e+07,0.2
2.42352e+07,0.2
2.42784e+07,0.2
2.43216e+07,0.2
2.43648e+07,0.2
2.4408e+07,0.2
2.44512e+07,0.2
2.44944e+07,0.2
2.45376e+07,0.2
2.45808e+07,0.2
2.4624e+07,0.2
2.46672e+07,0.2
2.47104e+07,0.2
2.47536e+07,0.2
2.47968e+07,0.2
2.484e+07,0.2
2.48832e+07,0.2
2.49264e+07,0.2
2.49696e+07,0.2
2.50128e+07,0.2
2.5056e+07,0.2
2.50992e+07,0.2
2.51424e+07,0.2
2.51856e+07,0.2
2.52288e+07,0.2
2.5272e+07,0.2
2.53152e+07,0.2
2.53584e+07,0.2
2.54016e+07,0.2
2.54448e+07,0.2
2.5488e+07,0.2
2.55312e+07,0.2
2.55744e+07,0.2
2.56176e+07,0.2
2.56608e+07,0.2
2.5704e+07,0.2
2.57472e+07,0.2
2.57904e+07,0.2
2.58336e+07,0.2
2.58768e+07,0.2
2.592e+07,0.2
2.59632e+07,0.2
2.60064e+07,0.2
2.60496e+07,0.2
2.60928e+07,0.2
2.6136e+07,0.2
2.61792e+07,0.2
2.62224e+07,0.2
2.62656e+07,0.2
2.63088e+07,0.2
2.6352e+07,0.2
2.63952e+07,0.2
2.64384e+07,0.2
2.64816e+07,0.2
2.65248e+07,0.2
2.6568e+07,0.2
2.66112e+07,0.2
2.66544e+07,0.2
2.66976e+07,0.2
2.67408e+07,0.2
2.6784e+07,0.2
2.68272e+07,0.2
2.68704e+07,0.2
2.69136e+07,0.2
2.69568e+07,0.2
2.7e+07,0.2
2.70432e+07,0.2
2.70864e+07,0.2
2.71296e+07,0.2
2.71728e+07,0.2
2.7216e+07,0.2
2.72592e+07,0.2
2.73024e+07,0.2
2.73456e+07,0.2
2.73888e+07,0.2
2.7432e+07,0.2
2.74752e+07,0.2
2.75184e+07,0.2
2.75616e+07,0.2
2.76048e+07,0.2
2.7648e+07,0.2
2.76912e+07,0.2
2.77344e+07,0.2
2.77776e+07,0.2
2.78208e+07,0.2
2.7864e+07,0.2
2.79072e+07,0.2
2.79504e+07,0.2
2.79936e+07,0.2
2.80368e+07,0.2
2.808e+07,0.2
2.81232e+07,0.2
2.81664e+07,0.2
2.82096e+07,0.2
2.82528e+07,0.2
2.8296e+07,0.2
2.83392e+07,0.2
2.83824e+07,0.2
2.84256e+07,0.2
2.84688e+07,0.2
2.8512e+07,0.2
2.85552e+07,0.2
2.85984e+07,0.2
2.86416e+07,0.2
2.86848e+07,0.2
2.8728e+07,0.2
2.87712e+07,0.2
2.88144e+07,0.2
2.88576e+07,0.2
2.89008e+07,0.2
2.8944e+07,0.2
2.89872e+07,0.2
2.90304e+07,0.2
2.90736e+07,0.2
2.91168e+07,0.2
2.916e+07,0.2
2.92032e+07,0.2
2.92464e+07,0.2
2.92896e+07,0.2
2.93328e+07,0.2
2.9376e+07,0.2
2.94192e+07,0.2
2.94624e+07,0.2
2.95056e+07,0.2
2.95488e+07,0.2
2.9592e+07,0.2
2.96352e+07,0.2
2.96784e+07,0.2
2.97216e+07,0.2
2.97648e+07,0.2
2.9808e+07,0.2
2.98512e+07,0.2
2.98944e+07,0.2
2.99376e+07,0.2
2.99808e+07,0.2
3.0024e+07,0.2
3.00672e+07,0.2
3.01104e+07,0.2
3.01536e+07,0.2
3.01968e+07,0.2
3.024e+07,0.2
3.02832e+07,0.2
3.03264e+07,0.2
3.03696e+07,0.2
3.04128e+07,0.2
3.0456e+07,0.2
3.04992e+07,0.2
3.05424e+07,0.2
3.05856e+07,0.2
3.06288e+07,0.2
3.0672e+07,0.2
3.07152e+07,0.2
3.07584e+07,0.2
3.08016e+07,0.2
3.08448e+07,0.2
3.0888e+07,0.2
3.09312e+07,0.2
3.09744e+07,0.2
3.10176e+07,0.2
3.10608e+07,0.2
3.1104e+07,0.2
3.11472e+07,0.2
3.11904e+07,0.2
3.12336e+07,0.2
3.12768e+07,0.2
3.132e+07,0.2
3.13632e+07,0.2
3.14064e+07,0.2
3.14496e+07,0.2
3.14928e+07,0.2
3.1536e+07,0.2
3.15792e+07,0.2
3.16224e+07,0.2
3.16656e+07,0.2
3.17088e+07,0.2
3.1752e+07,0.2
3.17952e+07,0.2
3.18384e+07,0.2
3.18816e+07,0.2
3.19248e+07,0.2
3.1968e+07,0.2
3.20112e+07,0.2
3.20544e+07,0.2
3.20976e+07,0.2
3.21408e+07,0.2
3.2184e+07,0.2
3.22272e+07,0.2
3.22704e+07,0.2
3.23136e+07,0.2
3.23568e+07,0.2
3.24e+07,0.2
3.24432e+07,0.2
3.24864e+07,0.2
3.25296e+07,0.2
3.25728e+07,0.2
3.2616e+07,0.2
3.26592e+07,0.2
3.27024e+07,0.2
3.27456e+07,0.2
3.27888e+07,0.2
3.2832e+07,0.2
3.28752e+07,0.2
3.29184e+07,0.2
3.29616e+07,0.2
3.30048e+07,0.2
3.3048e+07,0.2
3.30912e+07,0.2
3.31344e+07,0.2
3.31776e+07,0.2
3.32208e+07,0.2
3.3264e+07,0.2
3.33072e+07,0.2
3.33504e+07,0.2
3.33936e+07,0.2
3.34368e+07,0.2
3.348e+07,0.2
3.35232e+07,0.2
3.35664e+07,0.2
3.36096e+07,0.2
3.36528e+07,0.2
3.3696e+07,0.2
3.37392e+07,0.2
3.37824e+07,0.2
3.38256e+07,0.2
3.38688e+07,0.2
3.3912e+07,0.2
3.39552e+07,0.2
3.39984e+07,0.2
3.40416e+07,0.2
3.40848e+07,0.2
3.4128e+07,0.2
3.41712e+07,0.2
3.42144e+07,0.2
3.42576e+07,0.2
3.43008e+07,0.2
3.4344e+07,0.2
3.43872e+07,0.2
3.44304e+07,0.2
3.44736e+07,0.2
3.45168e+07,0.2
3.456e+07,0.2
3.46032e+07,0.2
3.46464e+07,0.2
3.46896e+07,0.2
3.47328e+07,0.2
3.4776e+07,0.2
3.48192e+07,0.2
3.48624e+07,0.2
3.49056e+07,0.2
3.49488e+07,0.2
3.4992e+07,0.2
3.50352e+07,0.2
3.50784e+07,0.2
3.51216e+07,0.2
3.51648e+07,0.2
3.5208e+07,0.2
3.52512e+07,0.2
3.52944e+07,0.2
3.53376e+07,0.2
3.53808e+07,0.2
3.5424e+07,0.2
3.54672e+07,0.2
3.55104e+07,0.2
3.55536e+07,0.2
3.55968e+07,0.2
3.564e+07,0.2
3.56832e+07,0.2
3.57264e+07,0.2
3.57696e+07,0.2
3.58128e+07,0.2
3.5856e+07,0.2
3.58992e+07,0.2
3.59424e+07,0.2
3.59856e+07,0.2
3.60288e+07,0.2
3.6072e+07,0.2
3.61152e+07,0.2
3.61584e+07,0.2
3.62016e+07,0.2
3.62448e+07,0.2
3.6288e+07,0.2
3.63312e+07,0.2
3.63744e+07,0.2
3.64176e+07,0.2
3.64608e+07,0.2
3.6504e+07,0.2
3.65472e+07,0.2
3.65904e+07,0.2
3.66336e+07,0.2
3.66768e+07,0.2
3.672e+07,0.2
3.67632e+07,0.2
3.68064e+07,0.2
3.68496e+07,0.2
3.68928e+07,0.2
3.6936e+07,0.2
3.69792e+07,0.2
3.70224e+07,0.2
3.70656e+07,0.2
3.71088e+07,0.2
3.7152e+07,0.2
3.71952e+07,0.2
3.72384e+07,0.2
3.72816e+07,0.2
3.73248e+07,0.2
3.7368e+07,0.2
3.74112e+07,0.2
3.74544e+07,0.2
3.74976e+07,0.2
3.75408e+07,0.2
3.7584e+07,0.2
3.76272e+07,0.2
3.76704e+07,0.2
3.77136e+07,0.2
3.77568e+07,0.2
3.78e+07,0.2
3.78432e+07,0.2
3.78864e+07,0.2
3.79296e+07,0.2
3.79728e+07,0.2
3.8016e+07,0.2
3.80592e+07,0.2
3.81024e+07,0.2
3.81456e+07,0.2
3.81888e+07,0.2
3.8232e+07,0.2
3.82752e+07,0.2
3.83184e+07,0.2
3.83616e+07,0.2
3.84048e+07,0.2
3.8448e+07,0.2
3.84912e+07,0.2
3.85344e+07,0.2
3.85776e+07,0.2
3.86208e+07,0.2
3.8664e+07,0.2
3.87072e+07,0.2
3.87504e+07,0.2
3.87936e+07,0.2
3.88368e+07,0.2
3.888e+07,0.2
3.89232e+07,0.2
3.89664e+07,0.2
3.90096e+07,0.2
3.90528e+07,0.2
3.9096e+07,0.2
3.91392e+07,0.2
3.91824e+07,0.2
3.92256e+07,0.2
3.92688e+07,0.2
3.9312e+07,0.2
3.93552e+07,0.2
3.93984e+07,0.2
3.94416e+07,0.2
3.94848e+07,0.2
3.9528e+07,0.2
3.95712e+07,0.2
3.96144e+07,0.2
3.96576e+07,0.2
3.97008e+07,0.2
3.9744e+07,0.2
3.97872e+07,0.2
3.98304e+07,0.2
3.98736e+07,0.2
3.99168e+07,0.2
3.996e+07,0.2
4.00032e+07,0.2
4.00464e+07,0.2
4.00896e+07,0.2
4.01328e+07,0.2
4.0176e+07,0.2
4.02192e+07,0.2
4.02624e+07,0.2
4.03056e+07,0.2
4.03488e+07,0.2
4.0392e+07,0.2
4.04352e+07,0.2
4.04784e+07,0.2
4.05216e+07,0.2
4.05648e+07,0.2
4.0608e+07,0.2
4.06512e+07,0.2
4.06944e+07,0.2
4.07376e+07,0.2
4.07808e+07,0.2
4.0824e+07,0.2
4.08672e+07,0.2
4.09104e+07,0.2
4.09536e+07,0.2
4.09968e+07,0.2
4.104e+07,0.2
4.10832e+07,0.2
4.11264e+07,0.2
4.11696e+07,0.2
4.12128e+07,0.2
4.1256e+07,0.2
4.12992e+07,0.2
4.13424e+07,0.2
4.13856e+07,0.2
4.14288e+07,0.2
4.1472e+07,0.2
4.15152e+07,0.2
4.15584e+07,0.2
4.16016e+07,0.2
4.16448e+07,0.2
4.1688e+07,0.2
4.17312e+07,0.2
4.17744e+07,0.2
4.18176e+07,0.2
4.18608e+07,0.2
4.1904e+07,0.2
4.19472e+07,0.2
4.19904e+07,0.2
4.20336e+07,0.2
4.20768e+07,0.2
4.212e+07,0.2
4.21632e+07,0.2
4.22064e+07,0.2
4.22496e+07,0.2
4.22928e+07,0.2
4.2336e+07,0.2
4.23792e+07,0.2
4.24224e+07,0.2
4.24656e+07,0.2
4.25088e+07,0.2
4.2552e+07,0.2
4.25952e+07,0.2
4.26384e+07,0.2
4.26816e+07,0.2
4.27248e+07,0.2
4.2768e+07,0.2
4.28112e+07,0.2
4.28544e+07,0.2
4.28976e+07,0.2
4.29408e+07,0.2
4.2984e+07,0.2
4.30272e+07,0.2
4.30704e+07,0.2
4.31136e+07,0.2
4.31568e+07,0.2
4.32e+07,0.2
4.32432e+07,0.2
4.32864e+07,0.2
4.33296e+07,0.2
4.33728e+07,0.2
4.3416e+07,0.2
4.34592e+07,0.2
4.35024e+07,0.2
4.35456e+07,0.2
4.35888e+07,0.2
4.3632e+07,0.2
4.36752e+07,0.2
4.37184e+07,0.2
4.37616e+07,0.2
4.38048e+07,0.2
4.3848e+07,0.2
4.38912e+07,0.2
4.39344e+07,0.2
4.39776e+07,0.2
4.40208e+07,0.2
4.4064e+07,0.2
4.41072e+07,0.2
4.41504e+07,0.2
4.41936e+07,0.2
4.42368e+07,0.2
4.428e+07,0.2
4.43232e+07,0.2
4.43664e+07,0.2
4.44096e+07,0.2
4.44528e+07,0.2
4.4496e+07,0.2
4.45392e+07,0.2
4.45824e+07,0.2
4.46256e+07,0.2
4.46688e+07,0.2
4.4712e+07,0.2
4.47552e+07,0.2
4.47984e+07,0.2
4.48416e+07,0.2
4.48848e+07,0.200001
4.4928e+07,0.200217
4.49712e+07,0.205003
4.50144e+07,0.225935
4.50576e+07,0.259462
4.51008e+07,0.286596
4.5144e+07,0.301604
4.51872e+07,0.310108
4.52304e+07,0.315486
4.52736e+07,0.319189
4.53168e+07,0.321902
4.536e+07,0.32398
4.54032e+07,0.32563
4.54464e+07,0.326977
4.54896e+07,0.3281
4.55328e+07,0.329056
4.5576e+07,0.329881
4.56192e+07,0.330604
4.56624e+07,0.331244
4.57056e+07,0.331817
4.57488e+07,0.332334
4.5792e+07,0.332805
4.58352e+07,0.333236
4.58784e+07,0.333635
4.59216e+07,0.334004
4.59648e+07,0.334348
4.6008e+07,0.334671
4.60512e+07,0.334975
4.60944e+07,0.335262
4.61376e+07,0.335535
4.61808e+07,0.335794
4.6224e+07,0.336041
4.62672e+07,0.336278
4.63104e+07,0.336505
4.63536e+07,0.336723
4.63968e+07,0.336933
4.644e+07,0.337137
4.64832e+07,0.337333
4.65264e+07,0.337524
4.65696e+07,0.337709
4.66128e+07,0.33789
4.6656e+07,0.338065
4.66992e+07,0.338236
4.67424e+07,0.338403
4.67856e+07,0.338566
4.68288e+07,0.338726
4.6872e+07,0.338883
4.69152e+07,0.339036
4.69584e+07,0.339187
4.70016e+07,0.339335
4.70448e+07,0.339481
4.7088e+07,0.339624
4.71312e+07,0.339765
4.71744e+07,0.339903
4.72176e+07,0.34004
4.72608e+07,0.340175
4.7304e+07,0.340308
4.73472e+07,0.34044
4.73904e+07,0.34057
4.74336e+07,0.340698
4.74768e+07,0.340825
4.752e+07,0.34095
4.75632e+07,0.341075
4.76064e+07,0.341198
4.76496e+07,0.341319
4.76928e+07,0.34144
4.7736e+07,0.341559
4.77792e+07,0.341678
4.78224e+07,0.341795
4.78656e+07,0.341912
4.79088e+07,0.342027
4.7952e+07,0.342142
4.79952e+07,0.342256
4.80384e+07,0.342369
4.80816e+07,0.342481
4.81248e+07,0.342592
4.8168e+07,0.342703
4.82112e+07,0.342813
4.82544e+07,0.342922
4.82976e+07,0.34303
4.83408e+07,0.343138
4.8384e+07,0.343245
4.84272e+07,0.343352
4.84704e+07,0.343458
4.85136e+07,0.343564
4.85568e+07,0.343669
4.86e+07,0.343773
4.86432e+07,0.343877
4.86864e+07,0.34398
4.87296e+07,0.344083
4.87728e+07,0.344185
4.8816e+07,0.344287
4.88592e+07,0.344388
4.89024e+07,0.344489
4.89456e+07,0.34459
4.89888e+07,0.34469
4.9032e+07,0.34479
4.90752e+07,0.344889
4.91184e+07,0.344988
4.91616e+07,0.345086
4.92048e+07,0.345184
4.9248e+07,0.345282
4.92912e+07,0.34538
4.93344e+07,0.345477
4.93776e+07,0.345573
4.94208e+07,0.34567
4.9464e+07,0.345766
4.95072e+07,0.345861
4.95504e+07,0.345957
4.95936e+07,0.346052
4.96368e+07,0.346146
4.968e+07,0.346241
4.97232e+07,0.346335
4.97664e+07,0.346429
4.98096e+07,0.346522
4.98528e+07,0.346616
4.9896e+07,0.346709
4.99392e+07,0.346801
4.99824e+07,0.346894
5.00256e+07,0.346986
5.00688e+07,0.347078
5.0112e+07,0.347169
5.01552e+07,0.347261
5.01984e+07,0.347352
5.02416e+07,0.347443
5.02848e+07,0.347534
5.0328e+07,0.347624
5.03712e+07,0.347714
5.04144e+07,0.347804
5.04576e+07,0.347894
5.05008e+07,0.347983
5.0544e+07,0.348073
5.05872e+07,0.348162
5.06304e+07,0.348251
5.06736e+07,0.348339
5.07168e+07,0.348428
5.076e+07,0.348516
5.08032e+07,0.348604
5.08464e+07,0.348692
5.08896e+07,0.34878
5.09328e+07,0.348867
5.0976e+07,0.348954
5.10192e+07,0.349041
5.10624e+07,0.349128
5.11056e+07,0.349215
5.11488e+07,0.349301
5.1192e+07,0.349388
5.12352e+07,0.349474
5.12784e+07,0.34956
5.13216e+07,0.349645
5.13648e+07,0.349731
5.1408e+07,0.349816
5.14512e+07,0.349902
5.14944e+07,0.349987
5.15376e+07,0.350072
5.15808e+07,0.350156
5.1624e+07,0.350241
5.16672e+07,0.350325
5.17104e+07,0.350409
5.17536e+07,0.350494
5.17968e+07,0.350577
5.184e+07,0.350661
5.18832e+07,0.350745
5.19264e+07,0.350828
5.19696e+07,0.350911
5.20128e+07,0.350995
5.2056e+07,0.351078
5.20992e+07,0.35116
5.21424e+07,0.351243
5.21856e+07,0.351326
5.22288e+07,0.351408
5.2272e+07,0.35149
5.23152e+07,0.351572
5.23584e+07,0.351654
5.24016e+07,0.351736
5.24448e+07,0.351818
5.2488e+07,0.351899
5.25312e+07,0.351981
5.25744e+07,0.352062
5.26176e+07,0.352143
5.26608e+07,0.352224
5.2704e+07,0.352305
5.27472e+07,0.352385
5.27904e+07,0.352466
5.28336e+07,0.352546
5.28768e+07,0.352627
5.292e+07,0.352707
5.29632e+07,0.352787
5.30064e+07,0.352867
5.30496e+07,0.352946
5.30928e+07,0.353026
5.3136e+07,0.353106
5.31792e+07,0.353185
5.32224e+07,0.353264
5.32656e+07,0.353343
5.33088e+07,0.353422
5.3352e+07,0.353501
5.33952e+07,0.35358
5.34384e+07,0.353659
5.34816e+07,0.353737
5.35248e+07,0.353816
5.3568e+07,0.353894
5.36112e+07,0.353972
5.36544e+07,0.35405
5.36976e+07,0.354128
5.37408e+07,0.354206
5.3784e+07,0.354284
5.38272e+07,0.354361
5.38704e+07,0.354439
5.39136e+07,0.354516
5.39568e+07,0.354593
5.4e+07,0.35467
5.40432e+07,0.354747
5.40864e+07,0.354824
5.41296e+07,0.354901
5.41728e+07,0.354978
5.4216e+07,0.355054
5.42592e+07,0.355131
5.43024e+07,0.355207
5.43456e+07,0.355284
5.43888e+07,0.35536
5.4432e+07,0.355436
5.44752e+07,0.355512
5.45184e+07,0.355587
5.45616e+07,0.355663
5.46048e+07,0.355739
5.4648e+07,0.355814
5.46912e+07,0.35589
5.47344e+07,0.355965
5.47776e+07,0.35604
5.48208e+07,0.356115
5.4864e+07,0.35619
5.49072e+07,0.356265
5.49504e+07,0.35634
5.49936e+07,0.356415
5.50368e+07,0.356489
5.508e+07,0.356564
5.51232e+07,0.356638
5.51664e+07,0.356713
5.52096e+07,0.356787
5.52528e+07,0.356861
5.5296e+07,0.356935
5.53392e+07,0.357009
5.53824e+07,0.357083
5.54256e+07,0.357156
5.54688e+07,0.35723
5.5512e+07,0.357303
5.55552e+07,0.357377
5.55984e+07,0.35745
5.56416e+07,0.357523
5.56848e+07,0.357597
5.5728e+07,0.35767
5.57712e+07,0.357743
5.58144e+07,0.357815
5.58576e+07,0.357888
5.59008e+07,0.357961
5.5944e+07,0.358034
5.59872e+07,0.358106
5.60304e+07,0.358178
5.60736e+07,0.358251
5.61168e+07,0.358323
5.616e+07,0.358395
5.62032e+07,0.358467
5.62464e+07,0.358539
5.62896e+07,0.358611
5.63328e+07,0.358683
5.6376e+07,0.358754
5.64192e+07,0.358826
5.64624e+07,0.358898
5.65056e+07,0.358969
5.65488e+07,0.35904
5.6592e+07,0.359112
5.66352e+07,0.359183
5.66784e+07,0.359254
5.67216e+07,0.359325
5.67648e+07,0.359396
5.6808e+07,0.359467
5.68512e+07,0.359537
5.68944e+07,0.359608
5.69376e+07,0.359679
5.69808e+07,0.359749
5.7024e+07,0.35982
5.70672e+07,0.35989
5.71104e+07,0.35996
5.71536e+07,0.36003
5.71968e+07,0.3601
5.724e+07,0.36017
5.72832e+07,0.36024
5.73264e+07,0.36031
5.73696e+07,0.36038
5.74128e+07,0.36045
5.7456e+07,0.360519
5.74992e+07,0.360589
5.75424e+07,0.360658
5.75856e+07,0.360728
5.76288e+07,0.360797
5.7672e+07,0.360866
5.77152e+07,0.360935
5.77584e+07,0.361004
5.78016e+07,0.361073
5.78448e+07,0.361142
5.7888e+07,0.361211
5.79312e+07,0.36128
5.79744e+07,0.361348
5.80176e+07,0.361417
5.80608e+07,0.361485
5.8104e+07,0.361554
5.81472e+07,0.361622
5.81904e+07,0.36169
5.82336e+07,0.361759
5.82768e+07,0.361827
5.832e+07,0.361895
5.83632e+07,0.361963
5.84064e+07,0.362031
5.84496e+07,0.362099
5.84928e+07,0.362166
5.8536e+07,0.362234
5.85792e+07,0.362302
5.86224e+07,0.362369
5.86656e+07,0.362437
5.87088e+07,0.362504
5.8752e+07,0.362571
5.87952e+07,0.362638
5.88384e+07,0.362706
5.88816e+07,0.362773
5.89248e+07,0.36284
5.8968e+07,0.362907
5.90112e+07,0.362974
5.90544e+07,0.36304
5.90976e+07,0.363107
5.91408e+07,0.363174
5.9184e+07,0.36324
5.92272e+07,0.363307
5.92704e+07,0.363373
5.93136e+07,0.36344
5.93568e+07,0.363506
5.94e+07,0.363572
5.94432e+07,0.363638
5.94864e+07,0.363704
5.95296e+07,0.363771
5.95728e+07,0.363836
5.9616e+07,0.363902
5.96592e+07,0.363968
5.97024e+07,0.364034
5.97456e+07,0.3641
5.97888e+07,0.364165
5.9832e+07,0.364231
5.98752e+07,0.364296
5.99184e+07,0.364362
5.99616e+07,0.364427
6.00048e+07,0.364492
6.0048e+07,0.364558
6.00912e+07,0.364623
6.01344e+07,0.364688
6.01776e+07,0.364753
6.02208e+07,0.364818
6.0264e+07,0.364883
6.03072e+07,0.364947
6.03504e+07,0.365012
6.03936e+07,0.365077
6.04368e+07,0.365141
6.048e+07,0.365206
6.05232e+07,0.365271
6.05664e+07,0.365335
6.06096e+07,0.365399
6.06528e+07,0.365464
6.0696e+07,0.365528
6.07392e+07,0.365592
6.07824e+07,0.365656
6.08256e+07,0.36572
6.08688e+07,0.365784
6.0912e+07,0.365848
6.09552e+07,0.365912
6.09984e+07,0.365976
6.10416e+07,0.366039
6.10848e+07,0.366103
6.1128e+07,0.366167
6.11712e+07,0.36623
6.12144e+07,0.366294
6.12576e+07,0.366357
6.13008e+07,0.36642
6.1344e+07,0.366484
6.13872e+07,0.366547
6.14304e+07,0.36661
6.14736e+07,0.366673
6.15168e+07,0.366736
6.156e+07,0.366799
6.16032e+07,0.366862
6.16464e+07,0.366925
6.16896e+07,0.366988
6.17328e+07,0.36705
6.1776e+07,0.367113
6.18192e+07,0.367176
6.18624e+07,0.367238
6.19056e+07,0.367301
6.19488e+07,0.367363
6.1992e+07,0.367426
6.20352e+07,0.367488
6.20784e+07,0.36755
6.21216e+07,0.367612
6.21648e+07,0.367675
6.2208e+07,0.367737
6.22512e+07,0.367799
6.22944e+07,0.367861
6.23376e+07,0.367923
6.23808e+07,0.367984
6.2424e+07,0.368046
6.24672e+07,0.368108
6.25104e+07,0.36817
6.25536e+07,0.368231
6.25968e+07,0.368293
6.264e+07,0.368354
6.26832e+07,0.368416
6.27264e+07,0.368477
6.27696e+07,0.368538
6.28128e+07,0.3686
6.2856e+07,0.368661
6.28992e+07,0.368722
6.29424e+07,0.368783
6.29856e+07,0.368844
6.30288e+07,0.368905
6.3072e+07,0.368966
6.31152e+07,0.369027
6.31584e+07,0.369088
6.32016e+07,0.369149
6.32448e+07,0.369209
6.3288e+07,0.36927
6.33312e+07,0.369331
6.33744e+07,0.369391
6.34176e+07,0.369452
6.34608e+07,0.369512
6.3504e+07,0.369572
6.35472e+07,0.369633
6.35904e+07,0.369693
6.36336e+07,0.369753
6.36768e+07,0.369813
6.372e+07,0.369873
6.37632e+07,0.369934
6.38064e+07,0.369993
6.38496e+07,0.370053
6.38928e+07,0.370113
6.3936e+07,0.370173
6.39792e+07,0.370233
6.40224e+07,0.370293
6.40656e+07,0.370352
6.41088e+07,0.370412
6.4152e+07,0.370472
6.41952e+07,0.370531
6.42384e+07,0.370591
6.42816e+07,0.37065
6.43248e+07,0.370709
6.4368e+07,0.370769
6.44112e+07,0.370828
6.44544e+07,0.370887
6.44976e+07,0.370946
6.45408e+07,0.371005
6.4584e+07,0.371064
6.46272e+07,0.371123
6.46704e+07,0.371182
6.47136e+07,0.371241
6.47568e+07,0.3713
6.48e+07,0.371359
6.48432e+07,0.371418
6.48864e+07,0.371476
6.49296e+07,0.371535
6.49728e+07,0.371593
6.5016e+07,0.371652
6.50592e+07,0.37171
6.51024e+07,0.371769
6.51456e+07,0.371827
6.51888e+07,0.371886
6.5232e+07,0.371944
6.52752e+07,0.372002
6.53184e+07,0.37206
6.53616e+07,0.372118
6.54048e+07,0.372177
6.5448e+07,0.372235
6.54912e+07,0.372293
6.55344e+07,0.37235
6.55776e+07,0.372408
6.56208e+07,0.372466
6.5664e+07,0.372524
6.57072e+07,0.372582
6.57504e+07,0.372639
6.57936e+07,0.372697
6.58368e+07,0.372755
6.588e+07,0.372812
6.59232e+07,0.37287
6.59664e+07,0.372927
6.60096e+07,0.372985
6.60528e+07,0.373042
6.6096e+07,0.373099
6.61392e+07,0.373156
6.61824e+07,0.373214
6.62256e+07,0.373271
6.62688e+07,0.373328
6.6312e+07,0.373385
6.63552e+07,0.373442
6.63984e+07,0.373499
6.64416e+07,0.373556
6.64848e+07,0.373613
6.6528e+07,0.37367
6.65712e+07,0.373726
6.66144e+07,0.373783
6.66576e+07,0.37384
6.67008e+07,0.373896
6.6744e+07,0.373953
6.67872e+07,0.374009
6.68304e+07,0.374066
6.68736e+07,0.374122
6.69168e+07,0.374179
6.696e+07,0.374235
6.70032e+07,0.374292
6.70464e+07,0.374348
6.70896e+07,0.374404
6.71328e+07,0.37446
6.7176e+07,0.374516
6.72192e+07,0.374572
6.72624e+07,0.374628
6.73056e+07,0.374684
6.73488e+07,0.37474
6.7392e+07,0.374796
6.74352e+07,0.374852
6.74784e+07,0.374908
6.75216e+07,0.374964
6.75648e+07,0.375019
6.7608e+07,0.375075
6.76512e+07,0.375131
6.76944e+07,0.375186
6.77376e+07,0.375242
6.77808e+07,0.375297
6.7824e+07,0.375353
6.78672e+07,0.375408
6.79104e+07,0.375464
6.79536e+07,0.375519
6.79968e+07,0.375574
6.804e+07,0.375629
6.80832e+07,0.375685
6.81264e+07,0.37574
6.81696e+07,0.375795
6.82128e+07,0.37585
6.8256e+07,0.375905
6.82992e+07,0.37596
6.83424e+07,0.376015
6.83856e+07,0.37607
6.84288e+07,0.376124
6.8472e+07,0.376179
6.85152e+07,0.376234
6.85584e+07,0.376289
6.86016e+07,0.376343
6.86448e+07,0.376398
6.8688e+07,0.376453
6.87312e+07,0.376507
6.87744e+07,0.376562
6.88176e+07,0.376616
6.88608e+07,0.37667
6.8904e+07,0.376725
6.89472e+07,0.376779
6.89904e+07,0.376833
6.90336e+07,0.376888
6.90768e+07,0.376942
6.912e+07,0.376996
6.91632e+07,0.37705
6.92064e+07,0.377104
6.92496e+07,0.377158
6.92928e+07,0.377212
6.9336e+07,0.377266
6.93792e+07,0.37732
6.94224e+07,0.377374
6.94656e+07,0.377428
6.95088e+07,0.377481
6.9552e+07,0.377535
6.95952e+07,0.377589
6.96384e+07,0.377643
6.96816e+07,0.377696
6.97248e+07,0.37775
6.9768e+07,0.377803
6.98112e+07,0.377857
6.98544e+07,0.37791
6.98976e+07,0.377964
6.99408e+07,0.378017
6.9984e+07,0.37807
7.00272e+07,0.378124
7.00704e+07,0.378177
7.01136e+07,0.37823
7.01568e+07,0.378283
7.02e+07,0.378336
7.02432e+07,0.378389
7.02864e+07,0.378442
7.03296e+07,0.378495
7.03728e+07,0.378548
7.0416e+07,0.378601
7.04592e+07,0.378654
7.05024e+07,0.378707
7.05456e+07,0.37876
7.05888e+07,0.378813
7.0632e+07,0.378865
7.06752e+07,0.378918
7.07184e+07,0.378971
7.07616e+07,0.379023
7.08048e+07,0.379076
7.0848e+07,0.379128
7.08912e+07,0.379181
7.09344e+07,0.379233
7.09776e+07,0.379286
7.10208e+07,0.379338
7.1064e+07,0.379391
7.11072e+07,0.379443
7.11504e+07,0.379495
7.11936e+07,0.379547
7.12368e+07,0.3796
7.128e+07,0.379652
7.13232e+07,0.379704
7.13664e+07,0.379756
7.14096e+07,0.379808
7.14528e+07,0.37986
7.1496e+07,0.379912
7.15392e+07,0.379964
7.15824e+07,0.380016
7.16256e+07,0.380067
7.16688e+07,0.380119
7.1712e+07,0.380171
7.17552e+07,0.380223
7.17984e+07,0.380274
7.18416e+07,0.380326
7.18848e+07,0.380378
7.1928e+07,0.380429
7.19712e+07,0.380481
7.20144e+07,0.380532
7.20576e+07,0.380584
7.21008e+07,0.380635
7.2144e+07,0.380687
7.21872e+07,0.380738
7.22304e+07,0.380789
7.22736e+07,0.380841
7.23168e+07,0.380892
7.236e+07,0.380943
7.24032e+07,0.380994
7.24464e+07,0.381045
7.24896e+07,0.381096
7.25328e+07,0.381147
7.2576e+07,0.381198
7.26192e+07,0.381249
7.26624e+07,0.3813
7.27056e+07,0.381351
7.27488e+07,0.381402
7.2792e+07,0.381453
7.28352e+07,0.381504
7.28784e+07,0.381555
7.29216e+07,0.381605
7.29648e+07,0.381656
7.3008e+07,0.381707
7.30512e+07,0.381757
7.30944e+07,0.381808
7.31376e+07,0.381858
7.31808e+07,0.381909
7.3224e+07,0.381959
7.32672e+07,0.38201
7.33104e+07,0.38206
7.33536e+07,0.382111
7.33968e+07,0.382161
7.344e+07,0.382211
7.34832e+07,0.382262
7.35264e+07,0.382312
7.35696e+07,0.382362
7.36128e+07,0.382412
7.3656e+07,0.382462
7.36992e+07,0.382512
7.37424e+07,0.382562
7.37856e+07,0.382612
7.38288e+07,0.382662
7.3872e+07,0.382712
7.39152e+07,0.382762
7.39584e+07,0.382812
7.40016e+07,0.382862
7.40448e+07,0.382912
7.4088e+07,0.382962
7.41312e+07,0.383011
7.41744e+07,0.383061
7.42176e+07,0.383111
7.42608e+07,0.38316
7.4304e+07,0.38321
7.43472e+07,0.38326
7.43904e+07,0.383309
7.44336e+07,0.383359
7.44768e+07,0.383408
7.452e+07,0.383458
7.45632e+07,0.383507
7.46064e+07,0.383556
7.46496e+07,0.383606
7.46928e+07,0.383655
7.4736e+07,0.383704
7.47792e+07,0.383754
7.48224e+07,0.383803
7.48656e+07,0.383852
7.49088e+07,0.383901
7.4952e+07,0.38395
7.49952e+07,0.383999
7.50384e+07,0.384048
7.50816e+07,0.384097
7.51248e+07,0.384146
7.5168e+07,0.384195
7.52112e+07,0.384244
7.52544e+07,0.384293
7.52976e+07,0.384342
7.53408e+07,0.384391
7.5384e+07,0.384439
7.54272e+07,0.384488
7.54704e+07,0.384537
7.55136e+07,0.384585
7.55568e+07,0.384634
7.56e+07,0.384683
7.56432e+07,0.384731
7.56864e+07,0.38478
7.57296e+07,0.384828
7.57728e+07,0.384877
7.5816e+07,0.384925
7.58592e+07,0.384974
7.59024e+07,0.385022
7.59456e+07,0.38507
7.59888e+07,0.385119
7.6032e+07,0.385167
7.60752e+07,0.385215
7.61184e+07,0.385263
7.61616e+07,0.385312
7.62048e+07,0.38536
7.6248e+07,0.385408
7.62912e+07,0.385456
7.63344e+07,0.385504
7.63776e+07,0.385552
7.64208e+07,0.3856
7.6464e+07,0.385648
7.65072e+07,0.385696
7.65504e+07,0.385744
7.65936e+07,0.385792
7.66368e+07,0.38584
7.668e+07,0.385887
7.67232e+07,0.385935
7.67664e+07,0.385983
7.68096e+07,0.386031
7.68528e+07,0.386078
7.6896e+07,0.386126
7.69392e+07,0.386174
7.69824e+07,0.386221
7.70256e+07,0.386269
7.70688e+07,0.386316
7.7112e+07,0.386364
7.71552e+07,0.386411
7.71984e+07,0.386459
7.72416e+07,0.386506
7.72848e+07,0.386553
7.7328e+07,0.386601
7.73712e+07,0.386648
7.74144e+07,0.386695
7.74576e+07,0.386743
7.75008e+07,0.38679
7.7544e+07,0.386837
7.75872e+07,0.386884
7.76304e+07,0.386931
7.76736e+07,0.386978
7.77168e+07,0.387025
7.776e+07,0.387072
7.78032e+07,0.387119
7.78464e+07,0.387166
7.78896e+07,0.387213
7.79328e+07,0.38726
7.7976e+07,0.387307
7.80192e+07,0.387354
7.80624e+07,0.387401
7.81056e+07,0.387448
7.81488e+07,0.387494
7.8192e+07,0.387541
7.82352e+07,0.387588
7.82784e+07,0.387635
7.83216e+07,0.387681
7.83648e+07,0.387728
7.8408e+07,0.387774
7.84512e+07,0.387821
7.84944e+07,0.387868
7.85376e+07,0.387914
7.85808e+07,0.38796
7.8624e+07,0.388007
7.86672e+07,0.388053
7.87104e+07,0.3881
7.87536e+07,0.388146
7.87968e+07,0.388192
7.884e+07,0.388239
7.88832e+07,0.388285
7.89264e+07,0.388331
7.89696e+07,0.388377
7.90128e+07,0.388424
7.9056e+07,0.38847
7.90992e+07,0.388516
7.91424e+07,0.388562
7.91856e+07,0.388608
7.92288e+07,0.388654
7.9272e+07,0.3887
7.93152e+07,0.388746
7.93584e+07,0.388792
7.94016e+07,0.388838
7.94448e+07,0.388884
7.9488e+07,0.38893
7.95312e+07,0.388975
7.95744e+07,0.389021
7.96176e+07,0.389067
7.96608e+07,0.389113
7.9704e+07,0.389159
7.97472e+07,0.389204
7.97904e+07,0.38925
7.98336e+07,0.389295
7.98768e+07,0.389341
7.992e+07,0.389387
7.99632e+07,0.389432
8.00064e+07,0.389478
8.00496e+07,0.389523
8.00928e+07,0.389569
8.0136e+07,0.389614
8.01792e+07,0.38966
8.02224e+07,0.389705
8.02656e+07,0.38975
8.03088e+07,0.389796
8.0352e+07,0.389841
8.03952e+07,0.389886
8.04384e+07,0.389931
8.04816e+07,0.389977
8.05248e+07,0.390022
8.0568e+07,0.390067
8.06112e+07,0.390112
8.06544e+07,0.390157
8.06976e+07,0.390202
8.07408e+07,0.390247
8.0784e+07,0.390292
8.08272e+07,0.390337
8.08704e+07,0.390382
8.09136e+07,0.390427
8.09568e+07,0.390472
8.1e+07,0.390517
8.10432e+07,0.390562
8.10864e+07,0.390607
8.11296e+07,0.390652
8.11728e+07,0.390696
8.1216e+07,0.390741
8.12592e+07,0.390786
8.13024e+07,0.390831
8.13456e+07,0.390875
8.13888e+07,0.39092
8.1432e+07,0.390964
8.14752e+07,0.391009
8.15184e+07,0.391054
8.15616e+07,0.391098
8.16048e+07,0.391143
8.1648e+07,0.391187
8.16912e+07,0.391232
8.17344e+07,0.391276
8.17776e+07,0.39132
8.18208e+07,0.391365
8.1864e+07,0.391409
8.19072e+07,0.391453
8.19504e+07,0.391498
8.19936e+07,0.391542
8.20368e+07,0.391586
8.208e+07,0.391631
8.21232e+07,0.391675
8.21664e+07,0.391719
8.22096e+07,0.391763
8.22528e+07,0.391807
8.2296e+07,0.391851
8.23392e+07,0.391895
8.23824e+07,0.391939
8.24256e+07,0.391983
8.24688e+07,0.392027
8.2512e+07,0.392071
8.25552e+07,0.392115
8.25984e+07,0.392159
8.26416e+07,0.392203
8.26848e+07,0.392247
8.2728e+07,0.392291
8.27712e+07,0.392334
8.28144e+07,0.392378
8.28576e+07,0.392422
8.29008e+07,0.392466
8.2944e+07,0.392509
8.29872e+07,0.392553
8.30304e+07,0.392597
8.30736e+07,0.39264
8.31168e+07,0.392684
8.316e+07,0.392728
8.32032e+07,0.392771
8.32464e+07,0.392815
8.32896e+07,0.392858
8.33328e+07,0.392902
8.3376e+07,0.392945
8.34192e+07,0.392988
8.34624e+07,0.393032
8.35056e+07,0.393075
8.35488e+07,0.393119
8.3592e+07,0.393162
8.36352e+07,0.393205
8.36784e+07,0.393248
8.37216e+07,0.393292
8.37648e+07,0.393335
8.3808e+07,0.393378
8.38512e+07,0.393421
8.38944e+07,0.393464
8.39376e+07,0.393507
8.39808e+07,0.393551
8.4024e+07,0.393594
8.40672e+07,0.393637
8.41104e+07,0.39368
8.41536e+07,0.393723
8.41968e+07,0.393766
8.424e+07,0.393809
8.42832e+07,0.393852
8.43264e+07,0.393894
8.43696e+07,0.393937
8.44128e+07,0.39398
8.4456e+07,0.394023
8.44992e+07,0.394066
8.45424e+07,0.394109
8.45856e+07,0.394151
8.46288e+07,0.394194
8.4672e+07,0.394237
8.47152e+07,0.394279
8.47584e+07,0.394322
8.48016e+07,0.394365
8.48448e+07,0.394407
8.4888e+07,0.39445
8.49312e+07,0.394492
8.49744e+07,0.394535
8.50176e+07,0.394577
8.50608e+07,0.39462
8.5104e+07,0.394662
8.51472e+07,0.394705
8.51904e+07,0.394747
8.52336e+07,0.39479
8.52768e+07,0.394832
8.532e+07,0.394874
8.53632e+07,0.394917
8.54064e+07,0.394959
8.54496e+07,0.395001
8.54928e+07,0.395044
8.5536e+07,0.395086
8.55792e+07,0.395128
8.56224e+07,0.39517
8.56656e+07,0.395212
8.57088e+07,0.395254
8.5752e+07,0.395296
8.57952e+07,0.395339
8.58384e+07,0.395381
8.58816e+07,0.395423
8.59248e+07,0.395465
8.5968e+07,0.395507
8.60112e+07,0.395549
8.60544e+07,0.395591
8.60976e+07,0.395632
8.61408e+07,0.395674
8.6184e+07,0.395716
8.62272e+07,0.395758
8.62704e+07,0.3958
8.63136e+07,0.395842
8.63568e+07,0.395883
8.64e+07,0.395925
8.64432e+07,0.395967
8.64864e+07,0.396009
8.65296e+07,0.39605
8.65728e+07,0.396092
8.6616e+07,0.396134
8.66592e+07,0.396175
8.67024e+07,0.396217
8.67456e+07,0.396258
8.67888e+07,0.3963
8.6832e+07,0.396342
8.68752e+07,0.396383
8.69184e+07,0.396425
8.69616e+07,0.396466
8.70048e+07,0.396507
8.7048e+07,0.396549
8.70912e+07,0.39659
8.71344e+07,0.396632
8.71776e+07,0.396673
8.72208e+07,0.396714
8.7264e+07,0.396756
8.73072e+07,0.396797
8.73504e+07,0.396838
8.73936e+07,0.396879
8.74368e+07,0.396921
8.748e+07,0.396962
8.75232e+07,0.397003
8.75664e+07,0.397044
8.76096e+07,0.397085
8.76528e+07,0.397126
8.7696e+07,0.397167
8.77392e+07,0.397208
8.77824e+07,0.397249
8.78256e+07,0.39729
8.78688e+07,0.397331
8.7912e+07,0.397372
8.79552e+07,0.397413
8.79984e+07,0.397454
8.80416e+07,0.397495
8.80848e+07,0.397536
8.8128e+07,0.397577
8.81712e+07,0.397618
8.82144e+07,0.397658
8.82576e+07,0.397699
8.83008e+07,0.39774
8.8344e+07,0.397781
8.83872e+07,0.397821
8.84304e+07,0.397862
8.84736e+07,0.397903
8.85168e+07,0.397943
8.856e+07,0.397984
8.86032e+07,0.398025
8.86464e+07,0.398065
8.86896e+07,0.398106
8.87328e+07,0.398146
8.8776e+07,0.398187
8.88192e+07,0.398227
8.88624e+07,0.398268
8.89056e+07,0.398308
8.89488e+07,0.398349
8.8992e+07,0.398389
8.90352e+07,0.39843
8.90784e+07,0.39847
8.91216e+07,0.39851
8.91648e+07,0.398551
8.9208e+07,0.398591
8.92512e+07,0.398631
8.92944e+07,0.398672
8.93376e+07,0.398712
8.93808e+07,0.398752
8.9424e+07,0.398792
8.94672e+07,0.398832
8.95104e+07,0.398873
8.95536e+07,0.398913
8.95968e+07,0.398953
8.964e+07,0.398993
8.96832e+07,0.399033
8.97264e+07,0.399073
8.97696e+07,0.399113
8.98128e+07,0.399153
8.9856e+07,0.399193
8.98992e+07,0.399233
8.99424e+07,0.399273
8.99856e+07,0.399313
9.00288e+07,0.399353
9.0072e+07,0.399393
9.01152e+07,0.399433
9.01584e+07,0.399473
9.02016e+07,0.399512
9.02448e+07,0.399552
9.0288e+07,0.399592
9.03312e+07,0.399632
9.03744e+07,0.399671
9.04176e+07,0.399711
9.04608e+07,0.399751
9.0504e+07,0.399791
9.05472e+07,0.39983
9.05904e+07,0.39987
9.06336e+07,0.39991
9.06768e+07,0.399949
9.072e+07,0.399989
9.07632e+07,0.400028
9.08064e+07,0.400068
9.08496e+07,0.400107
9.08928e+07,0.400147
9.0936e+07,0.400186
9.09792e+07,0.400226
9.10224e+07,0.400265
9.10656e+07,0.400305
9.11088e+07,0.400344
9.1152e+07,0.400383
9.11952e+07,0.400423
9.12384e+07,0.400462
9.12816e+07,0.400501
9.13248e+07,0.400541
9.1368e+07,0.40058
9.14112e+07,0.400619
9.14544e+07,0.400658
9.14976e+07,0.400698
9.15408e+07,0.400737
9.1584e+07,0.400776
9.16272e+07,0.400815
9.16704e+07,0.400854
9.17136e+07,0.400893
9.17568e+07,0.400932
9.18e+07,0.400972
9.18432e+07,0.401011
9.18864e+07,0.40105
9.19296e+07,0.401089
9.19728e+07,0.401128
9.2016e+07,0.401167
9.20592e+07,0.401206
9.21024e+07,0.401245
9.21456e+07,0.401283
9.21888e+07,0.401322
9.2232e+07,0.401361
9.22752e+07,0.4014
9.23184e+07,0.401439
9.23616e+07,0.401478
9.24048e+07,0.401517
9.2448e+07,0.401555
9.24912e+07,0.401594
9.25344e+07,0.401633
9.25776e+07,0.401672
9.26208e+07,0.40171
9.2664e+07,0.401749
9.27072e+07,0.401788
9.27504e+07,0.401826
9.27936e+07,0.401865
9.28368e+07,0.401903
9.288e+07,0.401942
9.29232e+07,0.401981
9.29664e+07,0.402019
9.30096e+07,0.402058
9.30528e+07,0.402096
9.3096e+07,0.402135
9.31392e+07,0.402173
9.31824e+07,0.402212
9.32256e+07,0.40225
9.32688e+07,0.402288
9.3312e+07,0.402327
9.33552e+07,0.402365
9.33984e+07,0.402404
9.34416e+07,0.402442
9.34848e+07,0.40248
9.3528e+07,0.402518
9.35712e+07,0.402557
9.36144e+07,0.402595
9.36576e+07,0.402633
9.37008e+07,0.402671
9.3744e+07,0.40271
9.37872e+07,0.402748
9.38304e+07,0.402786
9.38736e+07,0.402824
9.39168e+07,0.402862
9.396e+07,0.4029
9.40032e+07,0.402938
9.40464e+07,0.402977
9.40896e+07,0.403015
9.41328e+07,0.403053
9.4176e+07,0.403091
9.42192e+07,0.403129
9.42624e+07,0.403167
9.43056e+07,0.403205
9.43488e+07,0.403242
9.4392e+07,0.40328
9.44352e+07,0.403318
9.44784e+07,0.403356
9.45216e+07,0.403394
9.45648e+07,0.403432
9.4608e+07,0.40347
9.46512e+07,0.403507
9.46944e+07,0.403545
9.47376e+07,0.403583
9.47808e+07,0.403621
9.4824e+07,0.403659
9.48672e+07,0.403696
9.49104e+07,0.403734
9.49536e+07,0.403772
9.49968e+07,0.403809
9.504e+07,0.403847
9.50832e+07,0.403885
9.51264e+07,0.403922
9.51696e+07,0.40396
9.52128e+07,0.403997
9.5256e+07,0.404035
9.52992e+07,0.404072
9.53424e+07,0.40411
9.53856e+07,0.404147
9.54288e+07,0.404185
9.5472e+07,0.404222
9.55152e+07,0.40426
9.55584e+07,0.404297
9.56016e+07,0.404335
9.56448e+07,0.404372
9.5688e+07,0.404409
9.57312e+07,0.404447
9.57744e+07,0.404484
9.58176e+07,0.404521
9.58608e+07,0.404559
9.5904e+07,0.404596
9.59472e+07,0.404633
9.59904e+07,0.40467
9.60336e+07,0.404708
9.60768e+07,0.404745
9.612e+07,0.404782
9.61632e+07,0.404819
9.62064e+07,0.404856
9.62496e+07,0.404893
9.62928e+07,0.404931
9.6336e+07,0.404968
9.63792e+07,0.405005
9.64224e+07,0.405042
9.64656e+07,0.405079
9.65088e+07,0.405116
9.6552e+07,0.405153
9.65952e+07,0.40519
9.66384e+07,0.405227
9.66816e+07,0.405264
9.67248e+07,0.405301
9.6768e+07,0.405338
9.68112e+07,0.405375
9.68544e+07,0.405412
9.68976e+07,0.405448
9.69408e+07,0.405485
9.6984e+07,0.405522
9.70272e+07,0.405559
9.70704e+07,0.405596
9.71136e+07,0.405632
9.71568e+07,0.405669
9.72e+07,0.405706
9.72432e+07,0.405743
9.72864e+07,0.405779
9.73296e+07,0.405816
9.73728e+07,0.405853
9.7416e+07,0.405889
9.74592e+07,0.405926
9.75024e+07,0.405963
9.75456e+07,0.405999
9.75888e+07,0.406036
9.7632e+07,0.406073
9.76752e+07,0.406109
9.77184e+07,0.406146
9.77616e+07,0.406182
9.78048e+07,0.406219
9.7848e+07,0.406255
9.78912e+07,0.406292
9.79344e+07,0.406328
9.79776e+07,0.406364
9.80208e+07,0.406401
9.8064e+07,0.406437
9.81072e+07,0.406474
9.81504e+07,0.40651
9.81936e+07,0.406546
9.82368e+07,0.406583
9.828e+07,0.406619
9.83232e+07,0.406655
9.83664e+07,0.406692
9.84096e+07,0.406728
9.84528e+07,0.406764
9.8496e+07,0.4068
9.85392e+07,0.406837
9.85824e+07,0.406873
9.86256e+07,0.406909
9.86688e+07,0.406945
9.8712e+07,0.406981
9.87552e+07,0.407017
9.87984e+07,0.407054
9.88416e+07,0.40709
9.88848e+07,0.407126
9.8928e+07,0.407162
9.89712e+07,0.407198
9.90144e+07,0.407234
9.90576e+07,0.40727
9.91008e+07,0.407306
9.9144e+07,0.407342
9.91872e+07,0.407378
9.92304e+07,0.407414
9.92736e+07,0.40745
9.93168e+07,0.407486
9.936e+07,0.407522
9.94032e+07,0.407557
9.94464e+07,0.407593
9.94896e+07,0.407629
9.95328e+07,0.407665
9.9576e+07,0.407701
9.96192e+07,0.407737
9.96624e+07,0.407772
9.97056e+07,0.407808
9.97488e+07,0.407844
9.9792e+07,0.40788
9.98352e+07,0.407915
9.98784e+07,0.407951
9.99216e+07,0.407987
9.99648e+07,0.408022
1.00008e+08,0.408058
1.00051e+08,0.408094
1.00094e+08,0.408129
1.00138e+08,0.408165
1.00181e+08,0.408201
1.00224e+08,0.408236
1.00267e+08,0.408272
1.0031e+08,0.408307
1.00354e+08,0.408343
1.00397e+08,0.408378
1.0044e+08,0.408414
1.00483e+08,0.408449
1.00526e+08,0.408485
1.0057e+08,0.40852
1.00613e+08,0.408556
1.00656e+08,0.408591
1.00699e+08,0.408626
1.00742e+08,0.408662
1.00786e+08,0.408697
1.00829e+08,0.408732
1.00872e+08,0.408768
1.00915e+08,0.408803
1.00958e+08,0.408838
1.01002e+08,0.408874
1.01045e+08,0.408909
1.01088e+08,0.408944
1.01131e+08,0.408979
1.01174e+08,0.409015
1.01218e+08,0.40905
1.01261e+08,0.409085
1.01304e+08,0.40912
1.01347e+08,0.409155
1.0139e+08,0.409191
1.01434e+08,0.409226
1.01477e+08,0.409261
1.0152e+08,0.409296
1.01563e+08,0.409331
1.01606e+08,0.409366
1.0165e+08,0.409401
1.01693e+08,0.409436
1.01736e+08,0.409471
1.01779e+08,0.409506
1.01822e+08,0.409541
1.01866e+08,0.409576
1.01909e+08,0.409611
1.01952e+08,0.409646
1.01995e+08,0.409681
1.02038e+08,0.409716
1.02082e+08,0.409751
1.02125e+08,0.409786
1.02168e+08,0.40982
1.02211e+08,0.409855
1.02254e+08,0.40989
1.02298e+08,0.409925
1.02341e+08,0.40996
1.02384e+08,0.409995
1.02427e+08,0.410029
1.0247e+08,0.410064
1.02514e+08,0.410099
1.02557e+08,0.410133
1.026e+08,0.410168
1.02643e+08,0.410203
1.02686e+08,0.410238
1.0273e+08,0.410272
1.02773e+08,0.410307
1.02816e+08,0.410341
1.02859e+08,0.410376
1.02902e+08,0.410411
1.02946e+08,0.410445
1.02989e+08,0.41048
1.03032e+08,0.410514
1.03075e+08,0.410549
1.03118e+08,0.410583
1.03162e+08,0.410618
1.03205e+08,0.410652
1.03248e+08,0.410687
1.03291e+08,0.410721
1.03334e+08,0.410756
1.03378e+08,0.41079
1.03421e+08,0.410825
1.03464e+08,0.410859
1.03507e+08,0.410894
1.0355e+08,0.410928
1.03594e+08,0.410962
1.03637e+08,0.410997
1.0368e+08,0.411031
1.03723e+08,0.411065
1.03766e+08,0.4111
1.0381e+08,0.411134
1.03853e+08,0.411168
1.03896e+08,0.411202
1.03939e+08,0.411237
1.03982e+08,0.411271
1.04026e+08,0.411305
1.04069e+08,0.411339
1.04112e+08,0.411373
1.04155e+08,0.411408
1.04198e+08,0.411442
1.04242e+08,0.411476
1.04285e+08,0.41151
1.04328e+08,0.411544
1.04371e+08,0.411578
1.04414e+08,0.411612
1.04458e+08,0.411646
1.04501e+08,0.41168
1.04544e+08,0.411714
1.04587e+08,0.411748
1.0463e+08,0.411782
1.04674e+08,0.411816
1.04717e+08,0.41185
1.0476e+08,0.411884
1.04803e+08,0.411918
1.04846e+08,0.411952
1.0489e+08,0.411986
1.04933e+08,0.41202
1.04976e+08,0.412054
1.05019e+08,0.412088
1.05062e+08,0.412122
1.05106e+08,0.412155
1.05149e+08,0.412189
1.05192e+08,0.412223
1.05235e+08,0.412257
1.05278e+08,0.412291
1.05322e+08,0.412324
1.05365e+08,0.412358
1.05408e+08,0.412392
1.05451e+08,0.412426
1.05494e+08,0.412459
1.05538e+08,0.412493
1.05581e+08,0.412527
1.05624e+08,0.41256
1.05667e+08,0.412594
1.0571e+08,0.412628
1.05754e+08,0.412661
1.05797e+08,0.412695
1.0584e+08,0.412728
1.05883e+08,0.412762
1.05926e+08,0.412796
1.0597e+08,0.412829
1.06013e+08,0.412863
1.06056e+08,0.412896
1.06099e+08,0.41293
1.06142e+08,0.412963
1.06186e+08,0.412997
1.06229e+08,0.41303
1.06272e+08,0.413064
1.06315e+08,0.413097
1.06358e+08,0.413131
1.06402e+08,0.413164
1.06445e+08,0.413197
1.06488e+08,0.413231
1.06531e+08,0.413264
1.06574e+08,0.413297
1.06618e+08,0.413331
1.06661e+08,0.413364
1.06704e+08,0.413397
1.06747e+08,0.413431
1.0679e+08,0.413464
1.06834e+08,0.413497
1.06877e+08,0.413531
1.0692e+08,0.413564
1.06963e+08,0.413597
1.07006e+08,0.41363
1.0705e+08,0.413663
1.07093e+08,0.413697
1.07136e+08,0.41373
1.07179e+08,0.413763
1.07222e+08,0.413796
1.07266e+08,0.413829
1.07309e+08,0.413862
1.07352e+08,0.413895
1.07395e+08,0.413929
1.07438e+08,0.413962
1.07482e+08,0.413995
1.07525e+08,0.414028
1.07568e+08,0.414061
1.07611e+08,0.414094
1.07654e+08,0.414127
1.07698e+08,0.41416
1.07741e+08,0.414193
1.07784e+08,0.414226
1.07827e+08,0.414259
1.0787e+08,0.414292
1.07914e+08,0.414325
1.07957e+08,0.414357
1.08e+08,0.41439
1.08043e+08,0.414423
1.08086e+08,0.414456
1.0813e+08,0.414489
1.08173e+08,0.414522
1.08216e+08,0.414555
1.08259e+08,0.414587
1.08302e+08,0.41462
1.08346e+08,0.414653
1.08389e+08,0.414686
1.08432e+08,0.414719
1.08475e+08,0.414751
1.08518e+08,0.414784
1.08562e+08,0.414817
1.08605e+08,0.41485
1.08648e+08,0.414882
1.08691e+08,0.414915
1.08734e+08,0.414948
1.08778e+08,0.41498
1.08821e+08,0.415013
1.08864e+08,0.415045
1.08907e+08,0.415078
1.0895e+08,0.415111
1.08994e+08,0.415143
1.09037e+08,0.415176
1.0908e+08,0.415208
1.09123e+08,0.415241
1.09166e+08,0.415273
1.0921e+08,0.415306
1.09253e+08,0.415339
1.09296e+08,0.415371
1.09339e+08,0.415403
1.09382e+08,0.415436
1.09426e+08,0.415468
1.09469e+08,0.415501
1.09512e+08,0.415533
1.09555e+08,0.415566
1.09598e+08,0.415598
1.09642e+08,0.41563
1.09685e+08,0.415663
1.09728e+08,0.415695
1.09771e+08,0.415728
1.09814e+08,0.41576
1.09858e+08,0.415792
1.09901e+08,0.415825
1.09944e+08,0.415857
1.09987e+08,0.415889
1.1003e+08,0.415921
1.10074e+08,0.415954
1.10117e+08,0.415986
1.1016e+08,0.416018
1.10203e+08,0.41605
1.10246e+08,0.416083
1.1029e+08,0.416115
1.10333e+08,0.416147
1.10376e+08,0.416179
1.10419e+08,0.416211
1.10462e+08,0.416243
1.10506e+08,0.416275
1.10549e+08,0.416308
1.10592e+08,0.41634
1.10635e+08,0.416372
1.10678e+08,0.416404
1.10722e+08,0.416436
1.10765e+08,0.416468
1.10808e+08,0.4165
1.10851e+08,0.416532
1.10894e+08,0.416564
1.10938e+08,0.416596
1.10981e+08,0.416628
1.11024e+08,0.41666
1.11067e+08,0.416692
1.1111e+08,0.416724
1.11154e+08,0.416756
1.11197e+08,0.416788
1.1124e+08,0.41682
1.11283e+08,0.416852
1.11326e+08,0.416883
1.1137e+08,0.416915
1.11413e+08,0.416947
1.11456e+08,0.416979
1.11499e+08,0.417011
1.11542e+08,0.417043
1.11586e+08,0.417074
1.11629e+08,0.417106
1.11672e+08,0.417138
1.11715e+08,0.41717
1.11758e+08,0.417202
1.11802e+08,0.417233
1.11845e+08,0.417265
1.11888e+08,0.417297
1.11931e+08,0.417328
1.11974e+08,0.41736
1.12018e+08,0.417392
1.12061e+08,0.417423
1.12104e+08,0.417455
1.12147e+08,0.417487
1.1219e+08,0.417518
1.12234e+08,0.41755
1.12277e+08,0.417582
1.1232e+08,0.417613
1.12363e+08,0.417645
1.12406e+08,0.417676
1.1245e+08,0.417708
1.12493e+08,0.417739
1.12536e+08,0.417771
1.12579e+08,0.417803
1.12622e+08,0.417834
1.12666e+08,0.417866
1.12709e+08,0.417897
1.12752e+08,0.417928
1.12795e+08,0.41796
1.12838e+08,0.417991
1.12882e+08,0.418023
1.12925e+08,0.418054
1.12968e+08,0.418086
1.13011e+08,0.418117
1.13054e+08,0.418148
1.13098e+08,0.41818
1.13141e+08,0.418211
1.13184e+08,0.418242
1.13227e+08,0.418274
1.1327e+08,0.418305
1.13314e+08,0.418336
1.13357e+08,0.418368
1.134e+08,0.418399
1.13443e+08,0.41843
1.13486e+08,0.418462
1.1353e+08,0.418493
1.13573e+08,0.418524
1.13616e+08,0.418555
1.13659e+08,0.418586
1.13702e+08,0.418618
1.13746e+08,0.418649
1.13789e+08,0.41868
1.13832e+08,0.418711
1.13875e+08,0.418742
1.13918e+08,0.418773
1.13962e+08,0.418805
1.14005e+08,0.418836
1.14048e+08,0.418867
1.14091e+08,0.418898
1.14134e+08,0.418929
1.14178e+08,0.41896
1.14221e+08,0.418991
1.14264e+08,0.419022
1.14307e+08,0.419053
1.1435e+08,0.419084
1.14394e+08,0.419115
1.14437e+08,0.419146
1.1448e+08,0.419177
1.14523e+08,0.419208
1.14566e+08,0.419239
1.1461e+08,0.41927
1.14653e+08,0.419301
1.14696e+08,0.419332
1.14739e+08,0.419363
1.14782e+08,0.419394
1.14826e+08,0.419425
1.14869e+08,0.419455
1.14912e+08,0.419486
1.14955e+08,0.419517
1.14998e+08,0.419548
1.15042e+08,0.419579
1.15085e+08,0.41961
1.15128e+08,0.41964
1.15171e+08,0.419671
1.15214e+08,0.419702
1.15258e+08,0.419733
1.15301e+08,0.419763
1.15344e+08,0.419794
1.15387e+08,0.419825
1.1543e+08,0.419856
1.15474e+08,0.419886
1.15517e+08,0.419917
1.1556e+08,0.419948
1.15603e+08,0.419978
1.15646e+08,0.420009
1.1569e+08,0.42004
1.15733e+08,0.42007
1.15776e+08,0.420101
1.15819e+08,0.420132
1.15862e+08,0.420162
1.15906e+08,0.420193
1.15949e+08,0.420223
1.15992e+08,0.420254
1.16035e+08,0.420284
1.16078e+08,0.420315
1.16122e+08,0.420346
1.16165e+08,0.420376
1.16208e+08,0.420407
1.16251e+08,0.420437
1.16294e+08,0.420468
1.16338e+08,0.420498
1.16381e+08,0.420529
1.16424e+08,0.420559
1.16467e+08,0.420589
1.1651e+08,0.42062
1.16554e+08,0.42065
1.16597e+08,0.420681
1.1664e+08,0.420711
1.16683e+08,0.420741
1.16726e+08,0.420772
1.1677e+08,0.420802
1.16813e+08,0.420833
1.16856e+08,0.420863
1.16899e+08,0.420893
1.16942e+08,0.420923
1.16986e+08,0.420954
1.17029e+08,0.420984
1.17072e+08,0.421014
1.17115e+08,0.421045
1.17158e+08,0.421075
1.17202e+08,0.421105
1.17245e+08,0.421135
1.17288e+08,0.421166
1.17331e+08,0.421196
1.17374e+08,0.421226
1.17418e+08,0.421256
1.17461e+08,0.421286
1.17504e+08,0.421317
1.17547e+08,0.421347
1.1759e+08,0.421377
1.17634e+08,0.421407
1.17677e+08,0.421437
1.1772e+08,0.421467
1.17763e+08,0.421497
1.17806e+08,0.421527
1.1785e+08,0.421557
1.17893e+08,0.421587
1.17936e+08,0.421618
1.17979e+08,0.421648
1.18022e+08,0.421678
1.18066e+08,0.421708
1.18109e+08,0.421738
1.18152e+08,0.421768
1.18195e+08,0.421798
1.18238e+08,0.421828
1.18282e+08,0.421858
1.18325e+08,0.421888
1.18368e+08,0.421917
1.18411e+08,0.421947
1.18454e+08,0.421977
1.18498e+08,0.422007
1.18541e+08,0.422037
1.18584e+08,0.422067
1.18627e+08,0.422097
1.1867e+08,0.422127
1.18714e+08,0.422157
1.18757e+08,0.422186
1.188e+08,0.422216
1.18843e+08,0.422246
1.18886e+08,0.422276
1.1893e+08,0.422306
1.18973e+08,0.422335
1.19016e+08,0.422365
1.19059e+08,0.422395
1.19102e+08,0.422425
1.19146e+08,0.422454
1.19189e+08,0.422484
1.19232e+08,0.422514
1.19275e+08,0.422544
1.19318e+08,0.422573
1.19362e+08,0.422603
1.19405e+08,0.422633
1.19448e+08,0.422662
1.19491e+08,0.422692
1.19534e+08,0.422722
1.19578e+08,0.422751
1.19621e+08,0.422781
1.19664e+08,0.422811
1.19707e+08,0.42284
1.1975e+08,0.42287
1.19794e+08,0.422899
1.19837e+08,0.422929
1.1988e+08,0.422958
1.19923e+08,0.422988
1.19966e+08,0.423018
1.2001e+08,0.423047
1.20053e+08,0.423077
1.20096e+08,0.423106
1.20139e+08,0.423136
1.20182e+08,0.423165
1.20226e+08,0.423194
1.20269e+08,0.423224
1.20312e+08,0.423253
1.20355e+08,0.423283
1.20398e+08,0.423312
1.20442e+08,0.423342
1.20485e+08,0.423371
1.20528e+08,0.4234
1.20571e+08,0.42343
1.20614e+08,0.423459
1.20658e+08,0.423489
1.20701e+08,0.423518
1.20744e+08,0.423547
1.20787e+08,0.423577
1.2083e+08,0.423606
1.20874e+08,0.423635
1.20917e+08,0.423665
1.2096e+08,0.423694
1.21003e+08,0.423723
1.21046e+08,0.423752
1.2109e+08,0.423782
1.21133e+08,0.423811
1.21176e+08,0.42384
1.21219e+08,0.423869
1.21262e+08,0.423899
1.21306e+08,0.423928
1.21349e+08,0.423957
1.21392e+08,0.423986
1.21435e+08,0.424015
1.21478e+08,0.424044
1.21522e+08,0.424074
1.21565e+08,0.424103
1.21608e+08,0.424132
1.21651e+08,0.424161
1.21694e+08,0.42419
1.21738e+08,0.424219
1.21781e+08,0.424248
1.21824e+08,0.424277
1.21867e+08,0.424306
1.2191e+08,0.424336
1.21954e+08,0.424365
1.21997e+08,0.424394
1.2204e+08,0.424423
1.22083e+08,0.424452
1.22126e+08,0.424481
1.2217e+08,0.42451
1.22213e+08,0.424539
1.22256e+08,0.424568
1.22299e+08,0.424597
1.22342e+08,0.424626
1.22386e+08,0.424654
1.22429e+08,0.424683
1.22472e+08,0.424712
1.22515e+08,0.424741
1.22558e+08,0.42477
1.22602e+08,0.424799
1.22645e+08,0.424828
1.22688e+08,0.424857
1.22731e+08,0.424886
1.22774e+08,0.424914
1.22818e+08,0.424943
1.22861e+08,0.424972
1.22904e+08,0.425001
1.22947e+08,0.42503
1.2299e+08,0.425059
1.23034e+08,0.425087
1.23077e+08,0.425116
1.2312e+08,0.425145
1.23163e+08,0.425174
1.23206e+08,0.425202
1.2325e+08,0.425231
1.23293e+08,0.42526
1.23336e+08,0.425289
1.23379e+08,0.425317
1.23422e+08,0.425346
1.23466e+08,0.425375
1.23509e+08,0.425403
1.23552e+08,0.425432
1.23595e+08,0.425461
1.23638e+08,0.425489
1.23682e+08,0.425518
1.23725e+08,0.425547
1.23768e+08,0.425575
1.23811e+08,0.425604
1.23854e+08,0.425632
1.23898e+08,0.425661
1.23941e+08,0.42569
1.23984e+08,0.425718
1.24027e+08,0.425747
1.2407e+08,0.425775
1.24114e+08,0.425804
1.24157e+08,0.425832
1.242e+08,0.425861
1.24243e+08,0.425889
1.24286e+08,0.425918
1.2433e+08,0.425946
1.24373e+08,0.425975
1.24416e+08,0.426003
1.24459e+08,0.426032
1.24502e+08,0.42606
1.24546e+08,0.426089
1.24589e+08,0.426117
1.24632e+08,0.426145
1.24675e+08,0.426174
1.24718e+08,0.426202
1.24762e+08,0.426231
1.24805e+08,0.426259
1.24848e+08,0.426287
1.24891e+08,0.426316
1.24934e+08,0.426344
1.24978e+08,0.426372
1.25021e+08,0.426401
1.25064e+08,0.426429
1.25107e+08,0.426457
1.2515e+08,0.426486
1.25194e+08,0.426514
1.25237e+08,0.426542
1.2528e+08,0.42657
1.25323e+08,0.426599
1.25366e+08,0.426627
1.2541e+08,0.426655
1.25453e+08,0.426683
1.25496e+08,0.426712
1.25539e+08,0.42674
1.25582e+08,0.426768
1.25626e+08,0.426796
1.25669e+08,0.426824
1.25712e+08,0.426853
1.25755e+08,0.426881
1.25798e+08,0.426909
1.25842e+08,0.426937
1.25885e+08,0.426965
1.25928e+08,0.426993
1.25971e+08,0.427021
1.26014e+08,0.427049
1.26058e+08,0.427078
1.26101e+08,0.427106
1.26144e+08,0.427134
1.26187e+08,0.427162
1.2623e+08,0.42719
1.26274e+08,0.427218
1.26317e+08,0.427246
1.2636e+08,0.427274
1.26403e+08,0.427302
1.26446e+08,0.42733
1.2649e+08,0.427358
1.26533e+08,0.427386
1.26576e+08,0.427414
1.26619e+08,0.427442
1.26662e+08,0.42747
1.26706e+08,0.427498
1.26749e+08,0.427526
1.26792e+08,0.427554
1.26835e+08,0.427582
1.26878e+08,0.427609
1.26922e+08,0.427637
1.26965e+08,0.427665
1.27008e+08,0.427693
1.27051e+08,0.427721
1.27094e+08,0.427749
1.27138e+08,0.427777
1.27181e+08,0.427805
1.27224e+08,0.427832
1.27267e+08,0.42786
1.2731e+08,0.427888
1.27354e+08,0.427916
1.27397e+08,0.427944
1.2744e+08,0.427971
1.27483e+08,0.427999
1.27526e+08,0.428027
1.2757e+08,0.428055
1.27613e+08,0.428082
1.27656e+08,0.42811
1.27699e+08,0.428138
1.27742e+08,0.428166
1.27786e+08,0.428193
1.27829e+08,0.428221
1.27872e+08,0.428249
1.27915e+08,0.428276
1.27958e+08,0.428304
1.28002e+08,0.428332
1.28045e+08,0.428359
1.28088e+08,0.428387
1.28131e+08,0.428415
1.28174e+08,0.428442
1.28218e+08,0.42847
1.28261e+08,0.428498
1.28304e+08,0.428525
1.28347e+08,0.428553
1.2839e+08,0.42858
1.28434e+08,0.428608
1.28477e+08,0.428635
1.2852e+08,0.428663
1.28563e+08,0.42869
1.28606e+08,0.428718
1.2865e+08,0.428746
1.28693e+08,0.428773
1.28736e+08,0.428801
1.28779e+08,0.428828
1.28822e+08,0.428856
1.28866e+08,0.428883
1.28909e+08,0.42891
1.28952e+08,0.428938
1.28995e+08,0.428965
1.29038e+08,0.428993
1.29082e+08,0.42902
1.29125e+08,0.429048
1.29168e+08,0.429075
1.29211e+08,0.429102
1.29254e+08,0.42913
1.29298e+08,0.429157
1.29341e+08,0.429185
1.29384e+08,0.429212
1.29427e+08,0.429239
1.2947e+08,0.429267
1.29514e+08,0.429294
1.29557e+08,0.429321
1.296e+08,0.429349
1.29643e+08,0.429376
1.29686e+08,0.429403
1.2973e+08,0.429431
1.29773e+08,0.429458
1.29816e+08,0.429485
1.29859e+08,0.429512
1.29902e+08,0.42954
1.29946e+08,0.429567
1.29989e+08,0.429594
1.30032e+08,0.429621
1.30075e+08,0.429649
1.30118e+08,0.429676
1.30162e+08,0.429703
1.30205e+08,0.42973
1.30248e+08,0.429757
1.30291e+08,0.429785
1.30334e+08,0.429812
1.30378e+08,0.429839
1.30421e+08,0.429866
1.30464e+08,0.429893
1.30507e+08,0.42992
1.3055e+08,0.429947
1.30594e+08,0.429975
1.30637e+08,0.430002
1.3068e+08,0.430029
1.30723e+08,0.430056
1.30766e+08,0.430083
1.3081e+08,0.43011
1.30853e+08,0.430137
1.30896e+08,0.430164
1.30939e+08,0.430191
1.30982e+08,0.430218
1.31026e+08,0.430245
1.31069e+08,0.430272
1.31112e+08,0.430299
1.31155e+08,0.430326
1.31198e+08,0.430353
1.31242e+08,0.43038
1.31285e+08,0.430407
1.31328e+08,0.430434
1.31371e+08,0.430461
1.31414e+08,0.430488
1.31458e+08,0.430515
1.31501e+08,0.430542
1.31544e+08,0.430569
1.31587e+08,0.430596
1.3163e+08,0.430622
1.31674e+08,0.430649
1.31717e+08,0.430676
1.3176e+08,0.430703
1.31803e+08,0.43073
1.31846e+08,0.430757
1.3189e+08,0.430784
1.31933e+08,0.43081
1.31976e+08,0.430837
1.32019e+08,0.430864
1.32062e+08,0.430891
1.32106e+08,0.430918
1.32149e+08,0.430945
1.32192e+08,0.430971
1.32235e+08,0.430998
1.32278e+08,0.431025
1.32322e+08,0.431052
1.32365e+08,0.431078
1.32408e+08,0.431105
1.32451e+08,0.431132
1.32494e+08,0.431159
1.32538e+08,0.431185
1.32581e+08,0.431212
1.32624e+08,0.431239
1.32667e+08,0.431265
1.3271e+08,0.431292
1.32754e+08,0.431319
1.32797e+08,0.431345
1.3284e+08,0.431372
1.32883e+08,0.431399
1.32926e+08,0.431425
1.3297e+08,0.431452
1.33013e+08,0.431479
1.33056e+08,0.431505
1.33099e+08,0.431532
1.33142e+08,0.431558
1.33186e+08,0.431585
1.33229e+08,0.431611
1.33272e+08,0.431638
1.33315e+08,0.431665
1.33358e+08,0.431691
1.33402e+08,0.431718
1.33445e+08,0.431744
1.33488e+08,0.431771
1.33531e+08,0.431797
1.33574e+08,0.431824
1.33618e+08,0.43185
1.33661e+08,0.431877
1.33704e+08,0.431903
1.33747e+08,0.43193
1.3379e+08,0.431956
1.33834e+08,0.431983
1.33877e+08,0.432009
1.3392e+08,0.432035
1.33963e+08,0.432062
1.34006e+08,0.432088
1.3405e+08,0.432115
1.34093e+08,0.432141
1.34136e+08,0.432168
1.34179e+08,0.432194
1.34222e+08,0.43222
1.34266e+08,0.432247
1.34309e+08,0.432273
1.34352e+08,0.432299
1.34395e+08,0.432326
1.34438e+08,0.432352
1.34482e+08,0.432378
1.34525e+08,0.432405
1.34568e+08,0.432431
1.34611e+08,0.432457
1.34654e+08,0.432484
1.34698e+08,0.43251
1.34741e+08,0.432536
1.34784e+08,0.432562
1.34827e+08,0.432589
1.3487e+08,0.432615
1.34914e+08,0.432641
1.34957e+08,0.432667
1.35e+08,0.432694
1.35043e+08,0.43272
1.35086e+08,0.432746
1.3513e+08,0.432772
1.35173e+08,0.432798
1.35216e+08,0.432825
1.35259e+08,0.432851
1.35302e+08,0.432877
1.35346e+08,0.432903
1.35389e+08,0.432929
1.35432e+08,0.432955
1.35475e+08,0.432982
1.35518e+08,0.433008
1.35562e+08,0.433034
1.35605e+08,0.43306
1.35648e+08,0.433086
1.35691e+08,0.433112
1.35734e+08,0.433138
1.35778e+08,0.433164
1.35821e+08,0.43319
1.35864e+08,0.433216
1.35907e+08,0.433242
1.3595e+08,0.433268
1.35994e+08,0.433294
1.36037e+08,0.433321
1.3608e+08,0.433347
1.36123e+08,0.433373
1.36166e+08,0.433399
1.3621e+08,0.433425
1.36253e+08,0.433451
1.36296e+08,0.433476
1.36339e+08,0.433502
1.36382e+08,0.433528
1.36426e+08,0.433554
1.36469e+08,0.43358
1.36512e+08,0.433606
1.36555e+08,0.433632
1.36598e+08,0.433658
1.36642e+08,0.433684
1.36685e+08,0.43371
1.36728e+08,0.433736
1.36771e+08,0.433762
1.36814e+08,0.433788
1.36858e+08,0.433813
1.36901e+08,0.433839
1.36944e+08,0.433865
1.36987e+08,0.433891
1.3703e+08,0.433917
1.37074e+08,0.433943
1.37117e+08,0.433968
1.3716e+08,0.433994
1.37203e+08,0.43402
1.37246e+08,0.434046
1.3729e+08,0.434072
1.37333e+08,0.434097
1.37376e+08,0.434123
1.37419e+08,0.434149
1.37462e+08,0.434175
1.37506e+08,0.434201
1.37549e+08,0.434226
1.37592e+08,0.434252
1.37635e+08,0.434278
1.37678e+08,0.434303
1.37722e+08,0.434329
1.37765e+08,0.434355
1.37808e+08,0.434381
1.37851e+08,0.434406
1.37894e+08,0.434432
1.37938e+08,0.434458
1.37981e+08,0.434483
1.38024e+08,0.434509
1.38067e+08,0.434535
1.3811e+08,0.43456
1.38154e+08,0.434586
1.38197e+08,0.434611
1.3824e+08,0.434637
1.38283e+08,0.434663
1.38326e+08,0.434688
1.3837e+08,0.434714
1.38413e+08,0.434739
1.38456e+08,0.434765
1.38499e+08,0.434791
1.38542e+08,0.434816
1.38586e+08,0.434842
1.38629e+08,0.434867
1.38672e+08,0.434893
1.38715e+08,0.434918
1.38758e+08,0.434944
1.38802e+08,0.434969
1.38845e+08,0.434995
1.38888e+08,0.43502
1.38931e+08,0.435046
1.38974e+08,0.435071
1.39018e+08,0.435097
1.39061e+08,0.435122
1.39104e+08,0.435148
1.39147e+08,0.435173
1.3919e+08,0.435198
1.39234e+08,0.435224
1.39277e+08,0.435249
1.3932e+08,0.435275
1.39363e+08,0.4353
1.39406e+08,0.435326
1.3945e+08,0.435351
1.39493e+08,0.435376
1.39536e+08,0.435402
1.39579e+08,0.435427
1.39622e+08,0.435452
1.39666e+08,0.435478
1.39709e+08,0.435503
1.39752e+08,0.435528
1.39795e+08,0.435554
1.39838e+08,0.435579
1.39882e+08,0.435604
1.39925e+08,0.43563
1.39968e+08,0.435655
1.40011e+08,0.43568
1.40054e+08,0.435706
1.40098e+08,0.435731
1.40141e+08,0.435756
1.40184e+08,0.435781
1.40227e+08,0.435807
1.4027e+08,0.435832
1.40314e+08,0.435857
1.40357e+08,0.435882
1.404e+08,0.435908
1.40443e+08,0.435933
1.40486e+08,0.435958
1.4053e+08,0.435983
1.40573e+08,0.436008
1.40616e+08,0.436034
1.40659e+08,0.436059
1.40702e+08,0.436084
1.40746e+08,0.436109
1.40789e+08,0.436134
1.40832e+08,0.436159
1.40875e+08,0.436184
1.40918e+08,0.43621
1.40962e+08,0.436235
1.41005e+08,0.43626
1.41048e+08,0.436285
1.41091e+08,0.43631
1.41134e+08,0.436335
1.41178e+08,0.43636
1.41221e+08,0.436385
1.41264e+08,0.43641
1.41307e+08,0.436435
1.4135e+08,0.43646
1.41394e+08,0.436486
1.41437e+08,0.436511
1.4148e+08,0.436536
1.41523e+08,0.436561
1.41566e+08,0.436586
1.4161e+08,0.436611
1.41653e+08,0.436636
1.41696e+08,0.436661
1.41739e+08,0.436686
1.41782e+08,0.436711
1.41826e+08,0.436736
1.41869e+08,0.43676
1.41912e+08,0.436785
1.41955e+08,0.43681
1.41998e+08,0.436835
1.42042e+08,0.43686
1.42085e+08,0.436885
1.42128e+08,0.43691
1.42171e+08,0.436935
1.42214e+08,0.43696
1.42258e+08,0.436985
1.42301e+08,0.43701
1.42344e+08,0.437035
1.42387e+08,0.437059
1.4243e+08,0.437084
1.42474e+08,0.437109
1.42517e+08,0.437134
1.4256e+08,0.437159
1.42603e+08,0.437184
1.42646e+08,0.437209
1.4269e+08,0.437233
1.42733e+08,0.437258
1.42776e+08,0.437283
1.42819e+08,0.437308
1.42862e+08,0.437333
1.42906e+08,0.437357
1.42949e+08,0.437382
1.42992e+08,0.437407
1.43035e+08,0.437432
1.43078e+08,0.437456
1.43122e+08,0.437481
1.43165e+08,0.437506
1.43208e+08,0.437531
1.43251e+08,0.437555
1.43294e+08,0.43758
1.43338e+08,0.437605
1.43381e+08,0.437629
1.43424e+08,0.437654
1.43467e+08,0.437679
1.4351e+08,0.437703
1.43554e+08,0.437728
1.43597e+08,0.437753
1.4364e+08,0.437777
1.43683e+08,0.437802
1.43726e+08,0.437827
1.4377e+08,0.437851
1.43813e+08,0.437876
1.43856e+08,0.437901
1.43899e+08,0.437925
1.43942e+08,0.43795
1.43986e+08,0.437974
1.44029e+08,0.437999
1.44072e+08,0.438024
1.44115e+08,0.438048
1.44158e+08,0.438073
1.44202e+08,0.438097
1.44245e+08,0.438122
1.44288e+08,0.438146
1.44331e+08,0.438171
1.44374e+08,0.438195
1.44418e+08,0.43822
1.44461e+08,0.438245
1.44504e+08,0.438269
1.44547e+08,0.438294
1.4459e+08,0.438318
1.44634e+08,0.438343
1.44677e+08,0.438367
1.4472e+08,0.438391
1.44763e+08,0.438416
1.44806e+08,0.43844
1.4485e+08,0.438465
1.44893e+08,0.438489
1.44936e+08,0.438514
1.44979e+08,0.438538
1.45022e+08,0.438563
1.45066e+08,0.438587
1.45109e+08,0.438611
1.45152e+08,0.438636
1.45195e+08,0.43866
1.45238e+08,0.438685
1.45282e+08,0.438709
1.45325e+08,0.438733
1.45368e+08,0.438758
1.45411e+08,0.438782
1.45454e+08,0.438806
1.45498e+08,0.438831
1.45541e+08,0.438855
1.45584e+08,0.438879
1.45627e+08,0.438904
1.4567e+08,0.438928
1.45714e+08,0.438952
1.45757e+08,0.438977
1.458e+08,0.439001
1.45843e+08,0.439025
1.45886e+08,0.43905
1.4593e+08,0.439074
1.45973e+08,0.439098
1.46016e+08,0.439122
1.46059e+08,0.439147
1.46102e+08,0.439171
1.46146e+08,0.439195
1.46189e+08,0.439219
1.46232e+08,0.439244
1.46275e+08,0.439268
1.46318e+08,0.439292
1.46362e+08,0.439316
1.46405e+08,0.43934
1.46448e+08,0.439365
1.46491e+08,0.439389
1.46534e+08,0.439413
1.46578e+08,0.439437
1.46621e+08,0.439461
1.46664e+08,0.439485
1.46707e+08,0.43951
1.4675e+08,0.439534
1.46794e+08,0.439558
1.46837e+08,0.439582
1.4688e+08,0.439606
1.46923e+08,0.43963
1.46966e+08,0.439654
1.4701e+08,0.439678
1.47053e+08,0.439702
1.47096e+08,0.439726
1.47139e+08,0.439751
1.47182e+08,0.439775
1.47226e+08,0.439799
1.47269e+08,0.439823
1.47312e+08,0.439847
1.47355e+08,0.439871
1.47398e+08,0.439895
1.47442e+08,0.439919
1.47485e+08,0.439943
1.47528e+08,0.439967
1.47571e+08,0.439991
1.47614e+08,0.440015
1.47658e+08,0.440039
1.47701e+08,0.440063
1.47744e+08,0.440087
1.47787e+08,0.440111
1.4783e+08,0.440135
1.47874e+08,0.440159
1.47917e+08,0.440183
1.4796e+08,0.440207
1.48003e+08,0.440231
1.48046e+08,0.440255
1.4809e+08,0.440278
1.48133e+08,0.440302
1.48176e+08,0.440326
1.48219e+08,0.44035
1.48262e+08,0.440374
1.48306e+08,0.440398
1.48349e+08,0.440422
1.48392e+08,0.440446
1.48435e+08,0.44047
1.48478e+08,0.440493
1.48522e+08,0.440517
1.48565e+08,0.440541
1.48608e+08,0.440565
1.48651e+08,0.440589
1.48694e+08,0.440613
1.48738e+08,0.440636
1.48781e+08,0.44066
1.48824e+08,0.440684
1.48867e+08,0.440708
1.4891e+08,0.440732
1.48954e+08,0.440755
1.48997e+08,0.440779
1.4904e+08,0.440803
1.49083e+08,0.440827
1.49126e+08,0.440851
1.4917e+08,0.440874
1.49213e+08,0.440898
1.49256e+08,0.440922
1.49299e+08,0.440946
1.49342e+08,0.440969
1.49386e+08,0.440993
1.49429e+08,0.441017
1.49472e+08,0.44104
1.49515e+08,0.441064
1.49558e+08,0.441088
1.49602e+08,0.441111
1.49645e+08,0.441135
1.49688e+08,0.441159
1.49731e+08,0.441182
1.49774e+08,0.441206
1.49818e+08,0.44123
1.49861e+08,0.441253
1.49904e+08,0.441277
1.49947e+08,0.441301
1.4999e+08,0.441324
1.50034e+08,0.441348
1.50077e+08,0.441372
1.5012e+08,0.441395
1.50163e+08,0.441419
1.50206e+08,0.441442
1.5025e+08,0.441466
1.50293e+08,0.441489
1.50336e+08,0.441513
1.50379e+08,0.441537
1.50422e+08,0.44156
1.50466e+08,0.441584
1.50509e+08,0.441607
1.50552e+08,0.441631
1.50595e+08,0.441654
1.50638e+08,0.441678
1.50682e+08,0.441701
1.50725e+08,0.441725
1.50768e+08,0.441748
1.50811e+08,0.441772
1.50854e+08,0.441795
1.50898e+08,0.441819
1.50941e+08,0.441842
1.50984e+08,0.441866
1.51027e+08,0.441889
1.5107e+08,0.441913
1.51114e+08,0.441936
1.51157e+08,0.44196
1.512e+08,0.441983
1.51243e+08,0.442006
1.51286e+08,0.44203
1.5133e+08,0.442053
1.51373e+08,0.442077
1.51416e+08,0.4421
1.51459e+08,0.442124
1.51502e+08,0.442147
1.51546e+08,0.44217
1.51589e+08,0.442194
1.51632e+08,0.442217
1.51675e+08,0.44224
1.51718e+08,0.442264
1.51762e+08,0.442287
1.51805e+08,0.44231
1.51848e+08,0.442334
1.51891e+08,0.442357
1.51934e+08,0.44238
1.51978e+08,0.442404
1.52021e+08,0.442427
1.52064e+08,0.44245
1.52107e+08,0.442474
1.5215e+08,0.442497
1.52194e+08,0.44252
1.52237e+08,0.442544
1.5228e+08,0.442567
1.52323e+08,0.44259
1.52366e+08,0.442613
1.5241e+08,0.442637
1.52453e+08,0.44266
1.52496e+08,0.442683
1.52539e+08,0.442706
1.52582e+08,0.44273
1.52626e+08,0.442753
1.52669e+08,0.442776
1.52712e+08,0.442799
1.52755e+08,0.442822
1.52798e+08,0.442846
1.52842e+08,0.442869
1.52885e+08,0.442892
1.52928e+08,0.442915
1.52971e+08,0.442938
1.53014e+08,0.442961
1.53058e+08,0.442985
1.53101e+08,0.443008
1.53144e+08,0.443031
1.53187e+08,0.443054
1.5323e+08,0.443077
1.53274e+08,0.4431
1.53317e+08,0.443123
1.5336e+08,0.443147
1.53403e+08,0.44317
1.53446e+08,0.443193
1.5349e+08,0.443216
1.53533e+08,0.443239
1.53576e+08,0.443262
1.53619e+08,0.443285
1.53662e+08,0.443308
1.53706e+08,0.443331
1.53749e+08,0.443354
1.53792e+08,0.443377
1.53835e+08,0.4434
1.53878e+08,0.443423
1.53922e+08,0.443446
1.53965e+08,0.443469
1.54008e+08,0.443492
1.54051e+08,0.443515
1.54094e+08,0.443538
1.54138e+08,0.443561
1.54181e+08,0.443584
1.54224e+08,0.443607
1.54267e+08,0.44363
1.5431e+08,0.443653
1.54354e+08,0.443676
1.54397e+08,0.443699
1.5444e+08,0.443722
1.54483e+08,0.443745
1.54526e+08,0.443768
1.5457e+08,0.443791
1.54613e+08,0.443814
1.54656e+08,0.443837
1.54699e+08,0.44386
1.54742e+08,0.443883
1.54786e+08,0.443906
1.54829e+08,0.443929
1.54872e+08,0.443951
1.54915e+08,0.443974
1.54958e+08,0.443997
1.55002e+08,0.44402
1.55045e+08,0.444043
1.55088e+08,0.444066
1.55131e+08,0.444089
1.55174e+08,0.444112
1.55218e+08,0.444134
1.55261e+08,0.444157
1.55304e+08,0.44418
1.55347e+08,0.444203
1.5539e+08,0.444226
1.55434e+08,0.444248
1.55477e+08,0.444271
1.5552e+08,0.444294
1.55563e+08,0.444317
1.55606e+08,0.44434
1.5565e+08,0.444362
1.55693e+08,0.444385
1.55736e+08,0.444408
1.55779e+08,0.444431
1.55822e+08,0.444453
1.55866e+08,0.444476
1.55909e+08,0.444499
1.55952e+08,0.444522
1.55995e+08,0.444544
1.56038e+08,0.444567
1.56082e+08,0.44459
1.56125e+08,0.444613
1.56168e+08,0.444635
1.56211e+08,0.444658
1.56254e+08,0.444681
1.56298e+08,0.444703
1.56341e+08,0.444726
1.56384e+08,0.444749
1.56427e+08,0.444771
1.5647e+08,0.444794
1.56514e+08,0.444817
1.56557e+08,0.444839
1.566e+08,0.444862
1.56643e+08,0.444885
1.56686e+08,0.444907
1.5673e+08,0.44493
1.56773e+08,0.444952
1.56816e+08,0.444975
1.56859e+08,0.444998
1.56902e+08,0.44502
1.56946e+08,0.445043
1.56989e+08,0.445065
1.57032e+08,0.445088
1.57075e+08,0.445111
1.57118e+08,0.445133
1.57162e+08,0.445156
1.57205e+08,0.445178
1.57248e+08,0.445201
1.57291e+08,0.445223
1.57334e+08,0.445246
1.57378e+08,0.445268
1.57421e+08,0.445291
1.57464e+08,0.445313
1.57507e+08,0.445336
1.5755e+08,0.445359
1.57594e+08,0.445381
1.57637e+08,0.445404
1.5768e+08,0.445426
1.57723e+08,0.445448
1.57766e+08,0.445471
1.5781e+08,0.445493
1.57853e+08,0.445516
1.57896e+08,0.445538
1.57939e+08,0.445561
1.57982e+08,0.445583
1.58026e+08,0.445606
1.58069e+08,0.445628
1.58112e+08,0.445651
1.58155e+08,0.445673
1.58198e+08,0.445695
1.58242e+08,0.445718
1.58285e+08,0.44574
1.58328e+08,0.445763
1.58371e+08,0.445785
1.58414e+08,0.445807
1.58458e+08,0.44583
1.58501e+08,0.445852
1.58544e+08,0.445875
1.58587e+08,0.445897
1.5863e+08,0.445919
1.58674e+08,0.445942
1.58717e+08,0.445964
1.5876e+08,0.445986
1.58803e+08,0.446009
1.58846e+08,0.446031
1.5889e+08,0.446053
1.58933e+08,0.446076
1.58976e+08,0.446098
1.59019e+08,0.44612
1.59062e+08,0.446142
1.59106e+08,0.446165
1.59149e+08,0.446187
1.59192e+08,0.446209
1.59235e+08,0.446232
1.59278e+08,0.446254
1.59322e+08,0.446276
1.59365e+08,0.446298
1.59408e+08,0.446321
1.59451e+08,0.446343
1.59494e+08,0.446365
1.59538e+08,0.446387
1.59581e+08,0.44641
1.59624e+08,0.446432
1.59667e+08,0.446454
1.5971e+08,0.446476
1.59754e+08,0.446498
1.59797e+08,0.446521
1.5984e+08,0.446543
1.59883e+08,0.446565
1.59926e+08,0.446587
1.5997e+08,0.446609
1.60013e+08,0.446632
1.60056e+08,0.446654
1.60099e+08,0.446676
1.60142e+08,0.446698
1.60186e+08,0.44672
1.60229e+08,0.446742
1.60272e+08,0.446764
1.60315e+08,0.446787
1.60358e+08,0.446809
1.60402e+08,0.446831
1.60445e+08,0.446853
1.60488e+08,0.446875
1.60531e+08,0.446897
1.60574e+08,0.446919
1.60618e+08,0.446941
1.60661e+08,0.446963
1.60704e+08,0.446985
1.60747e+08,0.447007
1.6079e+08,0.44703
1.60834e+08,0.447052
1.60877e+08,0.447074
1.6092e+08,0.447096
1.60963e+08,0.447118
1.61006e+08,0.44714
1.6105e+08,0.447162
1.61093e+08,0.447184
1.61136e+08,0.447206
1.61179e+08,0.447228
1.61222e+08,0.44725
1.61266e+08,0.447272
1.61309e+08,0.447294
1.61352e+08,0.447316
1.61395e+08,0.447338
1.61438e+08,0.44736
1.61482e+08,0.447382
1.61525e+08,0.447404
1.61568e+08,0.447426
1.61611e+08,0.447448
1.61654e+08,0.44747
1.61698e+08,0.447491
1.61741e+08,0.447513
1.61784e+08,0.447535
1.61827e+08,0.447557
1.6187e+08,0.447579
1.61914e+08,0.447601
1.61957e+08,0.447623
1.62e+08,0.447645
1.62043e+08,0.447667
1.62086e+08,0.447689
1.6213e+08,0.447711
1.62173e+08,0.447732
1.62216e+08,0.447754
1.62259e+08,0.447776
1.62302e+08,0.447798
1.62346e+08,0.44782
1.62389e+08,0.447842
1.62432e+08,0.447864
1.62475e+08,0.447885
1.62518e+08,0.447907
1.62562e+08,0.447929
1.62605e+08,0.447951
1.62648e+08,0.447973
1.62691e+08,0.447995
1.62734e+08,0.448016
1.62778e+08,0.448038
1.62821e+08,0.44806
1.62864e+08,0.448082
1.62907e+08,0.448104
1.6295e+08,0.448125
1.62994e+08,0.448147
1.63037e+08,0.448169
1.6308e+08,0.448191
1.63123e+08,0.448212
1.63166e+08,0.448234
1.6321e+08,0.448256
1.63253e+08,0.448278
1.63296e+08,0.448299
1.63339e+08,0.448321
1.63382e+08,0.448343
1.63426e+08,0.448364
1.63469e+08,0.448386
1.63512e+08,0.448408
1.63555e+08,0.44843
1.63598e+08,0.448451
1.63642e+08,0.448473
1.63685e+08,0.448495
1.63728e+08,0.448516
1.63771e+08,0.448538
1.63814e+08,0.44856
1.63858e+08,0.448581
1.63901e+08,0.448603
1.63944e+08,0.448625
1.63987e+08,0.448646
1.6403e+08,0.448668
1.64074e+08,0.448689
1.64117e+08,0.448711
1.6416e+08,0.448733
1.64203e+08,0.448754
1.64246e+08,0.448776
1.6429e+08,0.448798
1.64333e+08,0.448819
1.64376e+08,0.448841
1.64419e+08,0.448862
1.64462e+08,0.448884
1.64506e+08,0.448905
1.64549e+08,0.448927
1.64592e+08,0.448949
1.64635e+08,0.44897
1.64678e+08,0.448992
1.64722e+08,0.449013
1.64765e+08,0.449035
1.64808e+08,0.449056
1.64851e+08,0.449078
1.64894e+08,0.449099
1.64938e+08,0.449121
1.64981e+08,0.449142
1.65024e+08,0.449164
1.65067e+08,0.449185
1.6511e+08,0.449207
1.65154e+08,0.449228
1.65197e+08,0.44925
1.6524e+08,0.449271
1.65283e+08,0.449293
1.65326e+08,0.449314
1.6537e+08,0.449336
1.65413e+08,0.449357
1.65456e+08,0.449379
1.65499e+08,0.4494
1.65542e+08,0.449422
1.65586e+08,0.449443
1.65629e+08,0.449464
1.65672e+08,0.449486
1.65715e+08,0.449507
1.65758e+08,0.449529
1.65802e+08,0.44955
1.65845e+08,0.449572
1.65888e+08,0.449593
1.65931e+08,0.449614
1.65974e+08,0.449636
1.66018e+08,0.449657
1.66061e+08,0.449678
1.66104e+08,0.4497
1.66147e+08,0.449721
1.6619e+08,0.449743
1.66234e+08,0.449764
1.66277e+08,0.449785
1.6632e+08,0.449807
1.66363e+08,0.449828
1.66406e+08,0.449849
1.6645e+08,0.449871
1.66493e+08,0.449892
1.66536e+08,0.449913
1.66579e+08,0.449935
1.66622e+08,0.449956
1.66666e+08,0.449977
1.66709e+08,0.449998
1.66752e+08,0.45002
1.66795e+08,0.450041
1.66838e+08,0.450062
1.66882e+08,0.450084
1.66925e+08,0.450105
1.66968e+08,0.450126
1.67011e+08,0.450147
1.67054e+08,0.450169
1.67098e+08,0.45019
1.67141e+08,0.450211
1.67184e+08,0.450232
1.67227e+08,0.450254
1.6727e+08,0.450275
1.67314e+08,0.450296
1.67357e+08,0.450317
1.674e+08,0.450338
1.67443e+08,0.45036
1.67486e+08,0.450381
1.6753e+08,0.450402
1.67573e+08,0.450423
1.67616e+08,0.450444
1.67659e+08,0.450466
1.67702e+08,0.450487
1.67746e+08,0.450508
1.67789e+08,0.450529
1.67832e+08,0.45055
1.67875e+08,0.450571
1.67918e+08,0.450593
1.67962e+08,0.450614
1.68005e+08,0.450635
1.68048e+08,0.450656
1.68091e+08,0.450677
1.68134e+08,0.450698
1.68178e+08,0.450719
1.68221e+08,0.45074
1.68264e+08,0.450761
1.68307e+08,0.450783
1.6835e+08,0.450804
1.68394e+08,0.450825
1.68437e+08,0.450846
1.6848e+08,0.450867
1.68523e+08,0.450888
1.68566e+08,0.450909
1.6861e+08,0.45093
1.68653e+08,0.450951
1.68696e+08,0.450972
1.68739e+08,0.450993
1.68782e+08,0.451014
1.68826e+08,0.451035
1.68869e+08,0.451056
1.68912e+08,0.451077
1.68955e+08,0.451098
1.68998e+08,0.451119
1.69042e+08,0.45114
1.69085e+08,0.451161
1.69128e+08,0.451182
1.69171e+08,0.451203
1.69214e+08,0.451224
1.69258e+08,0.451245
1.69301e+08,0.451266
1.69344e+08,0.451287
1.69387e+08,0.451308
1.6943e+08,0.451329
1.69474e+08,0.45135
1.69517e+08,0.451371
1.6956e+08,0.451392
1.69603e+08,0.451413
1.69646e+08,0.451434
1.6969e+08,0.451455
1.69733e+08,0.451476
1.69776e+08,0.451497
1.69819e+08,0.451518
1.69862e+08,0.451539
1.69906e+08,0.451559
1.69949e+08,0.45158
1.69992e+08,0.451601
1.70035e+08,0.451622
1.70078e+08,0.451643
1.70122e+08,0.451664
1.70165e+08,0.451685
1.70208e+08,0.451706
1.70251e+08,0.451727
1.70294e+08,0.451747
1.70338e+08,0.451768
1.70381e+08,0.451789
1.70424e+08,0.45181
1.70467e+08,0.451831
1.7051e+08,0.451852
1.70554e+08,0.451872
1.70597e+08,0.451893
1.7064e+08,0.451914
1.70683e+08,0.451935
1.70726e+08,0.451956
1.7077e+08,0.451976
1.70813e+08,0.451997
1.70856e+08,0.452018
1.70899e+08,0.452039
1.70942e+08,0.45206
1.70986e+08,0.45208
1.71029e+08,0.452101
1.71072e+08,0.452122
1.71115e+08,0.452143
1.71158e+08,0.452163
1.71202e+08,0.452184
1.71245e+08,0.452205
1.71288e+08,0.452226
1.71331e+08,0.452246
1.71374e+08,0.452267
1.71418e+08,0.452288
1.71461e+08,0.452309
1.71504e+08,0.452329
1.71547e+08,0.45235
1.7159e+08,0.452371
1.71634e+08,0.452391
1.71677e+08,0.452412
1.7172e+08,0.452433
1.71763e+08,0.452453
1.71806e+08,0.452474
1.7185e+08,0.452495
1.71893e+08,0.452515
1.71936e+08,0.452536
1.71979e+08,0.452557
1.72022e+08,0.452577
1.72066e+08,0.452598
1.72109e+08,0.452619
1.72152e+08,0.452639
1.72195e+08,0.45266
1.72238e+08,0.452681
1.72282e+08,0.452701
1.72325e+08,0.452722
1.72368e+08,0.452742
1.72411e+08,0.452763
1.72454e+08,0.452784
1.72498e+08,0.452804
1.72541e+08,0.452825
1.72584e+08,0.452845
1.72627e+08,0.452866
1.7267e+08,0.452887
1.72714e+08,0.452907
1.72757e+08,0.452928
1.728e+08,0.452948
