\relax 
\providecommand\zref@newlabel[2]{}
\providecommand\hyper@newdestlabel[2]{}
\providecommand\BKM@entry[2]{}
\providecommand\AtEndDvi@Check{}
\AtEndDvi@Check
\providecommand\HyperFirstAtBeginDocument{\AtBeginDocument}
\HyperFirstAtBeginDocument{\ifx\hyper@anchor\@undefined
\global\let\oldcontentsline\contentsline
\gdef\contentsline#1#2#3#4{\oldcontentsline{#1}{#2}{#3}}
\global\let\oldnewlabel\newlabel
\gdef\newlabel#1#2{\newlabelxx{#1}#2}
\gdef\newlabelxx#1#2#3#4#5#6{\oldnewlabel{#1}{{#2}{#3}}}
\AtEndDocument{\ifx\hyper@anchor\@undefined
\let\contentsline\oldcontentsline
\let\newlabel\oldnewlabel
\fi}
\fi}
\global\let\hyper@last\relax 
\gdef\HyperFirstAtBeginDocument#1{#1}
\providecommand\HyField@AuxAddToFields[1]{}
\providecommand\HyField@AuxAddToCoFields[2]{}
\BKM@entry{id=1,open,dest={73656374696F6E2E302E31},srcline={2},srcfile={2E2F7465737465722E746578}}{302E31205468652066697273742073656374696F6E2065766572}
\BKM@entry{id=2,open,dest={73756273656374696F6E2E302E312E31},srcline={22},srcfile={2E2F7465737465722E746578}}{302E312E3120536F6D652073756273656374696F6E207469746C65}
\gdef\minted@oldcachelist{,
  default.pygstyle,
  default-pyg-prefix.pygstyle,
  10E16B2A1F69BBB1F9BACBB5EC15260B5E9A52B8E40EAD02F653A20F461D9571.pygtex}
\providecommand\tcolorbox@label[2]{}
\providecommand \oddpage@label [2]{}
\select@language {english}
\@writefile{toc}{\select@language {english}}
\@writefile{lof}{\select@language {english}}
\@writefile{lot}{\select@language {english}}
\select@language {english}
\@writefile{toc}{\select@language {english}}
\@writefile{lof}{\select@language {english}}
\@writefile{lot}{\select@language {english}}
\@writefile{toc}{\contentsline {section}{\numberline {0.1}The first section ever}{1}{section.0.1}}
\newlabel{sh:conv}{{0.1}{1}{The first section ever}{tcb@cnt@tcbshellcode.0.1}{}}
\newlabel{sh:conv@cref}{{[tcbshellcode][1][0]0.1}{1}}
\@writefile{toc}{\contentsline {subsection}{\numberline {0.1.1}Some subsection title}{1}{subsection.0.1.1}}
\@writefile{lof}{\contentsline {figure}{\numberline {1}{\ignorespaces Some figure to preserve\relax }}{1}{figure.caption.1}}
\ttl@finishall
\zref@newlabel{LastPage}{\default{0.1.1}\page{1}\abspage{1}\mdf@pagevalue{1}}
