\relax 
\providecommand\hyper@newdestlabel[2]{}
\providecommand\HyperFirstAtBeginDocument{\AtBeginDocument}
\HyperFirstAtBeginDocument{\ifx\hyper@anchor\@undefined
\global\let\oldcontentsline\contentsline
\gdef\contentsline#1#2#3#4{\oldcontentsline{#1}{#2}{#3}}
\global\let\oldnewlabel\newlabel
\gdef\newlabel#1#2{\newlabelxx{#1}#2}
\gdef\newlabelxx#1#2#3#4#5#6{\oldnewlabel{#1}{{#2}{#3}}}
\AtEndDocument{\ifx\hyper@anchor\@undefined
\let\contentsline\oldcontentsline
\let\newlabel\oldnewlabel
\fi}
\fi}
\global\let\hyper@last\relax 
\gdef\HyperFirstAtBeginDocument#1{#1}
\providecommand*\HyPL@Entry[1]{}
\HyPL@Entry{0<</P(0)>>}
\providecommand \oddpage@label [2]{}
\@writefile{toc}{\beamer@endinputifotherversion {3.36pt}}
\@writefile{nav}{\beamer@endinputifotherversion {3.36pt}}
\select@language{french}
\@writefile{toc}{\select@language{french}}
\@writefile{lof}{\select@language{french}}
\@writefile{lot}{\select@language{french}}
\@writefile{nav}{\headcommand {\slideentry {0}{0}{1}{1/1}{}{0}}}
\@writefile{nav}{\headcommand {\beamer@framepages {1}{1}}}
\HyPL@Entry{1<</P(1)>>}
\@writefile{nav}{\headcommand {\slideentry {0}{0}{2}{2/2}{}{0}}}
\@writefile{nav}{\headcommand {\beamer@framepages {2}{2}}}
\HyPL@Entry{2<</P(2)>>}
\@writefile{nav}{\headcommand {\slideentry {0}{0}{3}{3/3}{}{0}}}
\@writefile{nav}{\headcommand {\beamer@framepages {3}{3}}}
\HyPL@Entry{3<</P(3)>>}
\@writefile{nav}{\headcommand {\slideentry {0}{0}{4}{4/4}{}{0}}}
\@writefile{nav}{\headcommand {\beamer@framepages {4}{4}}}
\HyPL@Entry{4<</P(4)>>}
\@writefile{nav}{\headcommand {\slideentry {0}{0}{5}{5/5}{}{0}}}
\@writefile{nav}{\headcommand {\beamer@framepages {5}{5}}}
\HyPL@Entry{5<</P(5)>>}
\@writefile{nav}{\headcommand {\slideentry {0}{0}{6}{6/6}{}{0}}}
\@writefile{nav}{\headcommand {\beamer@framepages {6}{6}}}
\HyPL@Entry{6<</P(6)>>}
\pgfsyspdfmark {pgfid2}{18050249}{13934839}
\pgfsyspdfmark {pgfid3}{15146994}{12833839}
\pgfsyspdfmark {pgfid4}{3175401}{11732839}
\pgfsyspdfmark {pgfid5}{3716552}{8175677}
\pgfsyspdfmark {pgfid6}{7416891}{8175677}
\pgfsyspdfmark {pgfid7}{12075517}{8175677}
\pgfsyspdfmark {pgfid8}{16398911}{8175677}
\pgfsyspdfmark {pgfid9}{19356944}{8175677}
\pgfsyspdfmark {pgfid10}{3175401}{5332735}
\pgfsyspdfmark {pgfid11}{13655264}{4231735}
\pgfsyspdfmark {pgfid12}{1864679}{2657565}
\@writefile{nav}{\headcommand {\slideentry {0}{0}{7}{7/7}{}{0}}}
\@writefile{nav}{\headcommand {\beamer@framepages {7}{7}}}
\HyPL@Entry{7<</P(7)>>}
\pgfsyspdfmark {pgfid13}{17089163}{14816416}
\pgfsyspdfmark {pgfid14}{3175401}{13740816}
\pgfsyspdfmark {pgfid15}{6259106}{10868648}
\pgfsyspdfmark {pgfid16}{9869989}{10868648}
\pgfsyspdfmark {pgfid17}{13945814}{10868648}
\pgfsyspdfmark {pgfid18}{16814390}{10868648}
\pgfsyspdfmark {pgfid19}{3175401}{8334417}
\pgfsyspdfmark {pgfid20}{12783635}{7258817}
\pgfsyspdfmark {pgfid21}{1864679}{5705814}
\@writefile{nav}{\headcommand {\slideentry {0}{0}{8}{8/8}{}{0}}}
\@writefile{nav}{\headcommand {\beamer@framepages {8}{8}}}
