Time,Dt
0.000,0.100
0.100,2.000
2.100,4.000
6.100,8.000
6.100,4.000
10.100,3.479
13.579,6.958
20.537,13.916
34.454,6.958
41.412,10.989
52.401,5.494
57.895,10.989
68.884,12.708
81.592,18.408
81.592,9.204
90.796,9.204
100.000,36.816
100.000,18.408
118.408,36.816
155.224,44.776
155.224,22.388
177.612,22.388
200.000,60.000
260.000,40.000
300.000,60.000
360.000,40.000
400.000,60.000
460.000,40.000
500.000,60.000
560.000,40.000
600.000,60.000
660.000,40.000
700.000,60.000
760.000,40.000
800.000,60.000
860.000,40.000
900.000,60.000
960.000,40.000
1000.000,60.000
1060.000,40.000
1100.000,60.000
1160.000,40.000
1200.000,60.000
1260.000,40.000
1300.000,60.000
1360.000,40.000
1400.000,60.000
1460.000,40.000
1500.000,60.000
1560.000,40.000
1600.000,60.000
1660.000,40.000
1700.000,60.000
1760.000,40.000
1800.000,60.000
1860.000,40.000
1900.000,60.000
1960.000,40.000
2000.000,60.000
2060.000,40.000
2100.000,60.000
2160.000,40.000
2200.000,60.000
2260.000,40.000
2300.000,60.000
2360.000,40.000
2400.000,60.000
2460.000,40.000
2500.000,60.000
