Time,p,Sw
6.912000000000000000e+05,5.402140000000000154e-04,5.402140000000000154e-04
1.036800000000000000e+06,5.253900000000000367e-04,1.235109999999999984e-03
1.382400000000000000e+06,5.333900000000000143e-04,5.406500000000000498e-04
1.728000000000000000e+06,5.259880000000000198e-04,5.330400000000000329e-04
2.073600000000000000e+06,5.345149999999999468e-04,5.345880000000000120e-04
2.419200000000000000e+06,5.277020000000000105e-04,5.277020000000000105e-04
2.764800000000000000e+06,5.318459999999999898e-04,5.318470000000000055e-04
3.110400000000000000e+06,5.270389999999999797e-04,5.279980000000000090e-04
3.456000000000000000e+06,5.291070000000000148e-04,5.291070000000000148e-04
3.801600000000000000e+06,5.255420000000000447e-04,5.270710000000000499e-04
4.147200000000000000e+06,5.264339999999999948e-04,5.264339999999999948e-04
4.492800000000000000e+06,5.236629999999999497e-04,5.250539999999999504e-04
4.838400000000000000e+06,5.238419999999999492e-04,5.238419999999999492e-04
5.184000000000000000e+06,5.216010000000000091e-04,5.226949999999999956e-04
5.529600000000000000e+06,5.213390000000000038e-04,5.213390000000000038e-04
5.875200000000000000e+06,5.194639999999999718e-04,5.202730000000000245e-04
6.220800000000000000e+06,5.189220000000000031e-04,5.189220000000000031e-04
6.566400000000000000e+06,5.172930000000000497e-04,5.178719999999999504e-04
6.912000000000000000e+06,5.165709999999999573e-04,5.165709999999999573e-04
7.257600000000000000e+06,5.151290000000000209e-04,5.155370000000000482e-04
7.603200000000000000e+06,5.143139999999999821e-04,5.143139999999999821e-04
7.948800000000000000e+06,5.130179999999999593e-04,5.133019999999999857e-04
8.294400000000000000e+06,5.121550000000000321e-04,5.121550000000000321e-04
8.640000000000000000e+06,5.109729999999999611e-04,5.111700000000000271e-04
8.985600000000000000e+06,5.100880000000000128e-04,5.100880000000000128e-04
9.331200000000000000e+06,5.089860000000000087e-04,5.091219999999999817e-04
9.676800000000000000e+06,5.080910000000000114e-04,5.080910000000000114e-04
1.002240000000000000e+07,5.070609999999999484e-04,5.071540000000000032e-04
1.036800000000000000e+07,5.061830000000000019e-04,5.061830000000000019e-04
1.071360000000000000e+07,5.052200000000000180e-04,5.052840000000000499e-04
1.105920000000000000e+07,5.043680000000000472e-04,5.043680000000000472e-04
1.140480000000000000e+07,5.034580000000000305e-04,5.035009999999999486e-04
1.175040000000000000e+07,5.026240000000000178e-04,5.026240000000000178e-04
1.209600000000000000e+07,5.017589999999999507e-04,5.017889999999999894e-04
1.244160000000000000e+07,5.009580000000000239e-04,5.009580000000000239e-04
1.278720000000000000e+07,5.001440000000000009e-04,5.001650000000000063e-04
1.313280000000000000e+07,4.993789999999999904e-04,4.993789999999999904e-04
1.347840000000000000e+07,4.986049999999999467e-04,4.986189999999999503e-04
1.382400000000000000e+07,4.978650000000000046e-04,4.978650000000000046e-04
1.416960000000000000e+07,4.971310000000000485e-04,4.971409999999999892e-04
1.451520000000000000e+07,4.964319999999999931e-04,4.964319999999999931e-04
1.486080000000000000e+07,4.957390000000000321e-04,4.957460000000000339e-04
1.520640000000000000e+07,4.950679999999999838e-04,4.950679999999999838e-04
1.555200000000000000e+07,4.944080000000000003e-04,4.944119999999999548e-04
1.589760000000000000e+07,4.937750000000000082e-04,4.937750000000000082e-04
1.624320000000000000e+07,4.931539999999999882e-04,4.931570000000000354e-04
1.658880000000000000e+07,4.925490000000000033e-04,4.925490000000000033e-04
1.693440000000000000e+07,4.919600000000000535e-04,4.919619999999999766e-04
1.728000000000000000e+07,4.913930000000000164e-04,4.913930000000000164e-04
1.762560000000000000e+07,4.908350000000000126e-04,4.908370000000000441e-04
1.797120000000000000e+07,4.902959999999999827e-04,4.902959999999999827e-04
1.831680000000000000e+07,4.897760000000000351e-04,4.897770000000000509e-04
1.866240000000000000e+07,4.892670000000000439e-04,4.892670000000000439e-04
1.900800000000000000e+07,4.887729999999999636e-04,4.887739999999999793e-04
1.935360000000000000e+07,4.882999999999999971e-04,4.882999999999999971e-04
1.969920000000000000e+07,4.878360000000000096e-04,4.878370000000000254e-04
2.004480000000000000e+07,4.873890000000000188e-04,4.873890000000000188e-04
2.039040000000000000e+07,4.869599999999999862e-04,4.869599999999999862e-04
2.073600000000000000e+07,4.865399999999999868e-04,4.865399999999999868e-04
2.108160000000000000e+07,4.861390000000000156e-04,4.861390000000000156e-04
2.142720000000000000e+07,4.857519999999999937e-04,4.857519999999999937e-04
2.177280000000000000e+07,4.853759999999999824e-04,4.853759999999999824e-04
2.211840000000000000e+07,4.850189999999999992e-04,4.850189999999999992e-04
2.246400000000000000e+07,4.846709999999999951e-04,4.846709999999999951e-04
2.280960000000000000e+07,4.843399999999999875e-04,4.843399999999999875e-04
2.315520000000000000e+07,4.840220000000000221e-04,4.840220000000000221e-04
2.350080000000000000e+07,4.837169999999999903e-04,4.837169999999999903e-04
2.384640000000000000e+07,4.834279999999999936e-04,4.834279999999999936e-04
2.419200000000000000e+07,4.831489999999999917e-04,4.831489999999999917e-04
2.453760000000000000e+07,4.828869999999999864e-04,4.828869999999999864e-04
2.488320000000000000e+07,4.826349999999999759e-04,4.826349999999999759e-04
2.522880000000000000e+07,4.823979999999999848e-04,4.823979999999999848e-04
2.557440000000000000e+07,4.821739999999999815e-04,4.821739999999999815e-04
2.592000000000000000e+07,4.819620000000000046e-04,4.819620000000000046e-04
2.626560000000000000e+07,4.817660000000000085e-04,4.817660000000000085e-04
2.661120000000000000e+07,4.815779999999999757e-04,4.815779999999999757e-04
2.695680000000000000e+07,4.814069999999999938e-04,4.814069999999999938e-04
2.730240000000000000e+07,4.812460000000000067e-04,4.812460000000000067e-04
2.764800000000000000e+07,4.810999999999999847e-04,4.810999999999999847e-04
2.799360000000000000e+07,4.809629999999999960e-04,4.809629999999999960e-04
2.833920000000000000e+07,4.808430000000000039e-04,4.808430000000000039e-04
2.868480000000000000e+07,4.807309999999999752e-04,4.807309999999999752e-04
2.903040000000000000e+07,4.806349999999999815e-04,4.806349999999999815e-04
2.937600000000000000e+07,4.805480000000000211e-04,4.805480000000000211e-04
2.972160000000000000e+07,4.804769999999999874e-04,4.804769999999999874e-04
3.006720000000000000e+07,4.804140000000000255e-04,4.804140000000000255e-04
3.041280000000000000e+07,4.803669999999999902e-04,4.803669999999999902e-04
3.075840000000000000e+07,4.803280000000000266e-04,4.803280000000000266e-04
3.110400000000000000e+07,4.803049999999999898e-04,4.803049999999999898e-04
3.144960000000000000e+07,4.802909999999999862e-04,4.802909999999999862e-04
3.179520000000000000e+07,4.802909999999999862e-04,4.802909999999999862e-04
3.214080000000000000e+07,4.803009999999999810e-04,4.803009999999999810e-04
3.248640000000000000e+07,4.803240000000000179e-04,4.803240000000000179e-04
3.283200000000000000e+07,4.803580000000000111e-04,4.803580000000000111e-04
3.317760000000000000e+07,4.804039999999999764e-04,4.804039999999999764e-04
3.352320000000000000e+07,4.804629999999999838e-04,4.804629999999999838e-04
3.386880000000000000e+07,4.805310000000000245e-04,4.805310000000000245e-04
3.421440000000000000e+07,4.806130000000000146e-04,4.806130000000000146e-04
3.456000000000000000e+07,4.807039999999999837e-04,4.807039999999999837e-04
3.490560000000000000e+07,4.808100000000000264e-04,4.808100000000000264e-04
3.525120000000000000e+07,4.809239999999999782e-04,4.809239999999999782e-04
3.559680000000000000e+07,4.810519999999999879e-04,4.810519999999999879e-04
3.594240000000000000e+07,4.811910000000000080e-04,4.811910000000000080e-04
3.628800000000000000e+07,4.813400000000000230e-04,4.813400000000000230e-04
3.663360000000000000e+07,4.815029999999999874e-04,4.815029999999999874e-04
3.697920000000000000e+07,4.816749999999999851e-04,4.816749999999999851e-04
3.732480000000000000e+07,4.818609999999999864e-04,4.818609999999999864e-04
3.767040000000000000e+07,4.820560000000000209e-04,4.820560000000000209e-04
3.801600000000000000e+07,4.822629999999999734e-04,4.822629999999999734e-04
3.836160000000000000e+07,4.824820000000000064e-04,4.824820000000000064e-04
3.870720000000000000e+07,4.827109999999999799e-04,4.827109999999999799e-04
3.905280000000000000e+07,4.829540000000000113e-04,4.829540000000000113e-04
3.939840000000000000e+07,4.832069999999999833e-04,4.832069999999999833e-04
3.974400000000000000e+07,4.834700000000000043e-04,4.834700000000000043e-04
4.008960000000000000e+07,4.837460000000000132e-04,4.837460000000000132e-04
4.043520000000000000e+07,4.840320000000000169e-04,4.840320000000000169e-04
4.078080000000000000e+07,4.843299999999999927e-04,4.843299999999999927e-04
4.112640000000000000e+07,4.846399999999999948e-04,4.846399999999999948e-04
4.147200000000000000e+07,4.849599999999999918e-04,4.849599999999999918e-04
4.181760000000000000e+07,4.852939999999999923e-04,4.852939999999999923e-04
4.216320000000000000e+07,4.856370000000000261e-04,4.856370000000000261e-04
4.250880000000000000e+07,4.859910000000000163e-04,4.859910000000000163e-04
4.285440000000000000e+07,4.863579999999999943e-04,4.863579999999999943e-04
4.320000000000000000e+07,4.867359999999999829e-04,4.867359999999999829e-04
4.354560000000000000e+07,4.871249999999999821e-04,4.871249999999999821e-04
4.389120000000000000e+07,4.875260000000000075e-04,4.875260000000000075e-04
4.423680000000000000e+07,4.879379999999999894e-04,4.879379999999999894e-04
4.458240000000000000e+07,4.883609999999999817e-04,4.883609999999999817e-04
4.492800000000000000e+07,4.887970000000000162e-04,4.887970000000000162e-04
4.527360000000000000e+07,4.892440000000000070e-04,4.892440000000000070e-04
4.561920000000000000e+07,4.897010000000000468e-04,4.897010000000000468e-04
4.596480000000000000e+07,4.901719999999999819e-04,4.901719999999999819e-04
4.631040000000000000e+07,4.906539999999999816e-04,4.906539999999999816e-04
4.665600000000000000e+07,4.911460000000000305e-04,4.911460000000000305e-04
4.700160000000000000e+07,4.916519999999999745e-04,4.916519999999999745e-04
4.734720000000000000e+07,4.921679999999999675e-04,4.921679999999999675e-04
4.769280000000000000e+07,4.926960000000000410e-04,4.926960000000000410e-04
4.803840000000000000e+07,4.932369999999999940e-04,4.932369999999999940e-04
4.838400000000000000e+07,4.937879999999999960e-04,4.937879999999999960e-04
4.872960000000000000e+07,4.943519999999999859e-04,4.943519999999999859e-04
4.907520000000000000e+07,4.949279999999999478e-04,4.949279999999999478e-04
4.942080000000000000e+07,4.955159999999999903e-04,4.955159999999999903e-04
4.976640000000000000e+07,4.961149999999999892e-04,4.961149999999999892e-04
5.011200000000000000e+07,4.967269999999999758e-04,4.967269999999999758e-04
5.045760000000000000e+07,4.973510000000000431e-04,4.973510000000000431e-04
5.080320000000000000e+07,4.979879999999999897e-04,4.979879999999999897e-04
5.114880000000000000e+07,4.986349999999999854e-04,4.986349999999999854e-04
5.149440000000000000e+07,4.992959999999999846e-04,4.992959999999999846e-04
5.184000000000000000e+07,4.999689999999999560e-04,4.999689999999999560e-04
5.218560000000000000e+07,5.006550000000000236e-04,5.006550000000000236e-04
5.253120000000000000e+07,5.013520000000000476e-04,5.013520000000000476e-04
5.287680000000000000e+07,5.020629999999999668e-04,5.020629999999999668e-04
5.322240000000000000e+07,5.027859999999999665e-04,5.027859999999999665e-04
5.356800000000000000e+07,5.035210000000000467e-04,5.035210000000000467e-04
5.391360000000000000e+07,5.042700000000000220e-04,5.042700000000000220e-04
5.425920000000000000e+07,5.050309999999999695e-04,5.050309999999999695e-04
5.460480000000000000e+07,5.058050000000000133e-04,5.058050000000000133e-04
5.495040000000000000e+07,5.065920000000000449e-04,5.065920000000000449e-04
5.529600000000000000e+07,5.073919999999999559e-04,5.073919999999999559e-04
5.564160000000000000e+07,5.082059999999999789e-04,5.082059999999999789e-04
5.598720000000000000e+07,5.090319999999999741e-04,5.090319999999999741e-04
5.633280000000000000e+07,5.098719999999999728e-04,5.098719999999999728e-04
5.667840000000000000e+07,5.107249999999999594e-04,5.107249999999999594e-04
5.702400000000000000e+07,5.115919999999999496e-04,5.115919999999999496e-04
5.736960000000000000e+07,5.124720000000000360e-04,5.124720000000000360e-04
5.771520000000000000e+07,5.133650000000000019e-04,5.133650000000000019e-04
5.806080000000000000e+07,5.142729999999999871e-04,5.142729999999999871e-04
5.840640000000000000e+07,5.151949999999999759e-04,5.151949999999999759e-04
5.875200000000000000e+07,5.161299999999999525e-04,5.161299999999999525e-04
5.909760000000000000e+07,5.170799999999999485e-04,5.170799999999999485e-04
5.944320000000000000e+07,5.180430000000000408e-04,5.180430000000000408e-04
5.978880000000000000e+07,5.190210000000000439e-04,5.190210000000000439e-04
6.013440000000000000e+07,5.200130000000000507e-04,5.200130000000000507e-04
6.048000000000000000e+07,5.210199999999999684e-04,5.210199999999999684e-04
6.082560000000000000e+07,5.220409999999999981e-04,5.220409999999999981e-04
6.117120000000000000e+07,5.230770000000000471e-04,5.230770000000000471e-04
6.151680000000000000e+07,5.241290000000000228e-04,5.241290000000000228e-04
6.186240000000000000e+07,5.251939999999999864e-04,5.251939999999999864e-04
6.220800000000000000e+07,5.262760000000000007e-04,5.262760000000000007e-04
6.255360000000000000e+07,5.273720000000000187e-04,5.273720000000000187e-04
6.289920000000000000e+07,5.284839999999999633e-04,5.284839999999999633e-04
6.324480000000000000e+07,5.296110000000000357e-04,5.296110000000000357e-04
6.359040000000000000e+07,5.307540000000000348e-04,5.307540000000000348e-04
6.393600000000000000e+07,5.319129999999999605e-04,5.319129999999999605e-04
6.428160000000000000e+07,5.330870000000000140e-04,5.330870000000000140e-04
6.462720000000000000e+07,5.342780000000000099e-04,5.342780000000000099e-04
6.497280000000000000e+07,5.354850000000000408e-04,5.354850000000000408e-04
6.531840000000000000e+07,5.367079999999999984e-04,5.367079999999999984e-04
6.566400000000000000e+07,5.379490000000000226e-04,5.379490000000000226e-04
6.600960000000000000e+07,5.392049999999999578e-04,5.392049999999999578e-04
6.635520000000000000e+07,5.404780000000000521e-04,5.404780000000000521e-04
6.670080000000000000e+07,5.417689999999999962e-04,5.417689999999999962e-04
6.704640000000000000e+07,5.430769999999999912e-04,5.430769999999999912e-04
6.739200000000000000e+07,5.444020000000000369e-04,5.444020000000000369e-04
6.773760000000000000e+07,5.457450000000000408e-04,5.457450000000000408e-04
6.808320000000000000e+07,5.471049999999999872e-04,5.471049999999999872e-04
6.842880000000000000e+07,5.484850000000000315e-04,5.484850000000000315e-04
6.877440000000000000e+07,5.498810000000000026e-04,5.498810000000000026e-04
6.912000000000000000e+07,5.512959999999999475e-04,5.512959999999999475e-04
6.946560000000000000e+07,5.527299999999999748e-04,5.527299999999999748e-04
6.981120000000000000e+07,5.541819999999999602e-04,5.541819999999999602e-04
7.015680000000000000e+07,5.556530000000000280e-04,5.556530000000000280e-04
7.050240000000000000e+07,5.571429999999999612e-04,5.571400000000000224e-04
7.084800000000000000e+07,5.586449999999999749e-04,5.586159999999999520e-04
7.119360000000000000e+07,5.601169999999999500e-04,5.599469999999999838e-04
7.153920000000000000e+07,5.613670000000000075e-04,5.606920000000000046e-04
7.188480000000000000e+07,5.618290000000000176e-04,5.599830000000000085e-04
7.223040000000000000e+07,5.605340000000000105e-04,5.570360000000000112e-04
7.257600000000000000e+07,5.568399999999999609e-04,5.520650000000000210e-04
7.292160000000000000e+07,5.513599999999999795e-04,5.463440000000000397e-04
7.326720000000000000e+07,5.455980000000000031e-04,5.412299999999999663e-04
7.361280000000000000e+07,5.407740000000000507e-04,5.373910000000000188e-04
7.395840000000000000e+07,5.373119999999999676e-04,5.348370000000000294e-04
7.430400000000000000e+07,5.350799999999999524e-04,5.332759999999999541e-04
7.464960000000000000e+07,5.337430000000000429e-04,5.323720000000000318e-04
7.499520000000000000e+07,5.329710000000000307e-04,5.318490000000000370e-04
7.534080000000000000e+07,5.325160000000000223e-04,5.315159999999999980e-04
7.568640000000000000e+07,5.322070000000000359e-04,5.312490000000000224e-04
7.603200000000000000e+07,5.319329999999999501e-04,5.309699999999999663e-04
7.637760000000000000e+07,5.316329999999999971e-04,5.306399999999999745e-04
7.672320000000000000e+07,5.312710000000000436e-04,5.302360000000000103e-04
7.706880000000000000e+07,5.308319999999999619e-04,5.297519999999999790e-04
7.741440000000000000e+07,5.303140000000000458e-04,5.291929999999999594e-04
7.776000000000000000e+07,5.297200000000000172e-04,5.285630000000000146e-04
7.810560000000000000e+07,5.290590000000000180e-04,5.278729999999999924e-04
7.845120000000000000e+07,5.283409999999999886e-04,5.271310000000000188e-04
7.879680000000000000e+07,5.275710000000000078e-04,5.263429999999999715e-04
7.914240000000000000e+07,5.267610000000000478e-04,5.255200000000000236e-04
7.948800000000000000e+07,5.259159999999999703e-04,5.246660000000000212e-04
7.983360000000000000e+07,5.250390000000000395e-04,5.237819999999999802e-04
8.017920000000000000e+07,5.241360000000000246e-04,5.228750000000000108e-04
8.052480000000000000e+07,5.232089999999999571e-04,5.219450000000000044e-04
8.087040000000000000e+07,5.222599999999999769e-04,5.209939999999999927e-04
8.121600000000000000e+07,5.212920000000000227e-04,5.200240000000000071e-04
8.156160000000000000e+07,5.203029999999999548e-04,5.190350000000000475e-04
8.190720000000000000e+07,5.192960000000000371e-04,5.180280000000000214e-04
8.225280000000000000e+07,5.182719999999999601e-04,5.170030000000000372e-04
8.259840000000000000e+07,5.172280000000000020e-04,5.159599999999999864e-04
8.294400000000000000e+07,5.161680000000000088e-04,5.149010000000000089e-04
8.328960000000000000e+07,5.150919999999999804e-04,5.138249999999999805e-04
8.363520000000000000e+07,5.139979999999999940e-04,5.127320000000000098e-04
8.398080000000000000e+07,5.128879999999999724e-04,5.116230000000000040e-04
8.432640000000000000e+07,5.117620000000000242e-04,5.104979999999999631e-04
8.467200000000000000e+07,5.106180000000000094e-04,5.093549999999999640e-04
8.501760000000000000e+07,5.094599999999999910e-04,5.081979999999999614e-04
8.536320000000000000e+07,5.082860000000000459e-04,5.070260000000000478e-04
8.570880000000000000e+07,5.070950000000000501e-04,5.058359999999999593e-04
8.605440000000000000e+07,5.058900000000000506e-04,5.046329999999999913e-04
8.640000000000000000e+07,5.046680000000000003e-04,5.034119999999999567e-04
8.674560000000000000e+07,5.034310000000000391e-04,5.021760000000000113e-04
8.709120000000000000e+07,5.021799999999999658e-04,5.009269999999999695e-04
8.743680000000000000e+07,5.009119999999999502e-04,4.996609999999999854e-04
8.778240000000000000e+07,4.996300000000000394e-04,4.983799999999999819e-04
8.812800000000000000e+07,4.983330000000000008e-04,4.970849999999999748e-04
8.847360000000000000e+07,4.970210000000000513e-04,4.957740000000000410e-04
8.881920000000000000e+07,4.956939999999999740e-04,4.944489999999999953e-04
8.916480000000000000e+07,4.943540000000000174e-04,4.931109999999999617e-04
8.951040000000000000e+07,4.929980000000000256e-04,4.917570000000000014e-04
8.985600000000000000e+07,4.916290000000000460e-04,4.903890000000000375e-04
9.020160000000000000e+07,4.902440000000000313e-04,4.890059999999999459e-04
9.054720000000000000e+07,4.888460000000000288e-04,4.876099999999999749e-04
9.089280000000000000e+07,4.874349999999999842e-04,4.862010000000000160e-04
9.123840000000000000e+07,4.860089999999999744e-04,4.847769999999999835e-04
9.158400000000000000e+07,4.845699999999999769e-04,4.833400000000000175e-04
9.192960000000000000e+07,4.831179999999999915e-04,4.818900000000000093e-04
9.227520000000000000e+07,4.816509999999999867e-04,4.804249999999999818e-04
9.262080000000000000e+07,4.801730000000000256e-04,4.789489999999999980e-04
9.296640000000000000e+07,4.786820000000000224e-04,4.774600000000000263e-04
9.331200000000000000e+07,4.771770000000000156e-04,4.759569999999999968e-04
9.365760000000000000e+07,4.756599999999999826e-04,4.744419999999999952e-04
9.400320000000000000e+07,4.741300000000000158e-04,4.729140000000000058e-04
9.434880000000000000e+07,4.725870000000000071e-04,4.713739999999999901e-04
9.469440000000000000e+07,4.710340000000000035e-04,4.698230000000000179e-04
9.504000000000000000e+07,4.694680000000000120e-04,4.682590000000000038e-04
9.538560000000000000e+07,4.678899999999999943e-04,4.666830000000000175e-04
9.573120000000000000e+07,4.663010000000000202e-04,4.650960000000000207e-04
9.607680000000000000e+07,4.647000000000000197e-04,4.634969999999999975e-04
9.642240000000000000e+07,4.630880000000000087e-04,4.618879999999999796e-04
9.676800000000000000e+07,4.614660000000000029e-04,4.602680000000000052e-04
9.711360000000000000e+07,4.598320000000000250e-04,4.586360000000000046e-04
9.745920000000000000e+07,4.581879999999999981e-04,4.569950000000000249e-04
9.780480000000000000e+07,4.565330000000000148e-04,4.553420000000000189e-04
9.815040000000000000e+07,4.548679999999999824e-04,4.536790000000000180e-04
9.849600000000000000e+07,4.531940000000000252e-04,4.520069999999999839e-04
9.884160000000000000e+07,4.515090000000000032e-04,4.503250000000000091e-04
9.918720000000000000e+07,4.498150000000000022e-04,4.486329999999999854e-04
9.953280000000000000e+07,4.481110000000000063e-04,4.469319999999999825e-04
9.987840000000000000e+07,4.463970000000000156e-04,4.452209999999999848e-04
1.002240000000000000e+08,4.446760000000000231e-04,4.435020000000000238e-04
1.005700000000000000e+08,4.429459999999999973e-04,4.417739999999999753e-04
1.009150000000000000e+08,4.412059999999999767e-04,4.400370000000000019e-04
1.012610000000000000e+08,4.394590000000000085e-04,4.382930000000000268e-04
1.016060000000000000e+08,4.377019999999999912e-04,4.365390000000000026e-04
1.019520000000000000e+08,4.359380000000000264e-04,4.347779999999999766e-04
1.022980000000000000e+08,4.341680000000000214e-04,4.330100000000000030e-04
1.026430000000000000e+08,4.323889999999999830e-04,4.312329999999999961e-04
1.029890000000000000e+08,4.306029999999999970e-04,4.294500000000000032e-04
1.033340000000000000e+08,4.288089999999999936e-04,4.276589999999999927e-04
1.036800000000000000e+08,4.270079999999999883e-04,4.258609999999999804e-04
1.040260000000000000e+08,4.252020000000000127e-04,4.240569999999999821e-04
1.043710000000000000e+08,4.233889999999999811e-04,4.222469999999999978e-04
1.047170000000000000e+08,4.215700000000000176e-04,4.204309999999999731e-04
1.050620000000000000e+08,4.197450000000000139e-04,4.186080000000000009e-04
1.054080000000000000e+08,4.179119999999999927e-04,4.167789999999999885e-04
1.057540000000000000e+08,4.160759999999999784e-04,4.149450000000000057e-04
1.060990000000000000e+08,4.142339999999999781e-04,4.131059999999999984e-04
1.064450000000000000e+08,4.123870000000000075e-04,4.112610000000000050e-04
1.067900000000000000e+08,4.105350000000000123e-04,4.094120000000000029e-04
1.071360000000000000e+08,4.086769999999999769e-04,4.075570000000000147e-04
1.074820000000000000e+08,4.068149999999999870e-04,4.056980000000000178e-04
1.078270000000000000e+08,4.049489999999999882e-04,4.038359999999999736e-04
1.081730000000000000e+08,4.030799999999999965e-04,4.019690000000000134e-04
1.085180000000000000e+08,4.012059999999999802e-04,4.000979999999999901e-04
1.088640000000000000e+08,3.993280000000000093e-04,3.982230000000000123e-04
1.092100000000000000e+08,3.974459999999999755e-04,3.963440000000000257e-04
1.095550000000000000e+08,3.955620000000000186e-04,3.944630000000000076e-04
1.099010000000000000e+08,3.936750000000000145e-04,3.925789999999999965e-04
1.102460000000000000e+08,3.917840000000000016e-04,3.906909999999999767e-04
1.105920000000000000e+08,3.898910000000000114e-04,3.888009999999999795e-04
1.109380000000000000e+08,3.879949999999999740e-04,3.869069999999999736e-04
1.112830000000000000e+08,3.860959999999999978e-04,3.850120000000000061e-04
1.116290000000000000e+08,3.841970000000000216e-04,3.831160000000000229e-04
1.119740000000000000e+08,3.822949999999999981e-04,3.812169999999999925e-04
1.123200000000000000e+08,3.803909999999999974e-04,3.793159999999999848e-04
1.126660000000000000e+08,3.784850000000000193e-04,3.774129999999999998e-04
1.130110000000000000e+08,3.765780000000000256e-04,3.755089999999999990e-04
1.133570000000000000e+08,3.746700000000000160e-04,3.736039999999999825e-04
1.137020000000000000e+08,3.727609999999999908e-04,3.716980000000000045e-04
1.140480000000000000e+08,3.708510000000000040e-04,3.697910000000000108e-04
1.143940000000000000e+08,3.689410000000000172e-04,3.678840000000000170e-04
1.147390000000000000e+08,3.670289999999999989e-04,3.659749999999999917e-04
1.150850000000000000e+08,3.651169999999999806e-04,3.640669999999999822e-04
1.154300000000000000e+08,3.632059999999999781e-04,3.621590000000000269e-04
1.157760000000000000e+08,3.612949999999999755e-04,3.602500000000000016e-04
1.161220000000000000e+08,3.593830000000000115e-04,3.583419999999999921e-04
1.164670000000000000e+08,3.574709999999999932e-04,3.564330000000000211e-04
1.168130000000000000e+08,3.555610000000000064e-04,3.545250000000000116e-04
1.171580000000000000e+08,3.536510000000000196e-04,3.526189999999999793e-04
1.175040000000000000e+08,3.517419999999999943e-04,3.507130000000000013e-04
1.178500000000000000e+08,3.498339999999999848e-04,3.488079999999999848e-04
1.181950000000000000e+08,3.479259999999999753e-04,3.469039999999999841e-04
1.185410000000000000e+08,3.460199999999999973e-04,3.449999999999999833e-04
1.188860000000000000e+08,3.441159999999999965e-04,3.430989999999999756e-04
1.192320000000000000e+08,3.422130000000000115e-04,3.411999999999999994e-04
1.195780000000000000e+08,3.403120000000000038e-04,3.393019999999999847e-04
1.199230000000000000e+08,3.384120000000000118e-04,3.374049999999999857e-04
1.202690000000000000e+08,3.365139999999999972e-04,3.355100000000000183e-04
1.206140000000000000e+08,3.346189999999999755e-04,3.336179999999999896e-04
1.209600000000000000e+08,3.327259999999999853e-04,3.317279999999999925e-04
1.213060000000000000e+08,3.308350000000000266e-04,3.298409999999999884e-04
1.216510000000000000e+08,3.289470000000000068e-04,3.279560000000000157e-04
1.219970000000000000e+08,3.270600000000000026e-04,3.260720000000000046e-04
1.223420000000000000e+08,3.251770000000000073e-04,3.241920000000000023e-04
1.226880000000000000e+08,3.232970000000000049e-04,3.223149999999999930e-04
1.230340000000000000e+08,3.214199999999999956e-04,3.204409999999999767e-04
1.233790000000000000e+08,3.195459999999999794e-04,3.185700000000000077e-04
1.237250000000000000e+08,3.176739999999999946e-04,3.167019999999999775e-04
1.240700000000000000e+08,3.158060000000000186e-04,3.148369999999999945e-04
1.244160000000000000e+08,3.139419999999999971e-04,3.129760000000000202e-04
1.247620000000000000e+08,3.120810000000000229e-04,3.111190000000000006e-04
1.251070000000000000e+08,3.102240000000000032e-04,3.092640000000000124e-04
1.254530000000000000e+08,3.083699999999999766e-04,3.074139999999999946e-04
1.257980000000000000e+08,3.065200000000000129e-04,3.055670000000000239e-04
1.261440000000000000e+08,3.046740000000000038e-04,3.037240000000000079e-04
1.264900000000000000e+08,3.028320000000000035e-04,3.018850000000000006e-04
1.268350000000000000e+08,3.009940000000000120e-04,3.000510000000000178e-04
1.271810000000000000e+08,2.991609999999999907e-04,2.982199999999999738e-04
1.275260000000000000e+08,2.973310000000000167e-04,2.963929999999999928e-04
1.278720000000000000e+08,2.955049999999999973e-04,2.945709999999999822e-04
1.282180000000000000e+08,2.936850000000000181e-04,2.927539999999999960e-04
1.285630000000000000e+08,2.918689999999999935e-04,2.909410000000000186e-04
1.289090000000000000e+08,2.900569999999999776e-04,2.891319999999999958e-04
1.292540000000000000e+08,2.882499999999999863e-04,2.873279999999999975e-04
1.296000000000000000e+08,2.864470000000000037e-04,2.855290000000000237e-04
1.299460000000000000e+08,2.846500000000000072e-04,2.837340000000000044e-04
1.302910000000000000e+08,2.828579999999999810e-04,2.819450000000000255e-04
1.306370000000000000e+08,2.810700000000000177e-04,2.801610000000000168e-04
1.309820000000000000e+08,2.792870000000000248e-04,2.783810000000000169e-04
1.313280000000000000e+08,2.775090000000000022e-04,2.766059999999999873e-04
1.316740000000000000e+08,2.757370000000000198e-04,2.748369999999999980e-04
1.320190000000000000e+08,2.739700000000000078e-04,2.730729999999999789e-04
1.323650000000000000e+08,2.722080000000000203e-04,2.713139999999999844e-04
1.327100000000000000e+08,2.704510000000000030e-04,2.695609999999999760e-04
1.330560000000000000e+08,2.686990000000000103e-04,2.678119999999999763e-04
1.334020000000000000e+08,2.669530000000000037e-04,2.660690000000000169e-04
1.337470000000000000e+08,2.652129999999999830e-04,2.643319999999999893e-04
1.340930000000000000e+08,2.634779999999999870e-04,2.625999999999999862e-04
1.344380000000000000e+08,2.617489999999999769e-04,2.608740000000000234e-04
1.347840000000000000e+08,2.600249999999999914e-04,2.591529999999999767e-04
1.351300000000000000e+08,2.583069999999999919e-04,2.574370000000000087e-04
1.354750000000000000e+08,2.565940000000000169e-04,2.557279999999999883e-04
1.358210000000000000e+08,2.548879999999999896e-04,2.540250000000000082e-04
1.361660000000000000e+08,2.531869999999999867e-04,2.523269999999999983e-04
1.365120000000000000e+08,2.514920000000000241e-04,2.506349999999999746e-04
1.368580000000000000e+08,2.498029999999999934e-04,2.489479999999999753e-04
1.372030000000000000e+08,2.481189999999999871e-04,2.472679999999999778e-04
1.375490000000000000e+08,2.464419999999999827e-04,2.455940000000000206e-04
1.378940000000000000e+08,2.447710000000000185e-04,2.439259999999999953e-04
1.382400000000000000e+08,2.431060000000000133e-04,2.422640000000000102e-04
1.385860000000000000e+08,2.414460000000000054e-04,2.406069999999999954e-04
1.389310000000000000e+08,2.397929999999999994e-04,2.389570000000000095e-04
1.392770000000000000e+08,2.381460000000000066e-04,2.373130000000000096e-04
1.396220000000000000e+08,2.365049999999999997e-04,2.356749999999999958e-04
1.399680000000000000e+08,2.348700000000000061e-04,2.340429999999999952e-04
1.403140000000000000e+08,2.332409999999999985e-04,2.324170000000000077e-04
1.406590000000000000e+08,2.316180000000000040e-04,2.307970000000000063e-04
1.410050000000000000e+08,2.300020000000000113e-04,2.291840000000000066e-04
1.413500000000000000e+08,2.283920000000000047e-04,2.275769999999999931e-04
1.416960000000000000e+08,2.267889999999999999e-04,2.259759999999999926e-04
1.420420000000000000e+08,2.251909999999999925e-04,2.243810000000000054e-04
1.423870000000000000e+08,2.235989999999999983e-04,2.227929999999999928e-04
1.427330000000000000e+08,2.220149999999999945e-04,2.212109999999999934e-04
1.430780000000000000e+08,2.204359999999999881e-04,2.196359999999999957e-04
1.434240000000000000e+08,2.188640000000000106e-04,2.180659999999999955e-04
1.437700000000000000e+08,2.172979999999999920e-04,2.165029999999999971e-04
1.441150000000000000e+08,2.157379999999999866e-04,2.149460000000000118e-04
1.444610000000000000e+08,2.141850000000000101e-04,2.133960000000000013e-04
1.448060000000000000e+08,2.126390000000000083e-04,2.118520000000000039e-04
1.451520000000000000e+08,2.110980000000000040e-04,2.103150000000000082e-04
1.454980000000000000e+08,2.095640000000000014e-04,2.087839999999999987e-04
1.458430000000000000e+08,2.080360000000000119e-04,2.072590000000000023e-04
1.461890000000000000e+08,2.065149999999999972e-04,2.057399999999999919e-04
1.465340000000000000e+08,2.050010000000000113e-04,2.042289999999999991e-04
1.468800000000000000e+08,2.034930000000000115e-04,2.027230000000000037e-04
1.472260000000000000e+08,2.019909999999999978e-04,2.012240000000000101e-04
1.475710000000000000e+08,2.004949999999999972e-04,1.997319999999999911e-04
1.479170000000000000e+08,1.990059999999999984e-04,1.982449999999999967e-04
1.482620000000000000e+08,1.975240000000000014e-04,1.967659999999999928e-04
1.486080000000000000e+08,1.960479999999999905e-04,1.952930000000000020e-04
1.489540000000000000e+08,1.945790000000000085e-04,1.938259999999999972e-04
1.492990000000000000e+08,1.931160000000000125e-04,1.923659999999999942e-04
1.496450000000000000e+08,1.916590000000000025e-04,1.909120000000000044e-04
1.499900000000000000e+08,1.902089999999999944e-04,1.894649999999999893e-04
1.503360000000000000e+08,1.887649999999999994e-04,1.880239999999999874e-04
1.506820000000000000e+08,1.873280000000000062e-04,1.865889999999999986e-04
1.510270000000000000e+08,1.858969999999999991e-04,1.851610000000000116e-04
1.513730000000000000e+08,1.844729999999999938e-04,1.837390000000000106e-04
1.517180000000000000e+08,1.830550000000000016e-04,1.823240000000000114e-04
1.520640000000000000e+08,1.816440000000000112e-04,1.809159999999999870e-04
1.524100000000000000e+08,1.802390000000000068e-04,1.795140000000000028e-04
1.527550000000000000e+08,1.788399999999999886e-04,1.781180000000000046e-04
1.531010000000000000e+08,1.774479999999999992e-04,1.767279999999999925e-04
1.534460000000000000e+08,1.760619999999999958e-04,1.753450000000000093e-04
1.537920000000000000e+08,1.746829999999999943e-04,1.739690000000000008e-04
1.541380000000000000e+08,1.733100000000000059e-04,1.725990000000000055e-04
1.544830000000000000e+08,1.719439999999999922e-04,1.712349999999999962e-04
1.548290000000000000e+08,1.705839999999999917e-04,1.698770000000000000e-04
1.551740000000000000e+08,1.692300000000000043e-04,1.685260000000000057e-04
1.555200000000000000e+08,1.678829999999999917e-04,1.671820000000000131e-04
1.558660000000000000e+08,1.665419999999999921e-04,1.658440000000000066e-04
1.562110000000000000e+08,1.652079999999999944e-04,1.645120000000000133e-04
1.565570000000000000e+08,1.638789999999999941e-04,1.631860000000000060e-04
1.569020000000000000e+08,1.625569999999999956e-04,1.618670000000000005e-04
1.572480000000000000e+08,1.612419999999999988e-04,1.605540000000000081e-04
1.575940000000000000e+08,1.599329999999999881e-04,1.592479999999999905e-04
1.579390000000000000e+08,1.586299999999999906e-04,1.579469999999999973e-04
1.582850000000000000e+08,1.573339999999999949e-04,1.566530000000000060e-04
1.586300000000000000e+08,1.560429999999999966e-04,1.553650000000000007e-04
1.589760000000000000e+08,1.547590000000000001e-04,1.540839999999999972e-04
1.593220000000000000e+08,1.534820000000000054e-04,1.528090000000000069e-04
1.596670000000000000e+08,1.522100000000000081e-04,1.515400000000000026e-04
1.600130000000000000e+08,1.509450000000000125e-04,1.502780000000000001e-04
1.603580000000000000e+08,1.496860000000000031e-04,1.490209999999999950e-04
1.607040000000000000e+08,1.484330000000000068e-04,1.477709999999999918e-04
1.610500000000000000e+08,1.471870000000000123e-04,1.465270000000000016e-04
1.613950000000000000e+08,1.459459999999999881e-04,1.452889999999999976e-04
1.617410000000000000e+08,1.447119999999999928e-04,1.440570000000000067e-04
1.620860000000000000e+08,1.434840000000000106e-04,1.428319999999999904e-04
1.624320000000000000e+08,1.422619999999999874e-04,1.416119999999999987e-04
1.627780000000000000e+08,1.410460000000000045e-04,1.403990000000000088e-04
1.631230000000000000e+08,1.398369999999999962e-04,1.391920000000000050e-04
1.634690000000000000e+08,1.386330000000000125e-04,1.379909999999999871e-04
1.638140000000000000e+08,1.374360000000000035e-04,1.367960000000000096e-04
1.641600000000000000e+08,1.362450000000000076e-04,1.356069999999999910e-04
1.645060000000000000e+08,1.350590000000000091e-04,1.344240000000000127e-04
1.648510000000000000e+08,1.338800000000000124e-04,1.332480000000000090e-04
1.651970000000000000e+08,1.327070000000000018e-04,1.320770000000000028e-04
1.655420000000000000e+08,1.315400000000000044e-04,1.309120000000000097e-04
1.658880000000000000e+08,1.303789999999999929e-04,1.297530000000000027e-04
1.662340000000000000e+08,1.292239999999999947e-04,1.286009999999999974e-04
1.665790000000000000e+08,1.280739999999999938e-04,1.274539999999999896e-04
1.669250000000000000e+08,1.269309999999999948e-04,1.263129999999999949e-04
1.672700000000000000e+08,1.257940000000000089e-04,1.251790000000000021e-04
1.676160000000000000e+08,1.246630000000000090e-04,1.240489999999999909e-04
1.679620000000000000e+08,1.235370000000000066e-04,1.229260000000000086e-04
1.683070000000000000e+08,1.224180000000000060e-04,1.218089999999999988e-04
1.686530000000000000e+08,1.213040000000000028e-04,1.206980000000000021e-04
1.689980000000000000e+08,1.201959999999999991e-04,1.195930000000000051e-04
1.693440000000000000e+08,1.190939999999999951e-04,1.184930000000000054e-04
1.696900000000000000e+08,1.179980000000000043e-04,1.173990000000000054e-04
1.700350000000000000e+08,1.169079999999999994e-04,1.163110000000000050e-04
1.703810000000000000e+08,1.158230000000000056e-04,1.152290000000000042e-04
1.707260000000000000e+08,1.147450000000000000e-04,1.141530000000000029e-04
1.710720000000000000e+08,1.136720000000000054e-04,1.130819999999999991e-04
1.714180000000000000e+08,1.126049999999999968e-04,1.120179999999999971e-04
1.717630000000000000e+08,1.115429999999999991e-04,1.109580000000000039e-04
1.721090000000000000e+08,1.104870000000000011e-04,1.099049999999999989e-04
1.724540000000000000e+08,1.094380000000000049e-04,1.088579999999999935e-04
1.728000000000000000e+08,1.083930000000000039e-04,1.078159999999999991e-04
1.731460000000000000e+08,1.073540000000000025e-04,1.067790000000000021e-04
1.734910000000000000e+08,1.063210000000000007e-04,1.057480000000000046e-04
1.738370000000000000e+08,1.052939999999999985e-04,1.047229999999999933e-04
1.741820000000000000e+08,1.042729999999999959e-04,1.037039999999999951e-04
1.745280000000000000e+08,1.032560000000000021e-04,1.026899999999999943e-04
1.748740000000000000e+08,1.022459999999999965e-04,1.016820000000000066e-04
1.752190000000000000e+08,1.012410000000000019e-04,1.006790000000000029e-04
1.755650000000000000e+08,1.002419999999999933e-04,9.968239999999999957e-05
1.759100000000000000e+08,9.924790000000000229e-05,9.869099999999999412e-05
1.762560000000000000e+08,9.825959999999999686e-05,9.770500000000000051e-05
1.766020000000000000e+08,9.727690000000000371e-05,9.672449999999999863e-05
1.769470000000000000e+08,9.629950000000000185e-05,9.574950000000000204e-05
1.772930000000000000e+08,9.532780000000000572e-05,9.477999999999999717e-05
1.776380000000000000e+08,9.436149999999999432e-05,9.381599999999999759e-05
1.779840000000000000e+08,9.340079999999999520e-05,9.285750000000000330e-05
1.783300000000000000e+08,9.244540000000000092e-05,9.190439999999999374e-05
1.786750000000000000e+08,9.149540000000000494e-05,9.095669999999999602e-05
1.790210000000000000e+08,9.055079999999999369e-05,9.001430000000000314e-05
1.793660000000000000e+08,8.961170000000000127e-05,8.907749999999999544e-05
1.797120000000000000e+08,8.867799999999999359e-05,8.814609999999999958e-05
1.800580000000000000e+08,8.774960000000000431e-05,8.721990000000000157e-05
1.804030000000000000e+08,8.682659999999999976e-05,8.629910000000000185e-05
1.807490000000000000e+08,8.590880000000000662e-05,8.538359999999999342e-05
1.810940000000000000e+08,8.499650000000000521e-05,8.447349999999999683e-05
1.814400000000000000e+08,8.408949999999999509e-05,8.356879999999999853e-05
1.817860000000000000e+08,8.318769999999999637e-05,8.266929999999999808e-05
1.821310000000000000e+08,8.229129999999999594e-05,8.177510000000000247e-05
1.824770000000000000e+08,8.139999999999999992e-05,8.088610000000000472e-05
1.828220000000000000e+08,8.051410000000000218e-05,8.000239999999999825e-05
1.831680000000000000e+08,7.963340000000000230e-05,7.912390000000000319e-05
1.835140000000000000e+08,7.875810000000000070e-05,7.825080000000000642e-05
1.838590000000000000e+08,7.788779999999999651e-05,7.738280000000000050e-05
1.842050000000000000e+08,7.702279999999999717e-05,7.652000000000000598e-05
1.845500000000000000e+08,7.616290000000000223e-05,7.566230000000000232e-05
1.848960000000000000e+08,7.530829999999999859e-05,7.480990000000000350e-05
1.852420000000000000e+08,7.445879999999999936e-05,7.396270000000000253e-05
1.855870000000000000e+08,7.361449999999999797e-05,7.312069999999999941e-05
1.859330000000000000e+08,7.277539999999999443e-05,7.228369999999999370e-05
1.862780000000000000e+08,7.194130000000000186e-05,7.145189999999999940e-05
1.866240000000000000e+08,7.111239999999999358e-05,7.062519999999999595e-05
1.869700000000000000e+08,7.028860000000000327e-05,6.980359999999999690e-05
1.873150000000000000e+08,6.946990000000000381e-05,6.898719999999999570e-05
1.876610000000000000e+08,6.865629999999999520e-05,6.817580000000000547e-05
1.880060000000000000e+08,6.784769999999999755e-05,6.736950000000000609e-05
1.883520000000000000e+08,6.704420000000000431e-05,6.656820000000000413e-05
1.886980000000000000e+08,6.624580000000000193e-05,6.577200000000000657e-05
1.890430000000000000e+08,6.545250000000000395e-05,6.498089999999999986e-05
1.893890000000000000e+08,6.466409999999999639e-05,6.419480000000000412e-05
1.897340000000000000e+08,6.388079999999999323e-05,6.341370000000000578e-05
1.900800000000000000e+08,6.310250000000000104e-05,6.263760000000000486e-05
1.904260000000000000e+08,6.232920000000000626e-05,6.186659999999999480e-05
1.907710000000000000e+08,6.156089999999999533e-05,6.110050000000000225e-05
1.911170000000000000e+08,6.079770000000000237e-05,6.033950000000000056e-05
1.914620000000000000e+08,6.003929999999999960e-05,5.958340000000000283e-05
1.918080000000000000e+08,5.928600000000000124e-05,5.883230000000000252e-05
1.921540000000000000e+08,5.853760000000000007e-05,5.808619999999999962e-05
1.924990000000000000e+08,5.779410000000000287e-05,5.734500000000000068e-05
1.928450000000000000e+08,5.705560000000000308e-05,5.660879999999999916e-05
1.931900000000000000e+08,5.632210000000000070e-05,5.587750000000000160e-05
1.935360000000000000e+08,5.559350000000000229e-05,5.515110000000000124e-05
1.938820000000000000e+08,5.486980000000000107e-05,5.442969999999999829e-05
1.942270000000000000e+08,5.415099999999999704e-05,5.371319999999999930e-05
1.945730000000000000e+08,5.343709999999999698e-05,5.300159999999999751e-05
1.949180000000000000e+08,5.272820000000000111e-05,5.229489999999999969e-05
1.952640000000000000e+08,5.202410000000000221e-05,5.159309999999999905e-05
1.956100000000000000e+08,5.132500000000000072e-05,5.089630000000000261e-05
1.959550000000000000e+08,5.063070000000000298e-05,5.020430000000000313e-05
1.963010000000000000e+08,4.994130000000000243e-05,4.951710000000000063e-05
1.966460000000000000e+08,4.925669999999999886e-05,4.883490000000000232e-05
1.969920000000000000e+08,4.857709999999999947e-05,4.815760000000000120e-05
1.973380000000000000e+08,4.790229999999999705e-05,4.748509999999999705e-05
1.976830000000000000e+08,4.723239999999999860e-05,4.681749999999999687e-05
1.980290000000000000e+08,4.656729999999999713e-05,4.615480000000000065e-05
1.983740000000000000e+08,4.590709999999999962e-05,4.549690000000000141e-05
1.987200000000000000e+08,4.525169999999999909e-05,4.484389999999999937e-05
1.990660000000000000e+08,4.460120000000000252e-05,4.419570000000000106e-05
1.994110000000000000e+08,4.395560000000000314e-05,4.355239999999999996e-05
1.997570000000000000e+08,4.331470000000000052e-05,4.291390000000000260e-05
2.001020000000000000e+08,4.267870000000000187e-05,4.228030000000000243e-05
2.004480000000000000e+08,4.204760000000000041e-05,4.165149999999999923e-05
2.007940000000000000e+08,4.142130000000000269e-05,4.102760000000000001e-05
2.011390000000000000e+08,4.079980000000000195e-05,4.040849999999999775e-05
2.014850000000000000e+08,4.018309999999999818e-05,3.979429999999999946e-05
2.018300000000000000e+08,3.957129999999999838e-05,3.918489999999999815e-05
2.021760000000000000e+08,3.896430000000000233e-05,3.858030000000000058e-05
2.025220000000000000e+08,3.836219999999999669e-05,3.798060000000000021e-05
2.028670000000000000e+08,3.776490000000000158e-05,3.738569999999999681e-05
2.032130000000000000e+08,3.717239999999999667e-05,3.679569999999999738e-05
2.035580000000000000e+08,3.658470000000000228e-05,3.621050000000000169e-05
2.039040000000000000e+08,3.600189999999999830e-05,3.563010000000000298e-05
2.042500000000000000e+08,3.542389999999999808e-05,3.505460000000000146e-05
2.045950000000000000e+08,3.485070000000000160e-05,3.448399999999999713e-05
2.049410000000000000e+08,3.428240000000000231e-05,3.391810000000000311e-05
2.052860000000000000e+08,3.371890000000000000e-05,3.335719999999999972e-05
2.056320000000000000e+08,3.316030000000000166e-05,3.280110000000000008e-05
2.059780000000000000e+08,3.260650000000000028e-05,3.224979999999999741e-05
2.063230000000000000e+08,3.205750000000000266e-05,3.170339999999999872e-05
2.066690000000000000e+08,3.151340000000000223e-05,3.116189999999999721e-05
2.070140000000000000e+08,3.097419999999999899e-05,3.062519999999999945e-05
2.073600000000000000e+08,3.043979999999999950e-05,3.009339999999999888e-05
2.077060000000000000e+08,2.991020000000000037e-05,2.956639999999999868e-05
2.080510000000000000e+08,2.938549999999999843e-05,2.904439999999999927e-05
2.083970000000000000e+08,2.886570000000000046e-05,2.852720000000000022e-05
2.087420000000000000e+08,2.835079999999999968e-05,2.801480000000000154e-05
2.090880000000000000e+08,2.784069999999999926e-05,2.750740000000000026e-05
2.094340000000000000e+08,2.733549999999999942e-05,2.700489999999999957e-05
2.097790000000000000e+08,2.683520000000000016e-05,2.650729999999999946e-05
2.101250000000000000e+08,2.633980000000000148e-05,2.601459999999999992e-05
2.104700000000000000e+08,2.584919999999999978e-05,2.552670000000000075e-05
2.108160000000000000e+08,2.536359999999999887e-05,2.504379999999999898e-05
2.111620000000000000e+08,2.488289999999999854e-05,2.456580000000000119e-05
2.115070000000000000e+08,2.440709999999999879e-05,2.409280000000000080e-05
2.118530000000000000e+08,2.393619999999999963e-05,2.362460000000000078e-05
2.121980000000000000e+08,2.347020000000000104e-05,2.316149999999999839e-05
2.125440000000000000e+08,2.300909999999999964e-05,2.270319999999999974e-05
2.128900000000000000e+08,2.255299999999999905e-05,2.224989999999999851e-05
2.132350000000000000e+08,2.210179999999999903e-05,2.180150000000000124e-05
2.135810000000000000e+08,2.165559999999999981e-05,2.135820000000000161e-05
2.139260000000000000e+08,2.121430000000000117e-05,2.091969999999999895e-05
2.142720000000000000e+08,2.077799999999999995e-05,2.048630000000000069e-05
2.146180000000000000e+08,2.034659999999999930e-05,2.005779999999999963e-05
2.149630000000000000e+08,1.992019999999999945e-05,1.963429999999999936e-05
2.153090000000000000e+08,1.949880000000000040e-05,1.921579999999999989e-05
2.156540000000000000e+08,1.908229999999999855e-05,1.880230000000000123e-05
2.160000000000000000e+08,1.867090000000000110e-05,1.839379999999999997e-05
