time,Cumulative,Global
4.065880000000000291e+04,0.000000000000000000e+00,0.000000000000000000e+00
6.226519999999999709e+04,0.000000000000000000e+00,0.000000000000000000e+00
8.454500000000000000e+04,0.000000000000000000e+00,0.000000000000000000e+00
1.075440000000000000e+05,0.000000000000000000e+00,0.000000000000000000e+00
1.312450000000000000e+05,0.000000000000000000e+00,0.000000000000000000e+00
1.556950000000000000e+05,0.000000000000000000e+00,0.000000000000000000e+00
1.809460000000000000e+05,0.000000000000000000e+00,0.000000000000000000e+00
2.069740000000000000e+05,0.000000000000000000e+00,0.000000000000000000e+00
2.339170000000000000e+05,0.000000000000000000e+00,0.000000000000000000e+00
2.616590000000000000e+05,0.000000000000000000e+00,0.000000000000000000e+00
2.903520000000000000e+05,0.000000000000000000e+00,0.000000000000000000e+00
3.199610000000000000e+05,0.000000000000000000e+00,0.000000000000000000e+00
3.506620000000000000e+05,0.000000000000000000e+00,0.000000000000000000e+00
3.824220000000000000e+05,0.000000000000000000e+00,0.000000000000000000e+00
4.151900000000000000e+05,0.000000000000000000e+00,0.000000000000000000e+00
4.491770000000000000e+05,0.000000000000000000e+00,0.000000000000000000e+00
4.843310000000000000e+05,0.000000000000000000e+00,0.000000000000000000e+00
5.207400000000000000e+05,0.000000000000000000e+00,0.000000000000000000e+00
5.585040000000000000e+05,0.000000000000000000e+00,0.000000000000000000e+00
5.975450000000000000e+05,0.000000000000000000e+00,0.000000000000000000e+00
6.381640000000000000e+05,0.000000000000000000e+00,0.000000000000000000e+00
6.802790000000000000e+05,0.000000000000000000e+00,0.000000000000000000e+00
7.240130000000000000e+05,0.000000000000000000e+00,0.000000000000000000e+00
7.695080000000000000e+05,0.000000000000000000e+00,0.000000000000000000e+00
8.169200000000000000e+05,0.000000000000000000e+00,0.000000000000000000e+00
8.661220000000000000e+05,0.000000000000000000e+00,0.000000000000000000e+00
9.176050000000000000e+05,0.000000000000000000e+00,0.000000000000000000e+00
9.712320000000000000e+05,0.000000000000000000e+00,0.000000000000000000e+00
1.027210000000000000e+06,0.000000000000000000e+00,0.000000000000000000e+00
1.085770000000000000e+06,0.000000000000000000e+00,0.000000000000000000e+00
1.146690000000000000e+06,0.000000000000000000e+00,0.000000000000000000e+00
1.210740000000000000e+06,0.000000000000000000e+00,0.000000000000000000e+00
1.277670000000000000e+06,0.000000000000000000e+00,0.000000000000000000e+00
1.346470000000000000e+06,0.000000000000000000e+00,0.000000000000000000e+00
1.416600000000000000e+06,0.000000000000000000e+00,0.000000000000000000e+00
1.488120000000000000e+06,0.000000000000000000e+00,0.000000000000000000e+00
1.561100000000000000e+06,0.000000000000000000e+00,0.000000000000000000e+00
1.635610000000000000e+06,0.000000000000000000e+00,0.000000000000000000e+00
1.712590000000000000e+06,0.000000000000000000e+00,0.000000000000000000e+00
1.791310000000000000e+06,0.000000000000000000e+00,0.000000000000000000e+00
1.871880000000000000e+06,0.000000000000000000e+00,0.000000000000000000e+00
1.955440000000000000e+06,0.000000000000000000e+00,0.000000000000000000e+00
2.041140000000000000e+06,0.000000000000000000e+00,0.000000000000000000e+00
2.129120000000000000e+06,0.000000000000000000e+00,0.000000000000000000e+00
2.219550000000000000e+06,0.000000000000000000e+00,0.000000000000000000e+00
2.313970000000000000e+06,0.000000000000000000e+00,0.000000000000000000e+00
2.411290000000000000e+06,0.000000000000000000e+00,0.000000000000000000e+00
2.511750000000000000e+06,0.000000000000000000e+00,0.000000000000000000e+00
2.615620000000000000e+06,0.000000000000000000e+00,0.000000000000000000e+00
2.721310000000000000e+06,0.000000000000000000e+00,0.000000000000000000e+00
2.828930000000000000e+06,0.000000000000000000e+00,0.000000000000000000e+00
2.938570000000000000e+06,0.000000000000000000e+00,0.000000000000000000e+00
3.050360000000000000e+06,0.000000000000000000e+00,0.000000000000000000e+00
3.164440000000000000e+06,0.000000000000000000e+00,0.000000000000000000e+00
3.283470000000000000e+06,0.000000000000000000e+00,0.000000000000000000e+00
3.405210000000000000e+06,0.000000000000000000e+00,0.000000000000000000e+00
3.529850000000000000e+06,0.000000000000000000e+00,0.000000000000000000e+00
3.657600000000000000e+06,0.000000000000000000e+00,0.000000000000000000e+00
3.788720000000000000e+06,0.000000000000000000e+00,0.000000000000000000e+00
3.923470000000000000e+06,0.000000000000000000e+00,0.000000000000000000e+00
4.062200000000000000e+06,0.000000000000000000e+00,0.000000000000000000e+00
4.200920000000000000e+06,0.000000000000000000e+00,0.000000000000000000e+00
4.344110000000000000e+06,0.000000000000000000e+00,0.000000000000000000e+00
4.492250000000000000e+06,0.000000000000000000e+00,0.000000000000000000e+00
4.640380000000000000e+06,0.000000000000000000e+00,0.000000000000000000e+00
4.794210000000000000e+06,0.000000000000000000e+00,0.000000000000000000e+00
4.948040000000000000e+06,0.000000000000000000e+00,0.000000000000000000e+00
5.108560000000000000e+06,0.000000000000000000e+00,0.000000000000000000e+00
5.276730000000000000e+06,0.000000000000000000e+00,0.000000000000000000e+00
5.444890000000000000e+06,0.000000000000000000e+00,0.000000000000000000e+00
5.613060000000000000e+06,0.000000000000000000e+00,0.000000000000000000e+00
5.791110000000000000e+06,0.000000000000000000e+00,0.000000000000000000e+00
5.969170000000000000e+06,0.000000000000000000e+00,0.000000000000000000e+00
6.147220000000000000e+06,0.000000000000000000e+00,0.000000000000000000e+00
6.325280000000000000e+06,0.000000000000000000e+00,0.000000000000000000e+00
6.518170000000000000e+06,0.000000000000000000e+00,0.000000000000000000e+00
6.711060000000000000e+06,0.000000000000000000e+00,0.000000000000000000e+00
6.903960000000000000e+06,0.000000000000000000e+00,0.000000000000000000e+00
7.096850000000000000e+06,0.000000000000000000e+00,0.000000000000000000e+00
7.289750000000000000e+06,0.000000000000000000e+00,0.000000000000000000e+00
7.482640000000000000e+06,0.000000000000000000e+00,0.000000000000000000e+00
7.675530000000000000e+06,0.000000000000000000e+00,0.000000000000000000e+00
7.868430000000000000e+06,0.000000000000000000e+00,0.000000000000000000e+00
8.061320000000000000e+06,0.000000000000000000e+00,0.000000000000000000e+00
8.254210000000000000e+06,0.000000000000000000e+00,0.000000000000000000e+00
8.447110000000000000e+06,0.000000000000000000e+00,0.000000000000000000e+00
8.640000000000000000e+06,0.000000000000000000e+00,0.000000000000000000e+00
8.880000000000000000e+06,0.000000000000000000e+00,0.000000000000000000e+00
9.127060000000000000e+06,0.000000000000000000e+00,0.000000000000000000e+00
9.381840000000000000e+06,0.000000000000000000e+00,0.000000000000000000e+00
9.636620000000000000e+06,0.000000000000000000e+00,0.000000000000000000e+00
9.900180000000000000e+06,0.000000000000000000e+00,0.000000000000000000e+00
1.016370000000000000e+07,0.000000000000000000e+00,0.000000000000000000e+00
1.043740000000000000e+07,0.000000000000000000e+00,0.000000000000000000e+00
1.071120000000000000e+07,0.000000000000000000e+00,0.000000000000000000e+00
1.099680000000000000e+07,0.000000000000000000e+00,0.000000000000000000e+00
1.128240000000000000e+07,0.000000000000000000e+00,0.000000000000000000e+00
1.158220000000000000e+07,0.000000000000000000e+00,0.000000000000000000e+00
1.188210000000000000e+07,0.000000000000000000e+00,0.000000000000000000e+00
1.218200000000000000e+07,0.000000000000000000e+00,0.000000000000000000e+00
1.250060000000000000e+07,0.000000000000000000e+00,0.000000000000000000e+00
1.281930000000000000e+07,0.000000000000000000e+00,0.000000000000000000e+00
1.313790000000000000e+07,0.000000000000000000e+00,0.000000000000000000e+00
1.345650000000000000e+07,0.000000000000000000e+00,0.000000000000000000e+00
1.377510000000000000e+07,0.000000000000000000e+00,0.000000000000000000e+00
1.412560000000000000e+07,0.000000000000000000e+00,0.000000000000000000e+00
1.447610000000000000e+07,0.000000000000000000e+00,0.000000000000000000e+00
1.482660000000000000e+07,0.000000000000000000e+00,0.000000000000000000e+00
1.517710000000000000e+07,0.000000000000000000e+00,0.000000000000000000e+00
1.552760000000000000e+07,0.000000000000000000e+00,0.000000000000000000e+00
1.587810000000000000e+07,0.000000000000000000e+00,0.000000000000000000e+00
1.622850000000000000e+07,0.000000000000000000e+00,0.000000000000000000e+00
1.657900000000000000e+07,0.000000000000000000e+00,0.000000000000000000e+00
1.692950000000000000e+07,0.000000000000000000e+00,0.000000000000000000e+00
1.728000000000000000e+07,0.000000000000000000e+00,0.000000000000000000e+00
1.769140000000000000e+07,0.000000000000000000e+00,0.000000000000000000e+00
1.810290000000000000e+07,0.000000000000000000e+00,0.000000000000000000e+00
1.853710000000000000e+07,0.000000000000000000e+00,0.000000000000000000e+00
1.897140000000000000e+07,0.000000000000000000e+00,0.000000000000000000e+00
1.940570000000000000e+07,0.000000000000000000e+00,0.000000000000000000e+00
1.987100000000000000e+07,0.000000000000000000e+00,0.000000000000000000e+00
2.033630000000000000e+07,0.000000000000000000e+00,0.000000000000000000e+00
2.080160000000000000e+07,0.000000000000000000e+00,0.000000000000000000e+00
2.126690000000000000e+07,0.000000000000000000e+00,0.000000000000000000e+00
2.173220000000000000e+07,0.000000000000000000e+00,0.000000000000000000e+00
2.219760000000000000e+07,0.000000000000000000e+00,0.000000000000000000e+00
2.266290000000000000e+07,0.000000000000000000e+00,0.000000000000000000e+00
2.312820000000000000e+07,0.000000000000000000e+00,0.000000000000000000e+00
2.359350000000000000e+07,0.000000000000000000e+00,0.000000000000000000e+00
2.405880000000000000e+07,0.000000000000000000e+00,0.000000000000000000e+00
2.452410000000000000e+07,0.000000000000000000e+00,0.000000000000000000e+00
2.498940000000000000e+07,0.000000000000000000e+00,0.000000000000000000e+00
2.545470000000000000e+07,0.000000000000000000e+00,0.000000000000000000e+00
2.592000000000000000e+07,0.000000000000000000e+00,0.000000000000000000e+00
2.649600000000000000e+07,0.000000000000000000e+00,0.000000000000000000e+00
2.707200000000000000e+07,0.000000000000000000e+00,0.000000000000000000e+00
2.764800000000000000e+07,0.000000000000000000e+00,0.000000000000000000e+00
2.822400000000000000e+07,0.000000000000000000e+00,0.000000000000000000e+00
2.885760000000000000e+07,0.000000000000000000e+00,0.000000000000000000e+00
2.949120000000000000e+07,0.000000000000000000e+00,0.000000000000000000e+00
3.012480000000000000e+07,0.000000000000000000e+00,0.000000000000000000e+00
3.075840000000000000e+07,0.000000000000000000e+00,0.000000000000000000e+00
3.139200000000000000e+07,0.000000000000000000e+00,0.000000000000000000e+00
3.202560000000000000e+07,0.000000000000000000e+00,0.000000000000000000e+00
3.265920000000000000e+07,0.000000000000000000e+00,0.000000000000000000e+00
3.329280000000000000e+07,0.000000000000000000e+00,0.000000000000000000e+00
3.392640000000000000e+07,0.000000000000000000e+00,0.000000000000000000e+00
3.456000000000000000e+07,0.000000000000000000e+00,0.000000000000000000e+00
3.528000000000000000e+07,0.000000000000000000e+00,0.000000000000000000e+00
3.600000000000000000e+07,0.000000000000000000e+00,0.000000000000000000e+00
3.672000000000000000e+07,0.000000000000000000e+00,0.000000000000000000e+00
3.744000000000000000e+07,0.000000000000000000e+00,0.000000000000000000e+00
3.816000000000000000e+07,0.000000000000000000e+00,0.000000000000000000e+00
3.888000000000000000e+07,0.000000000000000000e+00,0.000000000000000000e+00
3.960000000000000000e+07,0.000000000000000000e+00,0.000000000000000000e+00
4.032000000000000000e+07,0.000000000000000000e+00,0.000000000000000000e+00
4.104000000000000000e+07,0.000000000000000000e+00,0.000000000000000000e+00
4.176000000000000000e+07,0.000000000000000000e+00,0.000000000000000000e+00
4.248000000000000000e+07,0.000000000000000000e+00,0.000000000000000000e+00
4.320000000000000000e+07,0.000000000000000000e+00,0.000000000000000000e+00
4.406400000000000000e+07,0.000000000000000000e+00,0.000000000000000000e+00
4.492800000000000000e+07,0.000000000000000000e+00,0.000000000000000000e+00
4.579200000000000000e+07,0.000000000000000000e+00,0.000000000000000000e+00
4.665600000000000000e+07,0.000000000000000000e+00,0.000000000000000000e+00
4.752000000000000000e+07,0.000000000000000000e+00,0.000000000000000000e+00
4.838400000000000000e+07,0.000000000000000000e+00,0.000000000000000000e+00
4.924800000000000000e+07,0.000000000000000000e+00,0.000000000000000000e+00
5.011200000000000000e+07,0.000000000000000000e+00,0.000000000000000000e+00
5.097600000000000000e+07,0.000000000000000000e+00,0.000000000000000000e+00
5.184000000000000000e+07,0.000000000000000000e+00,0.000000000000000000e+00
5.280000000000000000e+07,0.000000000000000000e+00,0.000000000000000000e+00
5.376000000000000000e+07,0.000000000000000000e+00,0.000000000000000000e+00
5.472000000000000000e+07,0.000000000000000000e+00,0.000000000000000000e+00
5.568000000000000000e+07,0.000000000000000000e+00,0.000000000000000000e+00
5.664000000000000000e+07,0.000000000000000000e+00,0.000000000000000000e+00
5.760000000000000000e+07,0.000000000000000000e+00,0.000000000000000000e+00
5.856000000000000000e+07,0.000000000000000000e+00,0.000000000000000000e+00
5.952000000000000000e+07,0.000000000000000000e+00,0.000000000000000000e+00
6.048000000000000000e+07,0.000000000000000000e+00,0.000000000000000000e+00
6.156000000000000000e+07,0.000000000000000000e+00,0.000000000000000000e+00
6.264000000000000000e+07,0.000000000000000000e+00,0.000000000000000000e+00
6.372000000000000000e+07,0.000000000000000000e+00,0.000000000000000000e+00
6.480000000000000000e+07,0.000000000000000000e+00,0.000000000000000000e+00
6.588000000000000000e+07,0.000000000000000000e+00,0.000000000000000000e+00
6.696000000000000000e+07,0.000000000000000000e+00,0.000000000000000000e+00
6.804000000000000000e+07,0.000000000000000000e+00,0.000000000000000000e+00
6.912000000000000000e+07,0.000000000000000000e+00,0.000000000000000000e+00
7.035430000000000000e+07,0.000000000000000000e+00,0.000000000000000000e+00
7.158860000000000000e+07,0.000000000000000000e+00,0.000000000000000000e+00
7.282290000000000000e+07,0.000000000000000000e+00,0.000000000000000000e+00
7.381030000000000000e+07,0.000000000000000000e+00,0.000000000000000000e+00
7.512690000000000000e+07,0.000000000000000000e+00,0.000000000000000000e+00
7.644340000000000000e+07,0.000000000000000000e+00,0.000000000000000000e+00
7.776000000000000000e+07,0.000000000000000000e+00,0.000000000000000000e+00
7.920000000000000000e+07,0.000000000000000000e+00,0.000000000000000000e+00
8.064000000000000000e+07,0.000000000000000000e+00,0.000000000000000000e+00
8.208000000000000000e+07,0.000000000000000000e+00,0.000000000000000000e+00
8.352000000000000000e+07,0.000000000000000000e+00,0.000000000000000000e+00
8.496000000000000000e+07,0.000000000000000000e+00,0.000000000000000000e+00
8.640000000000000000e+07,0.000000000000000000e+00,0.000000000000000000e+00
8.784000000000000000e+07,0.000000000000000000e+00,0.000000000000000000e+00
8.928000000000000000e+07,0.000000000000000000e+00,0.000000000000000000e+00
9.072000000000000000e+07,0.000000000000000000e+00,0.000000000000000000e+00
9.216000000000000000e+07,0.000000000000000000e+00,0.000000000000000000e+00
9.360000000000000000e+07,0.000000000000000000e+00,0.000000000000000000e+00
9.504000000000000000e+07,0.000000000000000000e+00,0.000000000000000000e+00
9.676800000000000000e+07,0.000000000000000000e+00,0.000000000000000000e+00
9.849600000000000000e+07,0.000000000000000000e+00,0.000000000000000000e+00
1.002240000000000000e+08,0.000000000000000000e+00,0.000000000000000000e+00
1.019520000000000000e+08,0.000000000000000000e+00,0.000000000000000000e+00
1.036800000000000000e+08,0.000000000000000000e+00,0.000000000000000000e+00
1.054080000000000000e+08,0.000000000000000000e+00,0.000000000000000000e+00
1.071360000000000000e+08,0.000000000000000000e+00,0.000000000000000000e+00
1.088640000000000000e+08,0.000000000000000000e+00,0.000000000000000000e+00
1.105920000000000000e+08,0.000000000000000000e+00,0.000000000000000000e+00
1.123200000000000000e+08,0.000000000000000000e+00,0.000000000000000000e+00
1.140480000000000000e+08,0.000000000000000000e+00,0.000000000000000000e+00
1.157760000000000000e+08,0.000000000000000000e+00,0.000000000000000000e+00
1.175040000000000000e+08,0.000000000000000000e+00,0.000000000000000000e+00
1.192320000000000000e+08,0.000000000000000000e+00,0.000000000000000000e+00
1.209600000000000000e+08,0.000000000000000000e+00,0.000000000000000000e+00
1.231200000000000000e+08,0.000000000000000000e+00,0.000000000000000000e+00
1.252800000000000000e+08,0.000000000000000000e+00,0.000000000000000000e+00
1.274400000000000000e+08,0.000000000000000000e+00,0.000000000000000000e+00
1.296000000000000000e+08,0.000000000000000000e+00,0.000000000000000000e+00
1.317600000000000000e+08,0.000000000000000000e+00,0.000000000000000000e+00
1.339200000000000000e+08,0.000000000000000000e+00,0.000000000000000000e+00
1.360800000000000000e+08,0.000000000000000000e+00,0.000000000000000000e+00
1.382400000000000000e+08,0.000000000000000000e+00,0.000000000000000000e+00
1.404000000000000000e+08,0.000000000000000000e+00,0.000000000000000000e+00
1.425600000000000000e+08,0.000000000000000000e+00,0.000000000000000000e+00
1.447200000000000000e+08,0.000000000000000000e+00,0.000000000000000000e+00
1.468800000000000000e+08,0.000000000000000000e+00,0.000000000000000000e+00
1.490400000000000000e+08,0.000000000000000000e+00,0.000000000000000000e+00
1.512000000000000000e+08,0.000000000000000000e+00,0.000000000000000000e+00
1.533600000000000000e+08,0.000000000000000000e+00,0.000000000000000000e+00
1.555200000000000000e+08,0.000000000000000000e+00,0.000000000000000000e+00
1.576800000000000000e+08,0.000000000000000000e+00,0.000000000000000000e+00
1.598400000000000000e+08,0.000000000000000000e+00,0.000000000000000000e+00
1.620000000000000000e+08,0.000000000000000000e+00,0.000000000000000000e+00
1.641600000000000000e+08,0.000000000000000000e+00,0.000000000000000000e+00
1.670400000000000000e+08,0.000000000000000000e+00,0.000000000000000000e+00
1.699200000000000000e+08,0.000000000000000000e+00,0.000000000000000000e+00
1.728000000000000000e+08,0.000000000000000000e+00,0.000000000000000000e+00
1.756800000000000000e+08,0.000000000000000000e+00,0.000000000000000000e+00
1.785600000000000000e+08,0.000000000000000000e+00,0.000000000000000000e+00
1.814400000000000000e+08,0.000000000000000000e+00,0.000000000000000000e+00
1.843200000000000000e+08,0.000000000000000000e+00,0.000000000000000000e+00
1.872000000000000000e+08,0.000000000000000000e+00,0.000000000000000000e+00
1.900800000000000000e+08,0.000000000000000000e+00,0.000000000000000000e+00
1.929600000000000000e+08,0.000000000000000000e+00,0.000000000000000000e+00
1.958400000000000000e+08,0.000000000000000000e+00,0.000000000000000000e+00
1.987200000000000000e+08,0.000000000000000000e+00,0.000000000000000000e+00
2.016000000000000000e+08,0.000000000000000000e+00,0.000000000000000000e+00
2.044800000000000000e+08,0.000000000000000000e+00,0.000000000000000000e+00
2.073600000000000000e+08,0.000000000000000000e+00,0.000000000000000000e+00
2.102400000000000000e+08,0.000000000000000000e+00,0.000000000000000000e+00
2.131200000000000000e+08,0.000000000000000000e+00,0.000000000000000000e+00
2.160000000000000000e+08,0.000000000000000000e+00,0.000000000000000000e+00
